0,-2.2910073825291226,2.921923960958208,7.6650892325810025,-0.8125373337950025,-1.1038999259471893,-0.2257786520889827
20,-1.961085639216683,2.610571406104348,8.623159300197255,-0.8321516107429158,-1.2067011296749115,-0.1951645721088756
40,-1.8020127813021343,2.4430796980857847,9.172286494572957,-0.7625112116336823,-1.230226864417394,-0.1760646492242813
60,-1.6284873046373065,2.414053744391391,9.244775784643073,-0.6951830293002882,-1.229451940247887,-0.1669410953396245
80,-1.4308968420992507,2.3809552674597882,8.973272272881042,-0.6991186116604095,-1.2798964355854279,-0.17730634675381032
100,-1.189149025692181,2.3767303921959617,8.661523168737238,-0.7715633110566573,-1.4157340147278525,-0.17154850648208098
120,-0.8209214951429102,2.4112145238452487,8.546190360235789,-0.8633163372675577,-1.5767195234223017,-0.17087149217961325
140,-0.3443431067739574,2.370934499821193,8.402875772664245,-0.9468607214135183,-1.5432048272079146,-0.20069207964648664
160,-0.04311035427300236,2.170433483169049,8.170654936681819,-1.0427322976196869,-1.3304342015445987,-0.23637974431997613
180,0.033750506096530235,2.0653327898732545,7.926854276109016,-1.1658297420918255,-1.0751296500193661,-0.24392949353004323
200,0.0507744158961271,1.994421083362479,7.912438954805073,-1.2987792880911575,-0.9022161197505499,-0.24500473063243064
220,0.05961971194709389,1.8668131654702345,8.161296788928578,-1.3866529568885138,-0.8712477059040254,-0.22866186063094698
240,0.11983728885382146,1.6836340694545626,8.602047439094063,-1.382637117897068,-0.8952520935385077,-0.180806987837108
260,0.30708579299580147,1.5180801726689859,9.063156801111559,-1.2844466787426412,-0.9059447966703847,-0.13052409947771548
280,0.648390276636195,1.5717363466076024,9.20694577975536,-1.1981318017511855,-0.8855384766586184,-0.15354512958406052
300,0.8987887739583298,1.6332614621078527,9.438861069855866,-1.1816030111025881,-0.8344406849946137,-0.22920387197734304
320,0.9682532122048239,1.6254199913495944,9.965144448810154,-1.1562295139560268,-0.7936161345828118,-0.31278116305960185
340,1.081319848516662,1.6145583662253462,10.415057985406174,-1.110556314503284,-0.7683493799995631,-0.3814614380688382
360,1.231878351001069,1.5631993760820477,10.876323008537293,-1.0597864888375625,-0.7314279683603673,-0.466895927938458
380,1.2804231185554749,1.4200185448197382,11.455293337504068,-0.9874992707655543,-0.6853284796539117,-0.5644148038991261
400,1.2132951762654225,1.1839289647865703,12.032660256732594,-0.8588785424151204,-0.6444064338707407,-0.6565364901338895
420,1.0922591196899505,0.8880836895221601,12.411512364511905,-0.6888476846658665,-0.6091183561846897,-0.7282928426651304
440,0.9450348332951156,0.5780729163670912,12.582984060049057,-0.5158835776771108,-0.5517205918998419,-0.776667402190166
460,0.7443721034936607,0.25897347297519446,12.597899050712586,-0.3558750930428505,-0.45924419881543144,-0.800226233365247
480,0.5023093134558831,-0.04260371199164253,12.48376346551455,-0.21232589649466369,-0.3478515354643325,-0.7921198364224088
500,0.2701271708744268,-0.30143982975709216,12.282481171466687,-0.08538729200760524,-0.24741526115125184,-0.7536152106918895
520,0.07454498988642756,-0.5129404975700059,12.0193204666887,0.027783327602914402,-0.17207704645573227,-0.6921115557166299
540,-0.07071501300830779,-0.6830141742488948,11.702850478990324,0.1268883889605259,-0.11450657198518707,-0.6158035718324064
560,-0.17290045297704637,-0.8116521907659868,11.332474457627784,0.2082233615219593,-0.06193704209096419,-0.5324054819502635
580,-0.2739171395489729,-0.9059522413166172,10.880968531242097,0.2710219777252779,-0.006462108671111634,-0.43220315804521753
600,-0.3325815523325933,-0.9494155991228174,10.480624530362944,0.2999086071545048,0.034904197019666204,-0.3381181089941354
620,-0.3415569066298458,-0.9661418773374467,10.090262882017864,0.30555892463000317,0.06423176368347035,-0.24500640492693013
640,-0.31165082674923833,-0.9647103936953859,9.720902157599454,0.2900781163454547,0.08304719019838142,-0.15884043639031112
660,-0.26834447054835403,-0.945240092049502,9.370714590032966,0.25547379396153197,0.09700977610212044,-0.07935110039203642
680,-0.20262362711312037,-0.9134389360154943,9.038588605769572,0.2006819664072052,0.10758226129120042,-0.00576830423069686
700,-0.10515506413799745,-0.8740934566108617,8.755353098791657,0.12853729797947386,0.11193246852374489,0.06001978834404262
720,0.02944696698276723,-0.8301373574669,8.516752616328294,0.044231481560063166,0.10924201454188613,0.11475665161584611
740,0.19539687814661108,-0.7873110498001162,8.327873488513236,-0.05071250820300354,0.0942888011651548,0.156459733536586
760,0.3842775465752291,-0.7465895420938405,8.204979111031394,-0.1537437591893233,0.06360748245792806,0.1863889228400261
780,0.6282934890213338,-0.7135852085003122,8.131440001116557,-0.2783346137060135,0.02448741949770148,0.2087883926046109
800,0.8611583660891247,-0.6893688417315351,8.146056965544556,-0.3990557621144993,-9.248535935463902E-4,0.2173867471889488
820,1.107246656003112,-0.6762953949028981,8.335789672492039,-0.5171546981443861,-0.021967737722167518,0.21174674907179733
840,1.3624008369163774,-0.6563436245074822,8.7007139041641,-0.606513112675567,-0.04702926142664763,0.18722301594962992
860,1.592396955515222,-0.6334496082915559,9.1520316063411,-0.6552660014681024,-0.07846201509327334,0.14542946309682228
880,1.7918630735797656,-0.6233006188155127,9.625247288012021,-0.6697367897483747,-0.11268572732491569,0.09136155690381152
900,1.9337312563879308,-0.6422707639479389,10.088747728694841,-0.660794735760502,-0.13565502916622868,0.031697027342734004
920,2.0144969373651893,-0.692830779619872,10.529871325669665,-0.6321419977940078,-0.13508366057685445,-0.02525840267608994
940,2.055960238329726,-0.7715488843924749,10.91431112604471,-0.5803423518017123,-0.11439821186184713,-0.07687140653574093
960,2.0658057234643854,-0.869666181019373,11.184324627732904,-0.5077555230170007,-0.08279563228666913,-0.12351393336673448
980,2.0452416273242817,-0.9787452170727547,11.331538849578399,-0.42395025202550174,-0.04589443397310721,-0.16542237495787715
1000,1.9909374290658384,-1.0901120948843641,11.379265395309508,-0.3340075595112758,-0.010184003563227942,-0.20158156503323893
1020,1.9135532288466681,-1.19611553371744,11.326104052417294,-0.24421219844065012,0.022037160353835655,-0.22999980773158074
1040,1.8216684570514607,-1.293200487032233,11.175139572103133,-0.1527554915018979,0.05416290635275173,-0.2510358502836791
1060,1.749478049954698,-1.3599602704495612,10.981829987977617,-0.08417690339924991,0.08198492237656854,-0.2615081789692061
1080,1.6846812444340495,-1.4043949064654102,10.750696143147819,-0.029279128689641037,0.1086132292333214,-0.26703614102492723
1100,1.6238024457071731,-1.4281726461969122,10.496437033812855,0.011787496346874824,0.12931423235232162,-0.2699414903327441
1120,1.558978288942984,-1.4428582964255625,10.233400897771057,0.039903721907744445,0.14120701777278116,-0.2703726942929174
1140,1.4955208551491561,-1.4572812107332835,9.960054687214525,0.0552932927345759,0.14433743889639644,-0.26654625700737694
1160,1.4400563863478215,-1.4626974989756494,9.682156934516646,0.056138259593944986,0.1372408402400405,-0.2580782487380124
1180,1.3927600178829642,-1.4578011369118333,9.418378112773182,0.042479160241782665,0.1216017080193307,-0.24552640987535496
1200,1.34804568562903,-1.4441824411433974,9.16842312374729,0.014657073486260398,0.10047271872951637,-0.22878828550173802
1220,1.313198245804632,-1.4225471852415221,8.94462832286807,-0.02763247971755454,0.07207146523407207,-0.20719953572985586
1240,1.3060190640895288,-1.3982273158933174,8.740976895025188,-0.09017653578293128,0.030095312439648966,-0.17769353502735047
1260,1.3573910944547702,-1.3858662281560405,8.603111620011335,-0.16115166178463694,-0.009947070682783792,-0.1493284400389885
1280,1.4826342055882167,-1.3892824607017218,8.547590959859185,-0.2484701285891487,-0.04357899225610332,-0.12652602103666605
1300,1.6657716380432248,-1.4054684852896673,8.665012486403187,-0.33912642322032266,-0.07432751394952464,-0.11886611231300911
1320,1.8603533567507229,-1.4239091009341764,8.932575350763262,-0.40833040016676114,-0.10595792101117615,-0.12858002527700194
1340,2.0301323657614185,-1.4362708765187588,9.238012858927785,-0.4483911074520417,-0.13058157087102013,-0.1527240557027411
1360,2.1515174859157162,-1.4465918610498296,9.528441222490255,-0.4625809952494497,-0.14441405219685752,-0.1857195337858639
1380,2.224588033222183,-1.454765074924644,9.746398405243571,-0.4578454385371553,-0.14632793699716162,-0.2209040495307328
1400,2.2668035022336346,-1.4582366116914962,9.89057217596163,-0.4437513991467783,-0.13670529056603142,-0.25500224765333956
1420,2.2843273712043355,-1.4589091050589051,9.979354366622104,-0.42374530290633594,-0.11851891369824319,-0.2883963457005396
1440,2.2766108327051437,-1.4566461212687731,10.028083826534,-0.3992716851847359,-0.09902804331272055,-0.3193639802684751
1460,2.246687032233011,-1.4546492779496378,10.046576010137303,-0.3711914903475033,-0.08538950971203742,-0.3457713906567649
1480,2.1996907455205528,-1.4506786315714055,10.041477301053181,-0.33682049524500896,-0.07497905777076927,-0.36970238368935443
1500,2.152933676701621,-1.4437610323498875,10.017499359777489,-0.3059126618400744,-0.07027734685424653,-0.38355141060671283
1520,2.1176016159403095,-1.4353184881108474,9.981694335829776,-0.281085240214197,-0.06739504769520979,-0.3903847458096856
1540,2.0796741334198035,-1.4195134755585115,9.926435213506783,-0.25435446979831816,-0.06287290936156958,-0.39405286118711286
1560,2.043705533548843,-1.4030953336586498,9.875033550541993,-0.23617392841206733,-0.05812880176334063,-0.39243249653679746
1580,2.00979925215153,-1.3803602151485705,9.828184957765785,-0.2226860442713679,-0.053916111532621463,-0.38533056726654963
1600,1.987373527855177,-1.3532766782067176,9.786187903840045,-0.21314992786507697,-0.04935414596675758,-0.3737285310721642
1620,1.9813721812203504,-1.3236331993370123,9.749555702222391,-0.2074389390032098,-0.042807380192488434,-0.3599812522469999
1640,1.9862460351963163,-1.2925181603891447,9.721006152956049,-0.20527428555875973,-0.03569860596935555,-0.3462536116168481
1660,1.9938171367249349,-1.2593188071983736,9.70721386302344,-0.2046989951473083,-0.030707565049016696,-0.3337695866133202
1680,2.000701945721243,-1.2248261752619016,9.708345138375119,-0.20266513891711638,-0.029901436553435374,-0.3224569019350165
1700,2.009828048291883,-1.1897268587990415,9.713632477896445,-0.19769845932413865,-0.031427352521008464,-0.31204219045185255
1720,2.0200337737064125,-1.1481319352138368,9.711251394901897,-0.19004987287007166,-0.03273531372225835,-0.3011034569653853
1740,2.0287217308240515,-1.1107620739872233,9.702985066609214,-0.1836062139885962,-0.033269208345383786,-0.2918334814546692
1760,2.0361955512017422,-1.0736351806469027,9.693337225439874,-0.1779017577912484,-0.03351401578244802,-0.28305172677679097
1780,2.043199735833205,-1.0367694133505663,9.684989524198244,-0.17292974996621585,-0.03385435313300846,-0.27438520601213395
1800,2.0522477830536765,-1.0000982263854723,9.679662281983704,-0.16804054891314066,-0.03435676031346636,-0.26606994822798324
1820,2.0615331370318843,-0.9694681350826889,9.675278159790984,-0.16346958838403225,-0.03423279675409919,-0.25929626010424234
1840,2.0703220469495736,-0.9345195773918836,9.666780137057112,-0.15847187606147842,-0.0331479789456641,-0.25189555832676963
1860,2.0799838810011395,-0.8955497441530063,9.657013060578556,-0.15379655858934627,-0.03161436078483754,-0.24338384034560737
1880,2.0911615764775173,-0.8597625400239327,9.651471151910163,-0.1503936422224919,-0.030683267889193087,-0.2368405445085484
1900,2.1054121467482556,-0.8230475792679174,9.646054884099671,-0.14567673842534615,-0.02946617484647509,-0.22920411127432466
1920,2.1208050466508053,-0.7856331374254549,9.63878985331217,-0.1416417316333214,-0.02779195895170774,-0.2236194140516528
1940,2.134508728803623,-0.748728757980338,9.632636898787771,-0.13776705479179335,-0.025446474662907746,-0.2192172946791774
1960,2.144546937826032,-0.7119270162489357,9.625453149460755,-0.1339739204428295,-0.023330601878467038,-0.21537241527941262
1980,2.1541642221262913,-0.6751071939774599,9.616115624300166,-0.13058774841203372,-0.02144084242790191,-0.21170584218266492
