0,-1.0075049201647441,2.4775147438049316,8.176064809163412,-0.6934527158737183,-0.8752666778034635,-0.5688492986891005
20,-0.7790857956689947,2.281185746192932,8.22477918512681,-0.8448386332568001,-1.0611588008263533,-0.5367207860245424
40,-0.665432254076004,2.1214125871658327,8.564015426635741,-0.9608246231079102,-1.144293291568756,-0.493324419260025
60,-0.5933842577717521,1.9435947194243923,8.936181184017297,-1.0153132171341868,-1.1392155361898018,-0.4391883254954309
80,-0.46159622336669665,1.86028768958115,9.174444012525605,-1.0221142187351133,-1.1204521554272349,-0.391004988696517
100,-0.2982532610850675,1.8523766142981393,9.281140989186813,-1.0229769263948714,-1.1153376698493958,-0.36317475626663287
120,-0.0661520956019903,1.8120388224207122,9.406563512210187,-1.018366530023772,-1.1492467779537727,-0.34721715440010203
140,0.16881259479983288,1.8127395619045605,9.545096744190563,-1.0130858466480717,-1.1936650754827443,-0.3380769735032862
160,0.4267666067525342,1.8850746460863061,9.803851037412077,-1.0083495217400629,-1.2699383569730294,-0.3295886653500634
180,0.744851102325611,2.0072017021295503,10.17970966711277,-0.9937807859444037,-1.3695096889647043,-0.3188398169671617
200,1.3183784552332427,2.151845310793983,10.60025045606825,-0.9573838174343109,-1.4271506011486053,-0.3382550559110112
220,2.0131361595145902,2.3791342937216466,11.195592568845164,-0.8907591343990394,-1.4188075990092999,-0.4077528078033
240,2.5853106807917356,2.5336144476566673,11.780423722177181,-0.781560913782637,-1.3378840062134671,-0.5062153166476285
260,2.993312313989328,2.539140988860214,12.182414406224302,-0.6397845642477796,-1.2014961283196484,-0.6142382806068972
280,3.283885988147288,2.5166159565331507,12.355042488848577,-0.4904766612243457,-1.0331504128751208,-0.724863485845386
300,3.381804540610084,2.481535111940824,12.308190111013559,-0.3666782894386695,-0.8829429524449202,-0.8373687850741239
320,3.38992464809638,2.496096401974775,12.159271682518115,-0.288670233356348,-0.8213305853415227,-0.9545921153132466
340,3.348107080957314,2.557815796663972,12.137926886681797,-0.2350037160272501,-0.8644316553258572,-1.114936237939361
360,3.276015993736444,2.453303593108731,12.374216571930916,-0.175787261753313,-0.9187939920733051,-1.27284095950665
380,2.978846055484074,2.1288932794990716,12.6982471255437,-0.09854572293765705,-0.9409597991434343,-1.4103377769512633
400,2.55639631695479,1.5969598675854721,12.948764667176365,-0.011185093712039858,-0.8830194333513752,-1.4927170260085
420,2.0081771098327037,0.9645908031217213,13.147828203339817,0.0826884310421997,-0.7776912696888494,-1.5460501966696212
440,1.37361418617202,0.3192420240870134,13.280652806083149,0.19848557035712636,-0.6738356887039175,-1.537626223210345
460,0.8044072492573506,-0.2851915745398937,13.219795989990235,0.3404186012271123,-0.5711676554515576,-1.456220851647548
480,0.35118301974361754,-0.8506921048968884,12.857833952592511,0.4760371953469192,-0.44870851718329735,-1.3160117686969306
500,-0.015664121074275384,-1.3632769692706836,12.252352882618023,0.5698557393316409,-0.3191777670853087,-1.1303744817514556
520,-0.257918475510459,-1.7958491594960155,11.535901854299519,0.61580728031865,-0.21789850217192414,-0.9090738257044526
540,-0.3370963897769409,-2.1456843804289067,10.755642774084066,0.617655088427571,-0.15799649746571606,-0.6704726118085668
560,-0.24082688113793413,-2.406943783417661,9.947077049853954,0.5670703371471547,-0.1177303217589221,-0.4368225182624573
580,0.03166528954552334,-2.5953375135899566,9.096539748252415,0.44194916388416877,-0.0697373048952002,-0.19572812062306483
600,0.4331754082222543,-2.649690063758975,8.469644762930416,0.27740133905576336,-0.03634209408321314,-0.0048554571611540654
620,0.9881166689615682,-2.58449436206385,8.087232254416787,0.1067538773173531,-0.014285430002914433,0.13612456268785542
640,1.9080620982281085,-2.3869587944181108,7.8531442403623055,-0.10684090196974715,0.020447646654891165,0.23855893230170347
660,2.7381669434489333,-2.195677645450485,7.924772838216639,-0.34500675651150337,0.038786567065972784,0.2599815862064344
680,3.434356961071386,-2.0925387813329275,8.21549077972632,-0.5273757404057493,0.030307598864580964,0.205079970828874
700,3.9380684450447356,-2.1326665673915244,8.613146751205283,-0.6764984901688279,0.02470466937257411,0.10284926770382548
720,4.217932942348222,-2.3315356548378863,9.052136359517462,-0.794363592788577,0.03313537248720726,-0.024464942837754886
740,4.300179992052545,-2.5941950755992105,9.52365558981962,-0.8670559350594684,0.04498278338752397,-0.15278829404382738
760,4.2698197802764515,-2.848830386784069,9.901996433267758,-0.8922586500691839,0.0539295565737765,-0.26875867442334
780,4.167718547400674,-3.063525795177729,10.141902807598393,-0.8869499616830805,0.0635014220405324,-0.3674190178927448
800,4.014673302010409,-3.2351954047714013,10.276423252046007,-0.8658154707132693,0.07332430841648076,-0.44687458354396276
820,3.815568287738072,-3.364405583754138,10.34228472722301,-0.8359346407082151,0.07995128463953734,-0.5040805285686956
840,3.6649290402179697,-3.432220970640722,10.336451786214,-0.7996994893795099,0.08733402221412918,-0.5458572800871636
860,3.532177637974244,-3.4728053016614178,10.304072146576566,-0.7676400148025414,0.09345084235739975,-0.5687248050874355
880,3.4106654373278253,-3.498802156950513,10.252285061392627,-0.7350085810235102,0.09696178292370822,-0.5812039176282817
900,3.3003755789037905,-3.5100842646994797,10.18404724155665,-0.7039582391966124,0.09898839746139963,-0.5833775738488893
920,3.21082240831366,-3.5080311398298094,10.108529221279952,-0.6773503805043817,0.10064477231989069,-0.5762902448965809
940,3.133892423498437,-3.497898462786313,10.041067458290588,-0.6548862256358705,0.10138683954785294,-0.5616021130502148
960,3.082903053870739,-3.484831986540661,9.975492030836088,-0.6363810063421876,0.10063124236929927,-0.5404556126612935
980,3.067848653177282,-3.466308952831192,9.916067241374863,-0.6230901742859939,0.09793804460607561,-0.5176668029002569
1000,3.0665877762219034,-3.441985353123911,9.876156292227718,-0.6135667798697912,0.09411239367627852,-0.4968570693290046
1020,3.067013216332141,-3.417437011424691,9.859743990626788,-0.6044318880642501,0.09039544604161219,-0.4774897616940624
1040,3.0719113568623393,-3.3921293867599993,9.849247461366131,-0.5937976893667123,0.08624352194968012,-0.4586672337122244
1060,3.083952235604596,-3.3648217193424292,9.834476735215906,-0.5835784390862835,0.08389757656507212,-0.4404595108485399
1080,3.1092295226246334,-3.3317408043005807,9.818850160383247,-0.5745781237789902,0.08452074238278741,-0.42184171022538247
1100,3.1372436024299883,-3.302679315258622,9.81682673864998,-0.5676342569607503,0.08779295381478604,-0.40851008933497024
1120,3.1625249268964852,-3.274251034491377,9.820627660658896,-0.5596211946779032,0.09373259694553364,-0.3984070903464378
1140,3.190094808494038,-3.2479319815781524,9.822841790575097,-0.550408812711372,0.10345344906672835,-0.39183928355019776
1160,3.2168721221747836,-3.2258509364929906,9.826575145751791,-0.5395302671167579,0.11556110704302101,-0.3898716068331729
1180,3.2313052937589632,-3.2056894218817416,9.833191687374379,-0.5257033784777968,0.12407984540303364,-0.3919864659975647
1200,3.230910573581701,-3.1835725703069313,9.836588031551065,-0.5081311931818543,0.12604645392499292,-0.3956479756010749
1220,3.2219120887900328,-3.1590213497647963,9.827624309766273,-0.4893524785047449,0.12497315853574421,-0.3987153243770697
1240,3.2079832190875988,-3.132413301032548,9.807539635256626,-0.4728986546068507,0.12435441904098672,-0.39983162956275775
1260,3.1923669803803105,-3.1053602589459723,9.785227205017295,-0.4600994943040621,0.12489511781915101,-0.39845080153376555
1280,3.1785006755901,-3.0786474763978795,9.76657132249407,-0.4507649551064286,0.12563404255500593,-0.39490752656211076
1300,3.165410154268459,-3.0487659788438095,9.75902901425801,-0.4419011154708183,0.12548727340404398,-0.3895354798011412
1320,3.1575268414154527,-3.0227882378969624,9.757415829609709,-0.4332603371597511,0.12428745769245574,-0.38438253371905995
1340,3.15048967357708,-2.9980255888805414,9.756544956226685,-0.42358770670061646,0.12248931701350856,-0.37929221963722887
1360,3.1449735443381015,-2.973260487541423,9.752100054130512,-0.4136211859938657,0.12078075690552333,-0.37410082017806273
1380,3.144124326820944,-2.9488394077361364,9.743843793608676,-0.4047437800715367,0.1192622575221084,-0.36906624848197167
1400,3.146772559354001,-2.924064888526564,9.73410952044813,-0.3974658203481332,0.11815746512446229,-0.36518979152907494
1420,3.1448456412333017,-2.8994198025269737,9.727468767207384,-0.39135695621690764,0.11749322356206507,-0.36224275712390297
1440,3.1385536796362934,-2.8754743468615205,9.724201155750022,-0.3851719509507648,0.11617194396398753,-0.359200626258721
1460,3.132701672119973,-2.8522404732683264,9.719509443329594,-0.3786710960470227,0.1137806787530663,-0.35555862523428783
1480,3.1321332852779604,-2.8298163083941974,9.710214494040951,-0.3727715647882203,0.11145507768690248,-0.35222760761000177
1500,3.1296558815690623,-2.8082247739763764,9.704938873190555,-0.3678110415214385,0.10949916657669909,-0.34964319499042945
1520,3.1231209777727615,-2.7866034188082094,9.702512843796706,-0.3627239959426583,0.10764649426463668,-0.3467831767461656
1540,3.115666236194875,-2.7656138099954357,9.699222205135168,-0.3577043205217743,0.10616240458343977,-0.34276918962593417
1560,3.1108269080882587,-2.7452697007565616,9.693352827772422,-0.3531670886207028,0.10507389751550995,-0.3378329553217984
1580,3.1086762549716926,-2.7260505823185306,9.687650807445848,-0.3493199703676577,0.10440087502728176,-0.3326203465951863
1600,3.1061506141807667,-2.704919106883519,9.683787251529482,-0.3451635956326954,0.10378249809657906,-0.3271765774474394
1620,3.103627552760858,-2.689206069399958,9.68191200948979,-0.34146481659052663,0.10273882710266202,-0.32333490775503376
1640,3.099183916461438,-2.6694275793464235,9.677397577670664,-0.33622382634937475,0.10088054236348398,-0.318679328155884
1660,3.0944639838280104,-2.6521179439280838,9.67230086620445,-0.3318079173722414,0.09929866225493778,-0.3143930587825119
1680,3.090243703526645,-2.6357121415501243,9.667085966530532,-0.32774011736131964,0.09804311141479682,-0.30997034675221036
1700,3.0869738392287,-2.618967730926628,9.66276864086789,-0.3238515409329189,0.09696641794682531,-0.3056370618384487
1720,3.083757877808239,-2.6025630509882998,9.659005307467437,-0.31992726213899336,0.09573412877439709,-0.30149607660562405
1740,3.0798943341962124,-2.585881167405358,9.654485594148333,-0.3160156134033335,0.09441507540816857,-0.2974144836558746
1760,3.076349495965082,-2.5698826753327415,9.649727024098523,-0.3125178672101659,0.09331545445602388,-0.2931691129138926
1780,3.073831933141087,-2.5528280986741247,9.64626517131687,-0.3089923990829062,0.09219883221031687,-0.28857705307407727
1800,3.0705321586774246,-2.538213857468546,9.64632665136642,-0.30560676170844114,0.09108720279679086,-0.2847806510595754
1820,3.065946610135045,-2.5245757261278645,9.649466583834673,-0.30133509801063163,0.08964984038057143,-0.28085916405512434
1840,3.0630233703709266,-2.5114627498613884,9.651509272428736,-0.2958201437824929,0.08842410033526688,-0.27682365236802653
1860,3.0621191500845204,-2.498247809375241,9.649461709992757,-0.2901005820431177,0.08760488298984731,-0.2728967841401936
1880,3.060866237261365,-2.4844731467501084,9.647195136556656,-0.284599761611822,0.08716080002414041,-0.2693155112077442
1900,3.058023949649348,-2.4705321029250533,9.644944412024282,-0.2790106775747322,0.08645920276236864,-0.26591834918945845
1920,3.0531710294715966,-2.4559782193629607,9.641043216067775,-0.2733414378052779,0.08532203291249936,-0.26236391327711667
1940,3.047576408624804,-2.4413615992717905,9.63621198826776,-0.26782955921843443,0.08428570939694628,-0.2584204937981425
1960,3.0447008527481647,-2.4259844536098947,9.630616133394867,-0.26259335539839723,0.08391709166756114,-0.2542067407162397
1980,3.045322233830016,-2.410046972500158,9.625213842421692,-0.25770036223354864,0.0837664469871575,-0.2506030319256844
