0,-1.1931987941265105,1.2219390153884888,6.458888959884644,-1.1912501633167267,-0.06539386790245771,-0.15804901020601392
20,-1.3587744666470423,1.0051099061965942,5.974243455462986,-1.5914522508780162,-0.23379442747682333,0.03969366160324878
40,-1.1177372358775197,0.7822502582119062,6.220418691635132,-1.9173139035701752,-0.3943557371743597,0.24177752417297318
60,-0.5280313850791358,0.6004455099841032,6.7235245143665985,-2.119155012509402,-0.5717704611118225,0.3756923542686683
80,0.20209404332785025,0.49029473347278935,7.213342939104352,-2.209977761620567,-0.7479874264182789,0.4272554834994177
100,0.9984357923548669,0.42248146316967905,7.621623077392578,-2.236658080816269,-0.93736607786268,0.42441629579290746
120,2.2186140598135133,0.558369923439198,7.9850780388404585,-2.269790007122632,-1.0577152473852038,0.33971969028212257
140,3.5429597980356915,0.7131352417213335,8.717726317319004,-2.296463640350284,-1.093858267293509,0.14921684170522811
160,4.704724794725661,0.7999365613103617,9.505897663735055,-2.2856351934574746,-1.0669583798814062,-0.13355655432364122
180,5.559132651238498,0.8634922047793048,10.441643028724485,-2.2528862131804956,-1.04307279351917,-0.5010615542513978
200,6.014745844419425,0.6956201523076743,11.811438486311172,-2.17003880739212,-1.0945340143102738,-0.9291584424493421
220,6.273935351422,0.15594239634076001,13.842729655179111,-1.878242426730617,-1.248224774977625,-1.4137036811508652
240,6.475192965482684,-0.7003305919651186,15.286582117882844,-1.4831196673945568,-1.3669180413098814,-1.8256214878534915
260,6.412113152132572,-1.7469898060976488,16.278469425698987,-1.072366636975304,-1.3852426228153965,-2.208125026250744
280,6.206644683118485,-2.8095332823004724,16.967721016426395,-0.6835329835340986,-1.2735942857021965,-2.4915190740560402
300,5.8376318081779734,-3.806362661956063,17.508946404202295,-0.2915822724662437,-1.0707392185670501,-2.6617470287401512
320,5.399614824849791,-4.930294380158106,17.63196222044581,0.1334337903146478,-0.8045839322529894,-2.722867518812485
340,4.810926429442681,-5.92234592071614,17.19109247493095,0.5662753231392629,-0.469853772838809,-2.690795380991193
360,4.1914697633365225,-6.596502156630759,16.29089262723442,0.9270659929441829,-0.17036363409171182,-2.560177298552627
380,3.6266768331285224,-7.027310868922301,15.121713148372853,1.2052856828286056,0.00890676500104322,-2.364302475429626
400,3.05991069211935,-7.27108353082559,13.764443928800654,1.4012290293470635,0.06211092890572478,-2.1279755681222143
420,2.56042315454779,-7.355493316627186,12.254606280309362,1.48546826957033,0.06421743346346989,-1.8456165614400017
440,2.307415695250891,-7.313186049005664,10.88773360360354,1.4541106354644433,0.0579206583558278,-1.5315073183824852
460,2.4308343778603163,-7.1721872050243505,9.770943134316267,1.3479713479582316,0.05947994070414167,-1.2460883235618567
480,2.713604192064582,-6.894322301555589,8.719608985965012,1.1748982980463873,0.06407519470325068,-1.0163039059900933
500,2.892483271638652,-6.660752951556307,7.937253188464861,0.9672054971638575,0.05048659939608836,-0.8749140183592901
520,2.991335961068134,-6.528083242088641,7.311994902704927,0.7028914362107488,0.04073100593999367,-0.7581106270166029
540,3.0715496384338556,-6.523487247937163,6.838327249985907,0.38234229646459744,0.044548313805359625,-0.645595658007854
560,3.26759834320608,-6.707516344944883,6.522673563542381,0.004806320285582442,0.05841415748197459,-0.5483372007127678
580,3.4882675596020474,-7.125438610078446,6.475563749533574,-0.4153097030157071,0.08315634513922708,-0.4845638390197266
600,3.5323308111253446,-7.706260785240577,6.806398664778542,-0.8299449590064348,0.1036390751500481,-0.4333701495844353
620,3.4175271978583903,-8.336823835755842,7.533018384171793,-1.1667617616816781,0.08880769335485708,-0.35983629068449285
640,3.293044746740471,-8.923003095315089,8.451112740617523,-1.3707408693813676,0.04308071688213733,-0.2529332577954602
660,3.2362963036360703,-9.448925161722412,9.388841415323533,-1.4312075750186932,-0.013158770141434734,-0.11716833950334188
680,3.2462973071665595,-9.846178691166873,10.142216622501508,-1.371169263398616,-0.06316907472849469,0.02654422565714233
700,3.2607372000618926,-10.118580633661175,10.635773652717981,-1.239578595901648,-0.10881565613129929,0.1774800646187393
720,3.3232687634100326,-10.331080286223688,10.983750986981134,-1.0566879073065083,-0.14625788665534403,0.37067497032075697
740,3.5018597325855643,-10.478296139493018,11.233773685666254,-0.8793467234844239,-0.13791060399921146,0.5592791661672885
760,3.8319558553523985,-10.609317429071403,11.46262438486004,-0.6824699299768413,-0.07718179495241316,0.7376380468585032
780,4.372583661960581,-10.66644468602223,11.513249922979336,-0.4695684089855506,0.02162733086743034,0.862511132112346
800,4.874044758923542,-10.571688567566499,11.352047807539815,-0.27143736087993997,0.12919182256115852,0.8987895251935566
820,5.160698409444896,-10.402672944542655,11.09014892177192,-0.09455342532362232,0.18961104278280633,0.8749635968175703
840,5.293734550271931,-10.204760028515011,10.713725709823363,0.05404986950827704,0.18165194116837016,0.8251130410588818
860,5.4286306737191685,-9.965562630978253,10.228934271506319,0.14871263221761927,0.14231392565504217,0.7532671730520585
880,5.595303929799989,-9.711837407213011,9.78312367169212,0.18454998961764657,0.10181243566234839,0.6480497050411642
900,5.7411253290592965,-9.49809564883888,9.444994257388501,0.17845857227795406,0.051257539846392565,0.5063214829839496
920,5.849895181744225,-9.352947680950605,9.250294985723855,0.15548087234591718,-0.022700120305050937,0.3325884201829114
940,5.845837621017097,-9.284250606922432,9.148692479490851,0.12815570529932396,-0.12348830837828036,0.12424600464829172
960,5.740440833161178,-9.274984307307516,9.077726144877136,0.09100960551213529,-0.2159808456333794,-0.04759111681815012
980,5.620851527219363,-9.339691690899881,9.097995267116598,0.0319860322547737,-0.31039606835211403,-0.19710242773550724
1000,5.436116067034638,-9.429134422149465,9.343688914156406,-0.029157728924087568,-0.4051301210144634,-0.31652485197331254
1020,5.194320857735633,-9.500611533751817,9.728410820251604,-0.047686208388216404,-0.4803918403787406,-0.3920021020013936
1040,4.979067589999935,-9.513686340060735,10.03333876852899,-0.0197932053920488,-0.5124523502482144,-0.4240979446536796
1060,4.838738005113954,-9.478776837304686,10.16583032912009,0.02543844706612771,-0.5039123213928635,-0.4278266903435063
1080,4.748518438908509,-9.394673921853814,10.187339506867955,0.06693362984639246,-0.4739613592021184,-0.4161043133583513
1100,4.676449927159827,-9.264009777917055,10.165739950096226,0.09921979466412167,-0.43886440889273937,-0.39897364744401664
1120,4.607022447204137,-9.104081322516626,10.130901930128019,0.12631122718335358,-0.4101224923738202,-0.381169232185547
1140,4.550751331978616,-8.93063072298376,10.07480804361403,0.14854571903718913,-0.39114178915587355,-0.3645726856919243
1160,4.501426906038138,-8.730121547866629,9.997951945573838,0.1644995050360925,-0.37537158122247316,-0.3508608611752639
1180,4.46310180851844,-8.59893032843247,9.947509099028467,0.16976050625833655,-0.36576898062947333,-0.34428334655960274
1200,4.393636911527038,-8.390629512877815,9.872851525886793,0.1695683571105503,-0.3555074930068745,-0.3335040784436231
1220,4.338099543270923,-8.234020344565844,9.828046377792688,0.16330302167298721,-0.3512364192625089,-0.3231754187039964
1240,4.288688077931265,-8.084367664382336,9.79146829742479,0.15354817134461232,-0.34685621413068735,-0.31100002347141753
1260,4.251782836100923,-7.94512459379576,9.770840220361489,0.1416587188448721,-0.34270238191847596,-0.29800335074207873
1280,4.228741198232966,-7.814390057652828,9.763427043089774,0.13059515244304512,-0.3389809005540324,-0.28595512094942804
1300,4.210202779801057,-7.687565339524647,9.761607576523707,0.12134586458277201,-0.3354762466876794,-0.2766675416175624
1320,4.184915286915044,-7.565986095014342,9.767736909132362,0.11450062516363231,-0.33406806262690253,-0.26951146613279936
1340,4.152685861262964,-7.4491282721716034,9.773975135187218,0.11059271971341865,-0.3348496649473459,-0.26207212405068
1360,4.1244980193506295,-7.333438705427202,9.771285916903524,0.10731023999034345,-0.33576801452829047,-0.2531210686482509
1380,4.103762657415266,-7.219417067504992,9.7637051375389,0.10188181707356289,-0.3338103383883006,-0.24355265988666083
1400,4.087011455108776,-7.107626858762587,9.761425238893084,0.09496301237493754,-0.32918469139010365,-0.2344561448470568
1420,4.072198891995465,-7.0001699423192205,9.766183460549824,0.08840858789183212,-0.3239258717271095,-0.22658957601413066
1440,4.053870109758636,-6.882954669028451,9.77859814101956,0.08416506165883982,-0.319877579820034,-0.2193489069834106
1460,4.038163038713077,-6.79410691608524,9.786130179142663,0.08361527037718186,-0.3184561602178905,-0.21440428723379013
1480,4.015502525069965,-6.683073800321405,9.792148059914133,0.08483951804794886,-0.3171096027110348,-0.2079813167070633
1500,3.9972137785228954,-6.599420117623953,9.79259270768219,0.08629177584714158,-0.3153989822270606,-0.2021896211994524
1520,3.9800083179389523,-6.496068542650812,9.789450834953012,0.08770210232708053,-0.3116770111332582,-0.19401198314265528
1540,3.9684111103113398,-6.406381917687846,9.785921368411966,0.08803147529148721,-0.3054850323488965,-0.18739284682595997
1560,3.9519246027506596,-6.319191929017689,9.78304895609035,0.08772427432777477,-0.2974113669628423,-0.18148430473265761
1580,3.9326222418156385,-6.233245559330644,9.78204373223707,0.08766960365378677,-0.2899447450860559,-0.1754627341298921
1600,3.912337593977743,-6.1471902720989355,9.779427403351292,0.08859952501796481,-0.28375960186034405,-0.16918368523169547
1620,3.8948069017945723,-6.0622852250929435,9.77223557017811,0.0901712246852119,-0.2786211118761994,-0.16304390647775405
1640,3.885714122033838,-5.988869722056079,9.761107747488824,0.0916832082657818,-0.2748074895176959,-0.15873858696037152
1660,3.8832496163318866,-5.897066637627808,9.741094289101003,0.0921908959041021,-0.2716700074800482,-0.15664939235053574
1680,3.8792157374445417,-5.807647987979184,9.72578888188058,0.0906073588013503,-0.2714314897992771,-0.15863773573888804
1700,3.866243033974308,-5.739953593121461,9.719677890848969,0.08853807988283545,-0.2722428039337867,-0.16070485934006296
1720,3.8469866819577874,-5.666745717061118,9.719642853189725,0.0860226520364284,-0.2717904738638026,-0.16152065157373066
1740,3.824842998780817,-5.590063148193182,9.721777696590896,0.0833152677791342,-0.2678606669280709,-0.1596581281843983
1760,3.809928142799558,-5.525951390185015,9.722238389855242,0.080979893329242,-0.2624737360846024,-0.15623848506084148
1780,3.798159465269762,-5.463056198706459,9.72234729352945,0.07867531760133271,-0.25716046828218314,-0.1527148904831408
1800,3.7851189286511246,-5.400733515029468,9.724702617686793,0.07709650079001959,-0.2531109249425908,-0.14961613478168106
1820,3.7688479056038062,-5.3382962193621335,9.725618567237717,0.07680917545815542,-0.2501056598236897,-0.14617927200473446
1840,3.754754660826097,-5.275881551449146,9.722736457424611,0.0771893246790733,-0.24738282179379537,-0.14207272263272241
1860,3.7463583223045647,-5.213520269547852,9.71742236253447,0.077201027952443,-0.2442972855767879,-0.1381505054771122
1880,3.7362368522278433,-5.143631245056167,9.711978793449022,0.07648914941517007,-0.24008187680571738,-0.13469718832117444
1900,3.725092866172497,-5.082391729195911,9.70850453216937,0.07556919193815244,-0.23658224798476798,-0.13190870389257317
1920,3.7129751732543292,-5.022002696493906,9.70461955082155,0.07455411627334745,-0.23353537490014367,-0.12909769757891326
1940,3.701373140868949,-4.963735490620385,9.7030992868218,0.07355412896455708,-0.23074577961695295,-0.12625881271367606
1960,3.6893276645566226,-4.907819273647623,9.704332865379806,0.07318641934596104,-0.22797066105577277,-0.12333576842019581
1980,3.6783894274470015,-4.853403787733987,9.70392765821774,0.07338753845686392,-0.2251642178873428,-0.12040339104951946
