0,1.60083110332489,4.790518283843994,8.817504262924194,-1.1008114516735077,-1.0748894333839416,-0.49955985248088836
20,2.2571729289160833,4.859494871563381,10.097935014300877,-1.2247076266341739,-1.3206577764617071,-0.5565455804268519
40,2.922292406742389,5.063071526013887,11.241485247245201,-1.221555083990097,-1.4912685385117164,-0.6943926157859656
60,3.2531410876442406,5.299755811691284,12.304342957103954,-1.1441426575183868,-1.6421709832023172,-0.9046485871076584
80,3.4433539538156417,5.4948593548366,13.204427594230289,-1.033230572938919,-1.7657692773001534,-1.1523665807076864
100,3.6966649007797243,5.681178178787231,14.0089488697052,-0.9120785531401634,-1.826689224243164,-1.4224303954839705
120,3.9735853302067725,5.760930686161436,14.872824183825788,-0.7809658044756487,-1.8554859038056999,-1.7297364262671306
140,4.071823687264414,5.455201548157317,15.914760336731419,-0.6104912098045602,-1.9152556477171,-2.0634859253962836
160,3.898315200129071,4.714822713587735,16.594314323889243,-0.3936558002857743,-1.9141724979555286,-2.35893869359751
180,3.629623046735438,3.7793994117073897,16.958841980957402,-0.18406045505004684,-1.7719712740764386,-2.5429203099593884
200,3.2631344163065985,2.8960577534304726,17.002031522326998,3.4649442467424605E-4,-1.4563902851608064,-2.650530065099398
220,2.856847156507123,1.947223547131124,16.786716832054985,0.14185181233768512,-1.0616183470595966,-2.6572901838355594
240,2.4639603838446402,1.1209587376808452,16.56628367611181,0.24770880918775764,-0.7343279421329498,-2.606447408968043
260,1.993780954271231,0.3171006238978842,16.21699034234752,0.39333309456706045,-0.4105373317780702,-2.5033894971660944
280,1.4831986672252537,-0.403414750002264,15.605558503934038,0.5752609042920233,-0.09476869644188299,-2.349050824689429
300,0.9388476958469921,-0.9996555929875556,14.754820121651274,0.7340536950483122,0.16578699819004264,-2.1537208349820767
320,0.501231084859146,-1.5103786321852704,13.764505216155014,0.8332796007019582,0.33285247872201656,-1.9168708712237774
340,0.1724088250969847,-1.9335140115549776,12.847374096652176,0.8768374907980565,0.43080417903102175,-1.6498125177003493
360,-0.013566628368871828,-2.2689334381011226,12.003683885102792,0.8915629437133189,0.5035523485752844,-1.3549174225859104
380,-0.026800711436391424,-2.527083660561614,11.184359656921103,0.8794269194495092,0.5533440107582537,-1.0523056934353399
400,0.09641704784858732,-2.700013481734092,10.376065408658476,0.8382159039726731,0.5750222974701932,-0.7607555927719638
420,0.3744746261405655,-2.775375367866622,9.556208169160204,0.7575512462606032,0.5638364000038968,-0.46238515192849766
440,0.7153465037873173,-2.7293796672465955,8.911995449945568,0.6601075029515839,0.5330150020853716,-0.22798775182046155
460,1.1792294638711314,-2.59260875879958,8.32645682993402,0.5370108820117858,0.487983354619153,-0.026437397647116865
480,1.7740051325835178,-2.376610860338106,7.845661669120411,0.38565018426115605,0.43462209093530535,0.13032363020979307
500,2.437745877051779,-2.106781286275331,7.517198415253452,0.209953714689275,0.3839866610041837,0.23420076144261742
520,3.056480511771092,-1.8301869168538938,7.357543859927153,0.01386913118714636,0.3367529650684446,0.291011564721438
540,3.6423416556157333,-1.531005800129813,7.5459715600713695,-0.17832284482816854,0.2779645980948484,0.3119898441231303
560,4.228549237996419,-1.1836877145441407,8.030642937008544,-0.32724443175908874,0.19871722121123161,0.294940942693186
580,4.782284885173526,-0.8133643722375397,8.688287124488136,-0.436608240710663,0.11402908099250349,0.2372641421885031
600,5.203503283259962,-0.5167540021772895,9.529669109990614,-0.5101245797520119,0.05417808119045009,0.14302092271723918
620,5.429675314992738,-0.34751735315299953,10.493354825983541,-0.5283016714052512,0.023554031296561542,0.03282950338549339
640,5.496659421224717,-0.2847034949809313,11.32729901770241,-0.4853810162853394,0.02649561117347608,-0.07810900681443624
660,5.4296910775848914,-0.3104533431009265,11.930189448755087,-0.39006694750557735,0.06129629443658496,-0.194907468565427
680,5.293043808000195,-0.4079432784988169,12.181859855661004,-0.28593684432276506,0.10358955663089689,-0.288500162161756
700,5.137235088773034,-0.5392567193365261,12.233038565239626,-0.19010925474130128,0.1387582953209185,-0.3617176744091797
720,4.891282552167884,-0.7420741597382333,12.104636171102474,-0.06779028824298484,0.17872247160830074,-0.4394764143639427
740,4.658801487024609,-0.9252991750113015,11.81108976613043,0.028133939987826116,0.21090535141081582,-0.4886907115216973
760,4.440381504443977,-1.0924009461226147,11.389293047596556,0.0979532847880189,0.23702301674049453,-0.5187968320157438
780,4.23865415505635,-1.2417550435891518,10.931650809937945,0.1416763747884677,0.24809658794735487,-0.5350457099653207
800,4.044634352274541,-1.3573647931262895,10.453534337912908,0.1645653570244262,0.23782865041111773,-0.5388663296473097
820,3.890958724189768,-1.444920264075229,9.938601085227912,0.16584981780204255,0.20117033887217559,-0.5322783328374285
840,3.776129316689345,-1.4829357692112555,9.401996177783968,0.1421790326115566,0.1450384386913867,-0.5232788397260757
860,3.660649975695248,-1.475278426660877,8.837662744646272,0.08876447933686882,0.06916359956284948,-0.5132086218819961
880,3.573513251440498,-1.4684873135770604,8.18013071596032,-0.013219499434918574,-0.019838452050845102,-0.49602375710638213
900,3.5546189743519965,-1.5899216172927841,7.709978095723944,-0.18354954653427044,-0.0849411986523555,-0.4741154930144848
920,3.5748363938584866,-1.9021346307315752,7.565026935848227,-0.43468591478209534,-0.13161014359571158,-0.45221572695421886
940,3.618235989040337,-2.3559746767083802,7.835091841273392,-0.6470983632195454,-0.18248250885412862,-0.43648221479752697
960,3.6282260686863474,-2.8439714873031754,8.405784804369299,-0.7926524073428395,-0.2376919718594969,-0.41605488306739785
980,3.543755990890052,-3.2553390071089634,9.045529065805079,-0.8463321605724801,-0.28355877185607414,-0.3776264535894003
1000,3.4312995001954896,-3.5849163037351364,9.509917218665533,-0.8364260304395271,-0.3173270816149883,-0.308007351319634
1020,3.3435495606418346,-3.8344945501165366,9.804018568419696,-0.8026922754501986,-0.3361471273088872,-0.20894369061360957
1040,3.3050713913136183,-4.027509585126888,10.016250620102293,-0.7591572755731122,-0.34173393294345156,-0.09054649862417474
1060,3.278136640354421,-4.182349522942549,10.175815086705466,-0.7066268338205199,-0.3444863264874202,0.04462424326862408
1080,3.2976520515637966,-4.3248577289316685,10.299669185340104,-0.6469977858639218,-0.3441926010366479,0.20022905632673926
1100,3.458334490567618,-4.467102006701383,10.413756404986957,-0.5810043921833653,-0.3303634822840437,0.3680429643539031
1120,3.867106524873646,-4.544751940383797,10.480056431172699,-0.5166220468634264,-0.28319460609766506,0.5138402032712273
1140,4.3493658260960375,-4.523108998080221,10.544056158200412,-0.45483352674958305,-0.19955180827211866,0.5976755539135268
1160,4.563137413293225,-4.439786404153499,10.614417033098903,-0.39087811340276535,-0.14964998930124934,0.6220810964425524
1180,4.680360162015852,-4.378499166462456,10.628772571877992,-0.30788048824153885,-0.1420186353824436,0.6248990319778251
1200,4.742883998675818,-4.322512088911702,10.55246620013783,-0.219500808982235,-0.15898654277088364,0.6128197824648308
1220,4.752489992289034,-4.30823071768706,10.522000740512725,-0.1986802142165916,-0.16454065790291222,0.6079423974991459
1240,4.76262075091765,-4.20564511024672,10.229124185153504,-0.08833480625615661,-0.19491517144107715,0.5581955167231626
1260,4.722554172373957,-4.1454236626854755,10.050831427345472,-0.06102396376244365,-0.20092044690146554,0.5249312077236213
1280,4.659944714735345,-4.089448313050298,9.917490006988228,-0.055426126236424726,-0.20084502758454723,0.4931043415238455
1300,4.58520465884967,-4.035415592984618,9.856808519499184,-0.05688407884162163,-0.20407219253236725,0.46283063369881466
1320,4.508917778309325,-3.9804256024391393,9.837637988816171,-0.053042393692290586,-0.2190801009216773,0.43308995655286736
1340,4.431090594924304,-3.9273019114444994,9.804749646033084,-0.04566407149586617,-0.24162719153821088,0.40368799413021944
1360,4.337295025232015,-3.8659380558479044,9.759106265351043,-0.042416027492644,-0.2637476889932129,0.37361121661379004
1380,4.250232206123822,-3.8134784516550497,9.732887545649723,-0.04564636906208864,-0.2752496656538709,0.35246671929801354
1400,4.162311278559274,-3.760896011024468,9.726390961683743,-0.05108395547237402,-0.2793904856710772,0.3382632421376507
1420,4.084960255176243,-3.7055218902317653,9.72986569849787,-0.05603419956017592,-0.2792872226691792,0.3298691640973206
1440,4.020080915693905,-3.649289804008928,9.739800463377096,-0.05888477242016863,-0.27803061479494934,0.32424725135363563
1460,3.963701614039795,-3.592489539758923,9.746971498054142,-0.05963976599120845,-0.2777955491328612,0.31982276633847506
1480,3.9146044468729277,-3.5351907958684023,9.747414787076291,-0.05993336724503407,-0.2780081934133226,0.31580906452788776
1500,3.8698307375171126,-3.477965092191219,9.749075176384808,-0.061160095494131664,-0.27818245730852686,0.3119022087042837
1520,3.828945527209166,-3.4211780839399673,9.756711245081627,-0.062106978170609534,-0.27757037617116925,0.3083447732347756
1540,3.7902398411445377,-3.3651390163171917,9.76157707553298,-0.06236325609762976,-0.27534049775162595,0.3050324695768377
1560,3.754537563885242,-3.3106955208597357,9.764727077374118,-0.06271965353371342,-0.2729283462496824,0.3016406871174695
1580,3.7205595165515537,-3.2575963091487523,9.767621891478214,-0.0629521858645603,-0.2714790819819304,0.2982496893562285
1600,3.6895861650409643,-3.205522030298087,9.774213872778956,-0.06241014963207573,-0.2715648081502877,0.29497961461453176
1620,3.6630094002193143,-3.1537070332490558,9.780481093369582,-0.060107605441695036,-0.2725284348216738,0.2913912691523781
1640,3.6380490839150124,-3.103139982582347,9.77997002193782,-0.05724402769833216,-0.27293093755170483,0.2875966809335209
1660,3.612725105813896,-3.0535373313256593,9.775786871526062,-0.054890382946948243,-0.27218037670450834,0.2838929437155671
1680,3.586047585033622,-3.004350229990831,9.7712902306487,-0.05313804158690483,-0.2713133385174821,0.2804487550551299
1700,3.5573566846924978,-2.949997574455737,9.765948562849436,-0.051773067798607124,-0.2704203619663116,0.27703392070516347
1720,3.534342368209325,-2.902954044136225,9.762623205693796,-0.05098909765699918,-0.2691310773385649,0.2741094819732433
1740,3.514430988656401,-2.8572147603761953,9.7562350936908,-0.05104295882007152,-0.2664551033650174,0.27063661033083874
1760,3.495320225160972,-2.8138590782232344,9.753171031023589,-0.05223476322304493,-0.2630842584811781,0.26640085809787895
1780,3.473954627970655,-2.771546950782247,9.754951115107401,-0.05336753148949655,-0.2599773613308219,0.2617495503929407
1800,3.451408528345618,-2.730686352871298,9.756094612067457,-0.05380287121259829,-0.25755148876581296,0.25720717059321996
1820,3.429680961164853,-2.687160666823517,9.757919985648675,-0.05428664410023653,-0.25580007986619074,0.25219934387694315
1840,3.4125027531042784,-2.649628649558378,9.76314825129594,-0.054303295636458186,-0.2539422788015111,0.2473612758930061
1860,3.3930639215675367,-2.613815054865774,9.766676342488802,-0.053945636584819476,-0.25146154081823213,0.2423326158181097
1880,3.3715842274277676,-2.5785714555688974,9.768389291052598,-0.053539379264300614,-0.24858203429990303,0.2377093500125089
1900,3.349788981049913,-2.5442188956564085,9.76800446439975,-0.05322979248079751,-0.245287306691238,0.23369941946566775
1920,3.3285592877247985,-2.510297479881708,9.76745683403861,-0.05286348634725318,-0.2416733873199521,0.2301756724917849
1940,3.30682231356174,-2.4781877516173014,9.768494797384916,-0.052094018965624087,-0.23789951740888707,0.2269100922081263
1960,3.2860863935045592,-2.448988211107791,9.779569940170054,-0.04959058423585809,-0.2345529256227857,0.22358148356381702
1980,3.266647115991922,-2.423322266028665,9.797351174679712,-0.043203670008648415,-0.23165909087143113,0.22007663925983195
