0,-0.8504980736308627,4.796958181593153,11.276284641689724,-1.1612854666180081,-0.821341700024075,-0.993434813287523
20,-1.1591894942171432,4.867806911468506,12.021026106441722,-1.3163824011297787,-1.0714386491214527,-0.9776368561912986
40,-1.3385285639762878,4.8195458602905275,13.220316772460938,-1.392776894569397,-1.3622332859039306,-0.9145531392097473
60,-1.1410454065736495,4.831988349105373,14.767400741577148,-1.2815904039325137,-1.5064197345213457,-0.8265648737098231
80,-0.7619667275831467,4.625074950660148,16.117664290637506,-0.9637813904299969,-1.4548795950121995,-0.8463258103626531
100,-0.6684548620666776,4.350430936229472,16.769438646277603,-0.5780108986156327,-1.3811997759098908,-0.8992120368140084
120,-0.8262397476978469,4.137837581467211,16.902872018646775,-0.23597557411382072,-1.3931364197480052,-0.8895123329078942
140,-0.8873363465070725,3.8520021732036884,16.706551522475024,0.03356796124806771,-1.450317544203538,-0.8215129522176889
160,-0.7253300519022223,3.393513144083219,16.275503511298194,0.21503054350614548,-1.4333410018110928,-0.7377583584046528
180,-0.3767190630116114,2.8048016358076073,15.685041962600335,0.3244351954540102,-1.2477117114495941,-0.6951821067983784
200,-0.2714887804455227,2.3378584863411054,15.182189093695747,0.37990379126535523,-1.002093551473485,-0.7037724699825049
220,-0.378215574726616,1.9640642369223624,14.697173757651418,0.42970123234176144,-0.7959055033387598,-0.6847923322359926
240,-0.6096002819403162,1.5178549875909428,14.019586315694845,0.5120721706101354,-0.5813442327363311,-0.5993916965880484
260,-0.8604423236428645,1.1773412291679466,13.385932780148691,0.5989537646242401,-0.4277594815612885,-0.4799058358920248
280,-0.9977416278886013,0.8393954801999155,12.747472346806136,0.6944322321625029,-0.2885846460818267,-0.33588961450780025
300,-1.077795688005594,0.6024027000253017,12.062276862676327,0.7831990250601218,-0.1535223102913453,-0.1857980063328376
320,-1.126353440941244,0.41399128378733346,11.330143658984182,0.8456217101842597,-0.029873759364304336,-0.03673567244972008
340,-1.1659480537453744,0.2617461110835206,10.596551093311138,0.866301548756557,0.06308518579765542,0.10811026986331156
360,-1.1788162240734348,0.1611817054353751,9.912239745041573,0.8368509709472199,0.1210998630078582,0.24717646488895664
380,-1.1337313327800345,0.10907687605531127,9.288093100336415,0.753494987114804,0.14881785512890344,0.3761145027331364
400,-1.0135159579708295,0.08455827569260317,8.745146500341155,0.6193539987263434,0.15445782020688056,0.49034489778911367
420,-0.799535160249505,0.07931662241891858,8.29471563837132,0.4379084339708756,0.16226785679935743,0.6033675927023648
440,-0.5556701698644276,0.09600570135784739,8.013453913982062,0.2687259475516285,0.16917239332740958,0.6836030333437384
460,-0.27976286010100293,0.15590963141324046,7.835890122655875,0.09992628736564746,0.1648277127972016,0.7434694391030532
480,0.0701752575527271,0.24358411044515485,7.763639006800399,-0.0648073877295103,0.14208888541448292,0.7805393050456869
500,0.5161437646825732,0.3376183082499669,7.800771901481101,-0.22661407160356428,0.10190209340286481,0.7850969953559587
520,0.9777585706550237,0.421195366808966,7.9961065991045945,-0.384836818282939,0.05949038406621376,0.7485643932383218
540,1.366258471843167,0.4820214380584001,8.37011883708152,-0.5223058465014864,0.03159120485252221,0.6786247722492738
560,1.6837090003046584,0.49726722309603655,8.828837312108025,-0.6276843413631332,0.019544241561534555,0.5879237139082335
580,1.943494374645345,0.4543638052035568,9.300403314930053,-0.705722109058205,0.017733208327305048,0.47954411512631695
600,2.095708977920838,0.35110415113473914,9.869312934740725,-0.7574715825888622,0.0135611977958792,0.3612241720877202
620,2.148878201353274,0.18871644926419245,10.532870968868489,-0.7570981035174436,0.006646491340846974,0.24418186999742358
640,2.144932945150784,-0.014549522430458095,11.120372167310576,-0.6830442690042856,0.013984613160669023,0.13480566365972216
660,2.082552314173769,-0.1908177454464815,11.441156847327948,-0.5643414026431062,0.029507000187242574,0.04314113396812569
680,2.0203302425987255,-0.3329838974098593,11.555064190047474,-0.4443620840818111,0.05319904834657328,-0.031338657624361374
700,1.932059063202995,-0.44419412423014537,11.556543878152048,-0.32366255430300556,0.09173045681043183,-0.09502223014754996
720,1.8475500843146195,-0.5219386482828607,11.492358012658855,-0.22779784097646674,0.12924653267953545,-0.13564897262180844
740,1.76284332023994,-0.5850068764827613,11.387385237200016,-0.14017635094630834,0.1615522141589529,-0.16371837996744684
760,1.6851994849098964,-0.6347256801356385,11.24670903484891,-0.0584561286694547,0.18514287581260588,-0.18197759234381816
780,1.6254199967909329,-0.6665694478663535,11.068361477776902,0.015490235605587563,0.2011194436647067,-0.194447721256932
800,1.5802801284821233,-0.6826383091413966,10.85808121122375,0.07849949334063623,0.21231527102364967,-0.20493235720142003
820,1.5265714311177898,-0.6801151362932562,10.633788556386444,0.12946693078231286,0.21202141115414527,-0.2138708667117445
840,1.490356670105072,-0.6752005952469962,10.505753624404585,0.15011958488219873,0.21059215413054538,-0.21730707727134402
860,1.3916678735646262,-0.6424842014963729,10.145518452151459,0.1881447260770319,0.19662544159009382,-0.21815301030560325
880,1.3296306846166992,-0.6038344574716086,9.915710270826981,0.19809451073428597,0.18378238341576614,-0.2104535919644839
900,1.2981391716673572,-0.5543732058479084,9.670755391838103,0.19535602620196088,0.1660987386684715,-0.19699514300709756
920,1.2945804066951154,-0.5053302860217477,9.456933038101441,0.1815360441432381,0.14764474964458643,-0.18788589573321068
940,1.2875477826165318,-0.45873553620095925,9.24524370867491,0.15486873279308905,0.12587632053558043,-0.1823936692393531
960,1.279616161296496,-0.42376765753412315,9.05833828894032,0.11510976716425617,0.09734052662228607,-0.17756955899879975
980,1.277249190521737,-0.40806403867555435,8.899869305208142,0.06378195001571267,0.06269353453851777,-0.17159590187632007
1000,1.2865140853521864,-0.41185059368759214,8.778553031060222,0.0020721395551869712,0.02474986888540426,-0.16532748587627966
1020,1.3044380609127482,-0.4316269132162659,8.69830171125023,-0.06681779236698661,-0.010786440599523927,-0.159273261376911
1040,1.3318542316881614,-0.4667441076360261,8.653200353584785,-0.1412545274899695,-0.03975300756141995,-0.15327349926902975
1060,1.3620591785404959,-0.5219608251808864,8.646174334364707,-0.21990473719326528,-0.062272968069059895,-0.14843922642057494
1080,1.376926392097068,-0.6014459420885012,8.693372297370702,-0.29895398768313813,-0.08210045713303464,-0.1450929952471444
1100,1.3732186110945168,-0.7007203590028218,8.787089120029218,-0.37111476574413826,-0.10148043201508507,-0.1407855793702155
1120,1.3473903556612372,-0.8274118924579982,8.930955642826243,-0.43951615695216695,-0.12405462270739662,-0.13083654256674634
1140,1.3122669307297057,-0.9455435614408727,9.085022889378857,-0.4850494437157474,-0.14402537686314354,-0.11424074301377256
1160,1.2808645196613626,-1.066886050284696,9.224743810735612,-0.5167556907981634,-0.15801804545082182,-0.08860527223685297
1180,1.2457453180928504,-1.1789607396857131,9.350481900244706,-0.5397804319751238,-0.16564834802775594,-0.052382965897949635
1200,1.2328048458205996,-1.2853110477051166,9.472981402341292,-0.5547858794344219,-0.1703726634616975,-0.006463391351917012
1220,1.2432823664382604,-1.385800350569671,9.600860815673354,-0.558821696543183,-0.1783989639210689,0.04429719384863557
1240,1.277221709020509,-1.4755669054821792,9.721084141804306,-0.5489231928854305,-0.19141623037045494,0.09639581206674669
1260,1.3361435437046394,-1.544482512227853,9.810758689727678,-0.5279724120367391,-0.20296512674684114,0.14802039243482254
1280,1.416567606049388,-1.5964217415803639,9.873208906784823,-0.5026697927745972,-0.20586945975957147,0.19747011492404196
1300,1.5061623705219658,-1.6353947601537482,9.920969666236461,-0.4756187415936411,-0.20002800680013297,0.24227531995163876
1320,1.5985209505259304,-1.6633190465171743,9.958164647565226,-0.4464849212698336,-0.19039668314969957,0.28172970806485614
1340,1.7087052447160203,-1.6847898240552746,9.987970812202256,-0.4100379525175058,-0.1802014512349657,0.3181704706672964
1360,1.8119458933619113,-1.69695067862282,9.993435791078856,-0.37521656265079123,-0.1717975564694202,0.3407738709785644
1380,1.9052951444167072,-1.7037671296495938,9.977964375660848,-0.34108000173442055,-0.16322029668778654,0.35295290195069406
1400,1.9771116185172097,-1.7082696264536807,9.946020877322425,-0.3096403610155634,-0.15477703464096007,0.3565136178550513
1420,2.0281667139869994,-1.7133715803811636,9.906647474915555,-0.2822228071997086,-0.14842193873078396,0.35440635748884897
1440,2.064271881191498,-1.7186109798632612,9.86614357322051,-0.25811425047767445,-0.1444027676529136,0.3485826589025292
1460,2.086058103081417,-1.723662448528445,9.825170213334847,-0.2374497601274208,-0.14258591421304165,0.34006462454366715
1480,2.0937600967503434,-1.7286991347218181,9.787131339029289,-0.2196693380119331,-0.14214984828150176,0.33051368498889333
1500,2.092421559685069,-1.7328492838018612,9.748983889927224,-0.20463358745039478,-0.1427834630113784,0.32121209117424926
1520,2.0866349063930287,-1.7347400206452113,9.712031432237614,-0.19320799469840183,-0.14418051712150293,0.3126982589017594
1540,2.0801979083252005,-1.7347988856405834,9.684730646597508,-0.18514973401917048,-0.14598361530078122,0.30458179152114595
1560,2.071126023647033,-1.7352610689206034,9.669245230818111,-0.17815512577028061,-0.1475273455956445,0.296917781937745
1580,2.0617972574595482,-1.7348308107049897,9.655912188936883,-0.1714520365938291,-0.14837184351272636,0.2897437798734495
1600,2.050261128129338,-1.7344549410962251,9.641910266569097,-0.16613977403301775,-0.14752788245206955,0.28319714815988567
1620,2.0365746470984543,-1.7325225810706897,9.630871711422252,-0.1621379840821701,-0.1455622367766519,0.2768694302670276
1640,2.0264004508817814,-1.7296603743182328,9.626282456785528,-0.15927126895846977,-0.14419209234732816,0.27160231904764215
1660,2.0183746191494936,-1.7264639955075622,9.625238744355737,-0.15636704608743243,-0.14383485654089942,0.26600170278346497
1680,2.01118988794854,-1.722812819170771,9.62562568144613,-0.15317578922123323,-0.14412075386669956,0.25988488584123337
1700,2.002119415534671,-1.7195621607992424,9.624971387426145,-0.14998672189372966,-0.14454012644022568,0.2536591939325712
1720,1.9905879088579572,-1.7160179632648414,9.624420418372294,-0.14693217290385457,-0.14510884956631676,0.24821960117895453
1740,1.9801497575761542,-1.7114568147448603,9.623767462056758,-0.1440943850994403,-0.14581216393985977,0.24370643139026765
1760,1.9710213241464873,-1.706072281203362,9.62242381611011,-0.1416806655496152,-0.14578227517138456,0.24007326868336853
1780,1.9629883581943872,-1.6995954198185814,9.621188658003051,-0.1398628699544633,-0.14497458077092454,0.23726768937098774
1800,1.9570759754291351,-1.6927972771891686,9.62115833330292,-0.13832702615574186,-0.14353023361645287,0.23520843071310082
1820,1.9540595490647943,-1.6847050356241131,9.622584512299738,-0.1367085143814376,-0.14170506016871637,0.2332769871867518
1840,1.9531655467509887,-1.6768445333652693,9.62465834685887,-0.13485818207764858,-0.14029481175832095,0.2313172272001461
1860,1.9523092238085635,-1.6692563025005476,9.625033150883526,-0.13269539762798663,-0.13917178099336464,0.22912990528344862
1880,1.9509038860826076,-1.661819725400939,9.625294265311856,-0.13078124575972103,-0.13849531305641705,0.22681701378152017
1900,1.9490096450146848,-1.6546164245387849,9.625691792267247,-0.12891267962002242,-0.13750990518727466,0.22467993758229282
1920,1.947880146228916,-1.6472182327638243,9.624720481446214,-0.12729050221224167,-0.13628878290564783,0.22276554691225622
1940,1.9480540021058421,-1.6387853920700506,9.622886868520236,-0.12608659180870085,-0.13474638995922653,0.220746716864649
1960,1.947901461230412,-1.6304193362925021,9.621191544228056,-0.1254546558251895,-0.13314769671337223,0.21843174371586999
1980,1.9466091960988599,-1.6229233320195766,9.621566551181457,-0.12506631053915093,-0.13169649712304207,0.21593607105464388
