0,-2.6640602151552835,2.1251807610193887,4.628774642944336,-1.2851153214772542,-1.3051408876975377,-0.16632960053781667
20,-2.689128065109253,1.7074095010757446,5.669250965118408,-1.5823241174221039,-1.5227211624383927,-0.05943031322676688
40,-2.3856106400489807,1.2313822418717402,7.045121363231114,-1.6347313140119826,-1.4876435292618615,0.04780757844647659
60,-2.2336219251155853,0.8457080470398068,7.959581666522556,-1.5083030230469174,-1.3492606033881505,0.11133453988521877
80,-2.4559837769378317,0.6530783110382882,8.26967623017051,-1.3346622234041041,-1.3078524808992038,0.1699065978702327
100,-2.650918279702847,0.48609687173022675,8.084020339525663,-1.228758734006148,-1.4287422929818814,0.24477028899575368
120,-2.798181277513504,0.3635639817764362,7.723060170809428,-1.2206579436858496,-1.605216990907987,0.3316904032835737
140,-2.7487076854004577,0.23576855056864374,7.527758058379678,-1.2856009541188969,-1.8119169289574903,0.4441060936283868
160,-2.5734486015219438,0.09882607360027339,7.5177775621414185,-1.4311546691154178,-1.8738308839107816,0.6066108726050803
180,-2.443765332243022,2.254134591887979E-4,7.695789825215059,-1.6471940131748424,-1.8047420578844406,0.9864839136326576
200,-1.9113801857156139,-0.09513121058223067,8.142963773460798,-1.8214029554397828,-1.7074428533995023,1.3822012130040875
220,-0.5230153644143944,0.07720974250005024,9.017604634313301,-1.9389569788876146,-1.6664487731338729,1.6478341926802134
240,1.5202881416322989,0.2530371187203521,10.458853008550241,-1.9637779604404344,-1.6920798530272387,1.610387329093326
260,3.0087177958498654,0.41071515982477075,12.376110447777641,-1.8075694950599956,-1.7928942661000113,1.3349261726889536
280,3.695840971112251,0.424167555809021,14.023740489959717,-1.4907379965186118,-1.9237047657966613,1.0299048361591994
300,4.327494304094996,0.24699315182248452,15.121721766048804,-1.143215876268713,-1.9760722347668238,0.7564356931891376
320,4.86977129973841,-0.1399302913787517,15.889273646875477,-0.814042701313259,-1.915256900356171,0.4683432253374857
340,5.0134350838477175,-0.6923696394734735,16.381902153860004,-0.4886951554041581,-1.8040948137203419,0.18899861716621574
360,4.951436094512605,-1.3033178224685087,16.514682463020275,-0.15745227157500138,-1.6846998352023541,-0.048619618476220185
380,4.8033061880957,-1.896797491564895,16.24946794509888,0.14953045307686835,-1.547658797381728,-0.2404543027874421
400,4.532340626050344,-2.4534085694400742,15.662217138827533,0.4449247344900137,-1.3740998916809672,-0.4027081567114326
420,4.259002848108719,-2.835992760055668,14.930394491979055,0.6611536456742785,-1.2425609590475457,-0.5015455409193637
440,4.026431344488734,-3.131702472661671,14.034588168483031,0.8237958121064463,-1.1548362477094327,-0.5754108143602743
460,3.825330167218591,-3.366671850584974,13.0388255911042,0.9248875081915446,-1.090335391316036,-0.6444773556725734
480,3.547326333422973,-3.557511018896566,12.035299210583123,0.9695105104553468,-1.0315294924770817,-0.7075356919322958
500,3.191934411875277,-3.7085424221564676,11.070899925220793,0.9669222567474174,-0.9796639880748622,-0.7480461611477746
520,2.7876517924035453,-3.8262488535932593,10.18901768004572,0.9223706207934532,-0.9359151592167715,-0.7567572553520435
540,2.3783586046941902,-3.9126915180164836,9.41642580628395,0.8419689179600581,-0.9034099479043938,-0.7280181049591983
560,2.01191710433414,-3.9750684344467997,8.752830707475919,0.7339245552870155,-0.884286427193423,-0.6639692627398313
580,1.7209481534858544,-4.036328542038677,8.187131224366707,0.6022183266203336,-0.8770506973151209,-0.573329935162669
600,1.4762372802502997,-4.117849668649238,7.718921980285269,0.4501512661781602,-0.8777360005604881,-0.46262622342488957
620,1.277514425028144,-4.240683930065796,7.353843798846689,0.2793465671733818,-0.8860416325868484,-0.329681018774419
640,1.1759723640978337,-4.403039582128878,7.153515608443154,0.09182684961016531,-0.9022174053687464,-0.17699805624541584
660,1.2632655343007444,-4.596961202160005,7.216219911652226,-0.13133981227073618,-0.9290590794676895,0.007893604248107868
680,1.658972494044578,-4.723162313371585,7.663662268517324,-0.31613426083108276,-0.9687126218617118,0.16512999307682238
700,2.404713333031889,-4.7116774785316595,8.549245833744436,-0.4531071282165535,-1.0091584831949765,0.28270189323131056
720,3.231648167933371,-4.530760613408419,9.711116922373819,-0.5077969452655158,-1.0167183104884063,0.3418445709659395
740,3.9824786444712683,-4.243866981225765,10.780068074966934,-0.48024585494514066,-0.9869783072795276,0.3538234077223316
760,4.605630219706734,-3.94934984079349,11.55382997582325,-0.39907192498398797,-0.926479835737625,0.32742627899725935
780,5.074365420238505,-3.741049969415052,11.98501515115073,-0.2860905998913338,-0.8542444668226058,0.27111534583339586
800,5.381244477029167,-3.6473932781326237,12.115667940431566,-0.16256776911331647,-0.7872208074485856,0.19173992974961648
820,5.520583074724535,-3.6415889540323363,12.026531733333544,-0.04160337742016197,-0.7287213710753068,0.10124507290514799
840,5.555708598356132,-3.6867745030469705,11.777259988206149,0.0654599063225791,-0.6786079228937923,0.011523245877594266
860,5.535577502236559,-3.7528823590046185,11.414076490208382,0.1520900986466069,-0.6325083292455187,-0.0741434584133078
880,5.451064665498131,-3.8358322115534027,10.934071641789911,0.2198921326527615,-0.5934342050838851,-0.16605029048261474
900,5.320587054112965,-3.902493406404206,10.48915409523637,0.25504325087519086,-0.5751627067653858,-0.24089094318395005
920,5.132938700320665,-3.955474721190209,10.027909780435342,0.2648875114294545,-0.5656045535555071,-0.30437962978248834
940,4.902776244856721,-3.9901882500520776,9.601413758329059,0.24688581841978796,-0.5597369465573063,-0.34985642305846154
960,4.657738364841789,-4.013993033692241,9.240919800894336,0.2108129280153662,-0.559981640947517,-0.37461901593604124
980,4.419480402004339,-4.026556320561498,8.909790021431286,0.16141458608977058,-0.5712923568961046,-0.381287968513218
1000,4.186747619649395,-4.037231630359131,8.606065496703824,0.0981728006960251,-0.5949640217429708,-0.37066131309592704
1020,3.9917859827818454,-4.052983274367058,8.332589623966378,0.0203448727393066,-0.6310645005169307,-0.3412219600385178
1040,3.873589421156794,-4.080891695770401,8.102983434348264,-0.07276304982844051,-0.6765829038405273,-0.2958176262489158
1060,3.859737417559055,-4.121523969214071,7.95297839587385,-0.1811382530003109,-0.7320828969484534,-0.2390511848254722
1080,4.0321866025582755,-4.161560455004552,7.951465179877622,-0.29895752966902883,-0.7985051892277885,-0.18161090991114698
1100,4.463331319228695,-4.178549353807708,8.216395230992356,-0.42454169647405393,-0.8736348455380526,-0.14887348706457007
1120,4.797730150584388,-4.157640527741148,8.656406177528973,-0.4928548287776909,-0.9242982793065463,-0.15581474219276248
1140,5.136734799826498,-4.1332469074091,9.25846739097579,-0.5164801197610874,-0.9704502541827822,-0.1887197907567103
1160,5.34772529192811,-4.085863662051064,9.613628721534587,-0.4976239626890285,-0.9885574825197118,-0.2290344282630405
1180,5.484673301790267,-4.031077627328764,9.829003847937399,-0.47634038541671686,-0.9819142706901719,-0.2742919458432508
1200,5.54024420482232,-3.9852259304801705,9.98713549857648,-0.45151308651871125,-0.9556489288788177,-0.3222924516221482
1220,5.527449189716637,-3.9507769628916636,10.069345478964324,-0.4181486948808231,-0.9225121017121295,-0.3686529659739889
1240,5.475621784334643,-3.9211093377300172,10.078737497794465,-0.3823851207470917,-0.8889988117613494,-0.4090354925695059
1260,5.404800790842915,-3.8919482775132623,10.048150875289243,-0.3487145763369645,-0.8555915591909394,-0.4427237515016003
1280,5.322059579707668,-3.8622747620810634,9.999664244444475,-0.3180167496922674,-0.8239478700422807,-0.46883536464427306
1300,5.235726976992642,-3.8281333743415953,9.947038361036133,-0.2890766565956772,-0.7972075322580487,-0.4869511666676477
1320,5.139001501805999,-3.7809639803983353,9.876385453856471,-0.2576616399822545,-0.7706884875494454,-0.4980191826153437
1340,5.063781761151703,-3.736897595920625,9.807228609192006,-0.23611637027715257,-0.7493323034322257,-0.5001162627171287
1360,4.978421842158106,-3.6782976222256076,9.720432664833817,-0.21790406080676697,-0.7241249265607427,-0.4946964473551581
1380,4.902991733673894,-3.6002103202306386,9.633416044921205,-0.2054275354207085,-0.6979766873397717,-0.47889962534730635
1400,4.866597001978993,-3.523123604732092,9.56976917994476,-0.1991849095853864,-0.6783784356171259,-0.45984023441898936
1420,4.853895537720503,-3.4414960793998257,9.518404738081193,-0.19579316155568605,-0.6617657615955753,-0.44018688994863486
1440,4.8526565101787895,-3.3564224481106004,9.47900387052735,-0.19374903259243853,-0.6456830621452418,-0.4224124428759696
1460,4.85605744550939,-3.272042405281055,9.4586088700944,-0.19158316318462432,-0.6308126015406089,-0.40644552594397304
1480,4.858767264031718,-3.1999979243416505,9.448033907926337,-0.1875322407932741,-0.6195341322696439,-0.39348634616097156
1500,4.865802606111891,-3.1169957794985663,9.434382156189683,-0.18059803539663674,-0.6090935250092147,-0.37958186684777084
1520,4.87363884395361,-3.0315737000584604,9.415860662460327,-0.17361977063640952,-0.6004490649387241,-0.3677360608443618
1540,4.875935078078546,-2.936090079121503,9.392972349368435,-0.16733945077887447,-0.5914523361576868,-0.3556663121202555
1560,4.883034652302105,-2.853789002086236,9.374905187021534,-0.163225009552177,-0.5820353693369417,-0.3452560310106945
1580,4.891293309686276,-2.772666329340293,9.356339485828693,-0.16030824985283498,-0.5691627510020939,-0.33614104558498814
1600,4.896606702968977,-2.695438084008574,9.338458180427551,-0.1590465500779729,-0.5553419882825104,-0.3285865668521622
1620,4.895283665111487,-2.6130561879661487,9.330723597013254,-0.15751708046097876,-0.5434358171361877,-0.3219200533422372
1640,4.8882811804502095,-2.542460589684822,9.330854566008956,-0.1535331899552882,-0.5380310604845484,-0.3166678963422223
1660,4.885629637556841,-2.4747460845906946,9.32722337319247,-0.1464811462223275,-0.5347680281806808,-0.31174777441495816
1680,4.886165839405636,-2.4077815175509314,9.314498239246705,-0.13850477315910367,-0.5313354322481928,-0.30761449746437125
1700,4.88380478076285,-2.3406845521453623,9.292552830323642,-0.13253747244062067,-0.5270639698038435,-0.3041960918577721
1720,4.877960521090233,-2.275187349481748,9.269776132184344,-0.1297541028353823,-0.521312371814556,-0.3009311379402114
1740,4.87082677890996,-2.2128842514815865,9.255977107428171,-0.12867561151620352,-0.5144007344359633,-0.29738763415961283
1760,4.864930819374809,-2.1531259622089927,9.247379496549339,-0.12730273394756866,-0.5069510294537342,-0.2937833123560544
1780,4.860297528270086,-2.0948525751277134,9.237725054027282,-0.12494054523389977,-0.49966292503320553,-0.29065644469480995
1800,4.853132947724872,-2.0388066437251675,9.22009314413161,-0.12284644489929254,-0.4919516922105164,-0.2879684613127556
1820,4.843319620981992,-1.9831275535495565,9.198478482015322,-0.12270312307415271,-0.4838701419774802,-0.284960146807477
1840,4.829366994312122,-1.922998010885542,9.178253794788684,-0.12514420761303327,-0.47266014994660527,-0.28100195804610234
1860,4.816980087349474,-1.8728802726160325,9.167420409424766,-0.12839820295401924,-0.4600865671043635,-0.2770264359416272
1880,4.804210818522257,-1.8246140616796331,9.157562320405338,-0.1313605280829035,-0.4473575438757031,-0.27271382569156255
1900,4.791292031023365,-1.7774116192968228,9.14472537193543,-0.13418425391256536,-0.43557111217932964,-0.2686883193140742
1920,4.77746235994329,-1.7324076634618988,9.132532031100414,-0.13734809574879397,-0.42526905611281607,-0.2652291663682152
1940,4.763766248350093,-1.6895419255217266,9.124080031061892,-0.14072001198414613,-0.41720088917753945,-0.2622376800602215
1960,4.750193752190886,-1.6498110591716582,9.119752183778962,-0.14347828113752248,-0.4102333389531334,-0.2596084782116715
1980,4.735334760632306,-1.6147748004879374,9.116850431691557,-0.14496879341115523,-0.4042465379783771,-0.25683918932401695
