0,-0.9127685987494059,5.074780464172363,10.46889697180854,-2.1497390932506986,-1.5036788781483967,-0.050737932324409485
20,-0.9129251362755895,5.2653802142423745,12.027506772209616,-2.3104791430866016,-1.8984951131484087,0.2820562553756377
40,-0.42094865430146455,5.6093275833129885,14.508645706176758,-2.2695529365539553,-2.2993390941619873,0.5432227331399918
60,0.43211960349457734,5.849363702716249,17.001300869566023,-1.9845746900096084,-2.6943216901836973,0.707203081611431
80,1.5312937665957866,5.881584062808898,18.64388433316859,-1.5386843689512917,-2.806020934407304,0.7793513220257875
100,2.7069587142453813,5.642470749057069,19.311092182081573,-1.057067652822149,-2.62761618409838,0.6972721423193509
120,3.7384995928426323,5.639136757766991,19.331337978965358,-0.6489777319917553,-2.314064767027862,0.5230813834554794
140,4.645902635063976,5.423195374734474,18.964636412533846,-0.2731870020542181,-1.8684108756362658,0.2917418726296587
160,4.989343741090616,4.774115630098291,18.210240531612087,0.009247234896630855,-1.4396070397075114,0.0983518758990072
180,4.86323339877105,4.125625780442866,17.16510573247584,0.22895960650611213,-1.0748557864614512,-0.053484124903817
200,4.580341991482095,3.4185978134473163,15.780252154668172,0.3774232648726967,-0.8291297338152718,-0.12425896738552385
220,4.018403042364409,2.660769072114205,14.239760321013781,0.4715651063514607,-0.6794594759002746,-0.09076267874286491
240,3.552220814659278,1.7759748528588493,12.766674766000712,0.5590288827090331,-0.5778315316178432,-0.0673159912474594
260,2.9515045379582596,1.1960392029661882,11.358359612916646,0.6406833840239989,-0.547697089814679,-0.09068172635804665
280,2.4424881329530943,0.6876454812581422,9.840154124087976,0.6646439488977194,-0.5752276114443867,-0.06541248577356827
300,1.9225375194030885,0.2978667580164396,8.44579725265503,0.5913837134981385,-0.6156150433360241,0.0020409198191303473
320,1.551035535528554,0.028393134690713192,7.286135694255,0.44086749097197386,-0.6650525219789098,0.11732985050943882
340,1.391440784960526,-0.14127334748228934,6.331185203709015,0.23754928497061745,-0.7227053920441779,0.25255155801926166
360,1.4967172990583124,-0.24225237215718914,5.490652065892373,-0.03437344219175077,-0.8115526753612944,0.4045734074207083
380,1.8731992170386063,-0.2949841358910309,4.962745182353295,-0.3047762110806499,-0.9183531261429168,0.5344649011532039
400,2.672477744361767,-0.3598692061608298,4.6933981432900795,-0.6041225261049487,-1.019206689859942,0.646371883901152
420,3.8601293935695424,-0.48630940381375104,4.8437198335565,-0.9416719138851213,-1.0676939055029635,0.6954918553189026
440,5.229288396883736,-0.7668673577793141,5.595944179729982,-1.2954913246978255,-1.0671005383330612,0.6452985912621181
460,6.411062191593914,-1.2051001872771825,7.211269060312174,-1.5591113888204862,-1.0557174747224707,0.48131536274957354
480,7.310520125043767,-1.6757822606363908,9.058341843300852,-1.601754637471781,-1.0442398005919853,0.24639488498822515
500,7.939955417486129,-2.1558354957408814,10.352296471737008,-1.4882836768677308,-1.0279502196720762,-0.025855559882182647
520,8.214698564971386,-2.611205702502978,11.133429256884474,-1.3230613157340245,-0.9732462549826649,-0.2884158331594647
540,8.187717464965838,-3.054188123883655,11.539415665791424,-1.154488757605529,-0.858132595109183,-0.5018960983299605
560,8.01406177350102,-3.470903214495233,11.820206690468687,-0.9772463867242666,-0.7155916757752842,-0.6607966570223266
580,7.77539669485847,-3.862348615877913,11.99232658694801,-0.7682242224475851,-0.5808711479688178,-0.7734934680332495
600,7.452901881480116,-4.22029070674427,11.962628903488318,-0.5375422165910917,-0.4548105334824107,-0.8366568492302501
620,7.166451393752,-4.458844900589723,11.753669435817462,-0.2849591702437745,-0.30918869201649124,-0.8456888752559629
640,6.912938154340764,-4.610055333198006,11.438488700183859,-0.08223476229624739,-0.18296723899261247,-0.812957905712468
660,6.714836668597696,-4.670808948036553,11.016673830668509,0.09162766106453711,-0.06580753481619572,-0.7592250570128469
680,6.549552205054772,-4.618508642198334,10.512837523850285,0.2256106719387774,0.033412558430786124,-0.7050985609259929
700,6.384958259298862,-4.459247691939547,10.006129599310304,0.32274396552334295,0.10984525729803216,-0.665367605579277
720,6.161156033721442,-4.233676211784283,9.536936287600547,0.4023095665189127,0.15927527857090656,-0.6400097263169785
740,5.8408307665807815,-3.9361992199215794,8.953345485823833,0.47132432555731435,0.18204112391837254,-0.616377045370203
760,5.478774116807794,-3.5781896543936638,8.191240046332485,0.4990547421812728,0.16422600403230614,-0.5842069037364725
780,5.195566320903944,-3.2426052571354824,7.461994172355597,0.46555381098670173,0.11498090974701983,-0.5388514424191305
800,5.073950053649921,-3.0175516051969615,6.9860270322435145,0.3858684535272958,0.06265601067290451,-0.47924559005165857
820,5.306871832244623,-2.946337702337248,6.958634761874933,0.2865446135237857,0.015569414040128375,-0.410907789655139
840,5.844973330466039,-2.944803597250777,7.356292546409207,0.22541742514082388,-0.012290746397218723,-0.39481466082605216
860,6.127023722232954,-2.885924863527302,7.789476017423329,0.21549339398366063,-0.008233398195820488,-0.406072912059453
880,6.181867164411671,-2.788865849804388,7.962187029661177,0.23352615288267398,0.026699282456674193,-0.404131818486199
900,6.1539676003632495,-2.634431703540499,7.931033705992889,0.2537512789822456,0.05982221299769911,-0.3934177287851757
920,6.066276678377934,-2.4408455996962357,7.7954054830102075,0.2704457209843976,0.07666002335503522,-0.3847780330155504
940,5.930942855504818,-2.218588572905272,7.621371170180278,0.28216642886400223,0.08309603434901176,-0.37628968154705084
960,5.790638622485327,-1.994188667901367,7.417852425394153,0.28211008231871076,0.08808798881855227,-0.36206847079149834
980,5.683683155162007,-1.7719124088132823,7.2391922875456975,0.26702258165603804,0.09271044676238097,-0.3434773059067443
1000,5.617428635531184,-1.564173992894608,7.129352976471077,0.24479319359069876,0.09220279706360154,-0.32575082225887414
1020,5.582318559357556,-1.3773012739427015,7.064397725150555,0.22268875214025696,0.08729397250735367,-0.3112561821908803
1040,5.562441444304492,-1.2067437694866063,7.01949551879995,0.2001286630273421,0.08428531479240245,-0.29988583549748593
1060,5.544322446736697,-1.0563845242154135,6.995222107407123,0.17422005205118957,0.08915081231969939,-0.2902274193738756
1080,5.509833928412704,-0.9079916862595508,7.0097177129347426,0.14568540913307612,0.10051843885284319,-0.28006546923393727
1100,5.465793501140574,-0.7893541626435282,7.033908920054886,0.12730010849985782,0.1117871268513912,-0.2687269904382018
1120,5.417285549916021,-0.6762664576597286,7.041948726598286,0.11449970483973429,0.12594551119390973,-0.25414614420428516
1140,5.369419968094518,-0.5669470138213736,7.025591386042218,0.10156276319572266,0.14802956442061335,-0.2365360949495609
1160,5.318236268431369,-0.4611665474788664,7.00437022893296,0.08476325662253292,0.1770206833278729,-0.21726128791661536
1180,5.270314597511288,-0.35914453365859184,6.989100982542361,0.06599613256108613,0.20833096718041938,-0.19727192686414616
1200,5.226437029294926,-0.26180377088275997,6.985632332151205,0.047704231687764886,0.23741956676972978,-0.17841626404264285
1220,5.183690775169127,-0.17055212078519552,6.999974480110306,0.03336832335448835,0.2575862506275581,-0.16232181600836731
1240,5.140491664378593,-0.07919531994882752,7.01839373478045,0.025680553021968578,0.2638994800734936,-0.1490602487068185
1260,5.101715446638598,0.013269698714772706,7.029456625958638,0.022957098817733265,0.25785661990436076,-0.13803345766763517
1280,5.075957233204857,0.10454305764216887,7.031768561694983,0.0216865470427524,0.24644948953998136,-0.12970551176212672
1300,5.061887426962832,0.19488462701105,7.031885309985486,0.018986832015634923,0.23724137643946872,-0.12495155529858551
1320,5.038750785680807,0.29255407023660385,7.032571597141428,0.012140608912344137,0.2350346924086199,-0.12179661050874527
1340,5.010911345020437,0.37357089909202607,7.040210222304814,0.0019101358395739172,0.23666805412980327,-0.11766085688433797
1360,4.982429157827576,0.4493896555628674,7.05714173770588,-0.008331468192217388,0.24101120377524235,-0.11234477108964207
1380,4.956077043103412,0.5198502035604583,7.0732068581707,-0.017971251626388948,0.24696402464635223,-0.10662915719167133
1400,4.930758102845562,0.5859842457589896,7.086175848436745,-0.027775387595529142,0.2549660254047131,-0.10198871381823783
1420,4.903209058307494,0.6504265316993663,7.101738531771875,-0.03809798462875507,0.264207445788333,-0.09921695677224886
1440,4.870173117204202,0.7100037721233118,7.120908058974924,-0.04779324216638926,0.2762737028594657,-0.09802711036177619
1460,4.828791383285393,0.7650868219629751,7.139477581267738,-0.05675558309274444,0.28970891849265334,-0.09704777584465622
1480,4.785841056869919,0.8143540229617665,7.156847406586838,-0.06541850582329799,0.30360342058985257,-0.09515710382858872
1500,4.743307155878018,0.8601586442289314,7.174559780382892,-0.0738577837260758,0.3176967859756565,-0.09250064942062022
1520,4.702350004310055,0.9053327979499035,7.1976145147458075,-0.08172808435669297,0.33119822222998074,-0.09009195752157852
1540,4.664344364955797,0.9476079260325281,7.222377196293791,-0.087013371383237,0.3453356296347274,-0.08906368278306444
1560,4.6235047986188755,0.985983480648349,7.239900746754428,-0.08947731861159648,0.36031517890174125,-0.09059011635293307
1580,4.568905270443956,1.0266675491812978,7.250483304616266,-0.0914423732775072,0.3724315397249221,-0.09256862599037047
1600,4.515573653834694,1.0631327592348325,7.256821753536813,-0.09444583362067929,0.3787117397060746,-0.09397837107802051
1620,4.460350164778385,1.0962759840385048,7.265138552320466,-0.09860757028130564,0.3792425206617268,-0.09528821908979822
1640,4.4056956209380935,1.1254168730783498,7.288158813699348,-0.10112853260535952,0.37879460423819766,-0.09714312438302064
1660,4.348876631547532,1.1578722399495103,7.3106354358743,-0.09905586573295296,0.37660807649474864,-0.09875475098036558
1680,4.2939986557575205,1.1861195466914323,7.316729301226672,-0.09731329714088853,0.3706324477737558,-0.09681908813573226
1700,4.248021529417421,1.2160780987884292,7.309888994157978,-0.1023750636678446,0.3625167278875998,-0.09300937592627309
1720,4.213771669540702,1.2418721101183274,7.3111852796362,-0.11240676334074867,0.36314691407427413,-0.0914001321977015
1740,4.190311469135041,1.2563550078503167,7.321983779548065,-0.11981365341845537,0.3638374334144076,-0.09196206972552057
1760,4.130184728566868,1.2870369788362748,7.363880396828366,-0.13313146201221066,0.36161257873528585,-0.0946244178863708
1780,4.085679766237173,1.3071411805186461,7.399024972167624,-0.13899502781178844,0.3561819998594129,-0.09562152969090595
1800,4.046593915707806,1.3243287075817098,7.427619738046221,-0.14266862198659827,0.34811874981824076,-0.09555920083948877
1820,4.011059113844518,1.339228019568949,7.452032786170622,-0.14599546618629447,0.33895602662733415,-0.09506365889745955
1840,3.969244075106682,1.3547350612789353,7.481010825458573,-0.15031574641516404,0.3298564666123371,-0.09420478657991248
1860,3.9284742109706374,1.3677733658510658,7.508635198501637,-0.15412340132805974,0.3240454357558599,-0.09155573004565438
1880,3.8889325785702544,1.3812816338068643,7.537846246167475,-0.15728110610537704,0.31955563791141023,-0.08653273822809963
1900,3.8575536141374616,1.3950604051255657,7.567898337548285,-0.15929892587030794,0.3163654566541712,-0.0809585290686485
1920,3.8305608248106755,1.408893942956332,7.596154122697604,-0.1602714198671139,0.3141725742533969,-0.07633454014612422
1940,3.803399889331198,1.4236322868084548,7.624425724155797,-0.16042030651314937,0.3124840287758862,-0.07317001870416415
1960,3.7743595643439907,1.436037026364333,7.6510920669957905,-0.15976361352508509,0.31095355942806974,-0.07088394839660765
1980,3.7423469423367073,1.4479595939680583,7.674175811443381,-0.1585313134754194,0.309118241764437,-0.0680828065644807
