0,-2.868754529953003,3.120231556892395,3.7812570571899413,-1.508268028497696,0.3751871332526207,0.3649545907974243
20,-1.7608716630687316,2.932568457391527,4.003674493895637,-1.973652485344145,0.36870677024126053,0.35249099632104236
40,-0.7778286849363492,2.6138875667865458,5.096970273898198,-2.2988130702422214,0.4844791688598119,0.17270713342496982
60,-0.2338666220140808,2.26991506709772,6.077010161736432,-2.4491659841116737,0.6906307221335524,-0.05924938016516321
80,-0.22387731137375036,1.9312982041211355,6.695334462892442,-2.4998339315255484,0.855519926618962,-0.2520465681418067
100,-0.6653458469492548,1.8783528436632717,7.17848437907649,-2.508126288068061,0.7252988079014946,-0.37476607755410907
120,-1.0016865209376409,1.9330649926500805,7.5214982962204235,-2.4835781172170477,0.2558368737414732,-0.4043207063134444
140,-0.7038498053243801,2.1057584450316074,8.226999699179807,-2.410078773747629,-0.2991054316065205,-0.40756325629442486
160,-0.049497075428565344,2.2780149352550505,9.551146739323935,-2.2224390647312005,-0.7021610140800476,-0.4468585853278637
180,0.2335576889475426,2.399578823023532,10.692406496369696,-2.0059704824676174,-0.877297580242157,-0.4811586458011564
200,0.12443573711501373,2.6043601288245273,11.893351725169591,-1.7867135154288059,-1.0119364661174817,-0.41022956428619534
220,0.2118261723280555,2.699404845635096,13.270924801778312,-1.542968201902554,-1.1754155935663166,-0.284894911252489
240,0.41512180450502956,2.4573349002922806,14.55348233419044,-1.231678080135765,-1.4202240410252152,-0.19914423966797712
260,0.7314598121396874,2.1270689930604854,15.3677788713704,-0.8787360956568433,-1.6719200243120609,-0.20266692900787228
280,0.9964449848161965,1.830612800712508,15.630053925320384,-0.5824619035607552,-1.7403046198007537,-0.24224443554999384
300,1.2068339246431834,1.4411436344376047,15.595490311848298,-0.3447851987470311,-1.6144847346626165,-0.30111037823193854
320,1.1110134103047333,1.0528092639480564,15.285015327467335,-0.11694374515025092,-1.392551803331581,-0.3599828237520276
340,0.9865862503396096,0.6617050732712488,14.603211489883629,0.13465930173500767,-1.2612960722794555,-0.40589140921931816
360,0.9010800663620616,0.38458487143119174,13.767708970663639,0.34393326302345556,-1.2523553514321788,-0.4572120404635102
380,0.7413753945062437,0.1522589789294615,12.740920316609667,0.5112641164294739,-1.2650855348598802,-0.5129020552309912
400,0.5107518508813755,-0.0450598017074341,11.59501413385882,0.6035788802072666,-1.263879307965358,-0.5494114275112055
420,0.3050456581637263,-0.21281081322166656,10.522305885702371,0.6190671032863773,-1.2532846528286528,-0.5600711998219291
440,0.16393144252373182,-0.3429719185892572,9.542675474618978,0.5757667287500535,-1.2316471111262217,-0.5512666252263366
460,0.033065930141934326,-0.4679819578114821,8.703599121877733,0.4830340656347345,-1.2113628376498629,-0.5273594405711153
480,-0.08960191600536015,-0.5961720524173156,8.03630055143845,0.3587890032121875,-1.2088259968098582,-0.48331186316870883
500,-0.1568963849776477,-0.7257361469684906,7.511482020383173,0.21776918630677997,-1.2239243209357638,-0.4216853303852368
520,-0.16447253455831246,-0.8753796849738468,7.033737223595381,0.050779105176810516,-1.2299326800212094,-0.347595759100196
540,-0.12435277071517108,-1.1313068805563398,6.741488731258821,-0.18026070316692236,-1.2229233338318635,-0.259547949577458
560,-0.09050547232544875,-1.4467737655850905,6.743142429472022,-0.40320161538678007,-1.2127555556937204,-0.17793854551570576
580,-0.054997475642939005,-1.8604512575937777,7.022021616417534,-0.633653661308392,-1.2085889873208897,-0.08838206185218023
600,-0.01891305603619133,-2.2881751506338044,7.759882639029196,-0.8048263590760707,-1.224052311266802,-0.0021552639451646615
620,0.04088967982893703,-2.746637884341894,8.987123072547018,-0.9034713823027138,-1.2268231452649667,0.12459551263957416
640,0.14658588028364022,-3.0376149740582505,9.897984004541401,-0.9079707065514084,-1.1911509859957299,0.25128907367559394
660,0.3276248470029461,-3.196529809425884,10.630653463707503,-0.8745778491451583,-1.1315883936861442,0.384697628614328
680,0.6499326932979258,-3.242486820827451,11.220641768344661,-0.8079078195485891,-1.065857039919744,0.5113118056992166
700,1.0838567251562055,-3.2223068196008637,11.63518520889632,-0.7178014876994816,-1.0008792544384535,0.6170980159650992
720,1.588431126366917,-3.1734089666228753,11.926688526704462,-0.6206253895820721,-0.934577673455496,0.6966635676230802
740,2.104315408333702,-3.1357860253659653,12.164746509545443,-0.5154255406846651,-0.8719832570032853,0.745224219918685
760,2.6139003279378765,-3.1228194009020642,12.345814056881943,-0.3814400942533412,-0.8188971561078076,0.7643682953239705
780,2.9888375691406748,-3.144954642360927,12.408508549210119,-0.2530268399713367,-0.7913197920889097,0.7538753959744529
800,3.2849343516445626,-3.1902235158367787,12.400192625999093,-0.12207547259310673,-0.777631472476931,0.7209416129263843
820,3.4936333449546533,-3.244411244465594,12.327894347235125,0.005479643385508779,-0.7706652053329571,0.67061055692904
840,3.6317393433302643,-3.2983526097876683,12.199504647723266,0.1251218381870006,-0.7651450545167816,0.6095780349788921
860,3.7170704710687503,-3.3416277274239663,12.029889242401003,0.23309672161073075,-0.7590518369581343,0.5433328342493936
880,3.7621308683310866,-3.3721222060788523,11.839864609467853,0.33008204994193924,-0.7549713248007834,0.47426726169823136
900,3.7677501115828433,-3.380384504237277,11.616472776919444,0.4168556636911543,-0.7505185064364145,0.40381128434091806
920,3.7399673612583526,-3.365842724735824,11.354675211012363,0.4888248432608058,-0.7428277305495579,0.33321930703594893
940,3.67694468149581,-3.330710818599432,11.075295415406044,0.5422462428155809,-0.7328890104073649,0.2651341790715471
960,3.584875016309433,-3.275833237822631,10.798890770492541,0.5775999643924136,-0.7218710463903564,0.20450354919268107
980,3.479774758100436,-3.2025777824094583,10.531267054672606,0.5960786775639969,-0.7094112679745378,0.15417700955928693
1000,3.35525514414332,-3.100101872551513,10.249241233841483,0.5975363615698305,-0.6921435334719718,0.10882521574665983
1020,3.2395613085980535,-2.9830960399134363,10.032414497389297,0.583538079028839,-0.6721566138518248,0.07673325361001435
1040,3.121571900353285,-2.8393707956055616,9.841674678442512,0.5595019669304419,-0.6480870828531647,0.04800518684676933
1060,2.9794917127927913,-2.6607195136470376,9.674515399038112,0.5278828603731032,-0.6246205987292077,0.021718221345326624
1080,2.819007760418008,-2.44856734619678,9.53024925284871,0.49412109688449424,-0.6087300290011903,6.904296151943655E-4
1100,2.6491233185998033,-2.2055130513405405,9.379307446276748,0.4601301097014284,-0.5977681741788778,-0.014827645664195439
1120,2.4878408666418514,-1.9452421922904497,9.226298428605237,0.42376134134869275,-0.5891062880340223,-0.02374458414769971
1140,2.362709747971433,-1.681802114380836,9.057557443929975,0.38534742259003235,-0.5875407352093449,-0.027076392847799446
1160,2.325149057926863,-1.4599419720470905,8.876632755037031,0.33321620683168257,-0.5906399158476064,-0.0318536634492787
1180,2.336132639120247,-1.339538909104754,8.831947171615028,0.2724064718951037,-0.5920710961216796,-0.04797533691862648
1200,2.3549768381648595,-1.3487395831280284,8.934758625271721,0.22779165452741312,-0.6040903678836508,-0.07360445578968285
1220,2.3800400456424735,-1.481483918816503,9.05964027546072,0.20265254449973227,-0.6323808106731728,-0.10631145793522447
1240,2.327547437773319,-1.6757559483376099,9.240809021192035,0.17963446624889912,-0.6496616654126228,-0.1342062888907094
1260,2.2400987077504397,-1.8006126115385157,9.43390862542885,0.17800766189331904,-0.6402935607945367,-0.13808545981390544
1280,2.1900477617752845,-1.8512274766980583,9.492567134446745,0.19380311817602314,-0.6273242227703976,-0.1321672695234729
1300,2.1412994733997692,-1.8190889099279224,9.419290481352443,0.21278812441411915,-0.614253723105579,-0.12284933718324487
1320,2.0983717955703685,-1.73293759267065,9.323124608704616,0.218233681830016,-0.6038721483761466,-0.11625559692038223
1340,2.048531447118823,-1.6182956806640478,9.246007989412107,0.21462971987236507,-0.5914351701533145,-0.1105264891040228
1360,1.9975319090964538,-1.4959805896106575,9.192658431317458,0.20558935286909608,-0.5792336919224389,-0.10500767553956913
1380,1.9542432543100186,-1.3759809504591034,9.167477353484186,0.19451182493185756,-0.5698562205798225,-0.10023040438241416
1400,1.9167890965990309,-1.268146268907003,9.166912684134635,0.18443461311107967,-0.5632183786710812,-0.09715876479620217
1420,1.8831826104233935,-1.1736580507880816,9.174434375395833,0.17655151276307002,-0.557620626455452,-0.09551015658358317
1440,1.8460584759863246,-1.090688709358408,9.185782233726648,0.17037229957468053,-0.5526933013357307,-0.09465017096797079
1460,1.8059406025956075,-1.019823315826555,9.198312391559593,0.16597262878126154,-0.5494233629377171,-0.09283307502201447
1480,1.7687121656874718,-0.9449198053070086,9.20811506652706,0.16232843097752,-0.545291015375765,-0.08935809985249746
1500,1.7371694577715966,-0.8785258142135711,9.217929820883326,0.15974095365186516,-0.5409372928580631,-0.08551620875109392
1520,1.7105651728510856,-0.8123676741480828,9.225332051964104,0.15786057885214685,-0.5355871505996213,-0.08077302592545747
1540,1.6897185103376329,-0.745498107966936,9.231858563197461,0.15668658165873203,-0.5293843891686064,-0.07601005468211515
1560,1.6709016989131986,-0.6833540332182522,9.238476243778168,0.15658056304692733,-0.5233273145162636,-0.07208390376572722
1580,1.6509840872478836,-0.6244248020332106,9.242878955869271,0.15809885501927584,-0.5178528946882849,-0.0688076950853636
1600,1.6306183123415339,-0.5652975476200903,9.235859161933183,0.16015982481507837,-0.5116532590429105,-0.0653777897111289
1620,1.6110018514411846,-0.5047548952743524,9.216316463463569,0.159937355893531,-0.5029147969244054,-0.061847791620495175
1640,1.5913037120213769,-0.4465128038892243,9.200249055626056,0.15681088017714923,-0.4919504378119982,-0.0587562767727879
1660,1.5698738221842221,-0.39347254152296224,9.19531387670127,0.1534168507825862,-0.48129608759812925,-0.05590399080769825
1680,1.5500678286978269,-0.3466208737954519,9.19738289659386,0.15210461322858887,-0.47377572631813286,-0.05327177796707487
1700,1.5262519942895432,-0.2957265990917013,9.197438115821111,0.15340615502014265,-0.47046959005051847,-0.05117655333723969
1720,1.499865778215314,-0.24879030354595386,9.189500357645693,0.15549645904733908,-0.46884864992771896,-0.04888460434387536
1740,1.473433519635318,-0.19813588844920074,9.172958737428376,0.15635828367507487,-0.4651708036528734,-0.04522142498375697
1760,1.449875886856457,-0.1446830753206051,9.154581068064296,0.15482777165806236,-0.4594070461227144,-0.04043768184940612
1780,1.4339671509774172,-0.08742150238727871,9.141435606937142,0.151078428773286,-0.452728432258908,-0.03517144072979485
1800,1.422414490973279,-0.029545071557527634,9.136071749916175,0.14631408297136264,-0.445127913385292,-0.030895597603030726
1820,1.4113150800730603,0.026345211213539495,9.139221555202571,0.1418104259404616,-0.43648377492862633,-0.02749613030930986
1840,1.3991806330480452,0.07977257207510326,9.144991770442278,0.1392425321825639,-0.4280944137788909,-0.02486602550579991
1860,1.3851699757944607,0.1304562734122195,9.144153529358906,0.13794760026521688,-0.42091990998057394,-0.022925831139175675
1880,1.3706292994931195,0.17891107140616938,9.139749507873331,0.13697010269872362,-0.4148075706823166,-0.021548900507729164
1900,1.3573850720126066,0.2251256827772583,9.134703390488214,0.13581622274985158,-0.41026958510546413,-0.020719911724779095
1920,1.3440143242958251,0.27016795964072676,9.133184931145,0.13497315467934837,-0.40762313433084923,-0.020401804265092215
1940,1.3312025864647292,0.3142181245389603,9.13130494097942,0.13447846115099957,-0.4060442944666615,-0.02020079256648254
1960,1.3173860659026035,0.3631362716944547,9.128669526865231,0.134180295867973,-0.4040576276019694,-0.0199959415489817
1980,1.3059147238661335,0.40455454441864597,9.122798112494372,0.13368014970957387,-0.40169655060832943,-0.01980774430916949
