0,-0.06865723058581352,4.293471813201904,11.497158580356174,0.34133370055092704,-1.0299670762485928,-0.32218339708116317
20,0.03240320721969885,4.149864589466768,11.562309433432187,0.38115598173702464,-1.042673861279207,-0.39789483827703137
40,-0.14216836795210838,4.093184337615967,11.355458641052246,0.3796204626560211,-0.9845477437973023,-0.43344386577606203
60,-0.16046631774481604,4.103232145309448,11.224752566393684,0.36107412681860085,-0.9465822717722725,-0.4388065162826987
80,-0.09523054434075243,4.132207189287458,11.11859351112729,0.3524195140316373,-0.959771549417859,-0.45185690763450803
100,-0.020309768095612527,4.076610803604126,10.995247745513916,0.37317664206027984,-0.9985783159732818,-0.47111750304698946
120,4.955200028830562E-4,3.9906808096787025,10.776019211473136,0.4131403632205108,-1.056672471350637,-0.49305431339247474
140,-0.008999468984477448,3.871077486962983,10.512031497377338,0.45844259542046173,-1.10302354982405,-0.5029909958442053
160,0.023885465302580112,3.7575916148520805,10.207379508662868,0.5010251213569898,-1.1201708163764026,-0.5080152762097281
180,0.060109150618678185,3.6566108290742085,9.833950635863513,0.5249385154101907,-1.10692494889585,-0.5107471154230397
200,0.05162597816023562,3.550110994444953,9.457932551701864,0.5224490569697486,-1.0799780011177063,-0.5055482801463869
220,0.027518285970602716,3.4043493404680367,9.125269213501287,0.5001368861721487,-1.0409406952712001,-0.48433335855299114
240,0.05282599833916943,3.2491378660471932,8.761027027975839,0.475604976544965,-1.0105644959323812,-0.4491458130156938
260,0.11122134984715988,3.1062564327005755,8.265801024280096,0.43035613114765864,-0.992352332985192,-0.40880489092843053
280,0.1720880497491262,2.988434829672829,7.7639076790360155,0.3381843599567159,-0.9794362998399578,-0.3665989730659811
300,0.2516981393385392,2.838577273201484,7.332702665374829,0.21511907333937974,-0.9736738901871901,-0.3308290725000776
320,0.31517769002335533,2.633832386091834,6.908167077697438,0.06588904835658965,-0.9783497611395746,-0.30507581762085073
340,0.2958013275765801,2.4528938095238417,6.5860415389378595,-0.053737917710861116,-0.9932763160091557,-0.28948342202913835
360,0.2016761048426551,2.189264272507881,6.189997789311794,-0.22599921046245483,-1.03003490355707,-0.2521745933144684
380,0.17664371807973808,1.9155161362655597,5.9167270441796695,-0.4070214798525433,-1.0753138262801376,-0.1970560950629893
400,0.24717723192614421,1.6019740157123459,5.832335019048456,-0.6076894068970666,-1.1224829488330417,-0.13547353624987105
420,0.35665722717869214,1.2603958116053453,6.004113534382186,-0.8018914718576317,-1.1636742846259858,-0.07555108875239154
440,0.47749263257346053,0.9288577800915442,6.377745186013573,-0.9643186615471215,-1.2059497775878498,-0.01373463434685161
460,0.6551545526927862,0.5785876197835956,6.893382362285868,-1.0833425336350233,-1.2506263910195767,0.03962816844503276
480,0.7940846879971145,0.2407053794317278,7.479681730334615,-1.1550764929815172,-1.2859411081069796,0.08446625436729582
500,0.8608222712731757,-0.07582335702421682,8.109241378312639,-1.1887061673070864,-1.298532280876738,0.14430913841241522
520,0.9564330484122718,-0.34696068419526294,8.719227561182832,-1.184012543750272,-1.2712849160097115,0.22426156764403496
540,1.1086629946928537,-0.5986288411975756,9.292823240479553,-1.1437892056184642,-1.1971869256210579,0.32062486457952966
560,1.241980058046342,-0.7786858185249681,9.694430578618421,-1.0809020920167283,-1.1260149968182274,0.4014533401113714
580,1.3946866797527573,-0.9116386920099192,9.97604202154688,-1.000781043615864,-1.063991613251913,0.4786122262059925
600,1.5953301819455292,-1.0067826076521582,10.181095404336082,-0.9178505629626295,-0.9977370814488654,0.5498047581336106
620,1.8215045492379711,-1.0831936774238085,10.352527641383215,-0.8363831593296849,-0.9194128019815813,0.6142726280663807
640,2.1059908123075295,-1.1462313641703674,10.493903641429132,-0.7528671875679448,-0.8408993608743968,0.6688796830330558
660,2.4624967129253177,-1.2001130893941212,10.60268250155681,-0.6661762227911664,-0.7704361998349549,0.7016481063134657
680,2.830980673970156,-1.2471980311822566,10.662003360209908,-0.5796693399627234,-0.7043497706640472,0.7019271908572245
700,3.0927413427589894,-1.2872082135761285,10.695813202739323,-0.4898875392335531,-0.639677375702551,0.6783374505610307
720,3.260946963938574,-1.3287089818622917,10.629719847881546,-0.3932134767249227,-0.5737421545828693,0.6492005652693721
740,3.3748937027722405,-1.3614442365806454,10.425411609902543,-0.30461370285793943,-0.51510582820213,0.6164913385049682
760,3.4311489460149587,-1.380785474445001,10.134030718656039,-0.22757068453856072,-0.4765525503908152,0.5731951371077684
780,3.4263269131497283,-1.3856371216113783,9.930845431184373,-0.1856411724799761,-0.46800289410532936,0.5354583837834969
800,3.3725472550067277,-1.381688975527681,9.759338211217845,-0.14878651131694023,-0.47149401819773923,0.4867716018598549
820,3.3197500568615204,-1.3720442297789228,9.720914130189247,-0.12415658028200924,-0.48345354721025235,0.44645899276473067
840,3.275302578532337,-1.345424573486911,9.787010987911021,-0.0959903232240916,-0.5021766544313685,0.4030390623056284
860,3.220489647677716,-1.3045544391132744,9.901145352561976,-0.059073828338157566,-0.5339016083478588,0.3559090760999544
880,3.1418195620893616,-1.2638092009542026,9.986050775468554,-0.020953369946920708,-0.5728484673600975,0.3102365474592996
900,3.102353044962835,-1.244485582243751,10.017436098981518,0.0054475820196378,-0.5944727236307014,0.27752565894208486
920,3.0896381875915635,-1.2304491863361122,10.036439790368432,0.019922225347419425,-0.5895176782536142,0.24158069816065997
940,3.050737836146799,-1.1804799265491568,10.038826390703456,0.034665497541810676,-0.561159467022653,0.20808087281731932
960,2.9953913304213464,-1.143902392430414,10.016780509629875,0.057551361160629644,-0.5271299523427515,0.1813473791940846
980,2.919168201410844,-1.1039325484120643,9.960691513125727,0.08740947335774515,-0.5064323256778197,0.16037691482112823
1000,2.825509949789747,-1.0287477010872288,9.88151548092438,0.12541628719851877,-0.4979170157530813,0.1425736294929973
1020,2.7475869550294645,-0.9445457924212555,9.782906058721103,0.15923847802760194,-0.48970011869744484,0.13046440535160975
1040,2.6699233289981303,-0.8420554762283816,9.654079078956572,0.1841211030736219,-0.4736917050162785,0.12205984200903236
1060,2.595413878823728,-0.7268611102515925,9.498691619144218,0.19402744584465953,-0.4440779244465026,0.11842156962446919
1080,2.5311491123814087,-0.59928115944779,9.356751016057158,0.18549159919266744,-0.41052145080723396,0.11386646743030643
1100,2.4603709615849056,-0.45983320943670686,9.274433944345605,0.16777009009855434,-0.3887028526183985,0.10563084448734913
1120,2.413142984954729,-0.3228196078211924,9.218876403796756,0.15697089216603347,-0.3810825000274664,0.09673392061533173
1140,2.3958043842913304,-0.19012378552195397,9.123047646202464,0.15068819156669555,-0.38603330045973167,0.08215965791952182
1160,2.3839865096232944,-0.10463930095670644,9.010504792319711,0.1354930709003155,-0.39763005976307025,0.062103967272450517
1180,2.377701799119987,-0.09181737598988253,8.986043962663555,0.12689718128551813,-0.40225754997992147,0.05408776548435513
1200,2.3381791266872876,-0.15123529979291744,9.013864868463806,0.09146718676333968,-0.41801800558353897,0.023670687955268752
1220,2.318826583108567,-0.2607952522208348,9.08667592442489,0.07423875513477307,-0.4236908387418218,0.011450887541518089
1240,2.2950381093098984,-0.34626077742219236,9.178099564978318,0.06497626801234635,-0.42213741814468875,0.006888026229895054
1260,2.2660485182804466,-0.3961796197790818,9.250313405948825,0.06685414860071705,-0.41630925346405456,0.007378568288265424
1280,2.2397387398184194,-0.4001091566383909,9.26481760149394,0.07450971381996796,-0.4092178054947399,0.01198085343095861
1300,2.2193639690108666,-0.3654128402584694,9.2396634252446,0.07989938260517387,-0.39972903809692956,0.018610874104322255
1320,2.204794206400959,-0.3092354022722835,9.206861257021407,0.07988631364959764,-0.3885237213754152,0.02532313155605497
1340,2.193151208918589,-0.24387471497941174,9.186173870770798,0.07761162887758384,-0.37853311738269757,0.03043494735313698
1360,2.184532111737217,-0.17951935544120204,9.171588439544353,0.075272466385927,-0.3721395556794976,0.033379496723723354
1380,2.1747707552728253,-0.11783327105515874,9.162297560756196,0.07241877109778148,-0.36731200722149676,0.03389624574606026
1400,2.1591414386843857,-0.06610253648670471,9.16179564508731,0.06931100884695415,-0.36385357103674953,0.03372147796959009
1420,2.144409379923451,-0.02273419528551029,9.167518943615296,0.06640365117071372,-0.361272095647476,0.03460306696965971
1440,2.133731501611886,0.0144430672909037,9.178128588538106,0.06344792900320187,-0.35756907005464994,0.035358047699429684
1460,2.121627542384603,0.044485795243996165,9.192389229418266,0.06122827820187568,-0.35386714439773825,0.03611064603737243
1480,2.1112867472524552,0.06990143451977773,9.206992080926135,0.06013415494620726,-0.3505523677468852,0.037161932878052015
1500,2.1015421055711623,0.09319937012529349,9.219828635808534,0.06033035873291575,-0.34688733055718185,0.03855221621366596
1520,2.0906253244225566,0.11718297135279204,9.228606515592428,0.06129525097559414,-0.3428051609577339,0.04083355700105345
1540,2.079985355474232,0.1457811676802648,9.235081835061004,0.06278857756804575,-0.33867963638088205,0.04400155093209455
1560,2.0729718219983626,0.18225351438377402,9.234656823347905,0.06413282151224678,-0.33408560598414305,0.046989343987911915
1580,2.0690160664632042,0.21768806981897257,9.23090092848446,0.06420181694880335,-0.3283651317220507,0.049211036054960765
1600,2.0638059429035,0.2531930097036643,9.229595151539643,0.06338863186829258,-0.3230773387173785,0.05029515092716859
1620,2.0598034519864896,0.2884988753954005,9.229698698847072,0.06238968943207839,-0.3183180408881285,0.05071462561546107
1640,2.054456395632033,0.32252931467554025,9.231546147163803,0.06154825198519614,-0.31459264226082395,0.050375125294234796
1660,2.046473835192292,0.3545826615347965,9.232624576298301,0.060795996561030144,-0.3100494864953576,0.04993703433908248
1680,2.039470614261687,0.38512473169180866,9.232891191503704,0.05984346767945681,-0.3056301483947484,0.04989779319953942
1700,2.032690327103389,0.41398740753774993,9.235147526137125,0.05877661685045841,-0.3016705535181705,0.04984797500495414
1720,2.0270303100458644,0.44218050533130404,9.239652344377562,0.0585170727965967,-0.29912496421874574,0.049377874042957876
1740,2.020328385175466,0.47311883468016314,9.243660570290801,0.05930058021969613,-0.2969527602175575,0.04811804533706192
1760,2.0125805067231726,0.5008746798630758,9.244490105563184,0.06030606654351228,-0.2950758108588329,0.046713427649862575
1780,2.004766132322297,0.528428726043266,9.243047686038214,0.0605968434963406,-0.292914924452815,0.045384937639582
1800,1.9967704392297339,0.5538117359619805,9.24423633203709,0.06002851807685465,-0.29001609444230597,0.04408167516452537
1820,1.9881106197859018,0.5774601348813299,9.245245140443412,0.05921430403160419,-0.28650247054088596,0.04301802524515497
1840,1.9798129230643688,0.6003897606177505,9.24719306475583,0.05834877803447999,-0.28310028734936343,0.042215352029827825
1860,1.97228765303854,0.623107951327194,9.24946510957483,0.05763373285245625,-0.2800027052969023,0.04160453272101062
1880,1.9643894975401839,0.64544066632898,9.251764630399867,0.05731174089129583,-0.27701182269876684,0.04115048924343532
1900,1.9566231569061907,0.6672703518407561,9.251421423274136,0.05719380292584796,-0.2741113193473237,0.041011527709559834
1920,1.9502599112191208,0.6887649367302419,9.250401790214667,0.05689914151996517,-0.2711817279205195,0.04100024479643032
1940,1.943958609321473,0.7090949466255873,9.250792025253741,0.056689682112147026,-0.26866118423075536,0.04108792464166626
1960,1.9391357094964519,0.7315142548328354,9.250336290829516,0.05659053291158142,-0.2658771283913983,0.040881132228855054
1980,1.933886693033999,0.7509421470465806,9.249412070906917,0.05637799641893556,-0.26322515067453267,0.04046510674352585
