0,-0.9904736479123434,1.8925977283053927,5.451596895853679,-1.2907731731732686,-0.5744382076793246,-0.06405720818373892
20,-1.0887477292734034,1.6260774486205156,5.468252434450037,-1.6777252625016605,-0.700821743291967,-0.010101215037352899
40,-0.9742939737439156,1.381064121723175,5.838674640655517,-2.000189564228058,-0.8192904162406921,0.0652280204743147
60,-0.5190660591152582,1.2056383689244587,6.433603344541607,-2.229739198178956,-0.9550980672691808,0.13093998525856118
80,0.06682689606053073,1.1256592273712158,7.133653617486721,-2.3677338347202395,-1.1432648708180684,0.1496380141868097
100,0.5924985360886369,1.1402248569897242,7.937974890884088,-2.4177214527616697,-1.3560367372571205,0.13917519832600136
120,1.1979300014413239,1.2665031907851236,8.871572929516173,-2.3814263688890556,-1.5354437964004384,0.11157748818789658
140,2.048884054387991,1.4425387446696942,9.867702014629657,-2.2867817319356476,-1.5801498275536758,0.030987139934530623
160,2.8309788508468294,1.5883245231354073,11.098061679160757,-2.1497970378562195,-1.5557672773322013,-0.11790495368409647
180,3.2621941743533553,1.614716320126145,12.471842965961974,-1.9653025314579775,-1.5966712346783392,-0.2759988115939461
200,3.6981794325572053,1.436850314897098,13.61942713448171,-1.739993558589662,-1.6312151202994787,-0.37309096764061556
220,4.397157310248957,0.8733673637982496,14.59643478000287,-1.4673855290124096,-1.5731926001224321,-0.5350293633288022
240,4.784245622761193,0.24880832958789098,15.359785497756231,-1.1110274392224493,-1.3876983564524423,-0.7844943170923562
260,4.69688562555402,-0.3843376133264157,15.68784074616014,-0.6026402176602891,-1.0835054549470282,-1.0076984386204888
280,4.574958664502521,-0.9253020715273794,15.490633581505447,-0.13016882764755702,-0.8056317705844269,-1.112293842340224
300,4.349982055534537,-1.3351313113020016,14.889394866503203,0.2913304853324707,-0.5723934193070118,-1.1720129617848076
320,4.023077628291819,-1.5798798850265101,13.995557521132456,0.6153556861631249,-0.41179514546757157,-1.2098712575203483
340,3.651289463425948,-1.7165072698095074,13.001708537340164,0.8322541331489609,-0.30448304228994943,-1.224223532050542
360,3.253991881337065,-1.7686131169850177,12.03223645880625,0.957053832564648,-0.21049228126739528,-1.2113038777168115
380,2.8469982871808757,-1.7553423973329274,11.082731556377293,1.0083998715344034,-0.11961325828307941,-1.1686492064323875
400,2.476619371574591,-1.7130025557735387,10.168323503171697,0.9928240897462649,-0.04996420153800179,-1.1013033489066668
420,2.1757273409264477,-1.6570306469717722,9.32324628381247,0.9222402316884378,-0.011130680947491292,-1.0173352813594085
440,1.9258275714412492,-1.5935121343260812,8.527866550991613,0.805681915573215,-0.00313696451485157,-0.9229131832052904
460,1.7127952272884357,-1.5478704693607794,7.681921052015745,0.6201668249108853,-0.023954440634220073,-0.8045398685388649
480,1.6148803379258205,-1.5516659575950336,7.036402484172671,0.40817091606667477,-0.056360814903904065,-0.6927319199117496
500,1.581916149387851,-1.6114055191947951,6.552228853318364,0.1657777373895261,-0.09795201101927396,-0.5791914138867922
520,1.6577691679913975,-1.7205427245122114,6.226547959052264,-0.10043220660866123,-0.15246652245317419,-0.465511542270768
540,1.8815358742447938,-1.8948086954095291,6.238551339388944,-0.3854348944081609,-0.2240121537401025,-0.3667216409256247
560,2.184156003578546,-2.108269530883495,6.782084089644412,-0.6317291950608822,-0.3022367786378303,-0.2942405906743667
580,2.528076293215217,-2.2925167277210043,7.673800584220102,-0.7775652095552825,-0.3530038231715499,-0.2584876970602621
600,2.7793678189386646,-2.3858593903867846,8.516804290482723,-0.8154851788009305,-0.3815594336455799,-0.256797798777526
620,2.877870402899373,-2.4056723768819253,9.110673155103411,-0.8010075110654458,-0.403945978730917,-0.26566957328360685
640,2.919448219142045,-2.374334549161602,9.491130887792352,-0.7737345043360517,-0.3981020584116491,-0.26775975541947655
660,2.9334026455201885,-2.3127354599772527,9.73175728711215,-0.7470837422663515,-0.3588718747686256,-0.2644659210047261
680,2.922347117373358,-2.2418568506409073,9.871847764342075,-0.7174735315960203,-0.3087339367151471,-0.2587365552555941
700,2.9120978269445366,-2.159996021216837,9.931063728789761,-0.6788944601247163,-0.26966512770940587,-0.25408609326105974
720,2.8976065370813013,-2.0890798182630292,9.929144651095072,-0.6409987174719572,-0.25548894437029956,-0.25363647329155353
740,2.8797933959898043,-2.030976642149972,9.89270634310586,-0.6032903795553879,-0.25297852248171127,-0.25520412195564623
760,2.8664443995921483,-1.9836674253957323,9.829221195812467,-0.5700735796148642,-0.25133853590210214,-0.25835940022392884
780,2.8484766981277017,-1.9519557786018897,9.762173933747373,-0.5455183259176987,-0.24922882085436104,-0.26297484207064786
800,2.821174436069307,-1.934988296049344,9.728742873812296,-0.5257465385394283,-0.2481240076349532,-0.26781064368285107
820,2.7848584018538105,-1.9243419162134694,9.710240797435537,-0.5053950191639802,-0.24779493875034592,-0.2705875633161186
840,2.751313228149438,-1.9158229980826507,9.678673498931973,-0.487053649457193,-0.2454055705450304,-0.27000428190128345
860,2.727860099594161,-1.9066643606573135,9.645134257466605,-0.4747507212359165,-0.23790349464293234,-0.2666808196194365
880,2.708938290897225,-1.8953158890311657,9.625254915310787,-0.46721305695597776,-0.22587456968024497,-0.2619596880203072
900,2.6920793390862885,-1.883142125750241,9.615656156693735,-0.46185091980582765,-0.2117113110156209,-0.25720679950124276
920,2.672766290948187,-1.8723381069611367,9.62328971938083,-0.45567031735554336,-0.1994381358393615,-0.252384913152721
940,2.65397805692724,-1.8594241036731058,9.632287478938546,-0.4463744508462584,-0.190931384061636,-0.24681603345064657
960,2.6427020787423294,-1.84056956676405,9.633227448019033,-0.43464845698326826,-0.18386388606079843,-0.24064037625581702
980,2.6337055277953176,-1.819860098582267,9.628664898578032,-0.42501254584640263,-0.17708185109436328,-0.23621717088706332
1000,2.6197919474224634,-1.7993614282932575,9.626250792357881,-0.416585642652762,-0.17056771701869283,-0.23207881521956755
1020,2.6068053710896018,-1.778242339756154,9.627011807684093,-0.40802480947367864,-0.16424927947547224,-0.2277687952030813
1040,2.5944259637285083,-1.7557112876486494,9.623278203266207,-0.3997100089852522,-0.1573296784692485,-0.22319118125529175
1060,2.5848345405569204,-1.7330844313379385,9.617149266825662,-0.3928209715773239,-0.1505354487409632,-0.2185873734803116
1080,2.573865715933315,-1.7113572380243895,9.613458107294662,-0.38716948795906697,-0.144633043049887,-0.21437890573687265
1100,2.560873430913055,-1.6908732828710877,9.614370132387343,-0.38158357534074444,-0.14007139530250798,-0.21056482125336826
1120,2.547822934258204,-1.6729186118808685,9.617318224751768,-0.3752290986684391,-0.1370903477092918,-0.20711418968946582
1140,2.535615976264418,-1.6561484121814816,9.616580874680965,-0.3688699489558435,-0.13427346116398522,-0.2039482213302589
1160,2.5204744862169965,-1.6405633397818205,9.615948592092007,-0.363448796514983,-0.1304277321816748,-0.2006293909538311
1180,2.503185642218774,-1.6253738975766854,9.616285303450121,-0.35888298407194597,-0.12556783147588296,-0.1964009081752798
1200,2.4879211926614104,-1.6092107790439325,9.619038812544664,-0.35398507042661187,-0.1199834607923328,-0.1910592961758526
1220,2.4768319855039693,-1.5960658891738737,9.621471341387684,-0.34909656940923683,-0.11608588818017304,-0.1867063564537798
1240,2.466456972230591,-1.5835306248006722,9.623395514955707,-0.3438674428681706,-0.1138740246567656,-0.18314584822887006
1260,2.4550338395184417,-1.5717524371548595,9.623965649070888,-0.3383381506085394,-0.11259318093326964,-0.18015494373263827
1280,2.4447174390937603,-1.5623739472794391,9.62479469026838,-0.33361834188113876,-0.1116976063503396,-0.17756283575580234
1300,2.431052577036541,-1.5515780342648622,9.624749684601687,-0.32761998325470776,-0.1100857817360343,-0.1740410097661927
1320,2.4185986537211384,-1.5433117623915173,9.62496526390864,-0.3224849355082943,-0.10881929773394004,-0.17060741145383718
1340,2.407665345093066,-1.5351117807948453,9.624051089720293,-0.3174130813827188,-0.10797702580267056,-0.16694734134118666
1360,2.3965905683322086,-1.5256446717243548,9.62287126476192,-0.31279783617147233,-0.10719613201071686,-0.16301517696937673
1380,2.3879276750668517,-1.5141094051903712,9.623087329493815,-0.30854361360936255,-0.10580587086420795,-0.15860507419734352
1400,2.3820932109480015,-1.5019693825092129,9.623722964462917,-0.3046251114383616,-0.10392822593228263,-0.15417499976226157
1420,2.3799828678766373,-1.4890931661183149,9.625024240860824,-0.3008207406353004,-0.10181117424528559,-0.15053845328499668
1440,2.3753326597439153,-1.476191218411345,9.62979443625952,-0.29614910170693554,-0.10029987711380606,-0.14794357620690227
1460,2.367574874336562,-1.4647604188056218,9.633464675514846,-0.2911031655529949,-0.09993016745083544,-0.14607001735108946
1480,2.360605535504011,-1.4537650777634594,9.632816306056066,-0.28618409356951585,-0.09967550099328701,-0.14434148955712772
1500,2.3541368489040106,-1.4428221339905043,9.630736114532967,-0.2820711292180695,-0.09847738266453086,-0.14285366310987893
1520,2.3475890095103114,-1.4342471084024433,9.628109839184875,-0.27935256353872184,-0.09684418161044801,-0.14164475816260078
1540,2.339467329824736,-1.425116386806235,9.6319111576171,-0.2760834832358057,-0.09455497538716652,-0.14030857341623793
1560,2.3296307305483284,-1.4178441243176239,9.635430093475724,-0.2723839845391193,-0.09280663320367663,-0.13915467459244976
1580,2.3185640972113406,-1.4107961222411376,9.635752554838955,-0.26853147223874296,-0.09144646161555427,-0.1376753206504437
1600,2.308060315609661,-1.403254798513958,9.634407079128819,-0.2650349107546952,-0.09014065823773676,-0.1356962186476315
1620,2.3001869762903513,-1.3957076229837753,9.633621485524587,-0.26207422302113315,-0.08853538032251707,-0.13344674449706195
1640,2.294500200891237,-1.388540292265596,9.635874275656642,-0.25924366706714724,-0.08672627472060548,-0.13147634508063247
1660,2.2887216836861466,-1.3814995257946525,9.63921681700469,-0.25594560941484096,-0.0843597052029755,-0.12983163559277142
1680,2.2810403762417737,-1.3731886817096344,9.64227245228235,-0.25182830851647237,-0.08105318204582355,-0.12810573250334167
1700,2.2743795711091526,-1.3667050285988467,9.643196769412473,-0.24846526011966985,-0.07839673868675294,-0.12676156812863384
1720,2.266880978449946,-1.359417229746422,9.643364278893722,-0.24466146637493835,-0.07555643783499398,-0.12511451825086203
1740,2.257985496009292,-1.351134177657064,9.641783917218111,-0.24092434169183383,-0.0725579210259465,-0.12306126715154962
1760,2.2493824869963444,-1.3438721252644124,9.639814304643208,-0.23834166288021758,-0.06998345131319689,-0.12090163801589773
1780,2.2411462072395607,-1.336552547458508,9.640598827010983,-0.23611718095887957,-0.06762432877727846,-0.1185077927484699
1800,2.233108501937038,-1.3290927137043227,9.643025887401208,-0.23345980675944505,-0.0654033337199033,-0.11624848769228581
1820,2.2257265173529666,-1.3222246673796827,9.644956515040448,-0.230234596599222,-0.06352004299337115,-0.11422390477251142
1840,2.2197373245218572,-1.3153753551552965,9.645451094875945,-0.22675290394785252,-0.06237236063517482,-0.11274315739431953
1860,2.213010752254999,-1.308121905577565,9.644164208989395,-0.22342370409452614,-0.061719799016626845,-0.1116818444944281
1880,2.2041602748358855,-1.3008761177613148,9.642461304242412,-0.22059315859595094,-0.06113146023517402,-0.11063431990381407
1900,2.1936160575075885,-1.2934338957337397,9.642225741112707,-0.2177819700941157,-0.06045998228675514,-0.10908987609150567
1920,2.1861617230068724,-1.2869645607545024,9.642318525739537,-0.21537894156596854,-0.059876189611935214,-0.10750657404642433
1940,2.180488699823994,-1.2803780982050044,9.643696045965745,-0.2129350660890981,-0.05955403612739868,-0.10629306623857811
1960,2.1755808236661105,-1.273737818099205,9.644657345151485,-0.21049877963200056,-0.059394583067381185,-0.10560251761765013
1980,2.1685615029918175,-1.2671874194856092,9.645682525281117,-0.20812647804804665,-0.05917442038888975,-0.10511853267370788
