0,-2.7050657922571357,3.5376617258245293,6.205713618885387,-0.8706301721659574,-0.5843445848334919,-0.4425780068744313
20,-2.5059468495218375,3.12915617541263,6.684877997950504,-1.0514626346136395,-0.7638416588306427,-0.3874034238489051
40,-2.3449903240910284,2.7807065027731435,6.989376951147009,-1.160407214253037,-0.7912228957370475,-0.35549532484125207
60,-2.349172101702009,2.3987148097583226,7.05504356111799,-1.248721580845969,-0.696806080852236,-0.30060038790106774
80,-2.262346680774245,2.0384402011716087,6.9150343828423075,-1.3311903878699902,-0.643615408692249,-0.21999065924522487
100,-2.173550755369897,1.7913807659756904,6.542254438587263,-1.4104496112056808,-0.7364998687716091,-0.1392501233255162
120,-1.9946048216168153,1.6570288402549291,6.0728767483921375,-1.5037928728734034,-0.8879629641266192,-0.06633992796227084
140,-1.6020893963304028,1.4741882059667537,5.64645540180491,-1.6373062961137117,-0.9998294030552479,-0.007470279264805922
160,-0.9090360012395602,1.3346562044891088,5.364465821730463,-1.8356165548688488,-1.015194817985359,0.04084791419537444
180,-0.2794759714798558,1.3981782499966877,5.380240543967202,-2.08306731851328,-0.9705280927675111,0.09009927457996778
200,0.5256547576788327,1.4744990458711982,5.726075427687687,-2.3473695497150007,-0.9551200448818828,0.11041200063798738
220,1.54023713696748,1.4881215003505348,6.791700874567032,-2.549532225728035,-0.9996269938349723,0.04207776308059692
240,2.349984317077933,1.4641404143908872,8.246119736511016,-2.6024798126978297,-1.0487995757677844,-0.07925051060792442
260,2.93637667124256,1.3956770452767098,10.5314794378034,-2.4491307210691016,-1.113541918325013,-0.28037753495676765
280,3.198394218670024,1.2442126996034095,12.585287368105304,-2.1584551410689468,-1.2347440284586721,-0.46920414605448324
300,3.226055174078228,0.9261105449757341,14.387753888513103,-1.8125865368567633,-1.3246989871064823,-0.6583565717393701
320,3.113286036173148,0.4548142221091049,15.819652173348835,-1.4646700228431395,-1.301529700788004,-0.8035286315849849
340,2.9931919831732237,-0.10910284914378379,16.824365677865774,-1.1004514870913447,-1.176206568155337,-0.914806949931222
360,2.8311588627596698,-0.7339813960716128,17.30349490352166,-0.7195162849070934,-1.0312909082246897,-1.0048525509161828
380,2.5980121639625327,-1.362415680729943,17.29227546148184,-0.3477270908017711,-0.9106658511318084,-1.0730085147590172
400,2.342746950945882,-1.9100560039325163,16.901124461445697,-0.010002694807426875,-0.8211673126924176,-1.1144635940707006
420,2.1073526474158406,-2.4000478455416077,16.153123949031805,0.30172751494040145,-0.7387986693181385,-1.135187675939739
440,1.9872580490336216,-2.724239788929779,15.370551754163687,0.5134920658021377,-0.6643319769747673,-1.1413733839357971
460,1.9008188934991996,-2.9833191184865946,14.493151332142995,0.6702351691532256,-0.5791935536083836,-1.1453695805544781
480,1.7836237061791484,-3.193203731226485,13.552072596186544,0.7692994432114973,-0.4905722736948874,-1.1433664063128028
500,1.6291305954926625,-3.3467532059991023,12.606528825253388,0.8096020250043399,-0.4008610693151962,-1.1301908943574752
520,1.4590546408293104,-3.4525129141884423,11.785469000358388,0.7999440195266477,-0.3170326270871033,-1.1023445825231561
540,1.2910515546705168,-3.521515546879003,11.10299729591634,0.7687949356358644,-0.25136290545937273,-1.0588018757628692
560,1.1443949613802702,-3.5527337195532485,10.470156793541546,0.7257339983612676,-0.21063180082332233,-1.0033974289218208
580,1.0135723194696618,-3.547483528344607,9.862299858003247,0.6663039218710394,-0.19332247400770383,-0.9387410980174128
600,0.9023449565026276,-3.51942928454916,9.292146082628857,0.5847269755166039,-0.19053519277910705,-0.8675189549581924
620,0.813260585678049,-3.486542947861541,8.775443726743775,0.48028462066161676,-0.19361851789000162,-0.792611993942053
640,0.7358742274982096,-3.4647241057759084,8.267146537204583,0.3382694033836877,-0.2026537918865129,-0.707565707968617
660,0.6977548269834033,-3.4668471197385866,7.930178068336167,0.21359515806075038,-0.2162296534700837,-0.6396508943155031
680,0.73115093181548,-3.4959079922938887,7.578997784717516,0.03618666021661325,-0.24930325165469122,-0.551187866536731
700,0.878304213475512,-3.55495859851085,7.377377372615191,-0.1389385468649621,-0.2908271651930448,-0.48000764999487977
720,1.113937912780224,-3.6211110743885206,7.378928623846825,-0.32729901055133104,-0.34042106198134603,-0.4183111410921082
740,1.474188664255123,-3.6422531485197043,7.653849239118638,-0.5078946373876064,-0.3984360882772073,-0.3652747703235476
760,1.9693990334657565,-3.596069259428472,8.144000677567607,-0.6602540554818492,-0.4556710235950238,-0.33441999517732635
780,2.454483706149861,-3.51265628049093,8.71095089276144,-0.783900677677861,-0.4956913045064712,-0.33431551936282516
800,2.8474345360575857,-3.446533643049439,9.337837350939562,-0.8795948213044398,-0.5098849998474746,-0.3573520618719523
820,3.121592946557535,-3.413743335802696,10.012876795397865,-0.927193821761866,-0.49715371411947307,-0.3980370968830777
840,3.2646854683224644,-3.4088656597744142,10.53662201506751,-0.9218402766755649,-0.4657672753451126,-0.44772641928600415
860,3.3085925056177645,-3.423526698177129,10.846736189040392,-0.8858601073396273,-0.43081284376308737,-0.4984666614964937
880,3.2785332064383503,-3.4500585014631597,10.99618951903015,-0.8389985609005709,-0.39281398716988297,-0.5459686009355825
900,3.170724970728159,-3.478028351649642,11.049100553194682,-0.7836454733610153,-0.34523257199426494,-0.5895254592647156
920,3.0454519282802743,-3.4955530411201496,11.029496895426558,-0.7338744976579676,-0.3070851923075964,-0.6157307369347574
940,2.9208948821724987,-3.500465139579933,10.967095049750775,-0.6842834646515834,-0.2808545098385161,-0.6309943144040568
960,2.8116089797912536,-3.4939794936509134,10.871324263419723,-0.6374486232535881,-0.2659265186805698,-0.638327799023206
980,2.7638407628289965,-3.4866374895466543,10.816907091412887,-0.6158472872327634,-0.26156006496002154,-0.6399054989985955
1000,2.6396809801190013,-3.4534105497894876,10.64140119236636,-0.5614709080342787,-0.25390702637518386,-0.638580478795142
1020,2.5674836865888278,-3.420122007269139,10.529140456912083,-0.5349125508791448,-0.24855305320699836,-0.6327210736745004
1040,2.5025787900381324,-3.3760330106095,10.423658912253767,-0.5162470366658855,-0.24115361234579283,-0.6217887032509126
1060,2.4545186780528896,-3.3221377336498614,10.33285666842667,-0.5054323305359963,-0.23317091539684456,-0.6063773724036228
1080,2.427221119945548,-3.263356236120065,10.261678622339662,-0.5005085944219949,-0.22550374182157704,-0.5888473668554485
1100,2.416348460095597,-3.202178095346624,10.213869163230225,-0.49893389362790674,-0.21993586273814658,-0.5720075500862939
1120,2.415005652177758,-3.13157075657991,10.189714270676005,-0.49770077535278434,-0.21576369774338044,-0.555466385750935
1140,2.41458571930337,-3.071551788614084,10.188728123650712,-0.49381886554193305,-0.21322686024455,-0.5429845046315153
1160,2.4140500536886975,-3.013313909449304,10.191227671752374,-0.4866486291842496,-0.21267874416028765,-0.531714305623124
1180,2.4154950821329457,-2.955807590353318,10.187353434377028,-0.47823892077994073,-0.21319967457691477,-0.5216693254493054
1200,2.4143825881258256,-2.8994609854905113,10.177442790279466,-0.47160603841269133,-0.2123754417890532,-0.5122007329107052
1220,2.4118607963198824,-2.8468229791504287,10.173359117101109,-0.4674622058967269,-0.20794089202348595,-0.5020393292523093
1240,2.411747342099261,-2.797934908172465,10.181481066392735,-0.4633844100967508,-0.2007893058352863,-0.4911988647072576
1260,2.4151746375128056,-2.75233813869552,10.194622150980509,-0.4568119441776966,-0.19270441496580762,-0.48058235361599005
1280,2.4196865139881885,-2.7078418561652526,10.201395621128155,-0.44792478112239303,-0.18453061686751893,-0.4709170294191801
1300,2.4232147266017967,-2.663655043829844,10.198020414852385,-0.43829627127695914,-0.17688899052434373,-0.46255878201310535
1320,2.42157616740887,-2.6191829042098322,10.187083939638208,-0.42945617024858673,-0.17011147248812825,-0.45534126589636265
1340,2.4143359802622832,-2.575201472200021,10.176611982609915,-0.4218902878329981,-0.16472496687806532,-0.44825961971588
1360,2.4026871045284413,-2.525733913024373,10.163131340939731,-0.41433146462564935,-0.15922143161808885,-0.43996084833753407
1380,2.394017842937071,-2.4830081926524534,10.152130451478941,-0.40849513842590046,-0.15498208527177346,-0.43256564608894565
1400,2.3861534875499624,-2.441898925375174,10.147195944339812,-0.4024329468716046,-0.15216648965575946,-0.42528319949255144
1420,2.3784469094095577,-2.401103392077817,10.140881599727859,-0.3957462600973618,-0.15080637220712678,-0.41825091793305347
1440,2.3718542846335047,-2.3663926750950113,10.132955877563438,-0.3900962905082034,-0.1499873042264487,-0.41224942034475404
1460,2.361122726706072,-2.3235675494826573,10.11946406122452,-0.38393674612575257,-0.14800599583607385,-0.404172829418953
1480,2.3518463501458977,-2.287900511573003,10.106125528785004,-0.3801748182690337,-0.14536614016430854,-0.3966192344634844
1500,2.3416460127519922,-2.2549051615489555,10.094538072906012,-0.3780574087299576,-0.14189867578867904,-0.38889894902863126
1520,2.3311013430655003,-2.224685836350918,10.08897997379303,-0.37676119544133546,-0.1379617798583349,-0.38108995982706545
1540,2.3235549654688032,-2.196569743631687,10.089215065630691,-0.3747261441253879,-0.13453165225341743,-0.3735768028680606
1560,2.31677235558908,-2.1692301842635398,10.09259032254658,-0.37105674441836994,-0.13254905395082567,-0.3664730426400621
1580,2.312408056488987,-2.1419815645712457,10.095801178038764,-0.36555655636194695,-0.13219353323082603,-0.3598644853654233
1600,2.308391257899737,-2.1107257064431906,10.093748371833001,-0.3582287996272786,-0.13204219389922608,-0.35283897802697944
1620,2.305893251403898,-2.083300275571488,10.086405829445377,-0.3526376175866169,-0.1311780014571546,-0.34702113587633
1640,2.30324133842056,-2.0561208011035306,10.080772675286415,-0.348218349958922,-0.1291647457765498,-0.34175470629734617
1660,2.2979194919614234,-2.029621109382804,10.075777370733949,-0.34407848193852336,-0.12695193044324335,-0.3367977039233025
1680,2.292318409168418,-2.004159370545244,10.072286316450091,-0.34004078630317486,-0.1254172345253671,-0.3318213305530557
1700,2.288602523532373,-1.9795557827045633,10.072683984194923,-0.3352341241180566,-0.12415885224480654,-0.32685296019982213
1720,2.2842109577397873,-1.9553401642782409,10.069890589112939,-0.32957147034452355,-0.1228618436954807,-0.3221963587172182
1740,2.277663666248864,-1.9320294646394938,10.062852782862526,-0.3240864376024883,-0.1216744659724311,-0.31748968827426016
1760,2.271480402215242,-1.9083861419647272,10.053184486327078,-0.31950936406151675,-0.12055323808726069,-0.3125251014213854
1780,2.267027154284185,-1.885070739905924,10.043708412777887,-0.31592422170430573,-0.11943250716397179,-0.30756207137330344
1800,2.2636375486255096,-1.862234858533514,10.035171216257865,-0.31311182611461646,-0.11816719054576275,-0.3028711938806544
1820,2.2593274985501166,-1.8367139446677534,10.026321678755274,-0.31070581847867884,-0.1161921342276403,-0.29793339979945815
1840,2.2533169436188327,-1.8147904389692064,10.019721668603404,-0.30899123933678185,-0.11427499896965054,-0.29359479233967944
1860,2.245925732635616,-1.7944001872751614,10.015978393985904,-0.30726654169779527,-0.112731746222889,-0.2891398362478493
1880,2.2382468001436244,-1.7752469513805682,10.013909480451145,-0.304909599989341,-0.11165229009475179,-0.2844788907591046
1900,2.231358929000441,-1.7571880880794672,10.010843886184448,-0.3021805687375314,-0.11092935317114581,-0.2796114647978575
1920,2.225584923468407,-1.7398128637297285,10.00824840868595,-0.2993364690822517,-0.11050130409974261,-0.2747699022695441
1940,2.220372989572257,-1.7226849009271172,10.006036554042648,-0.2963586655454183,-0.11042020858026405,-0.26998089149172577
1960,2.215909144431724,-1.705820670239465,10.003910527431207,-0.29315364872427846,-0.11045415370226307,-0.2652640875132005
1980,2.2121417179253555,-1.6892418987048805,10.001413000350228,-0.2898732865020821,-0.11043226131068014,-0.2606955078785318
