0,-1.30109441280365,1.1555969789624214,8.037685990333557,-1.0866590738296509,0.1777814906090498,0.1909195128828287
20,-1.4989829137921333,0.891845440492034,8.053253591060638,-1.2718486487865448,0.03260591730941087,0.2602948611602187
40,-1.5270246018966038,0.7396618997057279,8.007349014282227,-1.443922147154808,-0.15850917800950506,0.3389690760523081
60,-1.2477326537200222,0.6917977956208315,8.011703592358213,-1.617013479724075,-0.3874139320105314,0.38902842953349603
80,-0.8714278958388604,0.6345604546368122,7.919491696357727,-1.7521430641412734,-0.5464918110053987,0.3872610617429018
100,-0.4066645606154842,0.47372511044448734,7.723009654453823,-1.953837280370751,-0.702491093921114,0.3491887286001322
120,0.06697651432631047,0.40421208745816295,7.739274878250925,-2.159098823865255,-0.7891188694915751,0.32791929208395776
140,0.5085547782122516,0.42476594476745677,7.987501056377704,-2.3846663566736073,-0.8838487682147668,0.35096422410928285
160,1.1236907199012396,0.4913399189404429,8.412949405304373,-2.5953790471978384,-0.8991680343010245,0.40615491079141014
180,1.9581798716264283,0.5546983762379781,9.262989774162387,-2.7562235446623813,-0.8724081510516964,0.4064456828766399
200,2.766920408856626,0.5231906950390071,10.654123734892085,-2.8272884494802923,-0.888497353416313,0.314197681090805
220,3.3991994934742213,0.12034356329090816,12.283981637856394,-2.7467522098846042,-0.9531477267095416,0.14646461590663673
240,3.8302978541302894,-0.6025869496166706,13.94006351289295,-2.4604843236106846,-0.9839223635870786,-0.06641732383342017
260,3.890232487338537,-1.2958963815683284,15.226687051553641,-2.0050813861611605,-0.9480734087559766,-0.28034159765306826
280,3.8223721392506596,-1.9964171117556488,15.879969872719,-1.521554913891341,-0.8626143155881196,-0.44199670432520305
300,3.7496724205069936,-2.623010645685501,16.103629326635552,-1.1024145474693514,-0.7332528969922731,-0.563456505652546
320,3.5735775338236135,-3.2506317152115316,16.149200895558234,-0.6934327098736675,-0.5593969486653805,-0.6600174177168072
340,3.370645624531229,-3.729832971876819,15.998042211140671,-0.3548506633027725,-0.4021820460178264,-0.7075097723162338
360,3.1604305639373163,-4.121828793826235,15.641686640776596,-0.04089363093197636,-0.25285167445416573,-0.727998204722807
380,2.98463796726198,-4.418072025832019,15.084957277333295,0.23362524531793172,-0.1039448072788892,-0.7270779056865492
400,2.856215867463171,-4.634165754848543,14.389193462186,0.46202629419208013,0.0439497911316507,-0.7153753909118036
420,2.7144721793507887,-4.780593734883358,13.587215520274103,0.6462217083833902,0.17704236427887102,-0.700358998658282
440,2.51598098459253,-4.8471849472011606,12.699733280606809,0.7823882061332184,0.2810290685344127,-0.6761420567029266
460,2.287293114629814,-4.84401362160816,11.796138377764176,0.8642746145601778,0.3470322144477023,-0.6358348568997432
480,2.078213059092125,-4.7828779156587204,10.924538251418289,0.8945541856925713,0.3783913020524058,-0.5799069208378839
500,1.923155130674353,-4.692892705347567,10.104701912048316,0.8746355626222101,0.3903117539272422,-0.5176056517021996
520,1.8052295544975088,-4.585693551945167,9.368855408777337,0.8083519036433053,0.39473361313479755,-0.4566518392311324
540,1.6779275287234015,-4.45572828519515,8.674929953028451,0.6933004333933053,0.38733911481460287,-0.3906616399204153
560,1.5902114897471,-4.348479175646888,8.161533913904048,0.5683913690315441,0.3602144503530036,-0.3315711956074897
580,1.554357871794575,-4.252332716888974,7.726786743159647,0.42898551160239695,0.31455683840032467,-0.2737850354286869
600,1.5872777797322557,-4.173421899710163,7.371927708921679,0.2751321225367724,0.25563972104949306,-0.22321140873004716
620,1.6922339359316327,-4.120062575909277,7.125802995673018,0.10818436917485705,0.18566039155694047,-0.1834368614846675
640,1.8750402237156105,-4.098676930722338,7.011343756027882,-0.07308456131295486,0.11269701004363178,-0.15589052874050782
660,2.1285018276744947,-4.100047173134305,7.096730603358962,-0.2603979455053129,0.04432740458033302,-0.14327044468034397
680,2.4141120655386454,-4.098073241633261,7.3744431957865775,-0.4345069451524149,-0.014172907142041008,-0.1487939237047632
700,2.7005615674352907,-4.097047332290215,7.852931963260641,-0.5767108269301451,-0.07084777441733482,-0.17460698743200384
720,2.9269382560541573,-4.1105265394725325,8.451904156584803,-0.6687444346539526,-0.12505813040163205,-0.2171446827916198
740,3.0750647691648805,-4.124910328270267,9.033249547553373,-0.7088877923455975,-0.16454311547624947,-0.2639628494771179
760,3.167428607956648,-4.130908641693052,9.50792479821587,-0.7192709458906416,-0.17691705266273097,-0.31258552562728337
780,3.1816209427377116,-4.126751883587811,9.804397265162365,-0.7194699269509587,-0.1601942978270444,-0.3485606961573164
800,3.1431891251767774,-4.118149691373558,10.02676412862647,-0.7115222383725334,-0.13090710684163384,-0.3765180262972612
820,3.080122029045871,-4.103034928320524,10.187342812077087,-0.69080664197613,-0.10438454695703352,-0.39776916551020214
840,3.0119986997625587,-4.080714284742101,10.280869544280328,-0.658085830401276,-0.087970863396152,-0.41434236516341055
860,2.9457799488864316,-4.050314578499771,10.313613854139373,-0.6192037154896854,-0.07992677483707666,-0.4271215330495426
880,2.889156912180984,-4.013276497137498,10.297886984729832,-0.5808908126948934,-0.07400976212511023,-0.43636414092443476
900,2.8373127887764023,-3.974226046684048,10.256426936876709,-0.5469032556246666,-0.06719893550560359,-0.4423885575685931
920,2.7904625723665384,-3.936706377379596,10.203313072143416,-0.5172944528283552,-0.06085289160868055,-0.4451639587451753
940,2.7518652002027104,-3.9008697105917274,10.14679697866446,-0.4918786645038821,-0.05534372817648133,-0.4459044144767308
960,2.714016881897208,-3.864932694265412,10.087750130267155,-0.47012872751120177,-0.049379261615074645,-0.4454017351052225
980,2.6733754422218254,-3.8291384203470136,10.028895736957836,-0.4520681315818617,-0.044560708262321384,-0.4429901666699512
1000,2.6280730084231974,-3.788515124758638,9.965694099628609,-0.43756985633511963,-0.04091958615711881,-0.4377842618658849
1020,2.5995771076386083,-3.7565084611110033,9.921859246244033,-0.4267727675969668,-0.03783567036014228,-0.42977491421403274
1040,2.572777083303527,-3.7193088077931344,9.878739726912475,-0.419643547385931,-0.03424854046517165,-0.41999543143357976
1060,2.5504383100079506,-3.678125369782374,9.84495565387286,-0.4152490484018893,-0.02968867715593061,-0.40742489639499163
1080,2.5376013300758316,-3.6409572858907535,9.829397392306435,-0.4125791283470861,-0.026154039741567013,-0.3960137909571274
1100,2.529214739835478,-3.6030506185496485,9.82416963685822,-0.4095038002229421,-0.02386712421052503,-0.3857500009571776
1120,2.5210464900943355,-3.565254281543664,9.826968178605568,-0.40469236975766054,-0.0233337331033936,-0.3762768624843363
1140,2.515362975474542,-3.5261021260656653,9.828843968795306,-0.3977816788428056,-0.023903109671385175,-0.366833896924263
1160,2.5145597218309357,-3.48707829285374,9.823667602250412,-0.39080576965120667,-0.024042468043571373,-0.3578941536700232
1180,2.51372370919904,-3.4483245781171568,9.81518552134332,-0.385396516090739,-0.022524421794589647,-0.3497995333899696
1200,2.5097570941938394,-3.410663416650728,9.807386794903941,-0.38184714430478417,-0.019955805755970325,-0.34217721449199906
1220,2.5040145277588475,-3.374845590933176,9.803040049538879,-0.3788555175374576,-0.017168353211335436,-0.33478131271831824
1240,2.4972667272846727,-3.3415652717626516,9.800467401245253,-0.3753928585885521,-0.014875582810893859,-0.3277434665574335
1260,2.487704107461454,-3.3060518128430636,9.795741274578921,-0.37028476221731443,-0.013298449608134142,-0.32023547141197856
1280,2.4791822510836963,-3.276505244357561,9.787698513683031,-0.36592822076979414,-0.012568441678206843,-0.31362606151766026
1300,2.471292475889845,-3.247942637449849,9.780120985366208,-0.36235752963890017,-0.012059794356941843,-0.3067728210718472
1320,2.4651291828174693,-3.2213986223817863,9.776355261319898,-0.3595054613690947,-0.011399100701293713,-0.30011501122176704
1340,2.4615750417138704,-3.197255410098217,9.778185856586154,-0.3566656675375998,-0.010874806295403026,-0.29359471467577597
1360,2.4597709969672503,-3.174207938434456,9.782376149248693,-0.35304726264856784,-0.010407545102266162,-0.28783983008361896
1380,2.458288764813915,-3.1522012820842513,9.785449354919233,-0.3485392819746157,-0.010659277471203633,-0.2826776859291266
1400,2.456146867046107,-3.1308330870996057,9.78775260675348,-0.34351668710405014,-0.011468174791885118,-0.27808349860754217
1420,2.45436837503933,-3.109295145170027,9.787317690596343,-0.33828348854054213,-0.011634345283200549,-0.27392036548921284
1440,2.450843878547361,-3.0882195026503276,9.784637564344932,-0.33338630200695185,-0.011266988286180264,-0.2699233941212928
1460,2.446236198191005,-3.0685408069848714,9.782830158628549,-0.3286566621457292,-0.010777638207367282,-0.26591846620489573
1480,2.440351101655126,-3.0493421592248646,9.779932248734996,-0.32392708905480755,-0.010436563657307782,-0.2618698606516539
1500,2.4346739719932784,-3.03109628159298,9.774566610031291,-0.319415332172339,-0.010605765210846833,-0.2578069598365466
1520,2.43094491903742,-3.0125958544181186,9.767483044307907,-0.31538956439821797,-0.010666999359498358,-0.25395304220803444
1540,2.426606555585196,-2.9925827262436058,9.757590862182921,-0.312139020904695,-0.009933711823648677,-0.2500414487547145
1560,2.4218408460976595,-2.9756938310774372,9.747669939353992,-0.310577013635868,-0.008226289938558156,-0.24675237245607032
1580,2.414720234608672,-2.9606144410116135,9.738475582906416,-0.3104473685919864,-0.005634130603436617,-0.24340879986670091
1600,2.4052359377403696,-2.9474683923860088,9.734954036123879,-0.31070877682126147,-0.003016654670750367,-0.23962728096072683
1620,2.3968980718947677,-2.935730537705876,9.734819203682616,-0.31011070097518484,-0.0012472349698030212,-0.23556265147714728
1640,2.3917287037619035,-2.925114933878805,9.736486527341489,-0.3082544430864811,-9.004057047752617E-4,-0.23155287231683686
1660,2.3883954023466405,-2.9144531855625764,9.737564306042332,-0.30527076278456566,-0.0016615288044066773,-0.22813255913605
1680,2.383194433399808,-2.903230947552159,9.736839020985355,-0.30173555479120273,-0.0030678084860332145,-0.22506868659099769
1700,2.376948426805249,-2.8906198409231876,9.733780214619294,-0.29831315435145866,-0.004196472645556326,-0.2216162892487302
1720,2.372132367826071,-2.877103358745617,9.729169361303914,-0.2954664264329852,-0.0046092241944196725,-0.21783409045497817
1740,2.3695019025040343,-2.861920638894139,9.726201646804308,-0.2928397595280555,-0.004817673933870169,-0.21370193703764567
1760,2.368953828701827,-2.8487028812627413,9.72511693638646,-0.2904746701076672,-0.005096894538857871,-0.21094918896592896
1780,2.3657332729403655,-2.836920495897245,9.726773491293029,-0.2876530725211973,-0.006079666935685245,-0.2088115222155306
1800,2.3617626955225286,-2.825439806728948,9.7284656244978,-0.28395708917749923,-0.007198114388460374,-0.20663782638439443
1820,2.3587337907182144,-2.8142317673141357,9.727996754409965,-0.27986093396369444,-0.007741263511800958,-0.2044493089954529
1840,2.357501898537405,-2.8038545817067413,9.725945425814295,-0.2760254614109494,-0.008130490487599944,-0.20240014147241303
1860,2.355489197394835,-2.7941181427799164,9.723874257759828,-0.27255737593935153,-0.008591418036896932,-0.2007795718498528
1880,2.351903036413205,-2.7853018047220153,9.722382622479927,-0.26934532811136097,-0.009025404642064435,-0.19938625940024698
1900,2.3473352797769884,-2.7765808288516842,9.721668645297898,-0.2660587998073321,-0.009153239777642926,-0.19786792551887403
1920,2.3425613651069934,-2.768141697583796,9.720113873500758,-0.26256419544971527,-0.00898225728265896,-0.1960225459295135
1940,2.338379831798257,-2.7593105869094905,9.716618853404817,-0.25918255764848463,-0.008574640979908637,-0.1940100020467365
1960,2.333377024228016,-2.7493150971141573,9.711729872409027,-0.2558477082060558,-0.008077013683688482,-0.19167325241617933
1980,2.3285215662991483,-2.7407669176949634,9.708556988643775,-0.2530519076198085,-0.007706007711334345,-0.189532033773024
