0,-4.031084166632758,4.477622244093153,8.027573532528347,-0.9164502223332723,-1.2108819087346394,-0.015550338223369585
20,-4.724951126996209,4.165643551770379,8.495557196000043,-1.2207537959603703,-1.4108765966751997,0.06444545370964881
40,-5.6754301643371585,3.5013270950317383,9.366825923919677,-1.430736222267151,-1.5865888500213623,0.2373529196996242
60,-6.76847066301288,2.4141797906521596,10.501072406768799,-1.4378057104168516,-1.778291283231793,0.5602358652800886
80,-7.416349376950945,0.987546440746103,11.435420388267154,-1.2201816394392933,-1.9330889894848777,1.0742870371267643
100,-7.063870916366577,0.025387217700481416,11.693827047348023,-0.940331087782979,-1.947713553905487,1.580278537333943
120,-6.077321033539443,-0.5481291456983007,11.469170907448078,-0.7121235230487997,-1.8292689981131718,2.059236886224645
140,-4.632766324010762,-0.638599322375023,11.153533870523626,-0.5811959011197994,-1.6229563808830625,2.5024792985941255
160,-2.526616268464037,-0.2673359760964239,11.184547508085096,-0.5115929543468598,-1.4575018784585032,2.8118095124499067
180,-0.46877332785983145,0.31460504712146004,11.489766680164102,-0.42878925942896323,-1.3936537223189702,2.839910785394525
200,1.822237382001347,1.0600356838769383,11.730752971437242,-0.27146811083787015,-1.3439749153537883,2.646800038003777
220,3.471458772311405,1.5256763765094232,11.740386267097628,-0.11160186841627773,-1.2540970316764957,2.336946129905801
240,4.563235432753023,1.7171386903468169,11.564917173025743,0.027590705573839962,-1.1148546212792116,1.9566684489968706
260,5.128199248198877,1.7190358402174817,11.263735327804298,0.1439442248001956,-0.9561046480707693,1.5809477965956096
280,5.433906927704811,1.4517352560260257,10.712883569178034,0.24603804411580327,-0.7786678753518423,1.2152574786278953
300,5.400714433147707,1.109680237547132,9.997616394558026,0.3297067971914324,-0.6159312955836076,0.797538748304253
320,5.131062498999586,0.6723285234874958,9.343505740808926,0.3736876395376895,-0.5371102672338272,0.44835362167486237
340,4.498042387165586,0.19961754146481858,8.69271562436,0.3989134443302949,-0.5109102002085268,0.13356255681165272
360,3.659929941498464,-0.20303587154034644,8.070041846267639,0.39530229775174974,-0.5592959517312627,-0.0867802296239402
380,2.914283402812627,-0.4975175916965754,7.418154563457688,0.3443570630224936,-0.6454578051057879,-0.19961959080616343
400,2.324513615179829,-0.7123712964399517,6.800903366845951,0.2307492623116538,-0.7275384537200307,-0.22697104856083225
420,1.8831276666768437,-0.8869600802992975,6.3122281273983045,0.06704047101669472,-0.8071533413135639,-0.1879469372953845
440,1.5849138402285423,-1.0664625551133233,5.930683390182607,-0.12593824376556326,-0.8900079145370161,-0.1034647025763092
460,1.3860162783509646,-1.2896996645591199,5.636549757535641,-0.3447947395535616,-0.9684651061414908,0.011495558703795839
480,1.280898967014598,-1.5729498065310745,5.438157548091095,-0.5959100221545238,-1.040804072985141,0.15547680294742175
500,1.3183504700907882,-1.9334732594224513,5.493017266923783,-0.8724594401875378,-1.104348232810743,0.3223987961622723
520,1.5615090509221705,-2.380802635800893,5.911652123206827,-1.1395104805424334,-1.1516195436233663,0.4987713629050291
540,2.1322607546227803,-2.935222619523605,6.848810779617021,-1.3800124027031033,-1.1569257026881372,0.6702705268603096
560,2.7362896195628634,-3.372431211615518,8.120314095169306,-1.4790026932260243,-1.1061081452437251,0.7518859588811411
580,3.186396924366594,-3.700953169008259,9.409934010845227,-1.4339802966993531,-1.0502308838207413,0.7597079468180077
600,3.481275067605551,-3.9453006377887156,10.250722073550735,-1.2381136422415102,-1.0113139734012149,0.7177574438355228
620,3.77036884855479,-4.102576518116089,10.718928812272274,-1.0152073534921957,-0.9824200730269345,0.6571257190178865
640,4.053231112255868,-4.216324827619898,10.957679547647487,-0.782395678252649,-0.922035201640327,0.5751973397364326
660,4.29958087220734,-4.315027041765659,11.03887112778814,-0.5455883797798036,-0.8468329849571962,0.4766610366388467
680,4.5293868974664475,-4.403479725594671,10.94550960516216,-0.3128200303763151,-0.7707774990999048,0.36267273506874376
700,4.770419768414984,-4.484854711296215,10.71517022010194,-0.09828018369025564,-0.7104632425096448,0.22267876403192569
720,4.94830214275668,-4.568819289257129,10.437719115565221,0.09479517894486586,-0.6951028101705015,0.04585921745514497
740,4.9548290377095725,-4.6728854845580345,10.169113412209146,0.2780533575924573,-0.7565234242575606,-0.15883953558725558
760,4.725358557439398,-4.731967622767898,9.771422428326517,0.4326556102148717,-0.8789505770936892,-0.35039599502939567
780,4.354101460129023,-4.71917616555324,9.064581894416076,0.49671383360257515,-1.02722835477155,-0.5110116388154431
800,4.032680821098812,-4.70868052381116,8.460906738901997,0.4332077326225089,-1.094369841862593,-0.6010249350073135
820,3.7051023810861574,-4.703734280470529,8.115787430854837,0.2971366411648538,-1.1002978307640185,-0.6438230340692687
840,3.3835931387556486,-4.697930520491136,8.0291901104323,0.1434635134216366,-1.0988497419021277,-0.6412060200483578
860,3.173649224549198,-4.674461123697898,8.128911336753465,0.009472805766665301,-1.12143649733221,-0.597192312772738
880,3.1798380278255025,-4.652164879931163,8.33033761634198,-0.08816318036350486,-1.1480077883203144,-0.5380272606789607
900,3.283116017335941,-4.610252273665996,8.551684088575536,-0.15202208800146472,-1.1420339799009203,-0.49286670590521164
920,3.3749786801245114,-4.547771405086429,8.779261924922857,-0.19035758385116971,-1.1125564813232562,-0.46536353875007824
940,3.4262202626960905,-4.4653755806214095,8.994881051815184,-0.19779277192596298,-1.0879596041845863,-0.45259084473220407
960,3.4330947340304214,-4.361469510238927,9.123649340573351,-0.1819660865915212,-1.075214636101568,-0.4473201955594732
980,3.4066286088231905,-4.240734125379427,9.160045325158187,-0.16339657612052966,-1.0596695379388552,-0.44223672728468144
1000,3.351392138145016,-4.11353030997457,9.15818395033551,-0.1523726701592129,-1.0358872976803535,-0.4325216861608603
1020,3.294386475304951,-3.9874403145597834,9.142774129273135,-0.1483275780626827,-1.0077420356606006,-0.41680451847542066
1040,3.2506208951563336,-3.855781098039344,9.119911725429255,-0.15173907609179962,-0.9760968557234074,-0.39621626660660947
1060,3.2293941590373647,-3.750841342712238,9.123428132835793,-0.15734535690448057,-0.9517108443146359,-0.3787977673223914
1080,3.220409978882748,-3.6540266818162306,9.147954711323028,-0.15975177217893002,-0.9327019622482593,-0.3640486902260794
1100,3.2114470007168827,-3.5653401752564613,9.177862956520942,-0.15675175061145805,-0.9160723473680809,-0.35175048965665345
1120,3.2034787204906796,-3.483447193083438,9.19836840419768,-0.14983436774091546,-0.8990214055719548,-0.3404315848959795
1140,3.1955167194154668,-3.403567497543198,9.204274485331583,-0.14228892604562832,-0.8804668559895907,-0.32949007180856266
1160,3.1849051172295626,-3.323956558909501,9.205303065813922,-0.1360401444713815,-0.8600351335583098,-0.318418941257919
1180,3.168334997684499,-3.2443448479436796,9.207953599615045,-0.1307774012517414,-0.8387296733512531,-0.30676867842382977
1200,3.147075182950569,-3.1642087941861106,9.211788518580528,-0.1251449316423311,-0.8183094231918009,-0.2940984010764281
1220,3.136311598463481,-3.08324904129859,9.204327632105386,-0.12009835381995872,-0.7995140343757005,-0.2814765154194844
1240,3.1280362409650695,-2.991871650452833,9.195159982437898,-0.1171299309447889,-0.7802141548399567,-0.2697810564088087
1260,3.1172058927075055,-2.92222911097886,9.199418371126171,-0.1154598301379046,-0.7674694355189778,-0.2622721489396622
1280,3.0969830646941285,-2.835376033760904,9.214844862349063,-0.11094556482459296,-0.7544785366063157,-0.2532934965123997
1300,3.07454265363027,-2.762115708926571,9.233745269567889,-0.10407200831066922,-0.7439506539500483,-0.24458432795358037
1320,3.0524635415517385,-2.694524998836645,9.262145198174988,-0.09337534695867154,-0.7340154862048492,-0.23439361686384372
1340,3.040214442257548,-2.6314615357511704,9.285382460654052,-0.07763977450979519,-0.7254988480724408,-0.22356599376295203
1360,3.0327975009576367,-2.569329076901425,9.292907548818423,-0.05958281094308323,-0.7196280631488305,-0.21379625623002782
1380,3.026130530109376,-2.5047343424940234,9.289018183046496,-0.04181557464802628,-0.717071768090234,-0.2047850526573639
1400,3.0233561492614123,-2.435039370591226,9.27493221230481,-0.026463912175563365,-0.7150553212379632,-0.1969323862279239
1420,3.020887963524916,-2.36303400299408,9.258874774892938,-0.015102108612202913,-0.7103506557125835,-0.18993384087231413
1440,3.015155453531169,-2.2909436706081663,9.247734106427876,-0.006727283799236044,-0.7030804566377159,-0.18307339476008605
1460,3.010631633882033,-2.219395523290702,9.245383540749899,9.58786663974018E-4,-0.6951908329424008,-0.17615344709031072
1480,3.011309077125503,-2.149764888970522,9.242826629405506,0.009088086316444876,-0.6870318221563513,-0.1698634196502422
1500,3.0172885648239918,-2.081548559774713,9.238318971592964,0.01714186482358633,-0.6782077507536132,-0.16525698577061418
1520,3.019708407405961,-2.013869366343963,9.2304825601893,0.024703252354239143,-0.6684723657845141,-0.16244284217851312
1540,3.01533350755834,-1.9477468700799059,9.219846332029524,0.03146683922326768,-0.6586242467832859,-0.15997270257957574
1560,3.0105696102255024,-1.873915752407629,9.203394341742387,0.03747383121444727,-0.6481643912924483,-0.1568883178406395
1580,3.005646145051736,-1.8089790270767279,9.186267825826588,0.04025257815760913,-0.6394519949583063,-0.15456120864455078
1600,2.9969289518733757,-1.7449178408672352,9.170245407098086,0.04126947080054911,-0.6271775900460808,-0.1509540100332077
1620,2.9867698250069137,-1.6821983083297152,9.155655089176697,0.04051374386559824,-0.61609927613845,-0.14669794849602572
1640,2.979048016314794,-1.621171682374552,9.142844896491928,0.03855143186471347,-0.6053291176008532,-0.14179817066040068
1660,2.9762908926452782,-1.5615809777313296,9.135534719416105,0.036206836346879274,-0.5956426544405986,-0.1372666820007212
1680,2.9756935302622964,-1.503543197426425,9.131242114005524,0.03431778879285259,-0.5868456998023036,-0.13401190321459328
1700,2.9729488774299107,-1.447321376249451,9.128225050689974,0.03318310916007646,-0.5788356449589502,-0.13188190590162044
1720,2.969239193745042,-1.3927379372550852,9.124977181829639,0.03281263966809175,-0.5721939540146029,-0.1303564038244076
1740,2.9637829706261165,-1.3393743647722882,9.119548556086178,0.03253053977987088,-0.5665909804556168,-0.12899460035619545
1760,2.957669615880069,-1.2875226381855707,9.11358193647013,0.0318108485955842,-0.5611591227317048,-0.1272280762033511
1780,2.9534370181021705,-1.2307444106179337,9.10912371621517,0.030199839034330468,-0.5545713805027602,-0.12477978259747892
1800,2.951151636402594,-1.1819893100793035,9.10875686853012,0.028780545947963962,-0.5483112239330663,-0.12272679360028675
1820,2.9488510408357484,-1.1345577707326653,9.10816000571487,0.027792102178080546,-0.5419996286061086,-0.12093452322796837
1840,2.946650219282227,-1.0879241514748152,9.107645800621663,0.027205213839679852,-0.5357938503208329,-0.11941941889345517
1860,2.943475977163982,-1.0421388196353842,9.10654443909222,0.026990419041069223,-0.5298949258876829,-0.11805375461018694
1880,2.940243200271818,-0.997150385497993,9.104375933092305,0.026865979392863858,-0.5241949251587702,-0.11676014034030292
1900,2.9358008823512143,-0.9532609685603409,9.101956170723513,0.02668994783898492,-0.5185780240512876,-0.11547397024854011
1920,2.9302958380359754,-0.9101989913233526,9.099097571018964,0.026514111627427162,-0.5130077563107583,-0.11399214153628867
1940,2.9249381088237145,-0.8682414315932185,9.095155012031634,0.026257193093361334,-0.5074054688417258,-0.11238102584608689
1960,2.9212003591820395,-0.8271698157085611,9.091644029562058,0.025869089908698472,-0.5017249089376199,-0.11085329408851567
1980,2.9158743058917698,-0.7811844425528873,9.089022630154167,0.025735242667472864,-0.49554887357869265,-0.10962282932007018
