0,-3.1734010219573974,6.229446029663086,11.015174198150635,-0.7352638214826583,-0.3806345909833908,0.548356956243515
20,-3.1393385198381214,5.868064218097263,13.158770084381104,-0.7918352170122994,-0.4398101154300902,0.5869131916099124
40,-3.360212564468384,5.42066634618319,14.952291892125057,-0.5500018606678798,-0.34795165316273385,0.6359943816295037
60,-3.6838219726786896,5.033626850913553,15.552834819344913,-0.1860790295416818,-0.2168253688415622,0.7410117755917942
80,-3.823021576518104,4.7745286623636884,15.376254104432606,0.12970328552737123,-0.10444224463953149,0.8880479094528017
100,-3.5839073777198793,4.624208097457886,14.897309494018554,0.35537553019821644,-0.024165462385863066,1.02866166472435
120,-3.1122867183374434,4.568871572099883,14.379615273968927,0.5118599550092015,0.019043114052378927,1.1198878771272198
140,-2.4527145834055855,4.522583484649658,13.796099491973422,0.63577543565947,0.051550919260603914,1.154151583259756
160,-1.8652412904053925,4.459718147913615,13.258828665415447,0.7598706861833732,0.10251574110239745,1.1361963216463724
180,-1.3716825703495596,4.3300800639462755,12.63237233334277,0.8615371373493269,0.14810648660388698,1.0864546658044838
200,-0.9911170225836091,4.185599468566559,11.929461180508792,0.9446023843854994,0.16953256784600543,1.0187510944657274
220,-0.6911687980961017,4.005150198936462,11.19591842757331,1.0032352122167747,0.17741887671214462,0.9422821217414105
240,-0.4482491871986155,3.7575843465105394,10.453835399351387,1.0368278536632238,0.1908858740945982,0.8584811871296891
260,-0.34559091857593993,3.4711123604813348,9.69287352996028,1.045390921863525,0.21076047570323167,0.769772334979928
280,-0.400026691729218,3.1839741432993875,8.893545169353,1.0162313733461912,0.2215845601300035,0.697578410065271
300,-0.45944155055944247,2.890989799848722,8.066243289251819,0.9363495338395351,0.21044407140122343,0.6557919653488025
320,-0.5639151268028956,2.605092140705251,7.3052923226420825,0.799834746197402,0.21102016792371334,0.6422129703029026
340,-0.5488993981156219,2.3476080151186105,6.737271681275903,0.6236509408573715,0.2104574257229157,0.646177888398065
360,-0.4765167920730817,2.1152015010086007,6.24814563163389,0.41186726929094547,0.18294248135927588,0.6580974349561028
380,-0.340180411980283,1.9493415249148156,5.929922563818897,0.21765004057528042,0.13535117447126385,0.6728867100460864
400,-0.16188662035693957,1.8157312179330822,5.743062127641467,0.020082768269403035,0.07293788636601421,0.6874738883790236
420,0.07467138729989528,1.7350852753967048,5.723750970264276,-0.1792545577304231,-4.569080296076006E-4,0.702036828858157
440,0.3925539074029694,1.7366949782330305,5.91386400654595,-0.3721918216807411,-0.07742503603940155,0.7043620798776441
460,0.7485169582449052,1.8316279217524796,6.361123262771538,-0.5498166224558134,-0.16442055545500195,0.6842166390079929
480,1.1306371218068343,2.0010858639417326,7.176770240798885,-0.6799411896762311,-0.2700783043652408,0.6430326395795918
500,1.545352535111443,2.168712870657163,8.153573182534497,-0.7407459965643456,-0.35863678805301635,0.5870433398610297
520,1.8532421378988653,2.30963007442347,8.986397958917705,-0.749623563225683,-0.3897819200734774,0.531514746362352
540,2.1751400250287953,2.439978771532575,9.91678883958804,-0.713240529443219,-0.36606650869362056,0.4583705495879577
560,2.3782342043152807,2.5076261460465394,10.526354808044635,-0.6457104393265257,-0.3127843099054328,0.39239337429467397
580,2.509587955981737,2.5156540201030304,10.913005080501565,-0.5515281546586117,-0.2541246421932869,0.32479629893100165
600,2.5915437797489376,2.463822011390458,11.092784254093887,-0.4292880940608121,-0.20242467679804846,0.250018653618135
620,2.6307776656815376,2.384283334478893,11.1019161762634,-0.3213443489623938,-0.1698574819263085,0.18618046182610978
640,2.646897356500191,2.279649130146618,11.00031623177812,-0.2214130068606382,-0.14022531234018754,0.12418701298894935
660,2.63426221511747,2.1528373187465006,10.802870034418381,-0.13589904956277526,-0.10996078200544153,0.06434957383180354
680,2.57581420972159,2.010639986348453,10.540792300931194,-0.06785130988348995,-0.08014689771164404,0.009353455705078024
700,2.4829078686166137,1.8563609132431955,10.239109428211691,-0.0161572298727955,-0.05437155432503276,-0.03907464351822899
720,2.363064827044739,1.6951010006455167,9.896412054516153,0.018307057862166947,-0.039567865341579994,-0.07873155472435032
740,2.23659180526691,1.5399898704439763,9.530968970417204,0.03246014908824152,-0.03726758038426198,-0.10719237593530065
760,2.1198719271020936,1.3995527642990584,9.17102123618314,0.026406565551831143,-0.04274523718582249,-0.12402610771052469
780,2.0194805619579097,1.2814018257807653,8.825227268246504,0.001717157977131697,-0.05455622535198927,-0.13193181417309321
800,1.9277246987542234,1.1813847883548532,8.507397397099673,-0.03938202934155056,-0.07298625490765225,-0.13234630673941974
820,1.8497417977522195,1.1003043264453778,8.230495474861165,-0.09463955416641802,-0.09965157796986554,-0.12436293667971629
840,1.7971019589670407,1.0411678748218647,8.010057352291136,-0.16326949361679718,-0.13231013847360212,-0.10817156142266975
860,1.8030216309486489,0.9967295661524417,7.853630608259882,-0.25520588010653605,-0.1747315759905848,-0.08506661407355552
880,1.8785984387692531,0.9713964044597366,7.846856456219417,-0.3455542265157638,-0.21498226215350416,-0.06888106004703953
900,1.9806940493617147,0.9533715039568849,8.009752505832417,-0.43012049852467,-0.2562296965039948,-0.06171351877840505
920,2.076156003488452,0.946647183144348,8.327708946072853,-0.49450903267389973,-0.3027657339841869,-0.06109694873424081
940,2.168843809935527,0.9610538253644243,8.734218981546851,-0.5323052899434398,-0.34577968066844805,-0.06296807365336766
960,2.2615364090768835,0.9950283571326609,9.166714968010034,-0.5487074214993185,-0.36916370060641185,-0.06650908394475659
980,2.345054574953071,1.0398514544066004,9.591451896446312,-0.5476170293665652,-0.365722677067124,-0.07114111105601757
1000,2.4156954842957035,1.0893868280131513,9.968175821465211,-0.5276037257497653,-0.3461050297322589,-0.07739143475051069
1020,2.4785048025373317,1.1316183983641832,10.263147189356916,-0.48954048217384594,-0.32042687012641846,-0.08745634455346366
1040,2.524762865710397,1.1604371395427733,10.46251513257103,-0.43832540250015123,-0.29442341338713157,-0.10092118034345032
1060,2.568664031639083,1.1775294460864423,10.57748935231301,-0.3804979908267317,-0.2716365816926405,-0.11646975541315105
1080,2.6193906521003787,1.1876511216628254,10.633040584098772,-0.31484235654391296,-0.24721018177242554,-0.1375502634484121
1100,2.6527658642157093,1.1830870599731558,10.636055824971134,-0.2587127645059929,-0.22362079277102437,-0.15989964753542873
1120,2.6646998862114373,1.162800135806034,10.603584716108589,-0.20514406821817224,-0.20060270442778233,-0.18430781736316212
1140,2.6537123361959103,1.1365845926294222,10.551692110609183,-0.1605516090156867,-0.18264136996635413,-0.20532772400109295
1160,2.620351488085654,1.0960989842115512,10.455535684776393,-0.1078348280609214,-0.16255974144886767,-0.22928383764577542
1180,2.583011469388767,1.0603199431077945,10.348058522045918,-0.06738060077526119,-0.1470217987248632,-0.24677659682996447
1200,2.536320960566853,1.0274876135796533,10.228572412625407,-0.03388634343264681,-0.1332708659553618,-0.2611483748376633
1220,2.480230915780451,1.003584647231789,10.104135470342625,-0.008266308565233384,-0.12085529537334534,-0.2709311282287202
1240,2.4266657709579644,0.9922036706058057,9.983941626109898,0.010411148774209787,-0.10944136245806799,-0.27602351900261196
1260,2.3766901260367477,0.9899229884088427,9.871726373881677,0.0239356602210128,-0.10082797557366778,-0.27798582586327025
1280,2.3357485852697315,0.998245999997259,9.767826236112917,0.03239433440879921,-0.09669369413027896,-0.2779015446734744
1300,2.30038278973966,1.0189264072601414,9.68479682679906,0.03592382679545434,-0.09411369497217587,-0.27660418772660894
1320,2.265952736570719,1.056626307849108,9.61580128413762,0.03630537514040685,-0.09097500087056473,-0.2739023833466276
1340,2.240645005050507,1.0988280650226574,9.566376568337876,0.03478509563939187,-0.08766575780379977,-0.2713887280918678
1360,2.2155984549051415,1.1439126983442942,9.531014822789334,0.032242037232832185,-0.08464985047300745,-0.26970018558328906
1380,2.1847217363948133,1.1904934197820027,9.50837971851833,0.03090995949411004,-0.08276822129231681,-0.2686518547727733
1400,2.1482328250228115,1.2379424031977477,9.48344612012281,0.03050815256129782,-0.081230142818337,-0.26712128040243344
1420,2.108560527662096,1.2868227213772638,9.456390509605152,0.029903936326624952,-0.07912313569279719,-0.2642253596042219
1440,2.0710932340825328,1.3379178391667272,9.42942692112253,0.02825258523650543,-0.07653954276355689,-0.2600446362850709
1460,2.0350561718891065,1.3899576240925429,9.404922741794337,0.02590935006660099,-0.07396980698996534,-0.2550486188180124
1480,2.0048993030612015,1.441801816043536,9.38471108728309,0.022728086031795675,-0.07162100281168118,-0.24993528014410435
1500,1.9732162464264926,1.4924704779034734,9.371571837059621,0.019939001503721025,-0.0695087330509582,-0.24492535692210274
1520,1.9446791846361846,1.5410723088403198,9.35999002875402,0.017868443546691336,-0.06830334776075175,-0.239359324277104
1540,1.9205177429823288,1.5879662261496275,9.349012174696627,0.016150290864855758,-0.06715962017556251,-0.2341303368956676
1560,1.896017298400693,1.6323855033282597,9.339356588333612,0.014490904541889903,-0.06610940033860971,-0.22909615647949977
1580,1.8708904425158683,1.6800416884463114,9.332347129768648,0.013258869318472356,-0.0659095260023336,-0.22354412150464503
1600,1.8512444659100797,1.721191607848734,9.326811567419513,0.012935028689285482,-0.06630665194271543,-0.21885909328784345
1620,1.8344407664059315,1.7567973925180858,9.321726592678397,0.01326369785799095,-0.06674515314579728,-0.21476075432897287
1640,1.8175347858604731,1.797611917603977,9.312606142163055,0.013936995072678352,-0.0669007440031107,-0.2100114169173009
1660,1.8010688373441541,1.8424699588449023,9.299337195705693,0.014369634177027033,-0.06603029800018928,-0.20529081966049653
1680,1.7847728074470153,1.8813591770015397,9.288289341891755,0.01443534439326762,-0.06502331690446522,-0.20213231803215823
1700,1.7678543683582413,1.9198504833570031,9.277845587025542,0.014782076903286161,-0.06358269537940028,-0.19812541672428122
1720,1.7507899320387144,1.957821535400333,9.264656123492523,0.015332588602306572,-0.06240319966071067,-0.19461066082833295
1740,1.734397308698491,1.9945777213379876,9.249283639230827,0.015628708935333586,-0.06158185352007274,-0.19132343636169966
1760,1.7172656221904283,2.0303255713224444,9.234710701083799,0.015489049459292182,-0.06114958215852597,-0.1882473045634558
1780,1.6996426075551305,2.0647303235668573,9.220707294008655,0.015087235045066136,-0.060909456743558375,-0.1849800428753752
1800,1.6824915617197085,2.102814252957131,9.205365033446732,0.014300352038795426,-0.06046582917328454,-0.1811241706956915
1820,1.6690975348265398,2.135291628651296,9.19299710831098,0.013195033707648476,-0.0599629103555305,-0.17784424911530303
1840,1.6559305557973723,2.1679628741320975,9.183883816670795,0.012243856041660083,-0.0598492986581556,-0.17487975825933585
1860,1.6444041413484811,2.199746952763101,9.174760726292732,0.011654457899318944,-0.05966118334512898,-0.17243185901789487
1880,1.631238546013203,2.2305782031818207,9.164900302069334,0.01101920165956117,-0.05934001434276519,-0.17022850965935882
1900,1.6176726103803396,2.2600488820655515,9.155882974320443,0.010321017297865838,-0.05894671937777792,-0.16788562674166344
1920,1.6053030499726364,2.2896143879105146,9.147244222097232,0.009524555588330666,-0.05827681778144176,-0.16529972461329503
1940,1.5945401290931296,2.3185418863852347,9.140269653430627,0.008713285695006063,-0.057296408702245054,-0.16279276420646147
1960,1.5838545596266533,2.346504056702561,9.133201292732224,0.008179203809780112,-0.05633755129107847,-0.16053904174127967
1980,1.5732854451788705,2.3737128244615215,9.124800063168378,0.007764828414943667,-0.05564685355500752,-0.15866717100028455
