0,-2.8474122418297663,4.656982633802626,8.590669314066568,0.3740597433514065,0.2036170359286997,-0.14858012563652462
20,-2.6018366322797886,4.381195334827199,8.40144712784711,0.3300183695905349,-0.06912199736518018,-0.08330308881533496
40,-2.2467200231552122,4.206612491607666,8.25572853088379,0.32089594602584837,-0.2738344992697239,-0.06864505048841238
60,-1.745170977643945,3.9834256966908774,7.883388605984774,0.30530176560084027,-0.35761593699906813,-0.0983620538573825
80,-1.3727551590560414,3.7570264164994405,7.269760858721849,0.22432946400126305,-0.32550762121270344,-0.14355548414424424
100,-1.2023976143373518,3.5805054830045115,6.630391938345773,0.08578251610148926,-0.2682516436444177,-0.16102391175393546
120,-1.1246507995876305,3.45050899606002,6.153015559179741,-0.06169883171586614,-0.2543065188117652,-0.14836831874491876
140,-0.9347208949808891,3.289577893110422,5.750552705618051,-0.1870368973280375,-0.2897233276090656,-0.11717030262717834
160,-0.6242142957061121,3.114641016476775,5.275932999506389,-0.29679663191000893,-0.3437173065174473,-0.09042430694584977
180,-0.3008854293988811,2.9974409959934376,4.812333669191525,-0.4113229202037608,-0.4051092738647842,-0.08925410153137313
200,-0.020882418358258988,2.8924840514579517,4.394134468409453,-0.5386065818746103,-0.47811032887914456,-0.11302875271171667
220,0.2389093827571451,2.785876963556427,4.017509653242593,-0.6768419396746712,-0.5777983745900895,-0.14932751813039338
240,0.5836165743827257,2.664527126640644,3.6488802117067127,-0.8632214562615977,-0.71460574364316,-0.1992711911575412
260,0.9438898380061513,2.483467289373246,3.4381977627217246,-1.073363649070655,-0.8221578666462416,-0.2558245332421441
280,1.2646488893899273,2.2319619867026987,3.507643687340324,-1.323813166637279,-0.9081086492391119,-0.3249303852742324
300,1.6114797468082263,1.9527516251680657,3.9852758292108774,-1.573167201059942,-0.9911876536744575,-0.4086512389377906
320,1.9506220078716676,1.7025812774781894,4.868554249540836,-1.770850245381935,-1.1038368133055316,-0.5199573029480551
340,2.1964626691674125,1.4989213981340346,6.140206973361846,-1.8771821193983906,-1.248298258442521,-0.6545438576897938
360,2.3773213783400013,1.2489871844352984,7.5336430997091846,-1.8635985730215907,-1.3844674210617465,-0.7926239555387141
380,2.4862077931333104,1.0262511281589806,8.770118333238326,-1.7676182795476951,-1.4767915750321943,-0.9260949579148013
400,2.530549571422093,0.8187585933325703,9.744686785449877,-1.63827389983789,-1.4948217767441425,-1.0426990584634683
420,2.459577525746119,0.6386898412039567,10.463490911686186,-1.5043645596257254,-1.4284428833039435,-1.1282018441706896
440,2.3460118693014187,0.4762998708068163,10.982143593992117,-1.361837367987841,-1.3081335104408585,-1.1790249468057707
460,2.2416155584371436,0.2988493189669381,11.329916692028442,-1.1840015058047497,-1.162139371676275,-1.208798691420219
480,2.175763257914521,0.15453185626246,11.446046558745536,-1.015621459074869,-1.0432959712314618,-1.226363337557451
500,2.1026229266324457,0.018138584162227776,11.41949898338219,-0.869963683516142,-0.9482584651991991,-1.2384251394619545
520,2.010547900419325,-0.10861796949730684,11.284107634687125,-0.6938216447847211,-0.8304361186179515,-1.2460562686295542
540,1.8971298718783955,-0.2250474420220218,11.057436344070188,-0.5543713927810544,-0.7283555904253579,-1.2411493513454162
560,1.7676671744423345,-0.3241939358829342,10.776609932821481,-0.4370446754025018,-0.6368720581784765,-1.2230725951809833
580,1.6382722801647682,-0.40321092024913113,10.46306212468709,-0.3415546418232805,-0.5615650262949996,-1.1941503432460527
600,1.5121257063891902,-0.4693093477317922,10.132440646138205,-0.26837462552663577,-0.5020527350094792,-1.1590228403892473
620,1.3770530680446207,-0.5309915751394992,9.794169222224058,-0.21733543412709558,-0.45495287005962176,-1.119260434079268
640,1.226913843799229,-0.5997954438970693,9.44672884090284,-0.1898920318174563,-0.4153355022583659,-1.0746812815446587
660,1.0453259161182424,-0.6788269491036507,9.101422950286757,-0.18831787135790695,-0.3822474026332863,-1.0233912244202061
680,0.821093974266425,-0.7769849937978487,8.787250845821397,-0.213099194756403,-0.36248630624142714,-0.9582164556663417
700,0.5332035500722082,-0.9283489810943936,8.504878739124699,-0.26981659156385146,-0.3601157855272791,-0.8547752686897421
720,0.29359747616574167,-1.0952584462814654,8.353237688491742,-0.3443155171908438,-0.3709013700663733,-0.7245354787042986
740,0.15796243455623846,-1.2710089286284327,8.341728945008732,-0.43071062944514993,-0.3848343383356046,-0.5559588585127532
760,0.28411299648659327,-1.4050731347192997,8.478990975012884,-0.5116930108316997,-0.38417969085584663,-0.36741351397837735
780,0.6850347546343174,-1.4165654106505423,8.734666156869979,-0.5757632184210291,-0.3525299002894938,-0.20529890424043032
800,1.1427850577677319,-1.3052135617486258,9.054761263934603,-0.6189137555782246,-0.30991100401249233,-0.10289820414092617
820,1.4673721788396292,-1.1472566700554179,9.385208453106529,-0.6295530191622675,-0.2839215908666494,-0.05029714734512655
840,1.6683376436442907,-0.9863626831438628,9.626285868771802,-0.6082288420159669,-0.2769274170158465,-0.020525975776408082
860,1.8311943389904382,-0.8266046982679747,9.7461018059612,-0.5764518578829809,-0.26814847850525103,-0.0010443476756009159
880,1.963797666035224,-0.682751668470011,9.792221979084578,-0.5511243543382939,-0.24537874709898422,0.008018440472289593
900,2.0489650488710933,-0.5679673172335731,9.810528325097215,-0.5327580467277077,-0.21448922542596496,0.008868037482663509
920,2.091242904867977,-0.4821048464785379,9.819467020622994,-0.5148903119965995,-0.1870743153985562,0.005012810043990612
940,2.106422845211962,-0.41408596503498046,9.814408704944931,-0.49088517170887835,-0.16779744135500033,-0.0020475021652053746
960,2.1015120884192457,-0.37306804571802765,9.792155386481237,-0.4678000577535452,-0.15910958621417956,-0.008810090881676157
980,2.0821058826544037,-0.3423281394002706,9.75520470874545,-0.44611749599837225,-0.15517067818303829,-0.014803131522587788
1000,2.05602867016005,-0.31991199282794003,9.715950928321762,-0.42879830552016995,-0.15474265850933136,-0.019261433005549427
1020,2.0288148733904485,-0.3028192280486421,9.689066120642382,-0.41495989799729577,-0.1558453018508225,-0.022617875069662965
1040,1.9975245331906841,-0.29024958182972943,9.67067612408897,-0.4029201467006982,-0.15747049233033175,-0.02506818953198153
1060,1.9623486492729552,-0.2801789325252772,9.661925701548087,-0.3917782743348478,-0.15988570933498084,-0.025635879195894135
1080,1.9259832938473798,-0.2687911692933504,9.658527512999063,-0.38056422269829876,-0.16285444267962018,-0.02367918761237786
1100,1.892541341891689,-0.2549929287558047,9.659320352849845,-0.3692759371364682,-0.16557134662519818,-0.019336560032809477
1120,1.8692423818939343,-0.24264314325631867,9.660455162975783,-0.3607485464983062,-0.16637223917687963,-0.014901019506002238
1140,1.8389869727688763,-0.21655267022395217,9.652521474497405,-0.34885406545373293,-0.16321004952585422,-0.006624595302818363
1160,1.821982315139146,-0.18955300004559275,9.645452005027225,-0.3435139752889298,-0.15659107986370377,-2.617967076818273E-4
1180,1.8062489013246992,-0.15726309907124397,9.648982143665783,-0.339039192260952,-0.14782950401683065,0.00560124845190334
1200,1.7910771316967466,-0.12698452183430042,9.657523946210683,-0.3335997525146344,-0.14185451176252592,0.010181012013851692
1220,1.7796618000565252,-0.09619200267955157,9.666833569299415,-0.325720388128745,-0.13832144263353865,0.014549023673064503
1240,1.772474196623536,-0.0633130472345168,9.669943410713298,-0.31654776357954334,-0.1361357571882157,0.018194104275465302
1260,1.770344879187852,-0.029452267441805093,9.667427381004376,-0.30815407863735406,-0.13473221528016074,0.020541026236302433
1280,1.7674152110127852,0.004525950967295259,9.663712968816096,-0.3012905893652583,-0.1330675840296306,0.021240939656201708
1300,1.7613979035662313,0.035925295332111834,9.661383603368137,-0.29583067156562814,-0.1311565901082537,0.02115085668258425
1320,1.7532515866841736,0.06514276732085789,9.660545872998634,-0.29070685564186355,-0.12873203381994286,0.020900302082025257
1340,1.744001042203639,0.09256097758612172,9.659270929396152,-0.2856207276220349,-0.12635089426245857,0.020758720678700642
1360,1.7338912029955937,0.11837749442462826,9.656873661530701,-0.28038357708462947,-0.12469379876111363,0.020614517190056355
1380,1.7259459327157691,0.14266023395481017,9.653139309385008,-0.2753339971402535,-0.12392296028506425,0.020396283277320303
1400,1.7192992067442316,0.1691425351239741,9.648272016333497,-0.27018463673313026,-0.12324351117528631,0.01929736457684118
1420,1.7118844450339612,0.19102643783193074,9.643745783441677,-0.2664738116309839,-0.12248490196656205,0.01766372554077676
1440,1.7033574152619668,0.21072120319298657,9.639204299162486,-0.26345105662109886,-0.1213448778500372,0.0157417564624495
1460,1.6933349515583964,0.22610106782903613,9.637438839070972,-0.2611272270514016,-0.1203448781512713,0.01440148881829677
1480,1.679794050886053,0.24246609690691354,9.638302000024334,-0.2584098401255045,-0.11933251701340232,0.013713648359878327
1500,1.6661703740776614,0.2609831479287184,9.640869178980347,-0.25472732414642907,-0.11809843014951746,0.01423379765081454
1520,1.6567384929853652,0.27781458926367697,9.640511437341642,-0.2514618484664954,-0.11660152821156546,0.014973715278604503
1540,1.6491095565485276,0.2947278522248727,9.63579783422161,-0.24778948084225438,-0.11432093081182874,0.015585098617817917
1560,1.6406071891342122,0.3118323064161427,9.63119476051864,-0.245597798737999,-0.11242435053555228,0.015687319814447598
1580,1.6308862131291935,0.3286100204773478,9.630422053763635,-0.2437278668589061,-0.11098299572993069,0.015784543429370364
1600,1.6222510082213535,0.3444074802520109,9.631445291729374,-0.2411335321992835,-0.11000376854663739,0.015954204584749145
1620,1.614676720515416,0.3597514565330319,9.631641882374815,-0.23792778112227447,-0.10958723194231605,0.01611495115351758
1640,1.6082467605656876,0.37457250471916687,9.63038463810606,-0.23452382032230673,-0.10972040403837212,0.016099612563071238
1660,1.6022540465086315,0.39054317235713826,9.628014133585726,-0.2314840365864408,-0.10985357579538123,0.01581086715496802
1680,1.5959533594290152,0.40400639339011746,9.627115593031915,-0.22869621801645587,-0.10923751701013612,0.01572350114868239
1700,1.5907266182034148,0.41777951696595905,9.62766233084445,-0.22649406715735776,-0.10791207415084124,0.01608666773930984
1720,1.5866392716343398,0.43161383684161014,9.628080974565819,-0.2242572282175388,-0.10602283977565011,0.016570199117598928
1740,1.5824890408875536,0.445514017676155,9.628449845494012,-0.22203175520954072,-0.10397707111338461,0.016959079787831
1760,1.5771403881494837,0.45959096226207397,9.628298250482315,-0.2201896331187853,-0.10234030259708612,0.01720224484161413
1780,1.570994706361959,0.4736677706874856,9.6289658726367,-0.21805458575129574,-0.10026039677191315,0.017545850518297733
1800,1.564422920759408,0.48788111954712327,9.630523621691795,-0.21621443181815583,-0.0982795652259246,0.01800624812692505
1820,1.559189973747663,0.5015827816959861,9.63190623090392,-0.21441313517621033,-0.0963663888308093,0.018464619639925458
1840,1.5543231549654206,0.5152349689835435,9.633412297398962,-0.21262041591693018,-0.09470073827483151,0.018755998750380736
1860,1.5494801405304492,0.5300955812167744,9.635985394168777,-0.2104420990705473,-0.09354118100552512,0.01876886660580703
1880,1.545949357934175,0.5430496798359555,9.6380759956429,-0.2083853923732909,-0.09275281273354416,0.018374632597114936
1900,1.5417021888181175,0.5552068555043193,9.639839966152165,-0.20628809211831095,-0.09193269367424692,0.017686897396149554
1920,1.5367849430537954,0.5661704378350857,9.640738118814815,-0.2041670578324301,-0.09093318763787778,0.01699493212660976
1940,1.5312843446849997,0.576411459422911,9.64064564258048,-0.20206329950823215,-0.0898141371786163,0.01643718063507187
1960,1.5256304976125754,0.585401403381095,9.63973574541258,-0.20001752284086877,-0.0887021457253176,0.015983664519043077
1980,1.5204200420525196,0.5938642131658536,9.637109008777717,-0.19813993292237886,-0.08763058142706263,0.015622074130982419
