0,0.4678271743986342,0.2889990392658446,9.011394394768608,-0.05825498037868076,0.08972847337524097,0.08803456276655197
20,0.31121167211848144,0.31515640809255485,9.12305237265194,-0.1111283013049294,0.13106143058222883,0.11903862961951424
40,0.29735090096409506,0.3840321869804309,9.020657154229971,-0.1473134547472,0.16087630286812782,0.15406201750040055
60,0.30430837830199914,0.4255386358674835,9.091635395498837,-0.1781459687387242,0.16963026946520104,0.1788030978949631
80,0.35089958422794576,0.4696575094286988,9.210719783131669,-0.18914249284965237,0.16681580109203734,0.19134211812804386
100,0.5019482158124446,0.5216352769732475,9.105385665893555,-0.2109523531794548,0.1628150836378336,0.19743958726525307
120,0.6655264063898859,0.5548599811977354,9.014028055914517,-0.24533541783176618,0.16203891029902573,0.19252026916064066
140,0.8680131723257628,0.5800302107677315,8.956175934184682,-0.2966105949246522,0.17007792769282154,0.1854847367062713
160,1.1110301918878749,0.5814719298804129,8.971355167595116,-0.3621928484455959,0.187959929626133,0.1801935305466523
180,1.4364276309384079,0.5522564796776306,9.096196953843279,-0.42724858715039926,0.21537626848169944,0.16996537698659955
200,1.8640437787605657,0.4906596897790829,9.27104116015964,-0.4799103241827753,0.2451742275307576,0.1396170321851969
220,2.3314538609464557,0.4021677875473183,9.514802017990423,-0.5138107369444809,0.26607442727046354,0.0707813811925601
240,2.7096257951321467,0.29099488725780315,9.807424626260433,-0.5237107868745642,0.27509676935678384,-0.03400298724618723
260,2.9865894839821157,0.16597065921023227,10.111352694661994,-0.5122850227512812,0.28417505379439445,-0.15622559813945963
280,3.147782155663752,0.03133156862048829,10.460896069886255,-0.48175096470618345,0.2977121384722776,-0.288338995828736
300,3.2019570185014836,-0.12028525411509551,10.799143512432392,-0.42928568246559456,0.30584649950839005,-0.4239488422584075
320,3.1369760404709432,-0.3145057073117589,11.15007419723401,-0.35477700836206083,0.3081196034394151,-0.5759364361975262
340,2.943316203751126,-0.4916959002259232,11.47181818436603,-0.28303786307624,0.30416306348986366,-0.7061333838520812
360,2.59337361584748,-0.6850528700457466,11.839663659372638,-0.2044707400784377,0.2989276993899576,-0.8205127012104757
380,2.146922047472805,-0.8906534360550298,12.183024072939633,-0.1088303549363752,0.29387619993163766,-0.9059995101776226
400,1.7361497321111314,-1.060880990479799,12.3801100730896,-0.010175701679990571,0.28976703191943026,-0.9529683305717567
420,1.2019921097925255,-1.2525818879669273,12.431958187891784,0.12428445434561988,0.2880766115583188,-0.9763325948746844
440,0.7548154027943306,-1.38038941490698,12.280738527124578,0.23353030762689955,0.2913039744418254,-0.9623557606283675
460,0.34913244518714076,-1.4725808900709336,12.027174485035431,0.32220374661951495,0.29172081926312204,-0.9223232593005284
480,-0.015172394368742487,-1.5303231588395065,11.744786941359196,0.3919183536538203,0.28733735779309505,-0.8606169715321856
500,-0.3095137268234203,-1.5550487882400295,11.442541145035442,0.44637799583446075,0.28094119513274934,-0.7805881990093332
520,-0.5125123352560823,-1.5470623827654204,11.111961523147478,0.4873882127526008,0.2702040491608656,-0.6894763559528273
540,-0.6421278806958806,-1.5063938154887997,10.714708579213996,0.515772257808988,0.25507417709664687,-0.5852585281735581
560,-0.6650340394511566,-1.4420250813078166,10.345703389132554,0.5247631381991935,0.2366301427098086,-0.49908891355745116
580,-0.6330409956424207,-1.3586337781095206,9.997950564436309,0.5166877814965536,0.21733269470621694,-0.42539138711042335
600,-0.5935086818589341,-1.2657963855631857,9.71642357824252,0.4980286411046686,0.1982290350632476,-0.3615831409669703
620,-0.5398466435905832,-1.1684840183758822,9.482674926555214,0.47639805013672093,0.18016372996095856,-0.2996263401797758
640,-0.4307996937727083,-1.0665165381419208,9.279700174740057,0.4525867911132136,0.16730485052746066,-0.2371908674058296
660,-0.2545142307796556,-0.9595090755298599,9.106177038506376,0.4300169473264258,0.1580456275648127,-0.18055747544554912
680,0.016149511206632768,-0.8417987982778561,8.922139652630865,0.4062486557834323,0.15676677762940658,-0.1405636614490248
700,0.2657241465983121,-0.7241735531651887,8.774064200821856,0.380519451378934,0.15093942340670716,-0.1273754641305247
720,0.4470064643894633,-0.6152086893515661,8.643865356873722,0.35602931304213903,0.13472760604772097,-0.13083231971599163
740,0.5744781188255588,-0.513871675942323,8.508657168675601,0.32899822704433523,0.12247939346820817,-0.13738494072194127
760,0.6789880677751159,-0.42761710925540547,8.37210187394337,0.29506652022688357,0.11509554622815686,-0.1435838712915731
780,0.7634438305520095,-0.3537480808952107,8.22555859825359,0.24397455567064194,0.11148408202812649,-0.1497497759043024
800,0.7915719729532171,-0.31955171542454724,8.137686948904449,0.18851047972155674,0.11283958871854474,-0.15171073333223214
820,0.7905812351650332,-0.31350876927741766,8.090376320150284,0.12978986721442154,0.11418928691770477,-0.1510102382104549
840,0.7588437885302186,-0.3373820889236827,8.074839577318988,0.07145833169352957,0.11383495227577843,-0.1507264515811999
860,0.6909866474088835,-0.38330376965674656,8.07916601868842,0.01660941982333984,0.10651856829563588,-0.15081345582907857
880,0.5905987224350236,-0.442573378014391,8.08244979057512,-0.04102576641646558,0.09636504994769109,-0.14567393164520395
900,0.4797744451355359,-0.5095677124848215,8.14985371437473,-0.10204619230407892,0.08829066294854651,-0.1296666950267058
920,0.39546740469657216,-0.5861826235479786,8.26158565645084,-0.15938289629007027,0.08447950147275674,-0.10459052016494155
940,0.34420557507818955,-0.6745889847200355,8.383910917401659,-0.21186379583882872,0.08081962033845293,-0.07835635000835041
960,0.31099058736481655,-0.775147800025312,8.54629877925163,-0.2577391167473921,0.07318571359751938,-0.05773301210526555
980,0.2590110273272903,-0.8827628387287719,8.721466959575997,-0.2925171803292117,0.058614856001840514,-0.04127145801429395
1000,0.19517960509434162,-0.992848717698886,8.904079899394809,-0.3201005613007391,0.04162806770132886,-0.021169816339997344
1020,0.14052295522384733,-1.1227136927985661,9.147153208345634,-0.3403993259996211,0.023340308056124685,0.011183488972802863
1040,0.12709756756937782,-1.2371891646830062,9.369901652967688,-0.3438029943272298,0.00609213522429643,0.0451751348410928
1060,0.15740419196211583,-1.3410196112390165,9.561465202694649,-0.3361317493110793,-0.012247901463553684,0.08007992618636453
1080,0.23608664546846808,-1.4278666720477105,9.731244031912041,-0.3221207960224773,-0.028232980806134105,0.11232451605088507
1100,0.3451202209825558,-1.4988919138069374,9.905025742935747,-0.30050268337860836,-0.040464782179128134,0.1384478114085838
1120,0.47561357444498964,-1.5569908602104736,10.055707679960667,-0.2685044642832146,-0.05201818423347701,0.1559651413875999
1140,0.6231790146929153,-1.6053969498594944,10.15832801805611,-0.22864845967554348,-0.05938639095736707,0.1657261994132336
1160,0.7723086538673943,-1.6443312959891654,10.211917803646163,-0.18605269050755574,-0.06125184133206592,0.16849371075443145
1180,0.9217031002044678,-1.6719947478114991,10.215438827339545,-0.14556723614050834,-0.0590304493575468,0.16478071576022685
1200,1.062074849480077,-1.6904669168701223,10.19700943436172,-0.10951660424357786,-0.05117623379259834,0.15497213996841236
1220,1.1736073294483809,-1.7024009501982658,10.170603565266912,-0.07546063060074511,-0.04079247813206166,0.1406761317280125
1240,1.2634386025223077,-1.706268342682069,10.123123427250368,-0.042359243203684976,-0.03027809458994763,0.12339575895126544
1260,1.3436844629129692,-1.701169988204167,10.031998914808236,-0.009778974389366677,-0.01920388370029169,0.10199963905434044
1280,1.404594938035708,-1.6897840631031829,9.936836496267672,0.011092071046794728,-0.00791919715852747,0.08274281451538686
1300,1.454412603823938,-1.676119798473213,9.85310631268005,0.025426218872802837,0.004443710114127982,0.06227782616200291
1320,1.4934513222007681,-1.6631228073043869,9.786248721048565,0.03579202067779298,0.01583711330051676,0.03979389462448506
1340,1.517503565322682,-1.6504510639974013,9.745569625713891,0.04666591760028025,0.02326211437858479,0.014136794876787278
1360,1.5240079768015362,-1.6345516308327415,9.697790123072448,0.05843104796454124,0.026895761747689574,-0.013715887142341978
1380,1.5085455681701607,-1.614099618582124,9.636097510461902,0.06690793187313136,0.029396365340421306,-0.04140165855868258
1400,1.4812842392662298,-1.5895516240896415,9.576658879379215,0.06923069884433694,0.033994968239946854,-0.06600588241673035
1420,1.4471382361486886,-1.5652541971676,9.531073079730415,0.0670998429745359,0.04028635541509076,-0.08836894136363094
1440,1.403295091641736,-1.5454198536510357,9.507818659565801,0.06292138106068329,0.04597302019878176,-0.10979311218935926
1460,1.3492756943422088,-1.5301336640583814,9.515425013595934,0.06149724028376436,0.047172925737803066,-0.13002968991551556
1480,1.283163281917376,-1.5139439095180838,9.514329742655574,0.06469524237112828,0.04770211523320636,-0.15074305866514087
1500,1.2124009285993003,-1.499041235434986,9.495584118884516,0.06763402640656266,0.049467278652379966,-0.1647592982573604
1520,1.1403978091354172,-1.4827474455255119,9.47237942483909,0.06785990321152031,0.05252644408513637,-0.17323920076104024
1540,1.0744239965901723,-1.4648766229061787,9.455086561901306,0.06553825974549886,0.055911850262672015,-0.176446101312891
1560,1.0201997766969726,-1.4462513187798323,9.448251423440524,0.062147807286964965,0.05908362440131896,-0.17636538464867044
1580,0.9816397005430145,-1.4298304249035911,9.451125058191476,0.0595822175871149,0.06140365126439107,-0.1748663350245937
1600,0.9396764605828538,-1.4078626406347812,9.458001908928543,0.058905774516638414,0.06296144669666807,-0.1728370611544517
1620,0.9069044825856585,-1.3854214720868405,9.449777208372435,0.05872506447380454,0.06178729431542388,-0.17139255236946496
1640,0.8784832073883577,-1.3645008670404863,9.441752770810142,0.05726410015715194,0.06079160949165326,-0.16935999763521592
1660,0.8431772283552325,-1.337924888676635,9.438687850636265,0.0541474571581656,0.060180611618082316,-0.16509169404641452
1680,0.8181707332950345,-1.3154610542182508,9.439023023614725,0.05081013575139412,0.05994373233988881,-0.16023727204125418
1700,0.7956317163704113,-1.2937648315103083,9.444711756616853,0.04779595338094487,0.05911691368714071,-0.15501538305356027
1720,0.7776533493729816,-1.2721466589626453,9.453418066738363,0.04537231521879386,0.058113688758153745,-0.14948470573951703
1740,0.7609746603485913,-1.248006775109215,9.461983584601636,0.043672813222120514,0.057188269530709046,-0.1435178698538208
1760,0.7508336724338849,-1.2264726146985874,9.460377387808386,0.04218980187844697,0.0559050526674036,-0.13896174857912175
1780,0.7407082806357959,-1.205056265621243,9.46178625723595,0.0397471384239857,0.054302217907672146,-0.13489505255004627
1800,0.7309066973414318,-1.1839521223113063,9.469975883161379,0.03744061515076412,0.052453771275259665,-0.1312187329083782
1820,0.7226392304504751,-1.1661460059857678,9.480128324332757,0.036081995589092815,0.05055685517733656,-0.12857089321734885
1840,0.7092788622950811,-1.1447271477408796,9.493698806730736,0.036088339132250624,0.04805913619118264,-0.12554767241906795
1860,0.6980900000609487,-1.1250801441931557,9.497861076604071,0.0367017634171361,0.04567039966627309,-0.12247260943735594
1880,0.6888531178177876,-1.1058979812532335,9.497741567930122,0.036521830981154045,0.04393464420959644,-0.11880145090061721
1900,0.68137537985273,-1.0863309724213246,9.498743429312547,0.03546816582744761,0.0424937498569968,-0.11511883061820284
1920,0.6751758661571962,-1.0674892364710475,9.502177858212667,0.033892488226911446,0.041586358718289314,-0.11157912136334333
1940,0.6704997903941032,-1.0496921058929751,9.509946446863449,0.03264883767418836,0.040863849104042685,-0.10827740471490657
1960,0.6657497594249144,-1.0307394049776035,9.517676633058064,0.032127481619908735,0.040022845323106966,-0.1049799164675845
1980,0.6624269489658835,-1.0144593546339482,9.521119660665683,0.03226880866424813,0.038678631550965854,-0.10281546762397076
