0,0.5029541254043579,1.36223394340939,9.922300338745117,0.034067940286250736,-0.04236432247691684,-0.05382315400573942
20,0.3271315067129977,1.4425062291762407,10.215322326211368,0.009967201777566088,-0.0066396690055947095,-0.025461358182570514
40,0.28883936896920204,1.5322377538681031,10.604284782409668,0.0236614900114364,0.030509236780926586,0.00784382164478302
60,0.3602690146953771,1.6427657242977258,10.798272624160305,0.07718425035493441,0.04015601338169566,0.01793155319650065
80,0.3572084166836448,1.7391347419924852,10.977309622415682,0.127955557689569,0.0440245846956514,0.00181598377573054
100,0.20386993790007368,1.8050138804377343,11.046514841974998,0.16405073747354232,0.05376069918179847,-0.02172270327882499
120,-0.12268281679857394,1.8450735807418823,11.113551781095307,0.2052806330344726,0.055053297442319835,-0.03861456699990507
140,-0.4910878907381134,1.8528742862470222,11.085021755912088,0.2435269068769368,0.0605251615916407,-0.03809167443294868
160,-0.8961257215941677,1.8488904334403373,10.974562503196097,0.27998167616297487,0.06734752177726477,-0.017125115188694483
180,-1.2678124081661426,1.8243624001014522,10.740027416043166,0.3093557962703216,0.07706727020203977,0.024868565009588877
200,-1.5281023600242205,1.7756675627496508,10.416791931788127,0.31809702795087813,0.09304262785396228,0.08025812805733747
220,-1.721432582931403,1.700024045243555,10.08777379989624,0.3088886508042063,0.10534449975357904,0.13934419137824858
240,-1.868205692847523,1.602381113565193,9.756451377328837,0.2890859920992642,0.10711160018152716,0.20441023219060503
260,-1.951877976081481,1.4906266112730169,9.41204897980941,0.2619987081446181,0.10971931195531956,0.277935074879216
280,-1.9416738283347155,1.3597822177727692,9.013597480586318,0.23053985891870143,0.10732667972562743,0.35141779336559237
300,-1.8570982244295569,1.2048238427020037,8.553462563111232,0.1851834364496776,0.09239208832956278,0.42077309146093633
320,-1.7108944245897557,1.0504417309834473,8.1205049580422,0.11701446757887016,0.06759464327731858,0.4936468581857997
340,-1.431570036640885,0.912877214451631,7.765370511684288,0.01774716688743531,0.044767546993331846,0.5829742909757559
360,-1.0230133238939507,0.8184631957642494,7.535550692773635,-0.0754431571952732,0.027347117830668725,0.6537480114027858
380,-0.49700330934870096,0.7341396397699608,7.347729203159823,-0.1705764818476728,0.0058299981149062055,0.696373894724972
400,0.046625845820495955,0.6767681231014213,7.300566054227059,-0.26803109949722387,-0.022236430701630856,0.7042433147247859
420,0.5328182829804095,0.6345196449140597,7.364431133483375,-0.3564354708467759,-0.052436062930849014,0.6928148049934033
440,1.0244792491337036,0.5963214678480664,7.500292127782648,-0.4444250679009717,-0.07361176197621275,0.6735543416673566
460,1.5574014225353798,0.5601029778520267,7.792828889993521,-0.5337990627282684,-0.07967133921308395,0.6439214105395457
480,2.1138702732570507,0.47369477259261267,8.295722691296357,-0.6066857313046882,-0.07900866042143606,0.5857576485253008
500,2.5377900410019816,0.3560293190075323,8.950052137058494,-0.6365592441055993,-0.07939081560484888,0.495782892390759
520,2.788491826240807,0.21359419662794565,9.597357651958728,-0.6229627078677675,-0.0792124184490645,0.38989920223442215
540,2.893057104930413,0.0438172570737448,10.124613146424819,-0.5837891089379245,-0.06963519556940193,0.28375668629967005
560,2.8833182706715577,-0.14650385680984943,10.579097279081953,-0.5347691914516544,-0.0546833621238933,0.18278969358157446
580,2.7687609652785485,-0.3482338807894369,10.996195500770224,-0.47184063016031336,-0.0419040224974814,0.08965655275114616
600,2.5559706523171846,-0.5632953099492524,11.365907829905312,-0.3795062041603131,-0.034209976078099794,4.334521603711422E-4
620,2.350711766193406,-0.7208456373845156,11.556034229351924,-0.28466375453093723,-0.03335009048460051,-0.062269035125903496
640,2.175392752784346,-0.8351379806148027,11.618731767383974,-0.19044142099803357,-0.03232888593998696,-0.11206800849333322
660,2.019938725998382,-0.9035992522764466,11.623160453810208,-0.09874405577033611,-0.03125688144970901,-0.15395288528499962
680,1.8789181949269078,-0.9457207250500649,11.549855692285886,-0.0035443375764374085,-0.04523586783669627,-0.18953769803653853
700,1.747175017110238,-0.9612394864989878,11.35722412066917,0.08801131843387812,-0.08177707923659162,-0.22140147294673737
720,1.627815003860742,-0.948802991732955,11.065334000700775,0.15545420621723072,-0.11054953135705242,-0.24679346156694615
740,1.5030847660798048,-0.9240187895060941,10.794197974643405,0.19642812918233152,-0.11829976851344351,-0.2645612658287229
760,1.3862009769647465,-0.8841260422516284,10.543907201355264,0.22435283939002942,-0.11709333425888768,-0.2729679980098647
780,1.3005104393031401,-0.8368375978237133,10.299464083002178,0.2422843751613937,-0.10916363565325966,-0.2725887083582132
800,1.2526962577185807,-0.7776239173127765,10.053260838187928,0.2538826337680233,-0.10771248414018472,-0.26852173250552874
820,1.2435630191598208,-0.695932301247487,9.787504097027568,0.257451338938343,-0.11212161420011495,-0.2640282415581425
840,1.248017962696431,-0.6125211220309352,9.579117787314745,0.2548394817155731,-0.11501528925387813,-0.2601816159463554
860,1.268488265433106,-0.5323182691608658,9.357194121865717,0.24728840627519302,-0.11191435333169183,-0.25465585707285093
880,1.3057187686687055,-0.4629080808223927,9.123600921127945,0.2319883787919,-0.10968044130897073,-0.2501077934850824
900,1.34034416044066,-0.40489315729957803,8.895847756536702,0.20714181857769945,-0.1098099677728604,-0.24991020923368035
920,1.3282049652286794,-0.35936609464954206,8.71871381468235,0.17724626572359842,-0.1137659315061401,-0.2507372573561957
940,1.285571421331374,-0.32499000283585416,8.54423562663423,0.14426178479803817,-0.11780427515166776,-0.2465585977357398
960,1.2392748528270412,-0.3092169422628147,8.375287139226426,0.10334797459161504,-0.119352113691297,-0.23668134313660863
980,1.1836778352336015,-0.31556305542220303,8.252758658305961,0.0563661397645145,-0.123099531142478,-0.22317522922243324
1000,1.1265464830674574,-0.33679311135310236,8.171453251321878,0.007536614385089463,-0.13166956477358793,-0.20761302217996744
1020,1.0602768942793375,-0.37520457144977076,8.130488639707387,-0.04136399542127867,-0.14288449131788558,-0.19001325118828857
1040,0.9859999901808295,-0.427480298973672,8.128037868893655,-0.08918202239097738,-0.1572245774857943,-0.16803781090614697
1060,0.9227911734295616,-0.4817175486065242,8.146203354348156,-0.13072936424479614,-0.17095821890915924,-0.14371327314058047
1080,0.8536419149513269,-0.5859206079217217,8.201331248136254,-0.19232214575982456,-0.18769423109103378,-0.10214594243597573
1100,0.81028156107628,-0.6852604810739272,8.31410492090652,-0.24227448716618458,-0.20010310634745015,-0.06403690691276286
1120,0.792402654695932,-0.7612986381530114,8.454971206128477,-0.27614957621878167,-0.20659246120865093,-0.032307400228961815
1140,0.8119218430026097,-0.8822385994281541,8.750301053110471,-0.3172750666704892,-0.2133443013160549,0.02232687032751818
1160,0.8572216143083435,-0.9718969579879584,9.01959383781224,-0.33525434581857383,-0.21587675853601215,0.0639685349062545
1180,0.9243541186041746,-1.0428952436702152,9.257768155562394,-0.3383872217092616,-0.21459976686740811,0.09849012478869217
1200,1.040156052606218,-1.1195116808886831,9.529875249942192,-0.3290667464041373,-0.20944455650310798,0.13692733455545492
1220,1.153182867458053,-1.1745090345328904,9.732567825585612,-0.3113413745334282,-0.20341931390056603,0.16507323202166885
1240,1.2804667229198066,-1.2161533952562833,9.907872200425825,-0.28699617784662346,-0.19060561627460024,0.18925416460945546
1260,1.425679359603026,-1.246945236489522,10.040116501998149,-0.256264861960517,-0.17320070792309594,0.20728167066032346
1280,1.5757453413892666,-1.272338239716883,10.11856637929545,-0.2201840902601676,-0.1601822532035283,0.21714295534826036
1300,1.688497848027995,-1.2882054240505834,10.140684212457312,-0.19207729501413678,-0.15384486782333037,0.2194529826436857
1320,1.8767691448392625,-1.309572913445546,10.128304274650684,-0.14349414697697596,-0.1388616498746664,0.21524961787819671
1340,2.0055920501728077,-1.3171608204295868,10.08005519479449,-0.11072835841355011,-0.1323631621344512,0.20665095972079792
1360,2.1012749902576315,-1.313154431785619,10.024498732721256,-0.08982236532192049,-0.13023121187570413,0.19618810765207803
1380,2.2415651929789804,-1.2909409222431232,9.926401763527803,-0.06461277547575185,-0.12981088274951885,0.17249667824277198
1400,2.325843136780288,-1.2649285737813816,9.870900572438766,-0.05183521862887099,-0.12889786102161135,0.1514507168377547
1420,2.3805794378906078,-1.2435263428619057,9.847764241258275,-0.04415924968927541,-0.1274398143087448,0.13574979628441075
1440,2.4676726134226055,-1.2085406811980377,9.820788149052976,-0.030551521822752753,-0.12787597520708685,0.10702335038781796
1460,2.523810914395772,-1.1859505440952731,9.797313622076947,-0.01985766703802682,-0.12998464282054784,0.07936857728822427
1480,2.549674562140068,-1.175352911862029,9.7796648336382,-0.01287640383644347,-0.1321031169596413,0.05634239046057024
1500,2.558757195000847,-1.1654087608922425,9.759023507779116,-0.0027662760962006198,-0.13665206050878861,0.01601689492799039
1520,2.528925450136033,-1.1676508761825783,9.748052843074264,0.004820542281676577,-0.1369338511694133,-0.015063655596334087
1540,2.4675334002557388,-1.1756438899186994,9.735743451301344,0.013609141665670628,-0.13641726407900312,-0.04513961783112204
1560,2.400535663307528,-1.1842586183469392,9.715554326357232,0.020953693415719954,-0.13448990658725962,-0.06636101947151474
1580,2.3326160662123403,-1.189515326081568,9.690826025599597,0.027037660545526403,-0.13249835115498115,-0.0828064197098066
1600,2.262625430866781,-1.1904014237693556,9.666087494712329,0.03174233830714002,-0.12907764056013193,-0.09482998890651777
1620,2.1979643437669174,-1.1839440464089814,9.644423053524855,0.035218652192127935,-0.12379653270970693,-0.10207095238624185
1640,2.1441912233269598,-1.1683169469872068,9.627896964154345,0.038878512823982546,-0.11948608497775803,-0.10573684764746022
1660,2.1023728893932834,-1.1458478303968578,9.606089161033058,0.0423057851876686,-0.11556609077310628,-0.10740919324829627
1680,2.0687295391608767,-1.1184323913063097,9.586682252719225,0.04443789915699939,-0.11170009886886556,-0.10783725710745445
1700,2.0399545321706682,-1.086241192474758,9.57240828525224,0.046320496673155735,-0.1080706786389741,-0.10735398499046228
1720,2.0167426125200025,-1.0499473459269872,9.55793141332701,0.047988564273623524,-0.10485210089179665,-0.106313504856437
1740,1.9967736165249181,-1.0126055513804235,9.543766411129265,0.04900347819215455,-0.10169537764584144,-0.10443237509540533
1760,1.9819685605241426,-0.9751721568832484,9.529257555433368,0.04945802788476309,-0.09886550292204548,-0.10237481694299883
1780,1.9684465967814357,-0.9332231743930646,9.517558344723517,0.04945141595739554,-0.09683601158563768,-0.10060639920981732
1800,1.9558828728241286,-0.8969397232292808,9.50707106379504,0.04975908652492418,-0.0964245238417843,-0.09998856417252208
1820,1.9377476977412558,-0.862650704985147,9.494536156265452,0.04979633558747607,-0.09593822513769487,-0.09904011068896909
1840,1.9214037065081926,-0.8283364606185125,9.482413904563924,0.048735698097127515,-0.09496287257089941,-0.09679897440192976
1860,1.910844857094971,-0.793063067067439,9.475371181223855,0.046965253644201184,-0.0943824791149224,-0.09348929993552492
1880,1.9078900817535231,-0.7576826763955782,9.471514701497497,0.044587499873410416,-0.09341728465400893,-0.09000953014604554
1900,1.9112842331896327,-0.7222725704918823,9.475123047946738,0.04226830579955159,-0.09271326091903426,-0.0874267558311322
1920,1.9143071578937185,-0.6889937520418672,9.480671497176337,0.041200062939420766,-0.09329918998243157,-0.08611455375245612
1940,1.9137656568795616,-0.6576367484001633,9.483365655061055,0.04032867871686247,-0.0938699386702982,-0.08519421443683747
1960,1.9121346387738356,-0.6282695588038376,9.485369121205276,0.039272552852187996,-0.0939737896979397,-0.08370842484259669
1980,1.9127532696464802,-0.5991160805879348,9.491252621815958,0.03795025934285462,-0.09291024807606316,-0.08183263018508574
