0,2.6563428772820368,0.9375171264012655,10.840923203362358,-0.027717397490050644,0.14861392269247314,-0.04482758790254593
20,2.8662749739254223,1.1666563258451574,11.731087852926816,-0.06695115656304337,0.3271327489774729,-0.03269889046821524
40,3.1170701599121093,1.264282956123352,12.598569641113281,-0.04847821758827195,0.4415947924484499,-0.03372279740869999
60,3.3856868599400376,1.281045194828149,13.207444566668887,0.032410863774588725,0.524044326642373,-0.07795838881848437
80,3.573486130412032,1.270879195957649,13.646354489210175,0.1500273129644395,0.5695377347448546,-0.17873335325318138
100,3.5678460987246767,1.2663299672457637,13.663342573204819,0.2701641127231949,0.5873277569724228,-0.3185945165780734
120,3.2342262684271255,1.2646942446971763,13.413802952601992,0.37839527793553784,0.6118651982366734,-0.467135565066389
140,2.779892042335687,1.2588731194987441,13.095168980685147,0.44800118068462436,0.6384876275013526,-0.5641144261497891
160,2.2743948025981315,1.2517537700163353,12.744061263831886,0.49804417994833,0.6561004812931454,-0.6290979578940047
180,1.6941259085859468,1.2524200183589285,12.333358031947439,0.5303202162833214,0.6729983000018032,-0.6578425438166028
200,1.1372351597166723,1.253792773352729,11.851754644181993,0.5333514561624422,0.7014625148207415,-0.6415946632830634
220,0.6254911523464383,1.2222909349568036,11.414174775688016,0.5103214546160212,0.7337092303710144,-0.5912587432361835
240,0.19246016390059353,1.1731755098081984,11.0374027783016,0.4760449208403753,0.7450794017734226,-0.5269239682194619
260,-0.1614537361617151,1.1115202048891468,10.739394079174911,0.44173871643745277,0.7398419392917085,-0.4606295909912309
280,-0.4544058937701534,1.0477229298138229,10.46454749341871,0.41831454145769803,0.7240318609234595,-0.3968082407077194
300,-0.6887523685223781,0.9828976312795511,10.160833938305194,0.4019196789966932,0.6980400114951548,-0.3380106810981838
320,-0.8901836696904206,0.9144289064072613,9.846967016441235,0.3856695275454262,0.6670066126056211,-0.28340180495591916
340,-1.1000797600314325,0.8444317835984992,9.489817239800278,0.3602840335644484,0.62620991336413,-0.21734004966331785
360,-1.2441740664503267,0.7862926690088164,9.194233136023245,0.3268384938132048,0.6006518411998366,-0.14679135196511783
380,-1.33357043918565,0.7313625879494324,8.949159825506387,0.29053597644498524,0.5786383921059814,-0.07119489078941338
400,-1.3581301961856627,0.6856759107993011,8.701764600318775,0.255013747247309,0.5423319370030393,0.001458453880459593
420,-1.3153073173952836,0.6481003385224489,8.43346622136718,0.21543598248702656,0.4995673227864682,0.06776047288310096
440,-1.2327819231319874,0.628148328988529,8.189046000414354,0.1697853437757473,0.4560069718101201,0.12646698890463076
460,-1.1350305087100236,0.6216365557617675,7.9794684838025995,0.1161816114682155,0.4159497854607299,0.18177964445203543
480,-1.0115949409311922,0.6178678710339361,7.830215832282757,0.05718131494402124,0.36864643325550905,0.23782023716387637
500,-0.8099479636274526,0.6121034522064172,7.701145897544391,-0.0072353235884543106,0.31993695293741864,0.2948871421808668
520,-0.5076457404076509,0.6003187782020567,7.591184230699931,-0.08361784611338512,0.28159120207685406,0.3450997257009829
540,-0.1623760073687799,0.5756382197285244,7.575700312458996,-0.17149890881490232,0.2515279685312755,0.37957182909374326
560,0.19745153209313432,0.5318268478689517,7.666967422404188,-0.26171471001951896,0.22191822990116247,0.3956454005845367
580,0.5923158394050647,0.4618363465453483,7.893327054430227,-0.3519196890876151,0.1886971757027271,0.3928539585207635
600,0.9223961919575693,0.3899700222518443,8.150688986929636,-0.4149410468690182,0.16707006195862223,0.3747640055833414
620,1.2264342871566232,0.3107353744150784,8.415454173088074,-0.46276368172995996,0.15688361667360787,0.34334680071602075
640,1.4849747307737595,0.2100021129234263,8.704591599862967,-0.4975833959072575,0.15243488365398553,0.29804291342968925
660,1.657815175015818,0.10805457479405133,8.974364989887585,-0.5145140025373125,0.14920488447712904,0.24828174374658954
680,1.8005993764611408,-0.03891063810975461,9.305300616882217,-0.5201413271057954,0.15008825576014842,0.17466647230731455
700,1.841794708373714,-0.19280728477225575,9.59407134741953,-0.5122341838526167,0.1523074963750407,0.10480293795172993
720,1.8079923415991168,-0.3627496773392583,9.864183735847472,-0.494115640213519,0.1569330541114323,0.03733920534762243
740,1.7184188142237435,-0.538428412473688,10.118957945278712,-0.46619229211283747,0.16809382094387812,-0.020596677216689115
760,1.605921300982797,-0.7105704974515741,10.34878888763959,-0.4267967920424343,0.18199483925974752,-0.06836305350902243
780,1.4867601858992359,-0.8631015079984166,10.525187284858138,-0.3754802268876243,0.19490854909577418,-0.1078656113413335
800,1.3639059742542365,-0.985565010897243,10.624278236584491,-0.3169466953593831,0.2053629719008445,-0.1403707348410579
820,1.2350130102925878,-1.072743388343438,10.648764465836917,-0.2573844278476078,0.21380741989089394,-0.1651269414818243
840,1.0859801401050606,-1.1259474589003724,10.611858475857273,-0.1963778443787618,0.22551069601390905,-0.1806637421010174
860,0.9712978705649032,-1.1423036132532196,10.536878807538029,-0.14930626256662063,0.23933945223232547,-0.18337563769396195
880,0.8860850909648285,-1.1383233095187542,10.433407618901501,-0.10840154934454428,0.2521665549294844,-0.17997544864065027
900,0.8369791049749937,-1.1213122402847153,10.297268118359767,-0.07467631359716338,0.26266561267365657,-0.17436353632576024
920,0.8159033601609819,-1.0975916143665652,10.15073438454175,-0.0503274868717576,0.27213661163969555,-0.17008750893302713
940,0.7888603663469418,-1.0717004870907296,10.010929628019161,-0.03303901808307049,0.27878492816404027,-0.16758525593488796
960,0.7582499486457566,-1.0410975444585704,9.891165634847107,-0.019893994702522406,0.28186217729783425,-0.1649316205485942
980,0.7327518265050502,-1.0077059940113053,9.769982884842673,-0.008048159539279884,0.2807527543453753,-0.16137542191111012
1000,0.7266362036012347,-0.9711485711539719,9.634334709107442,-5.6934046708994495E-5,0.27773633596180664,-0.15749400342447056
1020,0.729132727819391,-0.9335968619059869,9.497407683284152,0.003479597995067657,0.27161219401557146,-0.15577296637476482
1040,0.7280191355016689,-0.8914820098653868,9.348101381368416,0.0021540346123592193,0.26209377376633414,-0.15707770774011
1060,0.7103365811149347,-0.8572201818689177,9.21752832932015,-0.002660186771918981,0.2496211070223971,-0.1602588119793292
1080,0.6772750407966864,-0.8248211376655078,9.090699762506869,-0.013041231302923477,0.23449683082947767,-0.16199302122898968
1100,0.6502267333026565,-0.7919127181026724,8.989748390760715,-0.02710044007152955,0.21838392993888617,-0.16120004920608935
1120,0.6417512174219989,-0.7598225745338205,8.898068174655304,-0.043801675665417074,0.20246589339078197,-0.16095333710087067
1140,0.629110512402939,-0.7381399589224144,8.812112935045933,-0.06291143187765091,0.18455691109758188,-0.16297701054272498
1160,0.6071074181138908,-0.730340697702262,8.749638037701532,-0.0837850620926048,0.16362371081028476,-0.16662444326262843
1180,0.5725772493775674,-0.73450225903346,8.695936826030904,-0.10521430295876251,0.1389301080805721,-0.17000493857197066
1200,0.5234136074773876,-0.7522204006024776,8.652275071935614,-0.12859970165842197,0.11544817155613545,-0.16978148868315013
1220,0.4581643984248617,-0.7794882459723691,8.61406024138766,-0.15471883531299463,0.0930414577446084,-0.16339957124861587
1240,0.3928630595223284,-0.8192141207309404,8.58446886773203,-0.18682475163608186,0.07457526759016236,-0.14837513196409918
1260,0.35178122903547576,-0.8749774268021067,8.597773709352412,-0.22393674720391096,0.05915342542139677,-0.12598157819346112
1280,0.3361587685005237,-0.9411607597053349,8.679018414972399,-0.2590226893977859,0.04466041333720216,-0.10127997617927795
1300,0.33562059753060897,-1.020591733323532,8.803031196772496,-0.2887003459992697,0.028739712398203315,-0.07604626265363158
1320,0.33473377113280267,-1.0955560819235584,8.922987471627925,-0.30732905955778944,0.014899374814669757,-0.056259409430167516
1340,0.3292347909865762,-1.1720817510331025,9.044602557665208,-0.3204124073687892,2.477703461366048E-4,-0.035832998256609794
1360,0.33343043961030744,-1.253636396145998,9.173957745376342,-0.3293223422942625,-0.010543797008130093,-0.011691118968727337
1380,0.36756582203694016,-1.3387990806693608,9.305398916651543,-0.3323642578175352,-0.017921470929794604,0.0134434944554191
1400,0.4185744614218888,-1.425957203887241,9.440392647618832,-0.32733297136966544,-0.0246955366720162,0.03537209662406341
1420,0.47604610141219755,-1.5019032568111697,9.55365114146604,-0.3147508579850042,-0.03286788567515669,0.05448521784862973
1440,0.5453512419532045,-1.5628050218191307,9.652318143602555,-0.2981491829275529,-0.03838023442149402,0.07349906905905648
1460,0.6455677503965583,-1.6097370811430225,9.732764015611703,-0.2789089821156803,-0.03932422746823345,0.09259991401274734
1480,0.7875708430987066,-1.6434490607454575,9.79379554871083,-0.2586412190349774,-0.034345774016461196,0.10716962957941917
1500,0.9323285743503309,-1.667338679225858,9.84975772873173,-0.23606350558944333,-0.02852078195532587,0.11186212089245881
1520,1.063446295283472,-1.6877288865559819,9.88837588368318,-0.21056633796772722,-0.023362631581792456,0.10900802578759136
1540,1.158181478425601,-1.7008239537679377,9.89605057616777,-0.18043752581820915,-0.01631206042049276,0.10232619413976334
1560,1.2473599118209677,-1.7074132425164863,9.873172786086798,-0.1562555272262216,-0.008109587095896131,0.09536194369138684
1580,1.336535538883052,-1.7087319351101788,9.839302432389907,-0.13691276717881806,0.0015342825722598965,0.08606677139925276
1600,1.4126855423020925,-1.7067326146849464,9.810193902835614,-0.12089737306095918,0.010831700192506016,0.07326826113332971
1620,1.4746612070762295,-1.7020942875252847,9.787182790687286,-0.1068802274978707,0.0205804997895906,0.05797942311233695
1640,1.5268784836849332,-1.6951499931171947,9.763678870030812,-0.09328955838897118,0.029040639297385325,0.039972946987420856
1660,1.5690759866580586,-1.6863368489649422,9.724899719743167,-0.08203484005258789,0.03495265189318589,0.019098799070343377
1680,1.593795063280024,-1.6767574257121238,9.686552458031233,-0.07462164332004208,0.041714248840688986,-0.003145600769257303
1700,1.6044773402083237,-1.6685681998570472,9.656994436664142,-0.0693854189158555,0.04869080031720183,-0.025584219807716108
1720,1.6027070010446054,-1.660102418574256,9.629179823127659,-0.06517609544434064,0.05308773796985571,-0.04842681856032207
1740,1.5897581998211086,-1.6523381756609463,9.598458275366365,-0.06255826946428723,0.05626225334185364,-0.07100072180004685
1760,1.561772350411694,-1.6487614557489805,9.586355464988285,-0.06101431751538055,0.06119566784117422,-0.09161786150652915
1780,1.5211035862947662,-1.648745973448209,9.575909409176338,-0.0565796427246514,0.0645756720758806,-0.11277729799442085
1800,1.4761737691250527,-1.6505357443084598,9.561327819099581,-0.05081588185663693,0.06518275059508147,-0.12982030214142848
1820,1.4239886662538395,-1.6509175761765331,9.540478714040463,-0.045142303998410176,0.06452850138670109,-0.14409007045296615
1840,1.3719359540759621,-1.6496278214117495,9.513669996147613,-0.04084623574455804,0.06511681550190132,-0.15420795503415038
1860,1.3254844394598753,-1.6477955404636004,9.484973261453476,-0.0390054912473266,0.06629958312688322,-0.16101810531188954
1880,1.288252376741184,-1.6461082230022537,9.470044827088714,-0.038875171963127286,0.06835822976950112,-0.16504528353349693
1900,1.244146433982224,-1.6429649765130991,9.462183134282725,-0.03758126962312865,0.06932142178446805,-0.16917586107252877
1920,1.2082584263635265,-1.6369242237186783,9.452007511770649,-0.035505068767046524,0.06919096481020913,-0.17225102132340525
1940,1.1739129894838785,-1.6276076259719816,9.4384763797024,-0.033354560023499666,0.06885693811884615,-0.1744332829840284
1960,1.1403223745901017,-1.6158309448237174,9.42428264129772,-0.03247917696209422,0.06912738186216852,-0.17495277853503582
1980,1.109637173593484,-1.6023569510465692,9.416038916933227,-0.03268044579087054,0.06975590458868776,-0.17340784338135987
