0,0.2796185426414013,0.9984238147735596,10.92847454547882,-0.14051706809550524,0.05512217272189446,0.015566988498903811
20,0.362695787101984,1.145717516541481,11.636053144931793,-0.19597739959135652,0.050661376808420755,0.015333962015574798
40,0.45136140535275143,1.2280463228623073,12.163506348927816,-0.18607931677252054,0.0790462359727826,0.009597068943548948
60,0.6238663232687748,1.1895264188448589,12.844417687618371,-0.10516965637604396,0.1516052684958347,0.01714067481401743
80,0.9293844438180691,1.1546915377058633,13.20058876130639,0.00655437987752077,0.2116738203061154,7.518525689658595E-5
100,1.2601713477348795,1.0996072778896409,13.34558699082355,0.14082144368059782,0.24585613498597272,-0.0719857938179024
120,1.4533987526308025,1.093977737845036,13.3555538277877,0.3009976725045003,0.2350560787191059,-0.19313607757437257
140,1.4690825883299112,1.087900240905583,13.182487413287163,0.439527754788287,0.21933101836839342,-0.30931370926919044
160,1.3543343888978436,1.0914727767852888,12.830874743526929,0.5856649656205961,0.20640248925527174,-0.4352843127666322
180,1.145647292335828,1.092749877476398,12.498749968446331,0.6839318754680362,0.1996479782959975,-0.5158651834497527
200,0.8718947887085797,1.1048844456672668,12.131151167194496,0.7521745576784852,0.18920036319779296,-0.5661721466491103
220,0.5722368579242647,1.1093632136423563,11.748460155172447,0.7909249283142925,0.18189824900839516,-0.5919714621532247
240,0.2580690683353515,1.1030548010553634,11.333917172749837,0.8061885397349086,0.17350729145331398,-0.5973887275394407
260,-0.03632799674451879,1.0950114516030371,10.912281682006025,0.7959635237281302,0.1697641869087959,-0.5923997171045965
280,-0.40014496164732294,1.0595606091569683,10.489655920716583,0.7625783467512639,0.16405200982870932,-0.5768641325679501
300,-0.7116156079448186,1.0178464951136938,10.203686343706572,0.7275669454955138,0.15052274832537826,-0.5542880482989578
320,-1.0321840493791345,0.9308295845715464,9.961927939152371,0.6981818566395752,0.1348568293404347,-0.5186284092690229
340,-1.318950442112472,0.8555961553109427,9.70642399461302,0.6798642564003599,0.11651168340236612,-0.46918671843691484
360,-1.5628436274536244,0.7796255450502232,9.397419381451297,0.6571273697757876,0.09824290015438403,-0.4096257196052919
380,-1.7587427545660808,0.7190676829835148,9.06832786401113,0.6207327553427514,0.08132800501397593,-0.33859399853440947
400,-1.8975036183700842,0.6730709572706153,8.797174767886892,0.5668749328483553,0.07481859711081008,-0.25820285406319754
420,-1.991606837996606,0.6298363414498862,8.59528141878964,0.5062690229479516,0.07735058928060272,-0.17019299953637038
440,-2.0151643744239243,0.5913638248839366,8.419446842644804,0.4454442483362972,0.08585304537692898,-0.07489172978231542
460,-1.9373733615406703,0.5611382843254461,8.263595475363978,0.3834200786791511,0.09522470911681537,0.01597606052630149
480,-1.7973436735902388,0.533543976521728,8.133320662054684,0.3229942666643327,0.10071627953490887,0.09467604630834212
500,-1.6066247922146604,0.5111884274919118,8.019358267102923,0.2583610667714051,0.10093741877381468,0.16409781340930965
520,-1.3001238335451306,0.49485042540688223,7.933989178644468,0.17230586996769795,0.10020438082554467,0.23106778504807485
540,-0.9439859079599118,0.4782126196106231,7.946253095954526,0.08910373519564516,0.09683935757467958,0.27080457293149496
560,-0.5664680018545465,0.4611992478479651,8.03979552248691,0.0053312319073271245,0.09240925930281903,0.2863968636751413
580,-0.20996338489308278,0.43800276659961807,8.210245560226127,-0.0768182054775242,0.09341963303923116,0.28105564624619184
600,0.10969380608414749,0.4012468941166507,8.458684526116725,-0.15106998523511736,0.08906262057770296,0.2589936971254424
620,0.3822506804982898,0.35867961902714346,8.76132395092585,-0.20918756219986323,0.07862636678524919,0.22491509091148593
640,0.6122459557870131,0.3030910795085369,9.077528049883325,-0.2513763956195406,0.07129114930437745,0.18159362685531796
660,0.802061593817039,0.22199654574675315,9.394843347722833,-0.27992145562713794,0.07486491028558125,0.12978753458962522
680,0.9203391888774537,0.11728825750135465,9.736067930295695,-0.2902657798501291,0.08168837874337978,0.06774517020306059
700,0.9456870828937624,-0.01082285659154077,10.092917242410666,-0.27170201426026286,0.08071276923814386,-0.0027832122546815894
720,0.9008077363106718,-0.14693725870744664,10.370667301292801,-0.22562244142496019,0.07608409860735155,-0.07334965187822622
740,0.7918465409294402,-0.275770519806242,10.542166501769026,-0.17180357845985492,0.07511626459591406,-0.13641798359809099
760,0.6053108957749379,-0.4010672584755193,10.67448881909817,-0.11572944699886809,0.07579538012896016,-0.189774547757351
780,0.44310087611431676,-0.48346029276578995,10.755388076829467,-0.07423486536795464,0.07663894591322486,-0.21546431535771318
800,0.2549830244248172,-0.5670136831264595,10.822422831891531,-0.01988228829437306,0.07396965065034083,-0.23062141652075932
820,0.134917090920841,-0.6162244628820404,10.83766108120189,0.028808278925990794,0.06745104013586088,-0.23322553857681616
840,0.06871916918919005,-0.6416381474553564,10.829845206490878,0.07615863389051894,0.061862723405430114,-0.23373398770934142
860,0.022147203094503853,-0.6455116113261947,10.793519274572308,0.12175641839491894,0.05987396836150019,-0.2358743357897234
880,-0.016942791231385954,-0.6354434502619359,10.726641552788871,0.16605227664343317,0.05676250243022178,-0.23970433516532777
900,-0.05335357016132724,-0.6148955374887283,10.623231918581071,0.20591436665610321,0.05229148826867302,-0.24390366749139503
920,-0.09467260586588007,-0.5868365337906748,10.49580799529427,0.23952582700692707,0.04875301076957074,-0.2465791870453885
940,-0.13148534390115246,-0.552866825577683,10.333738134079372,0.2647529001955001,0.0452973027221532,-0.2461490062282651
960,-0.15464811192618477,-0.5144453781658097,10.155856985636431,0.27777676482454433,0.043731104383818956,-0.24391772471558812
980,-0.17812069365293673,-0.4735024944622079,9.995211324479321,0.2809136699721457,0.0419131553452923,-0.2404419116746164
1000,-0.20705031771348117,-0.42481733161615565,9.844099010162722,0.2790849169380241,0.0349875763137588,-0.23415951220009737
1020,-0.21642216654259916,-0.3786804790673844,9.712384886526438,0.2752523502487592,0.026435623568153085,-0.22663202951109201
1040,-0.20952793017533414,-0.32944081226387656,9.578303211496705,0.2670545934195823,0.02042751280712463,-0.21931203965603488
1060,-0.20086377521111573,-0.28231636459781473,9.456112982206541,0.2547789169486092,0.01654686039586464,-0.21326316218211547
1080,-0.1939373880415485,-0.2393943225342278,9.336556174246113,0.24096130586302514,0.008921710919756232,-0.20869572661356645
1100,-0.18773147317007283,-0.19815218803333015,9.221914721903685,0.22358819676119068,-0.0021719490876935307,-0.20498332855441745
1120,-0.18854675210462862,-0.15972339265995988,9.118598260486461,0.20167775447187447,-0.010974195518141003,-0.19912482540016094
1140,-0.18856821993568432,-0.1290706219394872,9.027605216386222,0.17436737366922217,-0.015209416154899132,-0.1893788863078697
1160,-0.17929006548719462,-0.10536580152694425,8.962243810889605,0.14395654874617542,-0.018937437079526658,-0.17826927817705823
1180,-0.16960195764976063,-0.0876675955975217,8.921616039079488,0.11360670265059956,-0.025832711276358243,-0.16885830216666625
1200,-0.17131434587391497,-0.07490630426187196,8.891634275656926,0.08490303973242277,-0.0359765766141275,-0.16073698860746158
1220,-0.18194978546719262,-0.07190317480114777,8.867366590899621,0.05582115867504192,-0.044843914244740365,-0.15215742014471195
1240,-0.2057087067085519,-0.07989973390301434,8.844760552574607,0.021531582096883772,-0.050674777150190635,-0.1405913898511333
1260,-0.23371785336253179,-0.10342970938722039,8.841048536153373,-0.011112121326676265,-0.05407206283461547,-0.13011513227996016
1280,-0.2760237376975823,-0.14266303305809844,8.859332442736898,-0.043545606713423314,-0.05821558777260605,-0.11935402932151896
1300,-0.32676768959465013,-0.19354360000437915,8.905449948507302,-0.07567159671158519,-0.06323838547266294,-0.10386831693312899
1320,-0.37091430601821973,-0.25058445256981804,8.987377463231667,-0.10561296136317795,-0.06580745619274951,-0.08167279765054557
1340,-0.39438135286031123,-0.31167479146144944,9.09352812420238,-0.1321189206440679,-0.06331635255112567,-0.05453032783909955
1360,-0.38837089143296216,-0.3763872070933148,9.217906935667907,-0.15311984329377584,-0.05874992241518819,-0.02685937368624767
1380,-0.3611655773622948,-0.4413183348293683,9.353909985336735,-0.16743758985650967,-0.05753660336459326,-0.0030149226463580827
1400,-0.3289438481110015,-0.5037635890819709,9.497212537074338,-0.17331200444872916,-0.05998531420218664,0.016213745939081294
1420,-0.29890832839504883,-0.5632617045469946,9.635229839082436,-0.17146831760871067,-0.0606489217391276,0.03348794766010467
1440,-0.2660379705990081,-0.621044827917575,9.75630327402535,-0.16361526046027192,-0.05793353350698885,0.05169840113701835
1460,-0.2140819158437771,-0.6738295616869375,9.860488082254212,-0.15161595722570093,-0.053096139472971565,0.07023927093059897
1480,-0.14634913906359756,-0.7176996455685368,9.945220227288727,-0.1362331669643927,-0.04760245891501543,0.08543408715793181
1500,-0.06894930564245678,-0.7574882420056265,10.025633970896402,-0.11539675479270214,-0.04121995748747594,0.09711730172100469
1520,-3.344573709892519E-4,-0.7849744125848627,10.074736591326864,-0.09440121324703002,-0.03570722764616542,0.1032072073872684
1540,0.0614089095653603,-0.805702064566022,10.104424628516195,-0.0734872930142999,-0.02889170081992287,0.105769638068791
1560,0.1136678558750973,-0.8232758177611219,10.117316300507069,-0.05418397569941453,-0.01920440663577747,0.10770610144729136
1580,0.16794751184291482,-0.8366207066751365,10.113238784961023,-0.037613680293291256,-0.007059760921069031,0.11033641082526889
1600,0.22638603083092634,-0.844377883514105,10.100814314834944,-0.024189381902141652,0.006801653124804374,0.11215109087683203
1620,0.286387272262707,-0.8474106871305935,10.08692321734191,-0.0118442138869085,0.01986661705126646,0.1115737363610411
1640,0.34303748437124354,-0.8455739956638525,10.072321110795045,0.0010067230075231342,0.02963381387250312,0.10711820287513373
1660,0.39425056556579885,-0.8395478542368113,10.0498057366822,0.015555936411785754,0.03459602321185369,0.09833794796499197
1680,0.4355310080877981,-0.8305209930813322,10.008769626700722,0.030210551413337346,0.033892280015121096,0.08614695071564035
1700,0.4636447864303218,-0.8156437509529051,9.950886165152351,0.041282185656856075,0.030138462348740628,0.07154432594601949
1720,0.47876238355622097,-0.7992731642407307,9.885457154024731,0.04787509763727113,0.025238779115170473,0.05476159821939126
1740,0.48237780986413925,-0.7813987018441745,9.83684348457315,0.049334897305894895,0.021105523645979864,0.0400912507137629
1760,0.4714995320465985,-0.7665260336222773,9.811523927582634,0.04889582486874941,0.020793283835195728,0.025923715360436795
1780,0.4521487822729306,-0.7570203059911984,9.804634664084885,0.05184583674225915,0.019094868248490396,0.012782364259192536
1800,0.4360269917087862,-0.7460713944677516,9.790264296790827,0.05915849936528779,0.012486263646560079,-1.7968679173424354E-4
1820,0.41942459448949204,-0.7348074752152697,9.769449270540669,0.06596239172773416,0.007791640560010633,-0.013056993970812688
1840,0.3938851842373124,-0.7250444209655162,9.748121657270067,0.07103708137985953,0.004821006369735536,-0.025039147670464987
1860,0.36330241976538674,-0.7124679194720412,9.728141178582844,0.07423042934633008,6.458077801078999E-4,-0.035761950052907006
1880,0.3316759163662937,-0.6989216148946676,9.72138781969746,0.07623511522979243,-0.0031122865207938353,-0.0452522723214012
1900,0.30049163295068904,-0.6857256019330756,9.719502018899032,0.07949778795981607,-0.00741887445669302,-0.05393397893106142
1920,0.26760067661442527,-0.6722887316772154,9.711276132233289,0.08287391063937803,-0.011283616894040595,-0.06125299351786415
1940,0.2359003624073324,-0.6575054656014533,9.69952410158485,0.08522416686291119,-0.01400367429971194,-0.06623443890177184
1960,0.20876787491084542,-0.6417784422129625,9.683019483685493,0.08547478651045821,-0.0156733081558923,-0.06848305468040053
1980,0.18946739610706428,-0.6249874870317047,9.667167743243793,0.0828799579539198,-0.016046856049869537,-0.06840433970083354
