0,0.8071216195821762,0.15567627735435963,9.68396258354187,0.018873126078688074,0.07935693953186274,0.04073386173695326
20,0.8470885045826435,0.18860779702663422,9.79069060087204,0.01131640591120231,0.07309851073659956,0.041066756937652826
40,0.876876562833786,0.2295227156331142,9.782657265663147,0.016276543579200126,0.05512217227563573,0.038625525776296854
60,0.9095835462212563,0.2508034626953304,9.66450297832489,0.007771072579998872,0.048347755655413494,0.037171883624978364
80,0.893641696870327,0.24782465770840645,9.64300765991211,7.636299051227979E-4,0.04770526805659756,0.03640622477978468
100,0.8869881873228112,0.23515182642304167,9.687952148671053,0.005674172890115985,0.039923130521522264,0.037932107491152625
120,0.8892245679570917,0.23899775011497632,9.706300241905346,0.008348967025277057,0.035561953696806245,0.04046520943704404
140,0.9046910304289598,0.24064420484579527,9.647470672313984,-2.709056080605548E-4,0.03939518078248232,0.04324337880198772
160,0.9061048243143787,0.24170013343634672,9.635492030888388,-0.00944576226573514,0.04023583037603315,0.04474137177410191
180,0.901414426020634,0.25481826269332275,9.623307128011444,-0.01803795862612372,0.043330286003585995,0.04596976779493285
200,0.8825375187126073,0.2688953864642165,9.59276122938503,-0.028028773041362663,0.047774268299029,0.051537822000682354
220,0.84882458706492,0.28752581099259483,9.504845270176524,-0.05097445221821845,0.06417554661633984,0.06514296834309076
240,0.8315280068488348,0.3021146196694601,9.452663453420003,-0.08273408120509149,0.08225470992925,0.08311236451069513
260,0.8334880276063902,0.3174778675347303,9.424063112883442,-0.11668060039452367,0.09858001055313373,0.09981008236650872
280,0.8580306290594999,0.349019679525667,9.420878981755784,-0.15280723170240695,0.11264975170830019,0.11575687282587871
300,0.9258700318114702,0.4040156777283942,9.465396064196446,-0.1926159391332194,0.12944191288926762,0.13303304140188899
320,1.074612093232844,0.4857344574084247,9.587910405040658,-0.23846697539684233,0.14947097024236242,0.14889805600808484
340,1.2722377557721403,0.5543638855839769,9.834100282854504,-0.272746724738277,0.1650663381349457,0.15087037194623715
360,1.5743832630770547,0.6338559434591949,10.364867343531026,-0.2840752960504002,0.16494989678507077,0.11870049957379505
380,1.7656947496514883,0.6585560203153894,10.764214909594992,-0.26210278778384666,0.15400567310985167,0.07462796320132217
400,1.9047819244719686,0.6490360652318313,11.141346202010201,-0.22383597481149037,0.14148151021141703,0.019599774331297903
420,1.9787706039594801,0.5776706630929133,11.627605028366775,-0.14862625138851124,0.12378833851328361,-0.06398073850680938
440,1.9498807707781434,0.48307288638366164,11.942404857245824,-0.07707370310096741,0.11163989012160899,-0.12397693088578601
460,1.901171575843667,0.3978726384229958,12.130462584396204,-0.02014218912184636,0.10574719878574494,-0.1623266299623841
480,1.8033312197848417,0.25331482601047745,12.337979196321847,0.07832094151751452,0.10012036450189944,-0.21587753922005395
500,1.7289190550911284,0.15182143662657058,12.406030611764818,0.15431768932196843,0.09959822931088552,-0.2518549757965264
520,1.691881787126746,0.09592275528444184,12.413009747310921,0.20779727381105423,0.10211956662075224,-0.27700592666278007
540,1.6220535413831867,0.019488678964893376,12.370562521757277,0.290500230846908,0.10893098708984969,-0.32083504738500424
560,1.5449821318014183,-0.04306941167411641,12.287167163995596,0.3537132692486983,0.11627813691942969,-0.35324213933199644
580,1.4848024018807338,-0.09005273692309856,12.183235337336859,0.39855333301893553,0.12120629364920509,-0.3749456512974575
600,1.363319602924811,-0.16424491075405562,11.918323782810653,0.475048735165232,0.12980367916202973,-0.40847935980979905
620,1.2668729148963358,-0.20384483505399992,11.64708218105051,0.5249194770565518,0.13412911081565257,-0.4280097551830832
640,1.1651097748791346,-0.23179663622870428,11.306789003340493,0.562924509490221,0.13638000264750752,-0.44302837036494236
660,1.0525022622197866,-0.2373769261078401,10.947286363135685,0.5873723054666665,0.14051812498936092,-0.45230782166800715
680,0.9321958027293004,-0.23161447660293258,10.590683712186324,0.6019797677578579,0.14675043856864137,-0.4531164440415247
700,0.8190391008962983,-0.21853113685225703,10.212824601129569,0.6082357015271505,0.15161508513007255,-0.44359403157757143
720,0.7556086681521557,-0.18916649900900082,9.818787484713223,0.6029110261506594,0.1519227312135286,-0.4294223068165203
740,0.6945322890392829,-0.15007489335993213,9.450560229657528,0.5854363516100124,0.14897517630764426,-0.4163882140387214
760,0.6116652052139953,-0.11252790536908876,9.12155771638666,0.5605435986254763,0.13987198735916218,-0.4024047466652793
780,0.5234786255959848,-0.07685565965786438,8.79893879112629,0.5275175102614083,0.126488702575173,-0.3833506469630662
800,0.4465228296264871,-0.04638812818150866,8.520510259756868,0.484543730834537,0.11168940008700237,-0.35915266501075754
820,0.38981593943648807,-0.01913896087655979,8.300459803249632,0.4352819226731294,0.09462690370031673,-0.33130779402305793
840,0.3480624229882726,0.0034617680692295917,8.089392151120895,0.3730322170429582,0.07875542778501035,-0.2960902178993224
860,0.34079918502359074,-4.372918936476279E-4,7.936792314046696,0.3089167917612613,0.06405722415954361,-0.2644614219551728
880,0.3359409826807678,-0.008612857978013191,7.863217911871718,0.2394984488861295,0.04489387464495299,-0.23620417752305742
900,0.32747386797000805,-0.016636371922989685,7.869261918523755,0.1714507629699011,0.024072001929931912,-0.20786794512695383
920,0.35004472513438056,-0.037066079431066386,7.880578894358692,0.10386298768464354,0.004812252905225921,-0.17923765187703172
940,0.39673994097993087,-0.08181954873245709,7.937206165072359,0.02984011233781258,-0.010582407656666995,-0.15288070893964067
960,0.4504451333319373,-0.14229803523895415,8.124940802347306,-0.04167615164102483,-0.025333541293594414,-0.12944752600036957
980,0.5258787300963287,-0.2049164568341457,8.377345904260114,-0.09867118491683419,-0.042751637654981835,-0.10941438337541323
1000,0.6173163105607105,-0.27048026270332554,8.65561257750734,-0.14453252080279216,-0.05838537629277251,-0.09226131400611089
1020,0.7226059365884534,-0.33508035312628465,8.977634150636316,-0.18160459882582516,-0.06984349440303741,-0.07833988841545457
1040,0.8338921178767684,-0.3955027981809227,9.342579879488461,-0.20410317768275882,-0.08152163955565242,-0.0696740897364749
1060,0.9453461112821936,-0.4505383489790176,9.718693039828052,-0.20905562283414086,-0.08856880966317092,-0.06590987128737477
1080,1.0644543666559994,-0.5148915464874734,10.106998998658689,-0.19411785008158178,-0.0911652696338545,-0.06739378252820101
1100,1.1525225731488686,-0.5737367342030897,10.39418429991068,-0.1647912481791755,-0.0927864468457829,-0.073146857595211
1120,1.2290399139241968,-0.6304876201759838,10.603957217578108,-0.12561147870082276,-0.09170437194374158,-0.08168577361870112
1140,1.2982283083400301,-0.6813141458244847,10.741514964394076,-0.08181738874069286,-0.08847530640407042,-0.09281345867742496
1160,1.3550338232831198,-0.723044878523992,10.82911893256366,-0.0361557943543636,-0.08250938171500817,-0.10618861731331194
1180,1.4062814562629486,-0.7501152107319267,10.86797688670562,0.01121390116312205,-0.07663374475489092,-0.12083464433323861
1200,1.4687008526493581,-0.7605863362172917,10.84534845874044,0.05591723672008051,-0.0693292932132208,-0.13818601181335807
1220,1.5188679093171558,-0.7630742891745534,10.78437184811172,0.09453212267599773,-0.05997237039554749,-0.15815033244123375
1240,1.54575225810771,-0.758849501485382,10.706744703652213,0.12784792332119108,-0.04771587404745863,-0.1786130481954913
1260,1.5524128119801703,-0.7490852410676285,10.619290059489582,0.15694924438229493,-0.03216074496348671,-0.19651697662017692
1280,1.5529763487442618,-0.737022813032603,10.510504884261726,0.18364592056932105,-0.018068851117998184,-0.21209068981886264
1300,1.5499371793470564,-0.7208335073498788,10.380154388255614,0.2044706971267296,-0.003069896802134064,-0.22610865079965548
1320,1.5368469794112434,-0.6988375644256254,10.241395596204741,0.22213174918238193,0.012491449164815172,-0.23939581575066304
1340,1.5338489548760381,-0.6730309991259128,10.124531814614734,0.2341286681324709,0.0243365148532162,-0.24932749316985295
1360,1.525636089962363,-0.644444843760014,10.016856289034338,0.24580163493997412,0.034293676310199674,-0.2596607043972826
1380,1.5101529706151031,-0.6167302500092928,9.881114728599062,0.2555467264578462,0.039497510600088874,-0.27066450091712374
1400,1.4742931390395355,-0.5867631200576064,9.749853713871126,0.2598822252756554,0.04453587578863103,-0.28128640900993923
1420,1.4174154166426651,-0.5540478749647161,9.62273621945594,0.26094026432188205,0.048447339601204266,-0.28868499840729744
1440,1.3567745630140022,-0.519577182740194,9.496804918138848,0.25806514573869516,0.05213266176781301,-0.29196674684417767
1460,1.3009522372987556,-0.48226003143173274,9.369861491990468,0.2517843580596269,0.05151087305842226,-0.29353429040253276
1480,1.240639930621724,-0.4451337635583204,9.255158154749182,0.24180561867006595,0.047751896437691684,-0.2943669699901629
1500,1.1729238084866287,-0.4121501115583041,9.151397323054232,0.2285033546200254,0.04318522517305817,-0.2928132029748537
1520,1.1071613583462223,-0.38692658678388936,9.060305365095127,0.21103302432327842,0.038272754445771606,-0.28765147289716403
1540,1.0494633883829154,-0.37107597673385745,8.984087401410077,0.1901198607807543,0.03217882791705917,-0.279775056315379
1560,0.9997968159055448,-0.36025900170601155,8.929124959648535,0.1670997282210044,0.023599611680759816,-0.2703905756071467
1580,0.9603806620886927,-0.34760359743713665,8.885315542491124,0.1392687755566518,0.01280157904652015,-0.25808373727105915
1600,0.9422701971107766,-0.3354782598498384,8.869620641014176,0.11291013794377062,0.003850629161563453,-0.24584607388824226
1620,0.9379070536135007,-0.32762927770139116,8.879470167265504,0.09027599489143656,-0.0033140989811633772,-0.23548624633172713
1640,0.9484527594175317,-0.3180379035990913,8.895231412232668,0.06325958748967435,-0.014068221339477773,-0.22436558420946143
1660,0.9531931225676775,-0.30672829341354596,8.926343991293946,0.038327320091805624,-0.021442532332854782,-0.21542322585312582
1680,0.96106176413433,-0.2937507252737587,8.971896939636093,0.01339113913868585,-0.025998993874937593,-0.20566728448812488
1700,0.9755449101114445,-0.2848419233935503,9.029668562763149,-0.011762638466697346,-0.02849706268974868,-0.19610988367080903
1720,0.994512312601759,-0.2809633970158612,9.114398822395374,-0.034622531083752274,-0.0309337304757178,-0.1887012705071743
1740,1.0141409149212677,-0.2819790329133146,9.211619420451571,-0.05212261495447316,-0.034765882678798224,-0.18441245211458618
1760,1.0277965267671996,-0.2869793119806646,9.310467282711995,-0.06518259538965486,-0.038548315653006864,-0.1820155032890977
1780,1.0383612560172357,-0.2927952665762599,9.412542468144723,-0.07401132630912889,-0.04178300763483888,-0.17991161437614206
1800,1.0565946817296703,-0.29842596179203823,9.50741658021734,-0.07861218138361907,-0.0438015815674416,-0.17800208169453757
1820,1.0881995735928156,-0.30137598850923525,9.589758552475814,-0.07965149209152439,-0.04408631435102529,-0.17721757251101208
1840,1.1426409373475992,-0.3015686408263641,9.661031483707546,-0.07766365004570401,-0.043040138054760015,-0.17874271991556032
1860,1.1952757287147173,-0.29940585211859294,9.696620391188828,-0.07343560433325362,-0.04141812003363349,-0.1840967742553808
1880,1.2551929924229626,-0.29753441022997623,9.722978265699263,-0.06819978080504067,-0.03905039507109601,-0.19494273319984737
1900,1.2835638607496913,-0.30134655394022514,9.739399820619285,-0.06353319989006964,-0.03587008119234035,-0.20712134035120564
1920,1.2889726847619274,-0.31101040508804784,9.75321341448075,-0.057643862475854304,-0.03404345127154909,-0.21905480135601652
1940,1.2755505647433856,-0.3259101575987197,9.759478215368363,-0.050419523179836244,-0.032324337112911945,-0.2297599295367642
1960,1.247532796423766,-0.3443439462495735,9.751978085390583,-0.04269119105905702,-0.03150979315796576,-0.238430018950894
1980,1.2089572998961333,-0.36157978817504727,9.738751559320313,-0.036739500475996105,-0.0299770318629136,-0.24435161718479725
