0,-0.11948486748668882,0.08329346129256818,10.7294217215644,0.08892906084656715,-0.02916687975327174,0.010092713119876053
20,-0.14849121737129548,0.16962374316747575,10.545553151298972,0.10831617717357243,-0.050534830154741514,0.02150427198092289
40,-0.20327728955696026,0.2616558932350017,10.41154944896698,0.0925539181722949,-0.045878214839225016,0.03316604577897427
60,-0.2907408681331259,0.3887915205295113,10.367604486870043,0.07227757736814744,-0.0395774178658471,0.04921159158799459
80,-0.36491920944394135,0.4676713951091032,10.466703089272103,0.06298741621033448,-0.026633628127278715,0.05709281626793488
100,-0.48345181817302896,0.4993860326536304,10.458952962135783,0.07166621951880503,-0.009568186557604646,0.05997655958374392
120,-0.5900572050820317,0.494676598355893,10.405099751656515,0.09244879331897225,-0.009104398132318206,0.0637234832985294
140,-0.6969507119976557,0.4968744576192246,10.318370965810923,0.11064770803428613,-0.006501328941577902,0.06957999392985724
160,-0.8010520456384306,0.4930131509070833,10.178866242709224,0.11613140671118481,0.0031047976824569784,0.08633775962835612
180,-0.850084127743303,0.4596367927791298,10.017391369666582,0.11068807287072693,0.012306103002808896,0.1128775824614467
200,-0.859381481084261,0.4204739526913533,9.866189195868674,0.09476873065669382,0.023461974071589915,0.14556815228006395
220,-0.8088252885439962,0.37557364597714976,9.70405167156888,0.0736999272503266,0.03192658810972322,0.1834092851051312
240,-0.6460166258471353,0.3474147051284533,9.492854209173293,0.04859273693125163,0.030457495718396135,0.2182741288250933
260,-0.3596731223035277,0.3702616309644981,9.248704466903419,0.0018592634066743286,0.026778195037000012,0.24909818155911603
280,-0.01729518346122054,0.43094648345045317,9.140592446092699,-0.055605888332347156,0.018499340907838502,0.26776397579204536
300,0.38692463109126457,0.5178216681797774,9.18613466482896,-0.1196010103270125,0.014283620494489486,0.2777777310442896
320,0.8676218893648922,0.6055234406949899,9.438876528670823,-0.17276447446868365,0.008457027740128662,0.26584623525749246
340,1.3311387849588916,0.6685057531273605,9.923714654086387,-0.19267489666387133,-0.011042789198866445,0.2173069116248022
360,1.6849429648030887,0.6914452770891201,10.474602851000698,-0.1634133372957782,-0.04703426705794288,0.1362773556271326
380,1.8698154785382894,0.658231227881459,10.933072469852588,-0.11211330618099942,-0.07524285158487382,0.040627000219602555
400,1.8742155672872767,0.5696483745554681,11.310156230365529,-0.052939797496861396,-0.08603319969466504,-0.04938595252358081
420,1.7104880366934818,0.45111136492524884,11.583162664027697,0.016803941367654486,-0.08456661289536886,-0.12335128489007985
440,1.4250881812104614,0.31458453980640017,11.636576352580901,0.094170430337169,-0.07332666984368716,-0.18051899722351702
460,1.0641417834408504,0.15613305939663893,11.441650801098223,0.16754753227326444,-0.06407899706211594,-0.21606489272005663
480,0.699108589920077,-0.005880840912249197,10.980536670377939,0.22928790969654253,-0.06051834776886914,-0.2304431903141431
500,0.3342698139460731,-0.181556111807445,10.244588693171316,0.25827049093444554,-0.0496189445698572,-0.22119057013971016
520,0.03988417200574047,-0.3312782435454683,9.616222592249308,0.24295868294432624,-0.03374897369681156,-0.19487504101120207
540,-0.1820426082427281,-0.43391003585748766,9.090028014477129,0.20481398460631656,-0.02317417847066461,-0.15012739846249015
560,-0.22353178250028732,-0.4738266103891061,8.62911309637922,0.1463858524079811,-0.023704564140396234,-0.08974347892613646
580,-0.01926858692502779,-0.44619314559283113,8.29323353609185,0.06224265224166184,-0.02735855827134854,-0.027974063152094743
600,0.3743196107239362,-0.3690334054728621,8.198734296448677,-0.0352044313741603,-0.034662963337342874,0.009702717717477228
620,0.8193463822359284,-0.2707204464004954,8.35364357356169,-0.1222697914520487,-0.040792244580901554,0.015666717554633162
640,1.2614308246289299,-0.18132182495051136,8.636225555440907,-0.18493301629120212,-0.04949866705190404,-0.006226059482764271
660,1.6125101040710101,-0.1524451782732186,8.9588801450621,-0.2335592078468339,-0.04810146950608627,-0.050027166118168015
680,1.8576466172617654,-0.2184545652843788,9.344926565938199,-0.27046616121224876,-0.038093643780475216,-0.10834341867524117
700,1.9910267311887644,-0.36693182231496724,9.807728890035161,-0.28888351804195966,-0.0207472619835825,-0.1771223416553548
720,1.9631711570514883,-0.5809004000025213,10.3026615972802,-0.27562573902078447,-0.0063278216683308915,-0.25228023235094316
740,1.7291419625088766,-0.875286365893228,10.760558854207977,-0.22847056196391727,0.009104823127431287,-0.3257949432099613
760,1.4171922383240507,-1.1552180161418193,11.043890308494433,-0.17077597637242295,0.02295691717071223,-0.3665393382035302
780,1.0782097529297994,-1.431039018784276,11.23056495461015,-0.10665876262987975,0.03828672051967271,-0.3820824358665476
800,0.7585142602223948,-1.6654475974234617,11.334783940205732,-0.036336139033840274,0.05657086888516142,-0.3742540370685565
820,0.5167184418615173,-1.8326760632348904,11.334627694023006,0.04067500407999272,0.07110584044267479,-0.3501304779564688
840,0.3604779855787069,-1.9180803747891835,11.202429086783495,0.11521067152511671,0.0846159187454634,-0.31912962584180926
860,0.2759251007705592,-1.9113803983677775,10.990758593455794,0.17838150194945504,0.0962201371871385,-0.28548394015197526
880,0.23277748703629106,-1.8310517235384016,10.75431590520388,0.22715572340562326,0.11005645825791142,-0.25024577080090477
900,0.2315700722517826,-1.7146602227103456,10.512713381812798,0.2618035196529461,0.12538237965062402,-0.21166366840755285
920,0.2827383730168405,-1.5880303708131818,10.278075530284427,0.28146780775492325,0.13793106846891245,-0.1744607845940137
940,0.3536666267810716,-1.4668075521218533,10.101322495774607,0.289160629514768,0.14695593368288457,-0.14352944698100717
960,0.430168453200488,-1.3473101508051804,9.95930610047489,0.29243107803602253,0.14997867567251233,-0.1175179615627355
980,0.4701393997411669,-1.2499459630711993,9.868770096352163,0.29068224182766345,0.15297098961129876,-0.0988943749492597
1000,0.49212724491773446,-1.1424939533358454,9.80569173725994,0.2859601237750263,0.15181975046719015,-0.08324662036122642
1020,0.4749477553820667,-0.9806496059757629,9.788974341493976,0.2792717578185992,0.15026945804288355,-0.06963710183656006
1040,0.41944107461920427,-0.6816259329918216,9.829411834289509,0.2782175172346108,0.14671474261036238,-0.05467653876585161
1060,0.4005053791662921,-0.19736167541129654,9.796331850852331,0.28981197435724243,0.13209758760331378,-0.03965918686788623
1080,0.5427114482173759,0.2593671756697128,9.467593372020913,0.2803940402615941,0.1273910923579739,-0.03864959974909264
1100,0.7510474918463635,0.4615567715537362,9.191720579652152,0.21960814681652496,0.13129769587618448,-0.06916681676383478
1120,0.8389997935637735,0.28550089655066246,9.233315050232259,0.15525671141121108,0.13027040082206262,-0.1211617976970518
1140,0.7556567787012057,-0.16547082702784158,9.428334407224408,0.12703578100641016,0.11545924216854885,-0.16295056443101466
1160,0.5944418632415606,-0.5462452272403266,9.557117502412034,0.1321470675505776,0.10725173983243108,-0.16655472287345888
1180,0.551032288664395,-0.7885639113695697,9.49532449345498,0.1452988601740949,0.11288559107678779,-0.1406375844233199
1200,0.5774954711860009,-0.8759420626756249,9.407011725417592,0.14723370340935554,0.12294598903729927,-0.10441220830089078
1220,0.6377288407063579,-0.8558855456512503,9.365099306854669,0.15019613266013473,0.12271819178738995,-0.0800373272615971
1240,0.700425838021671,-0.823595588309599,9.320942130993467,0.15182803637512465,0.12433982197498884,-0.06660877896527595
1260,0.7060175715337964,-0.7901437877660301,9.307975659745612,0.15156999888243766,0.1248286185916702,-0.056236580166153065
1280,0.6890280230657796,-0.7002518269018281,9.323287825409974,0.15354147410912602,0.12763559737186542,-0.03935490189626558
1300,0.711316344059641,-0.5550839170061003,9.304691659616244,0.15821279422641638,0.13018790993515544,-0.020196188346758372
1320,0.7732776016945438,-0.3809627757714443,9.251094768203561,0.1563369399606769,0.1315681662006051,-0.009852948589112981
1340,0.8236733788319609,-0.23392809360415082,9.219871953849427,0.1462695405581458,0.13534288290898655,-0.012556007783013311
1360,0.8229338960475071,-0.13864072774642058,9.23298097534212,0.13378183280808792,0.13659533736469995,-0.02420862634018678
1380,0.7767988060117295,-0.08626301646398796,9.264392960002127,0.12311516674696188,0.13583807160515526,-0.03562312381746833
1400,0.7270720491075453,-0.07413294567290096,9.27682483592314,0.1121500978580569,0.1350842836226348,-0.04209927997214376
1420,0.6753050031594906,-0.07783401771440551,9.310560653519039,0.10020705861842766,0.1353661481618499,-0.042730629774565806
1440,0.6495609340492743,-0.09304914156931521,9.348211468591366,0.09149697426920866,0.1362068694111081,-0.040034512865519414
1460,0.6366593927853991,-0.09435737091862909,9.377133620416245,0.08770915739182289,0.135290216048266,-0.03918077155733123
1480,0.6217976013717089,-0.08654424632727621,9.380242372279959,0.08629825270080346,0.1331806558521297,-0.03965435148473013
1500,0.6004489466002801,-0.06759406949575172,9.373845940308902,0.08397570929122801,0.13168112853460573,-0.039364729092524545
1520,0.5886250900621878,-0.05185236222032954,9.345751059968114,0.07998069042783158,0.13040478101284594,-0.03802241005652239
1540,0.5812496300402987,-0.03953110360431229,9.329182215437894,0.07261853095490144,0.13018301229198168,-0.03738266128158158
1560,0.5659255234521693,-0.03008953749977565,9.332878042847582,0.06717364402092171,0.1285731170742032,-0.03723571628604685
1580,0.5394198702190538,-0.00531197838964577,9.336604630020396,0.06427383490307674,0.126676210000844,-0.0352994021344239
1600,0.5253210470307874,0.038093615386933656,9.323562807176007,0.062026283811273064,0.1257583558830461,-0.030961092073427697
1620,0.5317774439626689,0.08304541439013233,9.296819615160954,0.05592459236355259,0.12556077794322526,-0.02869974296549855
1640,0.5290709021549822,0.11278722599674788,9.297205672191314,0.0470718604905653,0.12457571006888363,-0.03004055136943794
1660,0.5068764530330765,0.1252711716287019,9.313684642063906,0.039602036093600336,0.12125034791917029,-0.032820582728276086
1680,0.47197226058621244,0.12682797310343813,9.33057119146537,0.032904714330511634,0.11833348614104387,-0.032688960602460904
1700,0.44272713283840703,0.13211893658622725,9.34780299801969,0.02564961089695663,0.11842129937274275,-0.028779062903452692
1720,0.4317814982860517,0.14209996043654108,9.369500793920695,0.01867555209636227,0.11976406543396724,-0.023934559534922517
1740,0.43309433089435606,0.1538235935040012,9.39010397745257,0.012683976830164057,0.12035370304037354,-0.0217423747646008
1760,0.42516255474183706,0.159840953977093,9.419206414135017,0.008537826589599718,0.11875766979881316,-0.022698209775909264
1780,0.40425496945761474,0.15883454854138307,9.436765579252176,0.00644405045534438,0.11577640071162343,-0.024186555838281453
1800,0.37485962211528956,0.15286148199526867,9.454001595318044,0.004408885453206797,0.1138532109562542,-0.023417716032071483
1820,0.35671950400286223,0.1462925681515762,9.472985121683138,0.0030473481686297626,0.11118887514616074,-0.019542363471969942
1840,0.3542877385526539,0.13982520004495375,9.483876473261688,0.0036619286781407277,0.10723017989894675,-0.01688179929531427
1860,0.35328745573121856,0.13670520413097142,9.48858250082642,0.005165541249995218,0.1019636741353009,-0.016603307974659594
1880,0.34382565101986984,0.13428638525238057,9.494547038194773,0.006406882573628536,0.09837704283359017,-0.016731479786661414
1900,0.33057135074476224,0.13729388772758425,9.509857565021747,0.008703680449320223,0.09490211369008002,-0.01585900984145221
1920,0.319646530041034,0.1436461946848015,9.522668344796664,0.013614727782438347,0.09090364575708268,-0.013995469366651674
1940,0.3151779311774957,0.15441224226378836,9.503788711607804,0.01760878326383659,0.08925098709027446,-0.01173445871135107
1960,0.3107508039008826,0.1669777794831316,9.4860949899361,0.016166009117878275,0.08893300161413208,-0.009288304829387925
1980,0.3052671870843756,0.17852085525380898,9.4899926187187,0.012444610677061298,0.0898072106624973,-0.006824010604471522
