0,0.6806645870208741,-0.2399809680879116,10.717712688446046,0.3146058678627014,-0.2121193915605545,0.03592275213450193
20,0.59795657131407,-0.08994629324620797,10.810586346520317,0.31692706379625535,-0.25259486668639713,0.007061301368392176
40,0.47513505128713757,0.12306716115787052,10.726740213540884,0.29436406607811266,-0.28049540175841403,0.002719156390342575
60,0.4220869918079937,0.34023366952041056,10.907201149884392,0.25138528886086803,-0.22663504734416218,0.01890584548442241
80,0.4499215476569675,0.49109307070085334,11.327188310169038,0.23767668789341337,-0.16308506666904404,0.044068150100342575
100,0.675012337565422,0.5957850789744407,11.812332611083985,0.2731279057264328,-0.13713901640847326,0.04596654078923166
120,0.8556827137182499,0.6737437926248873,12.169094743399784,0.3477006292548673,-0.10555814066901803,0.017871982377857483
140,0.9371058719627785,0.7301906762489428,12.358881907029586,0.445320774659966,-0.09026833288512673,-0.021045130035473092
160,0.9343165864010115,0.7831066846658753,12.302439058149183,0.53877012673262,-0.06382418391798195,-0.057233941470700746
180,0.8824771197467316,0.8344014708418399,12.074228577497529,0.6110754685430992,-0.020104359818349887,-0.08218490473767061
200,0.7815215244734038,0.879397984330232,11.700309546788533,0.6586251553561953,0.03847991867094404,-0.09359212911480831
220,0.6909876090845055,0.9004296252779587,11.182933169968274,0.6823891830079409,0.10053260086047254,-0.09484853972300734
240,0.6796036134125821,0.8860229632434234,10.47321937685815,0.6755932240842659,0.15594661439046542,-0.09995190670853045
260,0.6459410014652174,0.8540135791827516,9.981265304381388,0.6563926048968968,0.16572093458339704,-0.11818903054339452
280,0.5222311140325798,0.8072189746719853,9.412699740592057,0.6413404839794811,0.13641996861518763,-0.14639178303456524
300,0.37084411248522064,0.7515973824623773,8.785626732893572,0.6155871030312913,0.10802438921643463,-0.16010251820784147
320,0.2459116594618012,0.6837694894107018,8.120081437791852,0.5451141441736719,0.09075656456524413,-0.15904951685530355
340,0.17830677050780377,0.59474691489496,7.561516867000229,0.4295448859786095,0.07788283487807224,-0.1507738473996216
360,0.10899657351415484,0.4796838014777149,7.236111432818636,0.2917413027296143,0.05851346738336067,-0.1428576080969745
380,0.03229603293906052,0.36139817475884056,7.10750726790973,0.16189631730592324,0.02727864091598823,-0.13175472410887115
400,0.007703281026769277,0.24821366905098596,7.047240213627181,0.04551502071016016,-0.00836588831465931,-0.11402516340978487
420,0.053145353107416596,0.1328901352527338,7.01804975251662,-0.07339245311957499,-0.03914310010254134,-0.09830885404960236
440,0.10448433283746322,-0.002766444686461579,7.094790982311581,-0.20267651742075216,-0.06456684075385571,-0.0856633256812067
460,0.16897784785057107,-0.18047394504627357,7.380811836417669,-0.3372906531852025,-0.08686111857159398,-0.07315400146807616
480,0.2503326447896219,-0.3942225965639127,7.9551697889609,-0.45153688149425786,-0.10089642423539986,-0.06373230095842643
500,0.30635916434869803,-0.6458419010016786,8.817739251315734,-0.5167517796826532,-0.11524066228182318,-0.057926078023881
520,0.34751735092775726,-0.8564590247898278,9.523142362402922,-0.5167439127340913,-0.12455680327362974,-0.05565964161545377
540,0.3719843673752621,-1.0527792070755375,10.071540739142188,-0.49023580872208666,-0.12365516125052971,-0.051877265160887
560,0.3864100341215509,-1.2284421102199072,10.51350697693494,-0.4541387212683715,-0.12000930058114799,-0.04598832962505709
580,0.43131948134396225,-1.393469543703908,10.84629791946013,-0.40825198060206946,-0.12324950071318899,-0.04192191463337875
600,0.47299737335618824,-1.546498397960224,11.064591535219243,-0.3589082344376024,-0.12975031039714519,-0.04410579713571462
620,0.474803434452042,-1.6619593996017312,11.20023562605851,-0.3068055779386598,-0.13056367146961678,-0.04645233183132055
640,0.48315053149265474,-1.7241639156596484,11.23957691860121,-0.25226461293120217,-0.11520839936913116,-0.04252952937585816
660,0.5292993429204638,-1.7299678092181305,11.171378177752638,-0.2035389553984978,-0.10094784900539325,-0.04089519096896106
680,0.583254750290046,-1.6972087414207226,11.04886649419147,-0.16360678246349725,-0.09223001161557426,-0.04627339608973863
700,0.6068258003287068,-1.6309591622876438,10.92284793453929,-0.1318255994175497,-0.08872518358650068,-0.05764087109845642
720,0.5799140912014991,-1.5434464575132976,10.80581765230745,-0.10474523331349095,-0.07166359292343259,-0.06628575537508974
740,0.5277724213699259,-1.434624516971795,10.675462854489636,-0.07844432991323541,-0.04285714181568052,-0.06623721878800819
760,0.515828302133041,-1.3297118840985918,10.549162407931563,-0.05780107784746009,-0.0167936974789724,-0.061077294749287116
780,0.5251209553359792,-1.213000072450019,10.434090950821455,-0.04174684217916085,6.433370594794933E-5,-0.06135349958418654
800,0.5425978157048424,-1.0864326955034613,10.336430050376746,-0.02433505167138648,0.00865871764093011,-0.07068557680833402
820,0.5361332262448333,-0.9515181281071299,10.235976784602027,-0.004139892565758347,0.015601830862877655,-0.08545904501021738
840,0.522553485596718,-0.8190143683306168,10.110153338084675,0.016054271066556006,0.02534612025371766,-0.09936597479379237
860,0.5180756236564796,-0.7053433487463106,9.919594370152186,0.028435566298225346,0.03549963605775386,-0.11376710788474656
880,0.5100145136911983,-0.6266421273376231,9.72918655052781,0.024496531358932795,0.044875353518618294,-0.12812504300286304
900,0.47944055615996706,-0.5990374346985294,9.594191812608022,0.010222327728174007,0.04604361975211625,-0.14204843998849193
920,0.4025015968907615,-0.6318200124046347,9.528909349662504,-0.008893391009899262,0.0449623967294173,-0.1480770649772206
940,0.33367734031325597,-0.7127676979880445,9.52331226402391,-0.022099183853188945,0.043777768288566644,-0.14132375339199346
960,0.37615047390081324,-0.8328530382407109,9.477730563509478,-0.03333979063016835,0.04783416324296273,-0.1306080886703359
980,0.4199307117785506,-0.9505278466503352,9.479334332645307,-0.04241877592861506,0.04770781533945159,-0.1312315033787742
1000,0.40662111423387765,-1.0554284636079725,9.511594856967745,-0.04437190399095776,0.04135686941225541,-0.13563129751367162
1020,0.3598999447670381,-1.1432189253397216,9.532314351923164,-0.03979500982098246,0.039752621178557185,-0.13331748783628133
1040,0.32528822853901357,-1.207658021518051,9.520258745455811,-0.03296925635618526,0.04257191212679974,-0.12365405516330759
1060,0.315202085411848,-1.245825788867341,9.48281230717115,-0.027411899801564815,0.043762065854282904,-0.11192002673165609
1080,0.311739196012114,-1.263109731953591,9.449029079442134,-0.024799474339614803,0.04252223243713463,-0.10167101986242684
1100,0.29650765449518446,-1.2593583023352015,9.43319103631318,-0.022256825911086298,0.04004965329569424,-0.09254579060702761
1120,0.27937748849702376,-1.2406409112151986,9.417092789278982,-0.018745040178331205,0.03918451101300448,-0.08267593375826456
1140,0.2706677966503466,-1.2143361084896358,9.39117773692817,-0.01668891831043553,0.040384155383799226,-0.07253351127629742
1160,0.2669294508589065,-1.1810853984694007,9.370258785667342,-0.016628233899038954,0.039319514778927825,-0.06364764764254219
1180,0.25732170115608277,-1.143656376176303,9.36497029304167,-0.017169032556315262,0.03713698349696672,-0.05609218848374799
1200,0.25030132783200554,-1.0984672924127392,9.362204325778617,-0.015888154195301762,0.03382417031568522,-0.04824064553179073
1220,0.24979626563346202,-1.0614936567091238,9.369040642274362,-0.013082640713069655,0.030381745111454597,-0.04311385841218099
1240,0.23933323727621753,-1.029924063965197,9.381109117739879,-0.005122035381852589,0.0252782669081945,-0.03932960254255019
1260,0.22492880289225708,-0.9953221716291786,9.374826737659802,0.00710770178690323,0.016982388335211932,-0.03599246737846893
1280,0.21445196985480935,-0.9573625208194981,9.351211005394157,0.019512919658720776,0.00655820862804513,-0.03225231650011504
1300,0.21734243890131327,-0.9116563941500037,9.327146555532083,0.030714840152100704,-0.0031171630034397277,-0.028694706306592606
1320,0.22138273861159743,-0.8601075722261385,9.314862086607441,0.04180248486029042,-0.009647117750367586,-0.027550978382833262
1340,0.2134045109181528,-0.8120116354228283,9.298274697475609,0.05386059617238312,-0.008581837035162871,-0.026720794912481752
1360,0.19595459672457444,-0.77260163471216,9.281433721754386,0.06356214864799263,0.0018373801560792572,-0.02257374989048766
1380,0.18172581335923896,-0.7508449969892069,9.27392997310827,0.07122107090205086,0.013361327460806035,-0.015082089402064076
1400,0.19606672289335858,-0.7310682945876665,9.272408057898282,0.07763217921733208,0.01534775461414424,-0.009074430923261073
1420,0.21482874468163832,-0.7137158564906919,9.280614800949294,0.08117311588036437,0.01571648614461123,-0.008514117089293475
1440,0.20585032158320443,-0.6906799751261526,9.320469727771155,0.08348443091479832,0.015486726047850943,-0.010472614366195579
1460,0.1934168300317765,-0.6685023638862924,9.353275366320286,0.08739948407894557,0.011845898373520472,-0.01160608097453771
1480,0.18325254245994144,-0.6387166254900556,9.379883296781601,0.08946953587083659,0.014411831918077411,-0.011206541892794717
1500,0.16717626727224003,-0.612346163484442,9.416555153820815,0.08923568617991678,0.02054763205133651,-0.009056679711760423
1520,0.15764073291823363,-0.5887288927365196,9.455975760982325,0.09012269227725138,0.022023699705841775,-0.006359287564168844
1540,0.16261880386022473,-0.5617609558512068,9.491553752087764,0.09162824952465046,0.021923103322064257,-0.005358484285939603
1560,0.1555490431470389,-0.5411472075342317,9.524783511814894,0.0929294952446071,0.023222105472268596,-0.006388349296685192
1580,0.14020474734328067,-0.5225282395790319,9.551160881899435,0.09517428171059208,0.022608381379316676,-0.007017970281684725
1600,0.12619124989879954,-0.5023845810082559,9.564532805126296,0.09667498089313484,0.022474867430346643,-0.006694444679873768
1620,0.11462189042618139,-0.47944398060110005,9.572128793185419,0.09614856507424377,0.025160141717902026,-0.0054698710204298465
1640,0.10712010627182844,-0.4559304838115904,9.577291466279089,0.0949308475232794,0.028084256954614483,-0.004290306006926888
1660,0.10588804642902687,-0.43261803666485804,9.571090161433334,0.09234362255973631,0.030550278002320897,-0.0038591155640246783
1680,0.09719324057318032,-0.41193641944880444,9.567476824602805,0.08801196412004661,0.03394447416720268,-0.003942714749089561
1700,0.0897237690742363,-0.399748051620688,9.566341575861362,0.08344163197954453,0.03564820587638386,-0.0035476250510098114
1720,0.08788089300915916,-0.4143111847343706,9.555223394846756,0.07463467244286387,0.03508887155889666,-0.0028475340138604884
1740,0.07111831307398132,-0.3973112557080756,9.60466022978094,0.0673437650873212,0.03457332494946884,-1.3269772664950782E-4
1760,0.062091135292671795,-0.38138279795837843,9.627367709100701,0.06800368014495721,0.03412553805330879,0.004050087021442903
1780,0.07155490968956399,-0.35877985924875827,9.623937940713024,0.07057506270803746,0.03075262216214903,0.0066768778428954005
1800,0.08080672975970758,-0.3344578344433024,9.604847644353374,0.07040288861780307,0.026917408013228564,0.006422318081406869
1820,0.07741218035065588,-0.31090891594879777,9.600948953613539,0.06714800507605276,0.02584988520474442,0.005214487394199226
1840,0.0703811368244548,-0.29256135369385106,9.604868412952856,0.06391489016359665,0.025622738513830866,0.004456729224170614
1860,0.06466867934126755,-0.27907486776509244,9.613231140415278,0.06114520106474415,0.02581261511881066,0.003850685599450947
1880,0.05680152101282355,-0.2664171298554044,9.626795427992416,0.05967294591780563,0.02588079405115295,0.0035024423747758234
1900,0.05158693708558513,-0.2530829929632819,9.636128769557027,0.05985015461837424,0.02498650033940277,0.0031641121704114586
1920,0.049372842913726345,-0.23908650511709442,9.639275835774725,0.06048383956124094,0.024107461870643214,0.002569970447179263
1940,0.04286269888500266,-0.22139888093894886,9.637299260141006,0.06093066476853881,0.02319428076836061,0.0013613946091977957
1960,0.031881834557419296,-0.20610308975673414,9.634745894213605,0.06000997981994571,0.023318377990586836,7.610576117859498E-4
1980,0.022412655068515443,-0.1942567936581686,9.640965246551751,0.05925406852649398,0.02352347278818028,9.725463214433855E-4
