0,0.0798339867291765,0.7312793400552537,10.479009310404459,-0.028250030966268644,-0.14664187365108067,0.11247646311918895
20,-0.07988094983567648,0.7356936861486996,10.664177165311926,-0.03809502359260531,-0.16069570534369526,0.1593933534972808
40,-0.2012774518597871,0.721092517375946,10.795886306762695,-0.04572983644902706,-0.16038615107536316,0.226308256983757
60,-0.18528742922441752,0.7057324557593374,10.835431676922422,-0.04640256717913982,-0.13808209624028567,0.3003234723300645
80,-0.08166432974110471,0.6804776540616664,10.918193514754133,-0.03806980584589083,-0.10096829870670307,0.3640838385355182
100,0.07536979952389944,0.6519830014024462,10.863906821426081,-0.03421889357648942,-0.05427668102997906,0.4116225221327373
120,0.20029927232596828,0.633041507842248,10.837379790188974,-0.03257027008619748,-0.02248561222171574,0.4427800756274608
140,0.3113893984996069,0.6615781183426197,10.867972696744479,-0.03145857099443674,-0.011335988027545122,0.47109454526351047
160,0.4217203054672796,0.7023969264063117,10.946092723167105,-0.03957961276428749,0.014253594466064074,0.50376819114979
180,0.5621495481758711,0.7304809906600435,11.117385452176318,-0.05638747875015309,0.06927145021841113,0.5429287745996758
200,0.7517132463870214,0.7381504362218836,11.452768593691708,-0.05983824696224392,0.126271966279725,0.5732538641503687
220,0.9850938000125792,0.7203577117821605,11.824557599333144,-0.013970241286628639,0.14747483734540717,0.5769531064734017
240,1.224128752616456,0.7089258134365082,12.030616996401832,0.07525478357537871,0.13695350726179423,0.550753302091644
260,1.4296783577646666,0.7121686268169268,12.050890998502748,0.17326459457553858,0.12135122113539713,0.5014289099933267
280,1.5605037428711903,0.7114395930254755,11.952751246365635,0.2595953885696767,0.11985129634041555,0.44604166523045435
300,1.6505554143822967,0.7069176799975909,11.753761496910682,0.33998276485989876,0.13492482143024412,0.389175710022951
320,1.7276942712318935,0.6997101931036382,11.521849369657213,0.4001316707648769,0.14578351150671748,0.34081614854158426
340,1.8244636205442837,0.7014454768536842,11.251277293244453,0.45508616374907634,0.1380796425255041,0.2832912857283851
360,1.9010546083256674,0.701351951275553,10.936312827196987,0.5038987671799183,0.1199321016191517,0.20894014772311967
380,1.8876155025863237,0.6901352567437254,10.581019327964311,0.537931465331097,0.10295221834144566,0.12999084863070123
400,1.8170732171370594,0.6806927570525337,10.216843808398528,0.5525596642154543,0.0889740843024543,0.06064333087244236
420,1.7179691093500307,0.6780596598145667,9.83987088551682,0.5457646068907605,0.07962175943428294,0.005611543029578131
440,1.6052297156802329,0.6757045716688197,9.485088963021514,0.5157803463629417,0.0722422902146855,-0.0372466575166571
460,1.4786283301763217,0.6773090831090495,9.185616330387665,0.4696021760506651,0.062061492653717236,-0.07238872383946802
480,1.3277301134871282,0.6799840146657263,8.926795428932303,0.41444880610774504,0.05000811272374548,-0.10074460820069002
500,1.1250916845264505,0.6869733566638982,8.676441029349775,0.3416034583470197,0.02969024591015484,-0.11949820643604261
520,0.9464811349413081,0.6973444154001263,8.511768545189948,0.26520277225926997,0.00817088561013477,-0.1206372981586974
540,0.7910317246984723,0.7133676760259704,8.442159337094177,0.17940954134967751,-0.006587494417023948,-0.10681759505450628
560,0.6686792887380704,0.7240297227463823,8.462817163163043,0.09529848973405489,-0.021487907881036085,-0.08305271250552478
580,0.5913825836061374,0.7230790963879338,8.55062419151573,0.01720783114050028,-0.038767408661988904,-0.05521940738978363
600,0.5480778185359436,0.7048514156019783,8.69130679003271,-0.053222677507159484,-0.05383984486858149,-0.027721593535850308
620,0.5216056841549654,0.6753862895589308,8.897423960987666,-0.11535996578734468,-0.07015488032632755,-0.002543547166453883
640,0.5080850254840215,0.6353709015311596,9.178038157327345,-0.16430598107072408,-0.08796588343146086,0.020497315649591973
660,0.5156085345851765,0.5759194847264073,9.500537747036327,-0.1935827340896834,-0.10382448270070282,0.04351079944775186
680,0.5613147418299368,0.501540807092253,9.83834288861642,-0.2005332411948078,-0.11547211789799189,0.06645782069342586
700,0.621776929559431,0.4461946434447716,10.075706705915062,-0.19199072205136083,-0.12245123689530166,0.08133231153611777
720,0.7938452217875359,0.36047440455605584,10.44421757976214,-0.15274097943368056,-0.1305392177697892,0.09424563312204555
740,0.9166393301218397,0.31244897345298683,10.656865361061962,-0.10972643037955579,-0.1306073762666942,0.08906157701140173
760,1.0177241810796418,0.2727139121204426,10.812770888397965,-0.056319039306143605,-0.12692511713874963,0.07759166253609819
780,1.1150738344790794,0.24499424525111177,10.893983349020099,0.003380756833832021,-0.11794055881335136,0.0637833449326996
800,1.2019391610947752,0.23005894850939512,10.899590075375086,0.06270137156292527,-0.10184069420211017,0.04860461341057264
820,1.2862241637968348,0.22437107398667755,10.847762430064819,0.11741947826162419,-0.08146352866828879,0.03136422151412048
840,1.3622637690739416,0.2243197405518129,10.753514277181406,0.16678722815898558,-0.062219154841705475,0.00988250430713504
860,1.4233009652725128,0.2252798518898447,10.630395559447535,0.21011351849203616,-0.04714470961800871,-0.015665321459789668
880,1.4688905429953434,0.22869805563855303,10.484803782387095,0.24808202942597915,-0.03522776233308672,-0.04408783433449731
900,1.5000162469041634,0.2330379852804766,10.306348924995751,0.2787332119475249,-0.02785963623443999,-0.07525827383725173
920,1.5070156817293825,0.23701240308582783,10.106730747693463,0.2995226444063806,-0.026709759557055995,-0.10884189692534212
940,1.4821467879870378,0.2448166845193536,9.914992402509316,0.3096093197146757,-0.029412600766872198,-0.14196449787579188
960,1.4260260591333878,0.2553320171062832,9.699220205302954,0.3112100589180586,-0.03685314856500128,-0.17359326911740644
980,1.3655219211455802,0.2676271812231452,9.498434977785305,0.3010192577968593,-0.04389645932644698,-0.19514430769213278
1000,1.2994692228372562,0.27886031252347815,9.312317660519263,0.2796601082782372,-0.04897099449051224,-0.21153231864044167
1020,1.2194404585962793,0.2927328390456435,9.153628507946483,0.2506665025114341,-0.05590223180154458,-0.22393218263808964
1040,1.127590874780408,0.30752275371815496,9.020844242862255,0.21666932381507192,-0.06408470685676279,-0.2300565641569864
1060,1.0416636413290405,0.31962824916334936,8.90959361223163,0.17932796775996343,-0.07656017590998257,-0.22930429363996216
1080,0.9656342410822556,0.33239643237229144,8.819662493336526,0.13680716817675348,-0.09048062613851318,-0.22386557505298615
1100,0.8976353826160619,0.3389825137870727,8.770968999889439,0.08895569945383348,-0.10153196042220604,-0.21382526236187427
1120,0.8420546143583412,0.3437606486574688,8.778162577214758,0.03834105182212824,-0.11354344641060493,-0.20004913684661518
1140,0.7976845241859675,0.3432231652679474,8.85371860874785,-0.011099943750178509,-0.12130430147601867,-0.1831758261418967
1160,0.7588195434202336,0.3285243909345233,8.970643940777078,-0.05489394127096458,-0.12468782214758296,-0.16325620062252902
1180,0.7337698194337529,0.30213789886113296,9.125992682118198,-0.09193992788913016,-0.1316024864212485,-0.14144586805763087
1200,0.7365195469049506,0.26333070739831693,9.335208416532,-0.11972930225492673,-0.1408392184042763,-0.1199609179216915
1220,0.7692640847225016,0.20726461638789254,9.59720148372026,-0.1344321324022494,-0.15186645444417632,-0.0995590413880694
1240,0.8137666214490309,0.15414064510488043,9.8273431699093,-0.1327542303878741,-0.16233433137930856,-0.08732086223066218
1260,0.8654389568549692,0.10280090013813788,10.033481638003895,-0.11828842822958546,-0.170967352470926,-0.07923230789395042
1280,0.9169464703563409,0.057821965673690516,10.195443762178593,-0.09514005720693293,-0.17523670675872186,-0.07324185464823328
1300,0.9699515549248879,0.021972286302163805,10.316672642637664,-0.06615105043043303,-0.17650751200851666,-0.06807723090493849
1320,1.0278566995050544,-0.005002144999059804,10.394866853240169,-0.032222730927238055,-0.17474744877068332,-0.06456665903874553
1340,1.0889109154871073,-0.02234771104021506,10.420321082692086,0.004589366203343327,-0.17117243773430924,-0.06447409056635066
1360,1.150334795170437,-0.026860274471289153,10.38980118225589,0.04013783032889061,-0.16862297428443887,-0.06883900530976794
1380,1.2074453370138023,-0.022706140698239785,10.334340448990668,0.0709077942764301,-0.16538050978887964,-0.07733594229800278
1400,1.2586537473538943,-0.013556479275200633,10.265892812653643,0.09734681627197185,-0.15958196932157073,-0.08824527301121413
1420,1.303285732572095,-0.0025513959805324314,10.1800474023208,0.12071156680513545,-0.1512567983166942,-0.10131925903740771
1440,1.3391123059075483,0.0065396210810138005,10.072311889572006,0.13881060222984623,-0.14223025315026833,-0.11609880950586018
1460,1.3668804847971943,0.016857099344639827,9.951634433365369,0.15248221422208222,-0.13449200883469636,-0.13414758658860632
1480,1.378248964997524,0.02762361157139306,9.850183078103976,0.16113264011326545,-0.13060304192466357,-0.15122983528414657
1500,1.372233311784628,0.0381333853080263,9.738823541250019,0.16609633792252318,-0.12749251708884277,-0.167384401628581
1520,1.3537665849224922,0.05033385532685401,9.63132733140323,0.16534975080049774,-0.12321707391180846,-0.18075245940373136
1540,1.3249392822785553,0.0615645296511531,9.525907810868196,0.16014156870620705,-0.11800165916147322,-0.19074951247909888
1560,1.2897536772983191,0.0736871452124699,9.419559735882771,0.15077856417267302,-0.11433635276748838,-0.19870830427400524
1580,1.2417084768805307,0.08727199805632717,9.316278402230788,0.13706169040064678,-0.11392702139936348,-0.20513417055741115
1600,1.1868108414237935,0.1006932067421784,9.224090850673871,0.11888294271015712,-0.11565984433627055,-0.2079869040650607
1620,1.1323674480029737,0.1134581846265097,9.148660712699135,0.09614836662687462,-0.11610000721705013,-0.20563727907617302
1640,1.0896589752191597,0.12413054766014063,9.090623602650687,0.06998615787293756,-0.11529771434667141,-0.1978943213617815
1660,1.0700305738223685,0.13121462464387446,9.048902673865578,0.040898706811989094,-0.11450726683858496,-0.1870846842979362
1680,1.0819988533334,0.13144062655750488,9.03544827399242,0.006391088942574814,-0.11289542364677398,-0.1759375370862937
1700,1.1156180365845405,0.12445499263329153,9.057606366903912,-0.02273955019645864,-0.11007570122363951,-0.17084588747252122
1720,1.148476551049746,0.11221551475252702,9.101755000017874,-0.04776871749543881,-0.10897319044653903,-0.1714224968018243
1740,1.1742121950795827,0.09632553632392056,9.159574294401976,-0.06859527816184995,-0.10933176681724392,-0.1753480157153053
1760,1.1968445326056099,0.07818408495901773,9.230561996874167,-0.08581945485461297,-0.10937907034418054,-0.18052453943398886
1780,1.2214929109581893,0.05908592327006652,9.310151913706699,-0.09872228319751569,-0.10820276771846693,-0.18710324665976708
1800,1.241183128547994,0.03741567277440639,9.383820330361587,-0.10750474249463245,-0.10574795629809555,-0.19637867879583096
1820,1.2464564199248325,0.010809778719038893,9.451056497113314,-0.11338720521864591,-0.1024961590540648,-0.20808773229814945
1840,1.2345529983988641,-0.01987675288840732,9.512603939889232,-0.11593242488093079,-0.09999067186854131,-0.22110943122088236
1860,1.2059963786150452,-0.052677827571077564,9.566077110682933,-0.11521284928802696,-0.0990860694316277,-0.23285479943978749
1880,1.1692934906905066,-0.084383902263653,9.607705447863433,-0.11244847616338423,-0.09772316316669578,-0.24094953929670737
1900,1.1342701864168985,-0.11142396846949362,9.635281256833906,-0.10890783297111635,-0.09559078245455538,-0.2450679585027998
1920,1.0997533520182392,-0.13767854405009441,9.651233488474944,-0.10534300212422089,-0.09293143530658025,-0.24679782301733258
1940,1.0716640680031864,-0.15730416591303872,9.657392657007835,-0.10303602988266798,-0.09016770716068954,-0.24619892921092043
1960,1.0482441789517702,-0.17265071758719047,9.66281284855274,-0.10107769586027282,-0.08818930965780249,-0.2442095995649286
1980,1.0340948728956765,-0.18469183668908656,9.667643285396178,-0.09854250425721515,-0.08775839645300999,-0.24202325422321394
