0,0.091010746313259,-0.17693207412958145,11.164982914924622,0.17113936506211758,-0.3544054478406906,0.0795494350604713
20,0.20357666944619268,-0.009131011262070388,10.829829752445221,0.16784370271489024,-0.35703531838953495,0.12429053871892393
40,0.26115693237322074,0.1727407918078825,10.472123543421427,0.07451100119700034,-0.3374943745632966,0.1780642045972248
60,0.11555969755863771,0.32385155899100937,10.712773114442825,-0.04917064146138728,-0.30224077496677637,0.2594792580930516
80,0.07786734615702455,0.4219323597712124,11.500183314811892,-0.12877317772405902,-0.24038804325888433,0.38438881742881564
100,0.2812152228240545,0.4672783064694765,11.996204296747843,-0.13216140043611327,-0.18448466267242716,0.4715778404691567
120,0.8335928934904044,0.43316240852143156,12.704738851179156,-0.09563579482206128,-0.16622156691492387,0.5246278925292325
140,1.3991704809837617,0.42741888699909814,13.27047221844013,0.007661215101297085,-0.1713469115802302,0.5039128850858945
160,1.9181482707954025,0.46276372371318,13.63425628453085,0.13518212995912932,-0.17796827589276515,0.44045062618304603
180,2.3612232574112255,0.5165554684828277,13.905691005565503,0.2803873330998568,-0.1750752346555668,0.34630857785174873
200,2.725397796924697,0.5691804513021299,13.962803026263634,0.4394595803420865,-0.15795017356115781,0.23620539091611176
220,3.0156753983194986,0.6103349520546413,13.80400431524847,0.5926813851542694,-0.13768108911121013,0.11055397426651925
240,3.242765350409207,0.6448077141262946,13.454832558404831,0.7256646649823302,-0.10503400223595756,-0.025615639416944412
260,3.358368587556534,0.6661333802147908,12.990968016396582,0.8313246168591807,-0.06206752742286277,-0.16650604417102527
280,3.362746117390261,0.6676364641190191,12.478349208831787,0.9127257239412178,-0.02078562556219495,-0.30461322232957716
300,3.2691089666715656,0.6570522844459313,11.907165026479912,0.9706156757162061,0.013852463905201402,-0.4337867568283118
320,3.0170825920675113,0.6234860883256339,11.227435529663943,1.0038393990447123,0.04465286001779031,-0.5549438954803391
340,2.708406308946544,0.59621224948524,10.604769651892862,0.9978675633821994,0.06993554879541267,-0.6296367094635147
360,2.3898563425649297,0.5684594641630114,10.01496123403988,0.9614782458921145,0.08956860334842236,-0.6718675467584815
380,2.0933654288082946,0.5501596635124175,9.512057030596482,0.9052175262046082,0.10423447835592577,-0.6918672592275672
400,1.817932605217485,0.5372451682287432,9.076166413746336,0.8372985617860275,0.10987519674441394,-0.6966437757453497
420,1.5948274224326853,0.5227601275755762,8.699182249626585,0.7631264076767008,0.10547237364271803,-0.6952935728882805
440,1.3815786577360605,0.503237404438707,8.404188287294199,0.6891492479230448,0.08390865136709025,-0.6964305889622499
460,1.1543377276855646,0.483127310568438,8.131141047905555,0.6159387405040031,0.04782318752307022,-0.694519643354969
480,0.9163677003419045,0.46586688788663044,7.8991778844985925,0.5358441090487903,0.012953256231520584,-0.6812188151375492
500,0.6978288805200941,0.4487240352335253,7.729298610151524,0.44956841318025476,-0.017766011983067508,-0.6507660879886576
520,0.537341328525762,0.42536867016268504,7.59577181725122,0.3571422244123089,-0.04319123070849396,-0.6062933675380885
540,0.4330534567083933,0.3843688584670457,7.523795224215209,0.2593836649032557,-0.06711338798152859,-0.5560652448721559
560,0.370392330529842,0.3168661928814935,7.5232254873723425,0.14839170047260344,-0.0954875216343777,-0.5001558804686399
580,0.34144306273310765,0.240241165968509,7.595228194531222,0.05266620904023265,-0.11864470609045998,-0.4533981674661239
600,0.3272302884281988,0.1544071996001994,7.7498732328682065,-0.03730951726021045,-0.14357670234605313,-0.4104528656207114
620,0.3097805282223294,0.06810547989113508,7.98271140843112,-0.11471836247326785,-0.17143520478223914,-0.3678634506092914
640,0.30948676601442954,-0.017321285270224238,8.257785510774074,-0.18152578745720985,-0.1976143097843319,-0.32296868466008244
660,0.3573195071924816,-0.10376096078448675,8.581250845586712,-0.23726247772574424,-0.21657594405622646,-0.2759426449577917
680,0.466190991495397,-0.19850735237835102,8.940862190031016,-0.2796451496388171,-0.2286065878599961,-0.23319015727631826
700,0.6234622899046058,-0.30417572553797634,9.355135992489423,-0.3025416210165753,-0.23975794120848537,-0.20418042855343663
720,0.7859749503209439,-0.41150282500747803,9.78186094428235,-0.29650173665812385,-0.2524805047648981,-0.19306008291608315
740,0.9231591438480231,-0.5108101030414263,10.141043628332378,-0.2639645872765042,-0.2611325446877277,-0.1941261709476624
760,1.0374084529659104,-0.5949608965806427,10.403874066767711,-0.21806834338321573,-0.26154839529966317,-0.19958685556692737
780,1.1428013550876468,-0.6643222714185048,10.627153048786209,-0.15820902906197273,-0.25419083743910936,-0.20625790912818945
800,1.238073653148779,-0.7062494536028636,10.762302090840256,-0.10019266127934118,-0.24247805850863657,-0.21310712105919977
820,1.3280172499006286,-0.7306993625003516,10.845177237656625,-0.03899895748780931,-0.2282616668360253,-0.22243816988980947
840,1.4140182100022318,-0.7387534457288318,10.863120862347042,0.022113279123715628,-0.21256837339057513,-0.23519413580518517
860,1.4863182316544685,-0.7297745964246583,10.829074569852247,0.0788750163949189,-0.19427837519657934,-0.25018658443469177
880,1.5443994543914283,-0.7119853876231771,10.75727676515273,0.12950110346959023,-0.1737575000900376,-0.26597451996365257
900,1.589996872750181,-0.6901326374769191,10.660650896339087,0.17336650987366034,-0.15414358407411705,-0.2835475446365934
920,1.6198589171429998,-0.665178891211307,10.53964947482669,0.21028009442808596,-0.13554474166655717,-0.30278871055986534
940,1.6349712576640327,-0.640408501085422,10.401064125734583,0.23855506369037574,-0.11519521371444649,-0.32189398017452703
960,1.6382780957289718,-0.6167236072648636,10.277023220500636,0.2601635682754068,-0.09440490487090435,-0.34064696981769166
980,1.6299887026780018,-0.5956485002741937,10.150988394864788,0.2790296648094191,-0.07713805084026852,-0.3604608328302972
1000,1.60781387834656,-0.5732002848368228,10.021047009616295,0.2954320422355628,-0.06380348012712558,-0.38081999973493436
1020,1.5713153515454559,-0.5461443138785571,9.883054237892585,0.3093567683006681,-0.05407503754887286,-0.40048981504514813
1040,1.51779483775402,-0.5075208533431527,9.711469663511137,0.3186640331786482,-0.0465935061263498,-0.41886413733459715
1060,1.4639762978173911,-0.4679495713895174,9.557427255364319,0.31876058608412877,-0.03903824196930216,-0.4298250940873435
1080,1.4060541278776828,-0.4270346945413294,9.414493889930878,0.3120778673066852,-0.03253023607938896,-0.4364684243927176
1100,1.3537993817847165,-0.3853285255899476,9.297482094400568,0.30057881923010016,-0.028555463039918617,-0.44075481317707116
1120,1.3027867699312672,-0.34624918588940173,9.200693931769976,0.28789252762777684,-0.027675271891825177,-0.44499064122534754
1140,1.245910655707121,-0.3106631567822829,9.104695238451015,0.2739173449925395,-0.029806259107082955,-0.4498951077691591
1160,1.1803028253561172,-0.2773854521169587,9.014884040704626,0.25729330195664607,-0.035107342031368484,-0.4546462303414097
1180,1.1043904599378405,-0.2466919624765125,8.933363988388752,0.23806142330016059,-0.042114779031499454,-0.4569343722703838
1200,1.0265452450643808,-0.2179322142227653,8.86313695033623,0.21455089450940398,-0.04926968940286226,-0.45470028816822455
1220,0.9590356506912889,-0.19101835378239343,8.807581935970191,0.18727073759703103,-0.05588034754656181,-0.44721654558901913
1240,0.920111014582729,-0.16905827359122558,8.771738248315506,0.15666971965336143,-0.06144710843980107,-0.43720129090050247
1260,0.9002864849564531,-0.14923242430474673,8.767518337888056,0.12517264285764335,-0.06732992255858486,-0.42837374741923084
1280,0.8839443700791765,-0.1319628514113974,8.781612696451889,0.09246900861112564,-0.07712301488756822,-0.4217159853324811
1300,0.8759896382689476,-0.12100679864008189,8.799737199115452,0.06526447739800934,-0.08694749681387194,-0.417998652807995
1320,0.8758701638926879,-0.11616287251497959,8.81660638714546,0.03851318504400139,-0.09714627344370906,-0.41526370907994503
1340,0.8827606860886921,-0.11842283581044863,8.84321374473924,0.010255604135719213,-0.10604119920002465,-0.4129356538982723
1360,0.8967674539881795,-0.12794469725791244,8.885024965590526,-0.019038755920678913,-0.11229281940691066,-0.4108738513887897
1380,0.9184223207852444,-0.14428512416631906,8.95183866282155,-0.04716058405175436,-0.11628988539296542,-0.4096993948518078
1400,0.9484778398368832,-0.16634538059953588,9.036179599997942,-0.07056038936385918,-0.11854330462059623,-0.4106529434751038
1420,0.9740487186308578,-0.19442045285616108,9.113366581864424,-0.08867970557684955,-0.11899410994784247,-0.41517874862257825
1440,0.9859930437247632,-0.22829408450131067,9.188407586925363,-0.1024844348241212,-0.11906345856723265,-0.4223876182056995
1460,0.9822143676837153,-0.2643773273329708,9.257351649775602,-0.11209964072549822,-0.11954423156099699,-0.43068798257693663
1480,0.9662125689940367,-0.3007488613325807,9.31957075474999,-0.11860796964724268,-0.11934959685672751,-0.43856000986369786
1500,0.9372055037390798,-0.3358995546200024,9.370467517713042,-0.12285781021348234,-0.11864128151941887,-0.44437570231686063
1520,0.9079280650872779,-0.3695030144027994,9.411761030249322,-0.126430588645615,-0.11591999095690907,-0.44725532324309386
1540,0.8794816177977722,-0.40292974130013987,9.45460992780115,-0.12824878818577246,-0.11285016119908838,-0.4481350349295618
1560,0.8555625730349615,-0.4348124378385624,9.483035199069725,-0.12812127906910864,-0.11099604878729344,-0.4479691625158901
1580,0.8316650016931817,-0.4644039478693619,9.505844056542859,-0.1274849085292949,-0.10935523380214009,-0.44680562105654065
1600,0.8059021293741739,-0.49166384062712687,9.521085618952409,-0.12624107359193654,-0.10825705968323435,-0.4439871345140433
1620,0.7841120577460222,-0.5160399038489525,9.53113982408361,-0.12545936079020542,-0.10642912195963093,-0.43914164111948095
1640,0.7685871381529825,-0.5408389803414939,9.542536342669218,-0.12418408625581873,-0.10461966745345819,-0.4325088947090485
1660,0.7611435841928772,-0.5606285960973132,9.550654016056582,-0.12224363974668977,-0.10352515795649425,-0.42674800625656606
1680,0.7570946372417107,-0.5781828418958341,9.552976821474676,-0.12019022405149248,-0.10263911041219649,-0.4212980557472365
1700,0.7537833188174681,-0.5939441943896278,9.555277165175557,-0.11841016254570376,-0.1012094073840953,-0.4161881573662403
1720,0.7481659724556604,-0.6094865058469261,9.558646012956057,-0.11645922847835687,-0.09997286691632093,-0.41126350494556047
1740,0.7423685005687193,-0.6243927363645542,9.559776457160208,-0.11459564689834013,-0.09842329828909227,-0.40614028335693025
1760,0.7359738733003535,-0.6391737811462966,9.563573227912933,-0.11251796125856932,-0.09665634180313903,-0.40094438892522355
1780,0.7306094652203845,-0.6531814842349101,9.564545506239963,-0.10997241836701273,-0.09530485201390983,-0.39581815577547697
1800,0.7261797243732402,-0.6666952628382564,9.560432865612563,-0.10796926669866722,-0.09366392773840589,-0.39082090617347587
1820,0.7203303558659812,-0.679602134007018,9.557981828124856,-0.10678776918117942,-0.09214221309890223,-0.3858423774267897
1840,0.7124960429033269,-0.6939123523876101,9.563157349928936,-0.10546051878654168,-0.09104441380437982,-0.38069686204717107
1860,0.7067324737751685,-0.7060770003927724,9.564422678422966,-0.10288310999098221,-0.09049667314140702,-0.3749989204736745
1880,0.701809356006379,-0.717192996809293,9.560375764446993,-0.10093654199977209,-0.08980649979207556,-0.36963639576576196
1900,0.6982593284034742,-0.7279409107664533,9.557350547758613,-0.09971100013526385,-0.08931999817571888,-0.3642348073865167
1920,0.6982184814610543,-0.7385000285938411,9.558831908972934,-0.09899894199035622,-0.08843308094969407,-0.35879670989572554
1940,0.6996451067256699,-0.7507055999841682,9.566419069913941,-0.09782714546724831,-0.0875560110580409,-0.3536076836533153
1960,0.7026209187114728,-0.7630861884838669,9.5733844668651,-0.09602031828333565,-0.08663123511490994,-0.3487275013272301
1980,0.7049597976432472,-0.7753105406012007,9.57800958130859,-0.09398361293120382,-0.08560479747717578,-0.34435727355435797
