0,-0.06865722986145152,0.19160156945387521,9.477890968322754,-0.06392957497802046,-0.0413512317981157,0.15663105083836448
20,-0.1622978013337535,0.26176155840649323,9.838177119984346,-0.1070520127301707,-0.057180401848574335,0.17255471559131846
40,-0.27073302406817673,0.38684357166290284,10.160248069763183,-0.11024032883346081,-0.12592125343624502,0.19471361517906188
60,-0.28493476199042617,0.5298073743328904,10.627645608150598,-0.0995999730446122,-0.18793253952312763,0.22707900856480454
80,-0.12313905778545432,0.6714233116405767,11.18567634210354,-0.05296966815140189,-0.23686461942554338,0.26944437695712575
100,0.25387207903348064,0.8155775082354643,11.588571353834503,0.01334900074467367,-0.23454558113067203,0.30501994368981344
120,0.6688407435849831,0.9159059325853983,11.815346148976108,0.08001174045759335,-0.2059468668579173,0.3109860958760245
140,1.0633887166411362,0.9974168168775963,11.959929711890943,0.15536135198040443,-0.18132302767039757,0.2812058557191807
160,1.3292358989726651,1.0450700561742525,12.036850826160327,0.22962733569580154,-0.16216898479477684,0.23062849010819117
180,1.5481757366143893,1.0798617812191569,12.011257125110161,0.31739806574655743,-0.1432512335661336,0.16849117568217037
200,1.726330148252762,1.1265107916461097,11.769392606947157,0.40705911873115436,-0.1278860185005922,0.09336102444471585
220,1.8388862978495961,1.178691806233659,11.405963313822843,0.47439107504122113,-0.1056811710819899,0.012387524805582908
240,1.874306214648246,1.2196976413142007,10.97384440673972,0.5170078037904119,-0.0718439487178364,-0.06640317441263008
260,1.8461399604403006,1.2301577167552815,10.489975916711908,0.5319081039674449,-0.04011600962270709,-0.1376396900843502
280,1.7776542460377953,1.2126651870422676,10.025866295470566,0.5201217961482337,-0.019324892621938726,-0.2027338715957203
300,1.6522687763190613,1.1768758017283218,9.62562076128446,0.4900787186020842,-0.01322850261763401,-0.2605990210046562
320,1.4772064580204154,1.1341979937708897,9.29343981500985,0.4523181811487977,-0.016310880573629234,-0.3070502486012444
340,1.2795966551511562,1.0897995509105185,8.962688411751838,0.4084334936732911,-0.02419937789100876,-0.33912999720682635
360,1.0837930439148922,1.0389097509300942,8.631619662433476,0.35172507359174554,-0.034149347180549766,-0.3576910578669956
380,0.8771943108241526,0.9691454298062924,8.317330152710523,0.2712799292286298,-0.0501076888934562,-0.3690082702979994
400,0.6899617399900542,0.892347900643509,8.128752666607237,0.19356203949547302,-0.07283862283065634,-0.37187326038855384
420,0.5010809270852354,0.8042716774985444,8.010497740527105,0.11423615269446173,-0.10019713098499677,-0.3647251732428896
440,0.33174224318886664,0.7087208900979177,7.956511377650786,0.036849699864652065,-0.12922521221819072,-0.34365380870646495
460,0.22861998189622776,0.6178168084185857,7.9434080979762935,-0.041348950383372794,-0.15835165633045387,-0.3130605444741937
480,0.16935030977916102,0.5235064588854172,7.99169680637679,-0.1219692485764843,-0.18380754649688735,-0.2782797056658588
500,0.14613025502623964,0.4237028101715149,8.131920278919816,-0.20309251039266868,-0.20397821951016698,-0.24034009111594956
520,0.1503722420489611,0.33062207057527754,8.402822505393528,-0.27225735498651793,-0.2226703446563764,-0.20431124490843108
540,0.15218398333957936,0.24338463813657277,8.733043445889646,-0.3186840178764995,-0.24129090008013296,-0.16898934044649555
560,0.19863376063790092,0.16748830826675637,9.075697596529697,-0.3494113280497333,-0.2524832715967081,-0.12947222533774502
580,0.31109629790279475,0.09883644758367244,9.474737090828977,-0.3675767757351138,-0.25205371001048577,-0.09164084457704191
600,0.4745560303027372,0.0283600731590201,9.952637129359776,-0.35894109920731615,-0.24644767049089533,-0.06216785483550103
620,0.622023439905248,-0.02395019750469006,10.325684982079727,-0.32453590823480716,-0.24274111661926817,-0.05033990196668758
640,0.7487117270417789,-0.06543408213322287,10.603770684840073,-0.27083773363326025,-0.23767583980860316,-0.04966205919383845
660,0.8445915178483541,-0.09467269729930854,10.79358984940294,-0.207338095224206,-0.22651454531934587,-0.0552935195290416
680,0.920716377667112,-0.11367910188740828,10.88539795304688,-0.13930826589570078,-0.210290018688245,-0.0625525726543241
700,0.9916529512919536,-0.11996423770762878,10.89276253523892,-0.07469782812444314,-0.18888760721319944,-0.07094427473103143
720,1.0620794340316206,-0.11574331631263098,10.848209478060404,-0.0170451033860445,-0.16358618146065662,-0.08141132056092222
740,1.127914274313983,-0.10639174950200242,10.766888503904466,0.03438921555779971,-0.13855114410724528,-0.09508034218610688
760,1.1787589302115566,-0.09614942807562743,10.657382598406151,0.07988357197351847,-0.11481067242014813,-0.11218179007284815
780,1.2089526841250238,-0.08505276562990965,10.518142654572005,0.11835404303798705,-0.09158993067089964,-0.13088817250006546
800,1.2248794038202164,-0.0719371563698872,10.361244466649481,0.14887893516345915,-0.0711230567948986,-0.15039522011753126
820,1.2274019050758735,-0.05528913398991582,10.165011139559256,0.17404552107769722,-0.05155606009292278,-0.17302802300676048
840,1.2106721267333644,-0.042575077204444686,9.980698733411751,0.18744722796459937,-0.037472438555083074,-0.19401616147882106
860,1.1723386259926927,-0.03236295479018481,9.80278179692287,0.1926825331414447,-0.027224760562129625,-0.2139204256288728
880,1.113835044457794,-0.02576122528886142,9.634120655713016,0.1921431332214238,-0.020541829572016158,-0.2305750293223417
900,1.0447936010379695,-0.02206243322937482,9.45605117066616,0.1843742193759047,-0.015422169355890619,-0.2427239704018224
920,0.9675124940239969,-0.019763626920895314,9.292148122950175,0.16712469527903662,-0.011557608732430868,-0.2504861074746672
940,0.8913043982835348,-0.018901569163067636,9.165142902371816,0.14302648853386124,-0.010746563585652553,-0.2550015566693403
960,0.8117849637897362,-0.025542854533181232,9.067158214691604,0.11676675809889807,-0.014472100620578226,-0.25740842389351026
980,0.7277429742830587,-0.038698786591398124,8.988964014583164,0.08841309805435163,-0.02150138691028172,-0.25675324598488247
1000,0.6410533871217552,-0.05818795914520435,8.930836825047509,0.057255354044692855,-0.02928879569284195,-0.25051727036034493
1020,0.5660552069823526,-0.08218160054188514,8.89662752213784,0.023030815884966464,-0.03550369971152644,-0.2379040368041798
1040,0.5266140111915264,-0.10923299382903151,8.882128484043486,-0.014137369278809686,-0.03769258361941096,-0.22094270493346754
1060,0.5181682496406224,-0.1349870341785201,8.91159949286306,-0.05170105284749098,-0.04009872184735611,-0.2052922454471881
1080,0.5258840165359925,-0.15813573635488148,8.998636489224541,-0.08475970960902927,-0.05150386885674738,-0.19382427960389917
1100,0.5352710589729578,-0.17172396355534242,9.077462023837976,-0.10370748637383599,-0.06458231617173099,-0.18757915142503062
1120,0.5454734944964222,-0.1828302009720597,9.132230587077864,-0.12069630499896936,-0.07302747454733746,-0.18129090594029
1140,0.5642156648409969,-0.19273283597517837,9.200972392457597,-0.1381210484997706,-0.07767996465396557,-0.17482688690268217
1160,0.5916500145698036,-0.20161255310527262,9.285671485268422,-0.15287880848500893,-0.08181903477740268,-0.17100951054073074
1180,0.6116761841673266,-0.21326516478402932,9.376117468616108,-0.16254114583058,-0.08370994128744476,-0.17154489254048133
1200,0.6105845570168363,-0.23068790386811744,9.456972575622048,-0.16727798096911023,-0.08433956394188491,-0.1736036863527732
1220,0.6048140188816385,-0.24948280303371678,9.525059866952706,-0.1685364813584671,-0.08511463814639172,-0.17545468451045232
1240,0.5983228627720154,-0.2705620816105283,9.581064710196326,-0.1676385473788661,-0.08452650510912017,-0.1769562309749388
1260,0.589627938853886,-0.2942637643690534,9.623105654615232,-0.1659005078807128,-0.08271133058411037,-0.17816050516389326
1280,0.5777279081464012,-0.318155137434276,9.66227414286182,-0.16327158513323123,-0.08051797387977737,-0.1789453811407932
1300,0.565099049218292,-0.34038880223422296,9.697676681623923,-0.15833156861535758,-0.07946856692403381,-0.17951024484459646
1320,0.5493460475530606,-0.36407827048238306,9.72279170490321,-0.15004480429916447,-0.07917906957242529,-0.17996826330517138
1340,0.5339024683102263,-0.3839073035267677,9.726865844371748,-0.14278801471187635,-0.07841637910664535,-0.1793166837682897
1360,0.5199377657912259,-0.40077804422342556,9.72508218399314,-0.13703097095246525,-0.07656547127842711,-0.17746317825756622
1380,0.5083862107355522,-0.4151198406846672,9.723686774781982,-0.13207610575745057,-0.0752440020816971,-0.1747310440979136
1400,0.5037038656121686,-0.4280129176783173,9.722088611229607,-0.1273230309209422,-0.0747559367684374,-0.1718655869129883
1420,0.5002838583242972,-0.44065074846436036,9.719877012189011,-0.12257615029636137,-0.07448956817456925,-0.169446953232472
1440,0.49651066655948656,-0.45193331648458535,9.716387969588265,-0.11832819005487055,-0.07429890505242766,-0.16704783545469773
1460,0.4923184739887553,-0.4620268769913628,9.711352792327512,-0.11456360603342197,-0.07378877591601093,-0.16428776220333
1480,0.4885840027062207,-0.47128620406358057,9.704217088870594,-0.11202845144387844,-0.07262783864551109,-0.16102656819036804
1500,0.4877038817057704,-0.47946346020704605,9.700592800659862,-0.11008149148987198,-0.07112902544897402,-0.15759905834750432
1520,0.4872077315003816,-0.4864926893237147,9.698591637764467,-0.10834355393789386,-0.06953533324738609,-0.15441944956014092
1540,0.48909261241398766,-0.49253901514695536,9.696861360605848,-0.10666487848079172,-0.06842183196307333,-0.1515002598227393
1560,0.4911361956932524,-0.5002597272527055,9.69771890323609,-0.10472655955018126,-0.0679195985333763,-0.14881897632440086
1580,0.49208782787684835,-0.5084168386809459,9.700036490221082,-0.10252996872504024,-0.06829369256900711,-0.14678774480592965
1600,0.4929724382882563,-0.5171489964662369,9.698493266796193,-0.10077587225923042,-0.06749271746578349,-0.14480199581636796
1620,0.4928834961176042,-0.525411039962523,9.698502151183336,-0.09973384425498501,-0.06597706933933362,-0.14277425462784
1640,0.4940298214254047,-0.5331199664215092,9.700692003504152,-0.09876814592419014,-0.06497703559746999,-0.14085740898042873
1660,0.4938882670385818,-0.5405066229088012,9.706930041137863,-0.09712021548021928,-0.06442663784043415,-0.13922300022985676
1680,0.4935968347553023,-0.5476309872072644,9.707348759610985,-0.09504145908998231,-0.0638069775109533,-0.13744312157376593
1700,0.493924621489279,-0.5538482911063187,9.70532153923621,-0.09371454430956142,-0.06256026079575548,-0.1358051761220766
1720,0.492903896149746,-0.5590037156762834,9.706050430388743,-0.09283132449532348,-0.06163187917189194,-0.13457709929281858
1740,0.4918065154369073,-0.5650699001467483,9.709470139293188,-0.09106114828057216,-0.061340321272745205,-0.1332112408506035
1760,0.4916842229631988,-0.5701943005241144,9.71107945293188,-0.0889453260132642,-0.06177082247912848,-0.13230741523115688
1780,0.49056450011154923,-0.5752455546420866,9.710580783722165,-0.08645897185775979,-0.0627244943434062,-0.13159685203572735
1800,0.48756221485129336,-0.5811371970225794,9.702452321253393,-0.08513680182327137,-0.0622491430493463,-0.13047910379226896
1820,0.48648514187712,-0.5869472052574017,9.701226609849162,-0.08525554320955854,-0.0607989310839951,-0.12888998790520184
1840,0.4863673360749554,-0.5924425042801577,9.706912656889317,-0.08447010815964065,-0.060240852361161196,-0.1275974576661185
1860,0.48610400920244284,-0.5977918663993478,9.707521271768286,-0.08263843094715273,-0.06032607512210564,-0.12641398895301817
1880,0.4844853741380838,-0.6027289606613847,9.70360424041128,-0.08151179062149891,-0.05990646301108453,-0.12543760432882334
1900,0.4810506339937669,-0.6078048167496133,9.703047532525916,-0.08116102729072408,-0.058768863282218115,-0.12400147659545872
1920,0.47874154053379303,-0.6130762117790284,9.706950499753283,-0.08063489345812898,-0.05774944203671818,-0.12235306982888253
1940,0.4779589352031176,-0.6176855316183625,9.710080075684893,-0.07936240604789141,-0.057490094974235524,-0.12089240573132869
1960,0.4773594044984903,-0.6212579283628441,9.709935835833555,-0.07816254871141064,-0.05717275726888925,-0.11950680062339901
1980,0.476309897870226,-0.624357048022631,9.710493121807302,-0.07744728999712581,-0.05630799521653892,-0.11804325796596991
