0,0.3957769889384508,0.5292993374168873,9.281299829483032,-0.06981013948097825,0.12223383598029613,0.1591113694012165
20,0.24570083552423647,0.5032358888317557,9.152637930477367,-0.13390616042649045,0.18141084120554082,0.21992543953306534
40,0.17301621779799461,0.489733612537384,8.95037992477417,-0.19182020261883737,0.20602220714092254,0.2755660849809647
60,0.12337979894470084,0.48270532037272595,8.747264847610936,-0.25792212253718666,0.2484959133646705,0.32908561329046887
80,0.17360971590912924,0.44144300934745045,8.825121600453446,-0.31151800012079683,0.27618727633138984,0.3730996131170087
100,0.28681582071799405,0.417710975116613,8.870077425119828,-0.3565374914632768,0.2803359211099391,0.39862194566094145
120,0.38160646049992036,0.40522051537246034,8.944221847935728,-0.38699497968742724,0.2800027626125436,0.40852341604860204
140,0.4579646008232465,0.3956203974210299,8.996246455265926,-0.41162688531554664,0.27889120716315047,0.41516816730682665
160,0.584811301136466,0.4093843159610278,8.994676694478073,-0.43966669155514404,0.2660572973832692,0.42492403579901344
180,0.7607883368331341,0.44934707953606123,9.067780871450164,-0.49486217955932205,0.27547244709215046,0.4373492372256738
200,1.0683118150259057,0.48935573498407997,9.439996507432726,-0.5581303370081716,0.28412147296799556,0.44869167192114723
220,1.470468741803601,0.5176663873146992,9.963257254386434,-0.5823409495381068,0.26467218436300755,0.428590664183911
240,1.8428998234383058,0.5458385314581529,10.677110501055447,-0.5586132806251353,0.2152510100167315,0.36755648722766704
260,2.1341935933910703,0.5487536212854218,11.371406178725394,-0.47877125152827876,0.15280644991026635,0.27718752063810825
280,2.32173596192762,0.5144188072471345,11.920601664996537,-0.36595585012472553,0.08853610766837831,0.17208663523807877
300,2.385200057966778,0.4708977063687948,12.372653029515194,-0.23629254284673012,0.014328685202277624,0.05768999288288446
320,2.3304408835517108,0.44167285975392745,12.690115672954615,-0.09518930616964033,-0.05819919659499673,-0.05200398170753666
340,2.256272540861511,0.4233279223107312,12.830005371407287,0.03484295575228864,-0.11115211245846258,-0.14575127244301855
360,2.1788457867556383,0.4099682633895064,12.870400075788622,0.14567589064358505,-0.14268325673198545,-0.22462594767959862
380,2.116650348402744,0.3857903539139869,12.83164296326814,0.2410875963691024,-0.155739365513494,-0.2933268380339867
400,2.0530136666155956,0.3549872588933881,12.724200807379548,0.3167587053251161,-0.16027635033931253,-0.3487613478664463
420,1.95819765597247,0.302176128421502,12.473154627874996,0.3988837552978919,-0.1562475422292613,-0.41138563286303803
440,1.8544147740949386,0.22768138218621012,12.165721147291121,0.4521622638648716,-0.14132605354872443,-0.45693221998711425
460,1.704883617425779,0.1308125157422895,11.827964971974954,0.4833874395309189,-0.11656249251178245,-0.48737237953878554
480,1.5127911475656801,0.01590387440364569,11.46846304973358,0.5034536437539778,-0.08828643146039818,-0.5014050792847654
500,1.3534131119760433,-0.07450667731861156,11.138941214547904,0.5145953099962801,-0.06954847910039798,-0.49908576042378117
520,1.2367378349870988,-0.14474011299553324,10.803430522957893,0.5190178085220595,-0.053619319224330386,-0.4879638334761744
540,1.1586092139803497,-0.18845744715133755,10.466531238892005,0.5190880932816456,-0.043095094631815795,-0.474441769315414
560,1.0810303324476835,-0.21099613310689938,10.123187473384624,0.5137366103444327,-0.0376391312701905,-0.4582637875558848
580,1.0136452461113779,-0.2158573036381032,9.769265391361811,0.5006844398446779,-0.034635674944262444,-0.43771948925230975
600,0.9525498827748683,-0.2056186369293744,9.431081612894973,0.47817238264409195,-0.03573459507484709,-0.41475848383845326
620,0.8918257879603899,-0.1758906112059692,9.126291684231013,0.45028721907941993,-0.04479829830807026,-0.38875949405076193
640,0.8474153573049253,-0.12960016306259492,8.809330733778994,0.4144158748567997,-0.057809327053009056,-0.35884854364233293
660,0.8179209800352427,-0.08436565467071803,8.507013952759179,0.3628687920489094,-0.06758418968180195,-0.3256304498084567
680,0.7972707252294589,-0.0503123371282678,8.284635279314468,0.2974345891641012,-0.07615520577781501,-0.2900444096408442
700,0.7875993279852229,-0.026246451252680977,8.12204656120121,0.22722977513761045,-0.08743245266373925,-0.254121560609781
720,0.7851273551971342,-0.012877220984858771,7.980484850828846,0.14125423800200224,-0.1037566961509098,-0.21453547377760213
740,0.7918028242586713,-0.020318785447978063,7.911815181592262,0.054765253593879085,-0.11798157297772531,-0.17836130651730028
760,0.8091907334658376,-0.04145051216665373,7.962326155079505,-0.03857869917786197,-0.12821961719232547,-0.13969363422498485
780,0.8385008105700605,-0.08328606646628706,8.129768494861546,-0.12517268227896206,-0.13815099384149185,-0.10170910736821868
800,0.889958998829362,-0.13993551320233663,8.380036658214697,-0.19761623342308293,-0.1536038840806367,-0.06655304348769497
820,0.9758084861137083,-0.2113111723721137,8.6924420185168,-0.25510195518898615,-0.16970972328169462,-0.034805936141706566
840,1.0852467153427436,-0.2961703281830889,9.064736409797922,-0.29726402811577607,-0.1872775290599936,-0.00867238520355574
860,1.2196570235851294,-0.38606236388074927,9.486383518162235,-0.3215492152493824,-0.2022154963805191,0.01089297520164191
880,1.3556140140018804,-0.48008300084236927,9.932817584558666,-0.32425765552465896,-0.2125269839120197,0.02336184025977503
900,1.497743560693487,-0.5708902705603489,10.344122014719472,-0.30434875557279234,-0.22046059519550087,0.030116996382393183
920,1.6435444131799926,-0.6530525223070167,10.684327566957004,-0.2643737112073914,-0.22280392110834854,0.0295233393382085
940,1.7896707299582009,-0.7274518095610476,10.952578723296561,-0.20369768539649508,-0.2242595186164653,0.020164178449727576
960,1.9111170819327141,-0.7822484006080073,11.093851612876135,-0.1426851932447338,-0.2240619728608838,0.00593330658578152
980,2.0370736077531344,-0.8217105367910806,11.160560876075868,-0.08133574089978213,-0.2202200840266111,-0.011106065265190455
1000,2.186055630473668,-0.8482254876227504,11.17481367901581,-0.022653197824558102,-0.21085894977170455,-0.031420088366359546
1020,2.3394051291448927,-0.8636804872785303,11.1394695734645,0.03489981837252115,-0.1976545180160621,-0.05895662656376877
1040,2.472676345198209,-0.8818194304749213,11.035245581124073,0.09083648412846602,-0.18712895882675762,-0.09621564750418518
1060,2.563772621866128,-0.9041390926278786,10.87249033185451,0.13964866529255082,-0.1795727112728759,-0.1399122755676167
1080,2.6032302746203926,-0.9236325930898193,10.685576553299521,0.1767904643387942,-0.17091886544995155,-0.1823298393508022
1100,2.6093924079372015,-0.937150562035072,10.495901275080758,0.20343045026442205,-0.16068235779667858,-0.2189364189376631
1120,2.600840671162713,-0.9417206797467993,10.310362114508408,0.22179181561471972,-0.15226846845927114,-0.2491541341464328
1140,2.595414870036349,-0.9323622477002569,10.142611974401515,0.23333507218261137,-0.14371233450798399,-0.27525987841490746
1160,2.591320877267044,-0.9144556505378117,9.983230142473424,0.24173194208656842,-0.13781603602084783,-0.3003983943248695
1180,2.578917647599598,-0.8921620961197066,9.813644811103947,0.24622001913328145,-0.13530565509272585,-0.32571795240198215
1200,2.5458622480929276,-0.8609853162338791,9.629176448110627,0.24436574870237876,-0.1345396463848558,-0.3534080746474295
1220,2.5035875071020075,-0.8302512074968188,9.473252082124828,0.23759342374398829,-0.13505352815171143,-0.37626997534319223
1240,2.446742676699753,-0.7962594970654441,9.329385735184484,0.22531560005474033,-0.13409020488193787,-0.39741621562371066
1260,2.3695621582001634,-0.7634703020909513,9.201734796744002,0.20978627184722357,-0.13363477184055605,-0.4158733596011248
1280,2.2829864545850995,-0.7356443946695083,9.07876815185342,0.19135631921704674,-0.13679200415612383,-0.43169119655236093
1300,2.1791628937974696,-0.7135633580584588,8.974439076104808,0.1684435050191588,-0.1415024062579154,-0.4444327734634001
1320,2.061723056703813,-0.7022400824280071,8.878015215383632,0.14134362087554103,-0.1476077755131953,-0.4521195029228156
1340,1.9363254854396323,-0.7016797876184467,8.809670401759531,0.10738737020133571,-0.1519434484482785,-0.4534912425956943
1360,1.8109438884577724,-0.7105611197239015,8.79137454350357,0.07139511689991027,-0.15529094411276773,-0.44848551644566453
1380,1.682543618470437,-0.7283017729954504,8.805116203829543,0.03879080771208599,-0.15932111514972067,-0.43752896092674126
1400,1.568036889732825,-0.7487315373387324,8.822759985770034,0.008011197384109377,-0.1663196766439733,-0.4212332123027342
1420,1.4627438496415825,-0.7728218067388604,8.865099343495633,-0.0234917639818721,-0.17144466019177543,-0.4000682860702481
1440,1.3582760270617196,-0.8052453141365604,8.943797612000594,-0.056198990279761364,-0.17554791318794377,-0.3708568086466309
1460,1.2814674607838794,-0.8384487917347467,9.03293451547618,-0.08044436976518823,-0.17950254672963736,-0.34222983927753614
1480,1.2232513560827583,-0.8701852049269672,9.130434327160854,-0.09983172310175623,-0.18444540595113726,-0.3116890259970845
1500,1.1776447945047261,-0.9031950045252083,9.235374861860617,-0.11478447041406137,-0.18786703211707784,-0.2794225106576109
1520,1.1464955244208859,-0.9369793494899472,9.342541039709442,-0.1258205564746433,-0.1893660664769752,-0.24553780984223175
1540,1.1464742740295921,-0.9701082050743499,9.457294889044226,-0.13321050212359892,-0.1886062417665486,-0.21126725057674287
1560,1.1674502693293018,-0.9984570730310691,9.587342325185903,-0.13455728880029189,-0.18733364371471734,-0.17974359843535975
1580,1.200119546875847,-1.0247426499023176,9.706240934282729,-0.12814307508923953,-0.18687458846340577,-0.1513391413669774
1600,1.242466721903419,-1.0465870134557334,9.804954448958346,-0.11647383867698999,-0.18493456337023312,-0.12549152621672355
1620,1.2947844702779943,-1.0627962828976936,9.884679547129311,-0.10065725046950273,-0.1810747143006701,-0.10218853479304645
1640,1.3546923595153062,-1.0716338654957163,9.937593247115837,-0.08157908144905253,-0.17572250121004876,-0.0818900418163856
1660,1.425026109788446,-1.0725737394780792,9.952576425405553,-0.0607979786712594,-0.17060230688124398,-0.06472125839831552
1680,1.5146584634562186,-1.0597648561121977,9.921765709557464,-0.04033269223264353,-0.1632934280732602,-0.05161281763359384
1700,1.5781011546181847,-1.0395727230676841,9.87848562023759,-0.02679169872888075,-0.15745012625246027,-0.044273801078356205
1720,1.6225014579797674,-1.018009396258988,9.83114680003641,-0.017732109753931653,-0.15375584523300515,-0.03907404966641795
1740,1.672739575991768,-0.9874242094075281,9.766792542689933,-0.011510130155339754,-0.14862985390340164,-0.03330577626887165
1760,1.7173554883112148,-0.9635230495151417,9.718410902761711,-0.0096700716466229,-0.14452392275100767,-0.029727481610866056
1780,1.7514808298347382,-0.9448039471315914,9.689037128403191,-0.01018704536551561,-0.14121599512184654,-0.028975955525764163
1800,1.780475824978329,-0.9270353016678279,9.667835202110165,-0.010895688006396244,-0.13813069557292454,-0.030701834798294483
1820,1.7891698074958948,-0.9167517071050937,9.663849519346954,-0.010504002880019646,-0.13573055113883256,-0.0335139425218566
1840,1.7869617361061403,-0.9082124634925152,9.65797402269976,-0.008355598923368776,-0.1343978662575574,-0.035972278871068214
1860,1.7826919027732833,-0.8981638743490055,9.638239717053702,-0.0073919771502627745,-0.13270007121540595,-0.0374593694633069
1880,1.775598331265428,-0.8874015503191307,9.627570422561803,-0.009128236713271084,-0.12989956159549365,-0.03814496537355202
1900,1.7666850041522473,-0.8764599023729481,9.628827698031001,-0.011328383029040103,-0.1269042059435172,-0.03839635965534361
1920,1.7550063228038892,-0.8662160547482811,9.640338470868969,-0.012185974296324762,-0.12452297457071188,-0.03850198355711
1940,1.7478237223393351,-0.8567586233260986,9.644191389165004,-0.011544196271604164,-0.12356032464677623,-0.03875580521049107
1960,1.7402122902014525,-0.8485644359051366,9.645726043769683,-0.011425017908259179,-0.12234422889210692,-0.039089083046419545
1980,1.728458142903264,-0.8381858189107921,9.649649581929774,-0.012083596130243039,-0.11968143806642852,-0.0390469232845789
