0,1.6058606803417206,-0.015567627968266606,11.282338738441467,0.05669001489877701,0.021300024585798383,-0.19642064534127712
20,1.8100361078977585,0.06825805932749063,11.769725263118744,0.09756953921169043,0.03345069685019553,-0.2589716324582696
40,1.975192666053772,0.20926483914566538,12.292338569959005,0.16976339804629484,0.06111428436512748,-0.3298672034094731
60,2.157388798892498,0.3802093654521741,12.49167400598526,0.25398031575605273,0.11635823117103428,-0.392778845038265
80,2.4399408654468817,0.5622454660422191,12.779123818002097,0.3653666184442799,0.1913168781959429,-0.47841044133756216
100,2.6486962133524368,0.7125427829747906,12.961553028651647,0.4877606834075889,0.24612789152532208,-0.5967916028231991
120,2.6407822663323923,0.7704820180998037,12.968821274606805,0.6246137982397749,0.29460810588901504,-0.7419435138765135
140,2.3736486927391245,0.7507833854796795,12.827025149418757,0.7497654114778225,0.34238097776587195,-0.8794887081934856
160,1.8783515656673133,0.6870425498393709,12.61502779346623,0.8555270929450858,0.3884167942180209,-0.9828302498957883
180,1.2310105295115967,0.6077731920199262,12.25877500463415,0.9351633159834661,0.4258720206533685,-1.0312098851542415
200,0.5747508987303028,0.5285458493391785,11.778356782506021,0.9687105033839687,0.4600947319707844,-1.0260192890850346
220,-0.0831837127484458,0.4508809639889862,11.284814067722596,0.948973925304167,0.48649800265419113,-0.9759553752301895
240,-0.6457657100455392,0.35259251046393597,10.869146592276437,0.8942351772671654,0.5031153447216465,-0.8885457969958052
260,-1.0386542990655365,0.2453305522655755,10.57259168456086,0.8303112290362803,0.5162438202682322,-0.7848732094424653
280,-1.3369157818215323,0.1486693612523069,10.364496999535678,0.7749016611559763,0.517172937396883,-0.6820425846948758
300,-1.6159381546868155,0.05399848238493388,10.152598810195922,0.7334463832720828,0.4964100314734074,-0.5705415310857531
320,-1.8166918038876485,-0.008521409421835257,9.925846517949864,0.7056194071124807,0.4671344377802334,-0.4709809895527239
340,-1.960389177397863,-0.04908149726433705,9.648467864075752,0.6717069549581725,0.43270553227463,-0.36603483497260825
360,-2.03595330432517,-0.0609330309119511,9.390265483360785,0.620974090140821,0.4012449333178146,-0.2548372681727391
380,-2.0305183339622563,-0.058530139272607126,9.186230892016564,0.5594405910362386,0.3726844192241077,-0.1406586654096221
400,-1.9507857476251529,-0.0468719419598689,9.037944737602682,0.4945842023692368,0.34434304655913045,-0.031047747948426095
420,-1.813177861456414,-0.024232753653215307,8.941832740655107,0.4341781443649422,0.31411759235132275,0.07019468923648714
440,-1.6104317966958768,0.02615207102605372,8.848348556026336,0.3797157095539914,0.27818196993922034,0.15814345385453674
460,-1.375432607991448,0.098208153268716,8.762500337718688,0.32190379803548996,0.24430957787967833,0.23090688422797537
480,-1.119885089313888,0.16941800084089548,8.721641871008542,0.25876725394749034,0.21552490182958617,0.2902839055393205
500,-0.8499240341064122,0.23525935969692433,8.724429284958612,0.19445026910509028,0.19361543497514158,0.335805754570867
520,-0.5778259475835078,0.29300538543932175,8.778702797146018,0.1335930700879544,0.1771401585754725,0.3648344432762098
540,-0.30447481263972886,0.3456776368058806,8.875105596221653,0.08065493309054425,0.16359414514648704,0.37767675241550214
560,0.004097018394857011,0.3975936447478276,9.01636228358492,0.03136449034345594,0.15866644938892507,0.3735150912608159
580,0.22420155415927207,0.4270062706854641,9.141087299536082,-6.636861761770219E-4,0.16411039613433615,0.3591433686410146
600,0.46551518349722026,0.45081933728884904,9.302361671447754,-0.0271601422149688,0.17695753858983518,0.3299030745504424
620,0.6863680708785217,0.45586135502193526,9.466083060863406,-0.03802252026787389,0.19025489640270554,0.28291738084102297
640,0.8688628924033894,0.4398942445239143,9.614586583684,-0.02920291286959463,0.19973332346992545,0.2097533084478313
660,0.9581646208769896,0.4040093318466097,9.680852279663085,-0.00974132669412277,0.20627012955871496,0.13579174696298485
680,0.9809678839717073,0.3558000566811357,9.67783429176142,0.010584863026168975,0.21363249230247924,0.062036777595584625
700,0.9456870836906672,0.3074020070025435,9.629032436515049,0.023685579330586792,0.2207273279550354,-0.006711153189501248
720,0.872059491008246,0.25707612313987394,9.574159099106804,0.02777156000645414,0.22577157376153414,-0.06741232333788928
740,0.7786856356201275,0.20475467763073646,9.526451965108368,0.02773399434487733,0.22709342020682094,-0.12001222309941602
760,0.6553789337984982,0.14076803912500013,9.461782778365702,0.025185494166813625,0.2250537679330269,-0.16979410372972134
780,0.5588626321261004,0.09086244915692776,9.409565023593489,0.02160760913881828,0.22040347958519915,-0.20317915198248998
800,0.43583586330929525,0.027961134239442152,9.339891271418836,0.01588268687069158,0.21165187747206493,-0.24184680879130085
820,0.3117540715727955,-0.02476027498144985,9.277658016541425,0.00921055272611899,0.20226496112368564,-0.27217976096812085
840,0.1680230154393605,-0.07605563630630936,9.216806380228064,-5.674378072639563E-5,0.18904397727108035,-0.2964131770121608
860,0.011510897754806649,-0.1206188382289184,9.158938569969006,-0.013722169671791051,0.17317651752696445,-0.3112073932137351
880,-0.13312097643706744,-0.16322979817977995,9.119057013438297,-0.03221127921862497,0.15969807413601123,-0.3158780688932933
900,-0.25803760892551353,-0.20828301030754423,9.087039296345043,-0.05158180421842913,0.14658314594998956,-0.3137615428497684
920,-0.36726995593574097,-0.25364518475191866,9.064985463493748,-0.0712272225912832,0.13109655517986732,-0.30930505046731255
940,-0.48260262774389967,-0.30419835782209026,9.06143952399185,-0.08966991020043708,0.11146999723229979,-0.3031214442057295
960,-0.6047303611577272,-0.3573659609872707,9.066733919008813,-0.10505264070716386,0.08759122090226021,-0.29047732158961487
980,-0.716685911924071,-0.40845162970864557,9.081861120639461,-0.11921837342076584,0.06418878958090254,-0.2669575122757907
1000,-0.7897460982632977,-0.45757664114211966,9.102196570739006,-0.13686233432370112,0.049300713125543974,-0.23462797019877063
1020,-0.831851189719367,-0.5207717055858571,9.146284182677643,-0.15857975491828058,0.038444524958305006,-0.19456024009860487
1040,-0.8446603394884156,-0.576747526341424,9.202324224796607,-0.1736172457713534,0.026171007603927925,-0.16131224775293923
1060,-0.8450089643690181,-0.6351131710550989,9.275363003361962,-0.1830533001498901,0.012217553826880128,-0.13077343108923148
1080,-0.8361417201651113,-0.6947871234628968,9.35475295420443,-0.1872319098172207,9.729292662291045E-4,-0.10035714405233019
1100,-0.8152794874937296,-0.7564032445862174,9.427944581240219,-0.18832228323583497,-0.005385373696421682,-0.06800749574204039
1120,-0.771861317373586,-0.8148521818124654,9.501079275913197,-0.1874106593191151,-0.0083075629389661,-0.03404119525381532
1140,-0.7078738416066525,-0.8668183776791265,9.576192392215038,-0.18296184034810575,-0.008801924684313315,-0.0021035879525715417
1160,-0.62948346289316,-0.910825467426857,9.64169633213579,-0.17367649770198307,-0.009600176669235499,0.025087909641689318
1180,-0.5412151798893957,-0.9473117479022362,9.687335926724463,-0.16033538289478566,-0.010280943120416906,0.045393824836085596
1200,-0.46803930421259715,-0.9765024595930757,9.716390634888809,-0.14305166605341438,-0.011820133461883296,0.05807761126859057
1220,-0.41507937143298385,-1.000119089335296,9.720490764001173,-0.12211946496054969,-0.01739899761707126,0.06570403436765804
1240,-0.37286079750892165,-1.019163200070474,9.692583309878067,-0.10187455026541739,-0.024683973450059973,0.07151271266476682
1260,-0.3298885256292938,-1.0344265521882448,9.646542663279648,-0.08479428007856234,-0.029096953437796662,0.07842785558478123
1280,-0.29030278926899394,-1.0420020143045536,9.603919473437756,-0.07636627864987615,-0.030307071839420288,0.08531546412600637
1300,-0.24845413457469714,-1.0438563037608761,9.568928707851454,-0.07440783632007926,-0.02857240094813738,0.09232685451041768
1320,-0.2047874355788353,-1.0410248930535944,9.553684733450632,-0.0769186211684186,-0.02496183136429954,0.09828220006564763
1340,-0.16597050711343234,-1.0373047791544179,9.562747323296287,-0.07947741775582969,-0.021017601388421927,0.10174686503469606
1360,-0.13337426716595302,-1.0340733365493737,9.586443814752776,-0.07858759734264699,-0.018750955374063558,0.10244806889089085
1380,-0.10986623790463952,-1.0309797884232461,9.604794649690284,-0.07355127239401547,-0.018529286755367375,0.10114196091750473
1400,-0.09282161592496137,-1.0265788540543457,9.608714476695043,-0.0673989146387688,-0.01932245769005801,0.09887844635107156
1420,-0.0764184114971291,-1.022183683088379,9.60623447264183,-0.0629293943506896,-0.01968840045512004,0.09626807547150391
1440,-0.06278285916565786,-1.0187616566585849,9.603886431870517,-0.060957731485978744,-0.01893563357848715,0.09368711872641408
1460,-0.04936223744841473,-1.0163133677370055,9.605274320844822,-0.060502884068322306,-0.01671592840630122,0.08977653595259145
1480,-0.04552908771496156,-1.0172509985531006,9.612885578237352,-0.060441176597414714,-0.014557282540546853,0.08592540402658493
1500,-0.04740810639651866,-1.0203682285088584,9.624146130890091,-0.05959172769344061,-0.013485938704403217,0.08297883577722309
1520,-0.0509412618963882,-1.0272289208135752,9.637478290361921,-0.05631501131999735,-0.012402211364046976,0.07994237386196983
1540,-0.04869367335605687,-1.0327734605009962,9.640754912054483,-0.053109673934283175,-0.011448201198236377,0.07823820242240564
1560,-0.04503163447226376,-1.0361787396789421,9.639393825171693,-0.05110174870199642,-0.010731277790259033,0.07677159981335714
1580,-0.0396381317863854,-1.0411339157827377,9.637362828763228,-0.04915212051654335,-0.009115370786752425,0.07378318140152237
1600,-0.03890170217207313,-1.044276097324812,9.641749390026995,-0.04755607639272335,-0.007716026787294203,0.07141163244608875
1620,-0.03861380525957652,-1.0453191842089877,9.645345551523967,-0.04580039469614687,-0.007130727407458392,0.06984912703390009
1640,-0.0330270010996721,-1.0457562352735383,9.64697133944038,-0.04246749439718821,-0.006199392334897426,0.0674279684047513
1660,-0.026616817729448863,-1.044637726292368,9.647417755997761,-0.03989272316165449,-0.005452582172604363,0.06464405214195915
1680,-0.022740450792055385,-1.0439348665239412,9.646139135847996,-0.03802463338917706,-0.0050009232819127935,0.061903255994017
1700,-0.02170335932353364,-1.0435186716925566,9.642073374000384,-0.03639475020677146,-0.003295510022636342,0.057305031597761694
1720,-0.02626356908976132,-1.044010833137608,9.647863727401603,-0.03518299443897955,-0.0012278937411710185,0.054098073595179645
1740,-0.027164921387177434,-1.0441712165162833,9.654678350770977,-0.03322918550226129,-5.922814033446754E-4,0.05250839491433818
1760,-0.023903628032227668,-1.0430809484371113,9.660188627905315,-0.028108737170663922,-6.466387091172187E-4,0.049650258416659196
1780,-0.016380225162080663,-1.0412940048695167,9.657798250297924,-0.02393426452197293,-4.8814164907965747E-4,0.04640916054447918
1800,-0.01300339625215755,-1.0383256194982096,9.654125656122746,-0.020800739838507623,2.762527233046611E-4,0.04239180986864401
1820,-0.013864718755314087,-1.0349092315873056,9.654195391362713,-0.01803385042532232,3.1331624882358316E-4,0.03813654956531771
1840,-0.017029482927953605,-1.032415892036218,9.655021641482698,-0.015539733859421834,3.1488509534454426E-4,0.03441167324676149
1860,-0.020367122497593395,-1.0298143253309382,9.657248599278299,-0.013326596241217646,8.651722897315937E-4,0.03174287570046114
1880,-0.024190323599214025,-1.0264686181317302,9.660055983190736,-0.011160952706480506,0.0022431683792850285,0.029674793934039673
1900,-0.025999544606935328,-1.0222042575277528,9.66082095055236,-0.009028979536768808,0.003243383844746109,0.02816894402836699
1920,-0.02442675791959972,-1.0170676949406066,9.659285262531164,-0.0074215155094565005,0.003950756232147889,0.026492050479163833
1940,-0.02385645342292264,-1.0124703596214966,9.659132334319027,-0.0063757951531001845,0.004371469505345849,0.02449260039738323
1960,-0.024237241423322578,-1.007107252614647,9.662053395746353,-0.005111450985621675,0.004467420032978658,0.021998127348914036
1980,-0.02535049979631387,-1.0025629174825936,9.665002564122561,-0.0037899158867099065,0.004745798663864181,0.019809269502572485
