0,0.9861493557691574,0.15447876797406934,10.606045126914978,0.11767640523612499,0.004788425190781709,-0.056538098491728306
20,1.235231377184391,0.30117371962114703,10.897189617156982,0.11028613289818168,0.026526478886808036,-0.09711801772937179
40,1.422442078590393,0.40635500044057454,11.39131212234497,0.14242161003251871,0.05254778348171385,-0.15068084467202425
60,1.5605798177421093,0.48521601364336675,11.556942701339722,0.20695888111367822,0.10324216323169821,-0.2224863253068179
80,1.534129825234413,0.5500761386181694,11.829241514205933,0.27881096340715883,0.15620244939782424,-0.30505098309367895
100,1.2470231812865453,0.5811588518007905,11.92744221979258,0.36123335270249113,0.20135417134306222,-0.39638056606054306
120,0.8078359200276042,0.5780400945028911,11.889801912140427,0.43694035552049937,0.2334114604153703,-0.459452196563545
140,0.26452071318546166,0.5683197404437054,11.68802748460036,0.49900214328215675,0.2629859890672378,-0.4912899470100036
160,-0.3169628020809734,0.538584145586555,11.398981172744541,0.5368305903999773,0.2849474984742637,-0.4881243484273349
180,-0.8872217173906572,0.4918956413583393,11.059372813613326,0.5527859545416303,0.29360166841896573,-0.4505355376520275
200,-1.3610170113885502,0.429569648858683,10.70697569579221,0.5452439160494322,0.2950864476642278,-0.3829406723380089
220,-1.7209080358122273,0.34912967002835393,10.392632204232756,0.523483117831122,0.2832740812686022,-0.29577303078678463
240,-1.9922001553699373,0.25282283848195913,10.161931496574764,0.5021214550449735,0.2555529407685667,-0.2002226269670895
260,-2.1999209232018453,0.1672910646786831,9.926890136921301,0.4883471780118689,0.2129922363370352,-0.09504376754032827
280,-2.3031577777256036,0.1076769188165757,9.62522766018702,0.4694084473385299,0.16662608116840144,0.022431770939964894
300,-2.282490853097492,0.07407851734328581,9.304725573044415,0.43449450633669084,0.12096521344041279,0.14679475839054862
320,-2.13245905970434,0.05162403920672181,9.040587275567717,0.382885448770584,0.07930347708650409,0.2694517655202942
340,-1.8455430845066598,0.029904939417650746,8.84881016652878,0.32365366538399704,0.02706230109460231,0.3883730559418463
360,-1.5564361783772611,0.02349918848508364,8.730468669495025,0.28098523798217245,-0.027575899891074528,0.46860181535412737
380,-1.2651026032025707,0.03103176904497323,8.606488292599902,0.2450691993911693,-0.08804246659834732,0.5326542341506776
400,-0.9541476519833154,0.05288767082726254,8.467775086795582,0.20585365792845978,-0.14159300805733757,0.5912578192265595
420,-0.5799311322599565,0.07697700956061984,8.362009241339866,0.153579694899113,-0.17882755554308644,0.6451502377481273
440,-0.12496594108781346,0.08868011083173495,8.345523185627435,0.09316528971076653,-0.20388456430662955,0.6837311959474959
460,0.37259839089664143,0.08478863521949533,8.467641311822478,0.03838695053817685,-0.21846821248086082,0.6948460333202917
480,0.8524965752921261,0.0800553115435166,8.659466198175261,0.001772196041327892,-0.22511752603240173,0.674559607087533
500,1.2838103643352432,0.05590660305959838,8.873912704558599,-0.011853420113523801,-0.22683430481397193,0.6247891812274854
520,1.6197913357295917,0.04597778696942767,9.024093415759026,-0.008849411327050093,-0.2210048789945068,0.5572979289081392
540,1.8810441923756318,0.030838528862305446,9.11114218171719,-0.0018182288220696217,-0.20660175466667902,0.48104040576886814
560,2.096539047665577,3.1594015816424756E-4,9.194245981662831,0.0053312283762274905,-0.18338543878437238,0.3884016014318517
580,2.212288515791757,-0.035205801787935656,9.263788115340496,0.016949177757978686,-0.16360500495839642,0.30165733404672196
600,2.2654882016298603,-0.07045746844009575,9.292103678106786,0.030667953033638427,-0.144455229302551,0.2162366956027143
620,2.2647176278956436,-0.10507570497662864,9.294266702585698,0.042728977303045826,-0.12554040727673932,0.13682512221246612
640,2.2366074812441563,-0.12974368339955583,9.254526309752732,0.04991789892218198,-0.1068932803982977,0.06369837372099862
660,2.1860084548355503,-0.1566865376721729,9.205898099379105,0.050052926938303495,-0.08786101182351228,-0.005781896100802855
680,2.0954390750052703,-0.18819099325068006,9.153705812595758,0.04731577578043506,-0.07331512540240703,-0.0718138851751919
700,1.969348108904801,-0.21654763313400785,9.097617891645923,0.0406163215902842,-0.06386667764861668,-0.13218539050713027
720,1.8135184837555058,-0.24223340611693053,9.04107096841104,0.029695442075651127,-0.05714164857061916,-0.18319658988644447
740,1.6693365147818195,-0.26319387241029274,8.991091561473272,0.016245642407596402,-0.052146651029770924,-0.219600600537424
760,1.4704964390379331,-0.2953477376746753,8.929325097704691,-0.005485504311287687,-0.04910085011691239,-0.25639250788187223
780,1.2792296685053515,-0.32593770198316396,8.893182463690223,-0.027668300902199912,-0.0510163419721749,-0.280018355628193
800,1.0829251347829973,-0.35734995269973474,8.862093624391585,-0.04995672302489419,-0.055920785238995886,-0.2929163974825169
820,0.8990932012493323,-0.38567587458542313,8.823499612048664,-0.0732608642497795,-0.06309036593722828,-0.29560101844348385
840,0.7046932374721329,-0.42148904363228673,8.78939171632131,-0.10397513460330451,-0.07051015906146293,-0.2877196349958279
860,0.5493677233821932,-0.45709891481262244,8.783667236231686,-0.13387263416746903,-0.07852662517640117,-0.27147841024777614
880,0.4211813141463918,-0.49462419107638217,8.804421164177276,-0.16309540900069155,-0.08796420860936441,-0.24831132515292656
900,0.3203531941524156,-0.5318488749244841,8.860381578886381,-0.18734575080139543,-0.09967192145948854,-0.2212625072833391
920,0.24052300159329254,-0.5730084464542176,8.91399206738723,-0.20309995453143,-0.11352601102017185,-0.19243432352270343
940,0.1799289401759845,-0.6208285930345661,8.938095998518246,-0.2157829456984248,-0.12687331779584524,-0.16155795436400497
960,0.13746566321898365,-0.6767442450491767,8.975493331148167,-0.23038934375455772,-0.13905051971196003,-0.1278563618043795
980,0.11437404749795131,-0.7371265730165905,9.05021601738316,-0.24450032937796878,-0.14961295393897833,-0.08979005748544368
1000,0.1148446825744349,-0.8071564940681446,9.155840342484632,-0.25397419995623777,-0.15712142717367314,-0.04882076822302657
1020,0.13984634024091064,-0.8862085848869312,9.298709355081831,-0.25444456873838567,-0.16127108317492198,-0.007454156931046219
1040,0.18727598902682346,-0.9697423288859776,9.431413854394004,-0.2430325973633172,-0.1643135939289818,0.030478182185667557
1060,0.2515483126150832,-1.0587850169233928,9.550077771158458,-0.22164171375867056,-0.16784748990577272,0.06936587070837379
1080,0.32506606069215566,-1.1253632112667802,9.63882918304272,-0.2002939682422478,-0.16658718949039938,0.10177140016359894
1100,0.4104207188289851,-1.1817227753154753,9.729680032919575,-0.17664670313566627,-0.15928081810953934,0.13194005557893063
1120,0.5102430900049734,-1.2274553518330198,9.802165959248574,-0.148252369792538,-0.15038981369240492,0.15654293415207343
1140,0.605766343149438,-1.2674760484079053,9.842917900858149,-0.11609889221474973,-0.145313638365338,0.17221705931455278
1160,0.6825253658516008,-1.2920001164016235,9.839880428474155,-0.08363485087267664,-0.14533541856621113,0.180796296792632
1180,0.7428610201905836,-1.2974883028987756,9.799032717635951,-0.055809874887357364,-0.1440891450229005,0.18778563708489396
1200,0.8031428754877519,-1.2871651629375154,9.745023980827408,-0.036802877890206795,-0.13583053325212693,0.19624327472080505
1220,0.8639089228332548,-1.2694751338404928,9.701885127259823,-0.02479447814879452,-0.1235607904722466,0.204437186928492
1240,0.9262750247083531,-1.2462948105967657,9.669941182689255,-0.015876942284017332,-0.11459731997261995,0.20835105838960363
1260,0.9797853957699536,-1.2196208942056466,9.639097011758004,-0.008501544516403912,-0.11000334805949921,0.20559768200396222
1280,1.009400607283252,-1.189737382799054,9.616668609611889,-5.887099851574394E-4,-0.10889564414861427,0.19686748643012666
1300,1.0133668970027137,-1.161463422460956,9.595116930507988,0.005612677004195275,-0.10921531746807954,0.18914822213114535
1320,1.0130712141358462,-1.1323493714332649,9.567860404503742,0.009021885410411717,-0.10672579530716317,0.1842551344070872
1340,1.0158323398452591,-1.1066209954201158,9.550868008353493,0.00974622951227833,-0.10114098663621751,0.18160877262623135
1360,1.021557427857632,-1.0841026290304838,9.544646840796249,0.010188260485374747,-0.09699157860030347,0.17902015596185894
1380,1.027801944800182,-1.0629740283855766,9.543086909573828,0.011944671223177031,-0.09591341272034343,0.17550061931364672
1400,1.0357083019845914,-1.0408947228101968,9.53488610596607,0.013318995649046962,-0.09522255355750214,0.17144541152897338
1420,1.041018743075981,-1.0189038988409238,9.531013559230004,0.013360564410526472,-0.09333716419153795,0.16710541595719255
1440,1.044459946474092,-0.9985770467645094,9.529860255677821,0.01289997047081716,-0.09053604106992973,0.16265922909784053
1460,1.0446010327611406,-0.9806243645869831,9.532086032688817,0.01182821759234578,-0.08702160429704334,0.15801759045469857
1480,1.040857355385441,-0.9661374791600609,9.538786189390882,0.011108208453073705,-0.08425212479816986,0.15366550019777783
1500,1.0360800352035522,-0.9515288146538812,9.544816363517935,0.010878870436801887,-0.08213515773084522,0.14946325357467943
1520,1.0299699305486454,-0.9352493969055362,9.55342962194599,0.011230963971622791,-0.07992937951451497,0.14499532089293612
1540,1.0245256356838883,-0.9209628553430825,9.559180001260362,0.011816592119735991,-0.07819014553727122,0.14118672141003852
1560,1.01627917067295,-0.9071127457918777,9.561952852120795,0.012443403849131916,-0.07648029027815328,0.13748265486844582
1580,1.0075555184389675,-0.8948193104323029,9.565334548537477,0.012721305154731794,-0.07453528911275127,0.13446867910438323
1600,1.0014948304330233,-0.8839962586497475,9.568348430313227,0.012904594693766579,-0.07274513904792648,0.13173162194345686
1620,0.9960861390310467,-0.8737992488271324,9.571448523174764,0.013141303378168556,-0.07141915446863374,0.1285143279513347
1640,0.9873691542940173,-0.8635598404715379,9.571804835437485,0.013366811219137856,-0.07078283884999413,0.12523166213466352
1660,0.9765048848508977,-0.8520626223729086,9.574120970994278,0.013366578576386123,-0.0692358825832231,0.12253937062626329
1680,0.9647989737105812,-0.8402091407768152,9.574999144330642,0.013509782158862529,-0.06821184386822884,0.12101691245918841
1700,0.9585419965170914,-0.828008252199699,9.57668415865452,0.013225882315066837,-0.06709335803736015,0.1202445337173643
1720,0.9546009996405155,-0.8172876711184315,9.577853863473297,0.01304315093157349,-0.06565256433614104,0.11960717070593391
1740,0.9572667804652755,-0.8075325731846272,9.576571907172223,0.012118397074135177,-0.06430936798460862,0.11823127382571132
1760,0.9542456787364143,-0.7969394535967795,9.582240709993574,0.01099164772623327,-0.06311626432280819,0.11554426242978985
1780,0.9468420633079054,-0.7878101227586259,9.588964457040305,0.010738045854010964,-0.0631390101186628,0.11318426773145253
1800,0.9385255421486521,-0.7777793688716053,9.593888951384503,0.011391668713841958,-0.06289494535200862,0.11164340713477704
1820,0.9314566161859059,-0.7666251794040774,9.592848758543692,0.01220877922405243,-0.06304629667815739,0.11084084830563566
1840,0.9291625191888554,-0.7554375995204418,9.586021500699063,0.011779625533998772,-0.06269933479772125,0.11037692773815967
1860,0.9279850238419481,-0.7458563811543986,9.582914746435065,0.009813471501691215,-0.06047093544031285,0.10977840255363844
1880,0.9259089790454406,-0.7376878739078165,9.587737611184517,0.007285600130851814,-0.0582286238134202,0.1089551588559819
1900,0.9246349852584955,-0.7313235632024498,9.60095471450963,0.005948557113247402,-0.05648006633493855,0.10758536985052806
1920,0.9219481465477991,-0.7255443123383661,9.613813490283732,0.006772726500875418,-0.05642759315311678,0.10560152366191947
1940,0.919593796752525,-0.7181762697218066,9.615979640170782,0.00821779064605807,-0.05656986446998839,0.10336722850427972
1960,0.915128022597637,-0.709880822893756,9.613821370601654,0.008566691660116704,-0.05538170454543433,0.1015491302323062
1980,0.9100127276309452,-0.7005447203719963,9.61576699444331,0.008057695408280849,-0.053681127998571526,0.09995231427579233
