0,-0.428708516061306,-0.06616241717711091,8.815768003463745,-0.16222183126956224,0.11817251611500978,0.22802066430449486
20,-0.8044448249480304,-0.1642701715669211,8.521761669832117,-0.2612679263248163,0.11420518773443558,0.29408664738430695
40,-0.9625104856491089,-0.22762266770005227,8.538436603546142,-0.32727923125028613,0.15235418498516082,0.3586567103862762
60,-1.0212944348653157,-0.2794189580687971,8.773247213074654,-0.3559264529383544,0.15236386905113855,0.4131930804613865
80,-1.0125544250011445,-0.2902165056206286,8.666558158397674,-0.37639325242489574,0.1322073707357049,0.4592229939997196
100,-0.9738443098506149,-0.26917088115397764,8.580475524980194,-0.4178228048341615,0.1227528774464617,0.5258340841653396
120,-0.8308617225603053,-0.2395019644642608,8.576985451213101,-0.4635538530715725,0.113690692147142,0.5853573089106041
140,-0.5203088002709242,-0.21227243347809865,8.642225654308612,-0.5076727682581315,0.10568740769074514,0.6253858057352213
160,-0.10748060221133167,-0.1878614039925782,8.800548808215416,-0.5464922874553563,0.08058454621940443,0.6278131269428828
180,0.3135405930655974,-0.17247098258029622,9.13841912187176,-0.5748622298792556,0.041692934608385884,0.5953371552405534
200,0.7320148694548714,-0.18347465101723676,9.677332454852843,-0.5825958525699176,0.006333955511283339,0.5424689193036449
220,1.2319932121555417,-0.2324146608351635,10.398099933351789,-0.5464698043556846,-0.025574331418896208,0.4564179753390502
240,1.6455366513779703,-0.316278160015947,11.050326846680552,-0.4758693712921637,-0.05092943111821165,0.3494620598360615
260,1.9224654533491845,-0.4270908271571164,11.645110678254513,-0.3783794256548087,-0.07495923788008983,0.2216582700544805
280,2.0697126243848447,-0.534722771874652,12.097818181534445,-0.27893543458920866,-0.0863742252334583,0.10890747148020208
300,2.164895091893581,-0.659551560285931,12.5953345482166,-0.13327328350681525,-0.08641665271268441,-0.02977232156464687
320,2.191720649222101,-0.7429420346397556,12.854972849721493,0.007519935190245725,-0.07676413325943808,-0.1463763839362756
340,2.174825466914128,-0.7942114777381417,12.94079961188852,0.14733779333429795,-0.06042436790997035,-0.25653513533713884
360,2.091365359227669,-0.818132487484012,12.885734393999174,0.2774677747352557,-0.04156614593290663,-0.35927123104693826
380,1.9253296732419618,-0.8202498738070444,12.69457980144171,0.39022132850907465,-0.018106544689263825,-0.4448245473344017
400,1.7027885210755116,-0.8005987118121565,12.407540094151216,0.47968300006845416,0.01220297651255832,-0.5040502327549107
420,1.468860162599954,-0.7589117566377364,12.055075680271964,0.5433318124811971,0.04511736128269957,-0.5361921409082212
440,1.2608877046995106,-0.7060801176797419,11.680381991529977,0.582642834553475,0.07713334002001311,-0.5486738310265605
460,1.0835982412003826,-0.648568848806875,11.31623320604108,0.6058187157914197,0.10109739247517488,-0.5513815996765169
480,0.9094231702625898,-0.5774828875173581,10.897032582701133,0.617318862654599,0.11239522192718948,-0.5506250244826812
500,0.7735913431104184,-0.5159053911126144,10.531071591433756,0.6150078388257614,0.11721863173901752,-0.5458513786619026
520,0.6533044874583069,-0.4637479805121768,10.192995774147173,0.6036966003851804,0.11854735955800096,-0.5369538410511463
540,0.5402721149461254,-0.4164801989507652,9.879150018292902,0.5891092838760514,0.11649982245138432,-0.5254806103061737
560,0.42423441345862883,-0.3729809944825049,9.572873093219513,0.572534672408662,0.10786692696286643,-0.5110397115666816
580,0.3073805652696777,-0.32799941729543414,9.256189090065627,0.5513984776147998,0.09137678004939247,-0.4919076976577134
600,0.19017982660269594,-0.27975928509307363,8.935970924601731,0.5202291052124326,0.07135631298030397,-0.46578507832960186
620,0.07604880946684758,-0.23627469679035074,8.65931832337299,0.47556771067039444,0.05235464283729037,-0.4305289691587385
640,-0.03361100573022937,-0.19688496528427057,8.462662838887745,0.42619562438734515,0.03190628893687372,-0.38836275616988597
660,-0.12622188926420427,-0.16489056878892536,8.282770426557823,0.375314953322099,0.00861514746804129,-0.3410012507540259
680,-0.19452129415641192,-0.14323571365566878,8.122544059549647,0.3203114256371379,-0.01617479150910786,-0.28781601587514466
700,-0.2111074008444433,-0.1345573046966376,7.983308245699942,0.26065016181537837,-0.043414331335715206,-0.23041668402101473
720,-0.17866526096187108,-0.1327193310759949,7.873278606757771,0.19366242952900237,-0.06810959600796768,-0.17211997689349098
740,-0.07770594737383646,-0.14555187408537182,7.794000419763872,0.11053945781669108,-0.09497116656381298,-0.10585415344866743
760,0.08021799620547437,-0.17364650173775875,7.779470943256364,0.029077393151642872,-0.11631461011564147,-0.04970070286771825
780,0.3103915859922123,-0.21547784556327157,7.837339547002849,-0.05489646229910216,-0.13839100480918992,-0.0023616925887993455
800,0.5915914883848324,-0.2656956860937279,7.975783294998109,-0.1350720533806584,-0.15624618687644512,0.029882263877507614
820,0.9031759888317217,-0.3252436652019456,8.195848763745058,-0.20622824869146023,-0.1664919957984239,0.042455498909796864
840,1.208163519909113,-0.3937398496829241,8.471294563445637,-0.26246692069361904,-0.17575399813392126,0.03444021247894685
860,1.4752513620991972,-0.4774296699056475,8.790946485003813,-0.3027769241814261,-0.18182435845485312,0.008680156037064918
880,1.6773954284745831,-0.5769825964292338,9.121781004705353,-0.3263881853359475,-0.18309612578589593,-0.028117651209378473
900,1.8142853201747502,-0.6889544340978396,9.446440303247542,-0.3362193503404557,-0.17660577595922394,-0.06836842311676392
920,1.911515594347331,-0.8175651575493822,9.755356162521792,-0.33193390599304906,-0.163405615254918,-0.10956235660093003
940,1.9746690013388306,-0.9563967653258569,10.024620111503628,-0.31336723646801923,-0.14934545371995894,-0.1535588623355767
960,1.988023153062844,-1.1114399247065008,10.2915381244677,-0.2769688855274874,-0.1353619355463214,-0.20396940990747597
980,1.9643064035631623,-1.228219286610522,10.469878600602165,-0.2322929162532091,-0.12177518054923434,-0.2435033725252674
1000,1.92611190781773,-1.3179044919883376,10.582153593990546,-0.18116093412961712,-0.10619349118049277,-0.2757615789694409
1020,1.8794077506372948,-1.3783878391069933,10.626338028895388,-0.12862712734615575,-0.08896844284310318,-0.30093992668515923
1040,1.833970935997881,-1.4157636526951431,10.625083108647512,-0.077961989307216,-0.06885356260387614,-0.31988269666162056
1060,1.7858790034807588,-1.4390724785631261,10.587800865085024,-0.029175024918649234,-0.04912534752249019,-0.33492880342506914
1080,1.7415506404144376,-1.4503754463177594,10.514701316103842,0.016237162652142933,-0.030512219673190056,-0.34788390738533786
1100,1.6865273612462988,-1.4541205686273435,10.41050533852468,0.0575327275004279,-0.013900435200191326,-0.35980882687045973
1120,1.6222179767083773,-1.4501090515288777,10.283268775483856,0.09167357760031027,1.6602614658143284E-4,-0.3693869078265192
1140,1.5411057714690595,-1.442429932331277,10.153540205131018,0.11936540686801425,0.014456727669568363,-0.3741500380732961
1160,1.4585569183258202,-1.4273312763556003,10.01723740914489,0.14048827461023625,0.026970553255310004,-0.3729793076897411
1180,1.3863953893677783,-1.4056345488132007,9.87384128033654,0.15498067218541484,0.03695310286111823,-0.3673577137541064
1200,1.3122041108131952,-1.379337375288403,9.7233142915902,0.16431457906403402,0.04638819414075947,-0.357924667614991
1220,1.2502050232105106,-1.3542070725762965,9.593766413399008,0.1694302956473483,0.05061230935625717,-0.34807654255184817
1240,1.1942084498009553,-1.3246571778433909,9.459026736057565,0.171847683348346,0.05212324808999969,-0.3369300820243855
1260,1.1381891600852365,-1.2894961355621728,9.327427088674948,0.17037868903928283,0.0510467171990834,-0.32461433338619855
1280,1.0741253296664062,-1.2472224059101271,9.198250487765488,0.16529784862929425,0.046189447651535785,-0.30945311267346765
1300,1.0196459742946626,-1.1983799126600037,9.071307301667801,0.15426192618208878,0.03986086614677606,-0.28913257599107167
1320,0.992722384745042,-1.1515581346416806,8.956136157406267,0.1366138106755005,0.0347313039559816,-0.26379666701680893
1340,0.993750258714638,-1.109756292895922,8.87130514083261,0.11371117249131203,0.029576649495654486,-0.2370091680115597
1360,1.0179048087948592,-1.071921506695079,8.808341409390172,0.08850330951553519,0.02222736248509511,-0.21314416170340553
1380,1.0544095135494644,-1.035956005778496,8.775301167728255,0.06242801932216533,0.010190506487946576,-0.1935438765591346
1400,1.1035407660399217,-0.9984895223836846,8.770949946288084,0.03728092717532497,-0.0035448514699014328,-0.17682647031572898
1420,1.1670823710973781,-0.9597485594221797,8.78396084487976,0.013684513885847892,-0.015304708508518604,-0.16358598320556106
1440,1.2386060881817653,-0.9202103060414123,8.81055184289208,-0.010349345250077255,-0.030159137885412437,-0.15518041039689393
1460,1.30194706981302,-0.8937781408653814,8.840653215138513,-0.031495543237222055,-0.043734676259817036,-0.15188984384096363
1480,1.3678797590753442,-0.8770072595304557,8.888663597742504,-0.05226422962924401,-0.054040008662590726,-0.1519090091342435
1500,1.4258622858855055,-0.8716080028703815,8.959269980522917,-0.07028931404759244,-0.06269498928487907,-0.1562865994776016
1520,1.4652022801931606,-0.8745166190423783,9.03578245834138,-0.08352800583045326,-0.07278970893947811,-0.16444006451871993
1540,1.4884952171934436,-0.883204288118358,9.112442419600043,-0.09334832738063603,-0.08256937349185631,-0.17186259467371706
1560,1.5042222567829588,-0.8921616753561099,9.18765888549096,-0.10037295719687368,-0.08907757912352915,-0.1757484390855809
1580,1.5194234099308204,-0.9008716388006005,9.256321487905115,-0.10470642198965391,-0.09175321782854208,-0.17650621848136266
1600,1.5389043283172463,-0.9080927147085686,9.312015511089836,-0.10695637975257771,-0.09306159773130566,-0.17622576084890837
1620,1.5589374279797212,-0.9141027683642908,9.35913707716545,-0.10802652298010672,-0.09435125666868566,-0.1760484754872757
1640,1.5800847590841276,-0.9192342304138137,9.401515728520609,-0.10778203578291103,-0.09530058610371013,-0.17596749694575173
1660,1.6003034451293356,-0.9228550278967786,9.439467256858572,-0.10577362150074544,-0.09525249121074232,-0.1761998477990606
1680,1.617536387408997,-0.925664640691329,9.473820432181318,-0.10147622963792623,-0.09400942774384952,-0.17640126881773074
1700,1.630523174597036,-0.9253585010478621,9.495375368299884,-0.09598413589089339,-0.0927238261099502,-0.17617756781006372
1720,1.6433406823806846,-0.9227595559459587,9.504244188889226,-0.09016140139481815,-0.09052247440054502,-0.17517059461169993
1740,1.6559071583762304,-0.9185102079158487,9.504796880878132,-0.08481512729109925,-0.08764271040764582,-0.1739184377486739
1760,1.6654780019872584,-0.9134584853781182,9.500306729838687,-0.08090005833422441,-0.08497621152465464,-0.17276741145340588
1780,1.6761913393946508,-0.90671560867174,9.49326894655926,-0.07691801881550678,-0.08177308554293851,-0.17129987328035684
1800,1.6844081991458433,-0.9006673044859781,9.488892068868786,-0.07393588730812316,-0.07910259214061269,-0.16978035709389191
1820,1.6914954950797663,-0.895389674721168,9.481943892720606,-0.07143905957155482,-0.07685788852483232,-0.16783306939329345
1840,1.6999957665548402,-0.8894822610473444,9.47347149651676,-0.06921236347555718,-0.07402272314658981,-0.16455408784268583
1860,1.7106427756799876,-0.8824922501149367,9.46952946894361,-0.06762145999573956,-0.07209773185489834,-0.16111554562383773
1880,1.7259203812791384,-0.8744628286600952,9.466299508567317,-0.0663390323582765,-0.07049649895899772,-0.15786931417460437
1900,1.7416175391318602,-0.8659230482439899,9.46466081000423,-0.06482222147007502,-0.06935726978224115,-0.15530638606647587
1920,1.7576149071311684,-0.8568770014150009,9.462603583177374,-0.06294276379997943,-0.06835910642221511,-0.15305387165255038
1940,1.7661014078903177,-0.8511160946955643,9.46111781635662,-0.061678761974278504,-0.06773389118136933,-0.15164217290347243
1960,1.7815447752009357,-0.8410675027561764,9.457110270006714,-0.05979836674246672,-0.06624964706635465,-0.14900142179636958
1980,1.7956785545126064,-0.833745112886413,9.454892127439656,-0.05880972118161812,-0.0647518419581051,-0.14705209615577025
