0,0.9069140950838724,1.0037793450885348,9.50343788994683,0.10265374432007472,-0.08868319251471096,0.043411957720915474
20,0.7203686800267961,1.0591309004359775,9.62664826711019,0.044478470304359995,-0.037639268673956394,0.04714038357552555
40,0.606492661512815,1.098024377456078,9.769100739405705,0.027764289339896865,-0.007973473877287827,0.06341070545694003
60,0.534512027659837,1.1203056503744686,9.741671870736514,0.023395982266211993,0.019214870243826333,0.0838206421912593
80,0.5661370204318137,1.1408276813370841,9.67530904497419,0.01829494716366753,0.03369963164663031,0.09205480882277091
100,0.5702062734961509,1.156507077217102,9.608243923187256,0.008221603471320123,0.04187680434435606,0.08794948231428862
120,0.4775173618490326,1.1562989580220189,9.577435723666486,-0.003260478515836314,0.04950630173472495,0.08851223589916682
140,0.40809682939399144,1.1429323960434308,9.554459066101998,-0.01502573479735998,0.05773153119353634,0.0986067864648772
160,0.37692430531731935,1.1233936652943894,9.515024597580368,-0.025355623187056767,0.07155602996715822,0.1114708464844404
180,0.367138984880024,1.1048050297469627,9.475223378437322,-0.04049021387955446,0.08271554355486864,0.12455296187048279
200,0.3747407378163189,1.1001123474703896,9.47357997894287,-0.05553819041104159,0.08793191055042876,0.13730969658742348
220,0.4222077473152277,1.1044950710267436,9.501336136642767,-0.06581403482919179,0.08692138891058918,0.14628797265872054
240,0.5313809921869259,1.1287033608026593,9.565976998516332,-0.0724314809874762,0.08336112210004826,0.14928820226167408
260,0.7043440343042755,1.1726432618887528,9.639849870101266,-0.07631246629474765,0.07733878516592085,0.14407774299869072
280,0.9009557604842736,1.2195517827824849,9.800225606778772,-0.0797449024214326,0.0720695292982235,0.12509038104728712
300,1.076911361497612,1.2511582544216744,10.041801452636719,-0.0661636273134858,0.05890903066521367,0.09514837040780828
320,1.291725404061404,1.2762870072460861,10.394040587994692,-0.011909730435121241,0.029066727374405632,0.03348883197863968
340,1.387025925663433,1.2894329493548595,10.582695656082256,0.0603363592277414,0.004747580969706178,-0.031527472146767745
360,1.3892659030464147,1.300263882836988,10.624801537298387,0.12713504503556197,-0.0031577825381029997,-0.08968809185129019
380,1.344531695612712,1.308150906138625,10.59327467818933,0.17850831363770106,0.0037442687598908423,-0.13530696787374333
400,1.2613770052959479,1.3102578144324453,10.5281981641089,0.2191098689051258,0.01734834687637263,-0.17096042768670278
420,1.136068863999723,1.305593437655678,10.387534634361055,0.25104454586571134,0.032551334602446115,-0.19800246890384557
440,0.9761690179528519,1.2979725627975667,10.184827381276829,0.2704914143118499,0.04774666044059244,-0.21503749231304875
460,0.7940656885958444,1.2804143401292654,9.944391711552937,0.27573974447933813,0.06184541999887771,-0.21947037291545898
480,0.6142990534426644,1.2498245569420796,9.658597595551434,0.2663699091137067,0.07138709589158751,-0.21364272391998812
500,0.465447208024825,1.2195168813725688,9.420628958153275,0.2473166259461443,0.0700117266717156,-0.2024143700694384
520,0.3192561142210087,1.1891272455453872,9.209394800662995,0.2204974454166156,0.0631752194699154,-0.18367177198683335
540,0.192546969253096,1.159819768447625,9.02802649401782,0.1874329992095131,0.054722979896612005,-0.15465034875945238
560,0.11569162174641012,1.1346101038536782,8.865997329606849,0.14820094033434467,0.04626148904701379,-0.11763219426236099
580,0.09905957822023784,1.1107786936593838,8.719599009537307,0.10100234342027135,0.03694686742755203,-0.07991115399063795
600,0.11910470256337985,1.0863885068231158,8.627868138608479,0.04765273517668469,0.020969706486784926,-0.046032930574645956
620,0.15583347423275407,1.0661628691616205,8.599322608999303,0.0018371054161030755,9.753792411845508E-4,-0.020592075213430355
640,0.21551601722690542,1.04412131834386,8.586663700751405,-0.054016759096550994,-0.020977709189564712,0.007934754090592154
660,0.2897626625937477,1.0257799648072408,8.59874526573264,-0.10506949730873769,-0.034843682835344225,0.03132284320789673
680,0.4094977561486098,1.0061275063895843,8.64868575334549,-0.15582291420399946,-0.05065727739965438,0.050611977913075874
700,0.5565960013342716,0.9869285336606306,8.755174707876494,-0.20259872360086412,-0.0672314555092383,0.060770783077427885
720,0.718951476971461,0.967221913593156,8.925927842574263,-0.24553338193722948,-0.08022239677796753,0.06341960207648897
740,0.8550297617957502,0.9499779473809362,9.112018834425793,-0.27186340571518286,-0.08703155108896297,0.05944106321402111
760,0.9994409390848589,0.9312924273805664,9.304885487451163,-0.28540027438191407,-0.0939204429815397,0.049165892592493196
780,1.1414442500744302,0.9074102982649437,9.484027195710402,-0.28825394864731396,-0.09891981993515331,0.029638753589242697
800,1.2359020514931116,0.8760593418512974,9.642823734082976,-0.2832449428816172,-0.10167161849405695,0.002903621575260932
820,1.282817464948651,0.8399425141535197,9.786092365941693,-0.2722012108602203,-0.09991921867582608,-0.02544954121030889
840,1.295959534314341,0.7921132827471183,9.913665653299807,-0.2547655077294225,-0.0958419191620358,-0.0515901979958281
860,1.295350057909041,0.7390077930121195,10.007787447349697,-0.23102737749184557,-0.09182501447267037,-0.07541792957811337
880,1.277037591358315,0.6860779786354875,10.060631022387987,-0.20488741339586217,-0.08413318949496398,-0.09582839133728245
900,1.2507909767706715,0.6366771208297152,10.088631736688896,-0.1792604200053216,-0.07325993457012597,-0.11234604009120018
920,1.2155887569457273,0.5928710784733765,10.09366880689706,-0.15387363093287937,-0.06301105748605365,-0.12625060079061962
940,1.1654695023107402,0.5517780429523218,10.086197288606344,-0.1292968892548018,-0.052749680586824804,-0.13727609180321002
960,1.0965458980267726,0.5096216628225005,10.05218625248377,-0.10197304322965789,-0.042129308122781164,-0.1446602280034061
980,1.0338462085080025,0.4779538909716559,9.992222483522198,-0.0819157368490321,-0.03071890234330146,-0.14561108700825554
1000,0.9819696190382313,0.4513512820653293,9.928929924964905,-0.06685991267530823,-0.018837313709335158,-0.14250472510471976
1020,0.9364186233357567,0.4300706083952533,9.864098355103444,-0.05492575437418666,-0.00907731386976343,-0.13754338121716975
1040,0.8913371897400032,0.4118319783446401,9.794516343294188,-0.04542497665821683,-0.001280850923057039,-0.131083279989963
1060,0.842139208598964,0.3954188327334787,9.716878998225138,-0.03821573163979138,0.00477519156209291,-0.1229852229116493
1080,0.7933207172012967,0.3831923989570729,9.626303492640165,-0.03506997163692539,0.009687244635797837,-0.11210489280066649
1100,0.752405439346561,0.3764928637466307,9.533929571181142,-0.03744352152206964,0.013792658539074534,-0.09833947920634326
1120,0.7242601563240849,0.375758878761717,9.449295952722624,-0.045064651535559865,0.01591358568722955,-0.08231153832929959
1140,0.7103628216142905,0.3777506475475557,9.372639263944423,-0.057622351350034885,0.01803485522334008,-0.06415241595575626
1160,0.7169125492725459,0.37829284778714306,9.312938649784073,-0.0745010517460146,0.020111888361155645,-0.04495188874722494
1180,0.7448116804467353,0.37726979825737667,9.283648043012423,-0.09267732751993615,0.02006782540225581,-0.027604367571534137
1200,0.7977979726139268,0.37711640232515453,9.273332161855215,-0.10992336447345977,0.015976256172106875,-0.012913048330393403
1220,0.8510937945385858,0.3799177244431515,9.264440659263261,-0.12423444036732263,0.010241099822596012,-0.004813944668162829
1240,0.9059173476320934,0.38373744893461875,9.259942679489196,-0.14003824376580423,0.004116404060285298,2.5166439643373926E-4
1260,0.9672095273614203,0.3859996362436771,9.268504476730994,-0.1587209934056943,3.120787894830596E-4,0.0028027480652982905
1280,1.0375297760486646,0.38197608948269934,9.304437682117412,-0.1776147540722774,-0.002075990606753237,0.0014125218118348317
1300,1.1076630047435445,0.3727277264016393,9.36313005206741,-0.19339877962652663,-0.00467140189041253,-0.005984241190740717
1320,1.1616153970496252,0.35642126237057686,9.438909115712287,-0.20389361643471668,-0.008780386337914382,-0.018015596229226275
1340,1.2000135028533665,0.33506802602175845,9.513200553489034,-0.2083852148816385,-0.013757018224943003,-0.032614010677735464
1360,1.2271326529636832,0.3125007888968627,9.577336481517458,-0.20970110048365834,-0.01765266833002204,-0.04813330824701832
1380,1.2435009518311386,0.2876473474587319,9.633368786049898,-0.20952192563469138,-0.019677038327092715,-0.06385721187673943
1400,1.244686713535177,0.256059197982217,9.695704767687452,-0.20805181906538328,-0.020225034162969044,-0.07900370704334067
1420,1.2369228840077147,0.23126933838865413,9.747163000074096,-0.20384469661661175,-0.020607245694222905,-0.0932375164295181
1440,1.2181102218432038,0.19889181476193354,9.807718687363574,-0.1950257902572048,-0.02090342429103141,-0.10777572504908627
1460,1.19010122237339,0.16856946335639805,9.845606385469436,-0.18528899230159973,-0.019235544788728777,-0.1186322478724954
1480,1.1605367007394212,0.13780028908666664,9.877415501365537,-0.1756297135980276,-0.01578413769886155,-0.12703224607531938
1500,1.1279842626906678,0.10790807460041645,9.911609910912327,-0.16476609797444491,-0.012000422211524172,-0.13340259433116208
1520,1.0952762535150844,0.0806476791547492,9.938272151809473,-0.15174151276546466,-0.008789167560723562,-0.1378418417096747
1540,1.064176950818134,0.057245515630273976,9.952352512863618,-0.1376948567658819,-0.004611644316597287,-0.14049579950765695
1560,1.0340946327683924,0.03858226823067525,9.953170209750533,-0.12363567918164335,3.3362611393386035E-4,-0.14131573520353413
1580,1.0078227826082262,0.02519205715191079,9.942524844849551,-0.11070450696678125,0.006039579720509434,-0.14045505968345054
1600,0.9858426538703497,0.0163270228374863,9.926706517251526,-0.09941543818244898,0.011979043858179755,-0.1382131569574462
1620,0.9682011138220004,0.011556689920610782,9.906558669116123,-0.08943558419323161,0.018145984835033473,-0.13495118778790852
1640,0.9561260514248195,0.010528105954151778,9.881658555851097,-0.08149017409197681,0.024889731435645705,-0.13095767771301325
1660,0.9482587138211409,0.010305627432021805,9.866804654808606,-0.07442801526888027,0.030973461105638894,-0.1270621834836407
1680,0.9425184368264032,0.011999429566501836,9.851908054337965,-0.06505464488949292,0.034877495610064604,-0.12346546143950309
1700,0.934703658728418,0.014837437561196055,9.829030007166706,-0.05682272790150164,0.03762620808242672,-0.1203508530542992
1720,0.9305041945063846,0.01958140762232191,9.799965122912793,-0.05065129114040801,0.04067140408619868,-0.1169050012252802
1740,0.9299192773341495,0.02549536914602549,9.774327060450679,-0.04698568127012902,0.04434225532659924,-0.11375909054855624
1760,0.9270552965042527,0.031995601008482144,9.759017399048508,-0.04431597785213665,0.04682944383279739,-0.1111254978701524
1780,0.9212382233762968,0.03929934716771966,9.749530285637729,-0.041010035675393346,0.04791767722467122,-0.10872286722378292
1800,0.9162558685890886,0.04829035407902731,9.735426597064677,-0.03746076567200224,0.04839472781981782,-0.10624231023744274
1820,0.9127628778369985,0.05802698461088858,9.717639465140016,-0.03517667124213513,0.04948782271755572,-0.10366631889990813
1840,0.908892456745756,0.06725774823835151,9.70370353740525,-0.03434448627953555,0.05071260018186374,-0.10121438310606526
1860,0.9040476203354667,0.07746411165469412,9.695448083514616,-0.03403583358169831,0.05105143615091158,-0.09901767325588795
1880,0.8996751277399092,0.0866312804710507,9.692532491374326,-0.03335679892885995,0.05101332301606557,-0.09669570285863206
1900,0.8972538797013423,0.09467879307553402,9.689059643211513,-0.03255947212780918,0.0506627911516313,-0.09508968237367971
1920,0.8952132411811823,0.10544789896901156,9.68173585320247,-0.03195588980963141,0.05003696098495938,-0.09350372223081613
1940,0.8913997625222463,0.11436972748054196,9.677309100213519,-0.032079916360162865,0.04962189753891159,-0.09241582155849325
1960,0.885297206712961,0.12254616578848117,9.679277748538372,-0.032007542622427776,0.04879936931275663,-0.09131841053268837
1980,0.8797350628249762,0.13060840307274996,9.67904903417752,-0.03133294862238,0.0478037082077073,-0.08992967310499538
