0,0.47092072665691376,1.2525952756404877,9.999206900596619,0.31275295838713646,-0.1146543484646827,0.17608902230858803
20,0.4974156338721514,1.396146759390831,10.031689405441284,0.19843676674645394,0.019269367214292288,0.21307367365807295
40,0.5096601724624634,1.4257072830200195,10.48750358581543,0.1411814652569592,0.11745611757040024,0.23570388972759246
60,0.5053491393725077,1.4569702762545962,10.820263255726207,0.15751487368040465,0.15893299448670764,0.23848971634200125
80,0.4965868715832873,1.5409322686311675,10.674018348135599,0.20117300159366028,0.1750001436690005,0.229769584972684
100,0.5035895334214581,1.623578920656321,10.432118960789271,0.23273855258653664,0.19122328822101867,0.22430990514706592
120,0.4765668872155641,1.6793289435537238,10.114840164519192,0.23666130471157662,0.21783430286143957,0.22712944264997514
140,0.43585672484567534,1.7100071741984442,9.80561566719642,0.21949315212237147,0.24394233834285003,0.24123506866968594
160,0.39544070560536154,1.7103392979870105,9.490019203865366,0.18588433919908248,0.2695595345472636,0.27057013895413645
180,0.43071914728684924,1.6931310421154824,9.148531448693923,0.14283012594153852,0.29897402401691603,0.3075513688870418
200,0.5848691783050138,1.6631123992834198,8.774840617447756,0.09008874840448412,0.32652970989433566,0.3325878900758336
220,0.7650976670886745,1.6338478277639015,8.43538259230938,0.038892133219033176,0.3336490153805497,0.33402340083392623
240,1.0027376990765333,1.6233899275461832,8.07910831315177,-0.005045870478664126,0.3245465739142327,0.31538566590419836
260,1.259843914761348,1.638744495611275,7.644605931455055,-0.05279301815723951,0.3185005584253674,0.27884992348870874
280,1.5377596556743394,1.6224491215143046,7.077106325150483,-0.1331999283283949,0.33276981707723413,0.22809161048871082
300,1.7475168630337485,1.5439401966734574,6.639270763038299,-0.22874145333010418,0.3328099829646257,0.17701191098357622
320,1.9471162504557034,1.4320655456217735,6.347860687935347,-0.3419292483586764,0.30379387766014837,0.12257974669067324
340,2.115540530468809,1.2976249203034869,6.216486707989969,-0.4551312638421173,0.2721096088165698,0.07144958943077555
360,2.3000897678921555,1.1311802167155138,6.1487618878743815,-0.5708631734520971,0.2442221749670707,0.023131051802306207
380,2.5055453599672073,0.9103735743987339,6.19094833551998,-0.69418171239028,0.2225971957553684,-0.0244987980566091
400,2.75718887263142,0.6275937627124436,6.387320116729311,-0.8200806176618618,0.20612497377921554,-0.07482070696047123
420,3.052250709332358,0.26650648570378843,6.843580221231462,-0.9350996453398734,0.198108489101941,-0.14314844619399042
440,3.3159690799632218,-0.15388645025430828,7.496694725725339,-1.0123129180001635,0.1926085804238595,-0.23652270068765008
460,3.471963680810151,-0.602582001213714,8.227719579196833,-1.0444104586027025,0.19250696654594743,-0.34697985573258905
480,3.5289310180665097,-1.0435527374433113,8.93318610324635,-1.0406550119382025,0.21053608089205947,-0.45117442605851016
500,3.5598431450181773,-1.470325368944378,9.621124609912346,-1.0083195640838571,0.2487504725211433,-0.5404731698068125
520,3.5837403961602563,-1.8717078495633985,10.291849798597651,-0.9415470979543864,0.28980408611476693,-0.6254510238441989
540,3.593278561320796,-2.2908626621679327,10.981587041873025,-0.8176357851072423,0.32654932773946926,-0.7288686876074464
560,3.5659294518305265,-2.633828576083513,11.406021099424663,-0.6685369542225245,0.34735877833309325,-0.8388827753907189
580,3.447684977149951,-2.936313789092587,11.63233436137982,-0.504375050580244,0.3617764119242812,-0.9600607263529864
600,3.2112728641015957,-3.190719592158657,11.670224544564373,-0.34566326539562753,0.38147347419711936,-1.075441001784576
620,2.8309594446786006,-3.376792748476663,11.571107342923744,-0.20934387615029645,0.42121377543449173,-1.1607965248273722
640,2.360170756714342,-3.4920462785281714,11.393942596786742,-0.09664775369067986,0.47577046937124334,-1.1972715014222075
660,1.917052101973783,-3.5571354250609875,11.162829416907307,-0.006886455355720087,0.5320299308069728,-1.1872182630476626
680,1.5520742801955965,-3.578286288918223,10.887835402395444,0.06192078523653767,0.5813369316249665,-1.146001323165747
700,1.2768829117666711,-3.5637316138601998,10.600924771418315,0.11254543824524608,0.6187079242811477,-1.0892907084090655
720,1.0789042821833024,-3.5240431143014526,10.314035888012175,0.1482319154131871,0.6413885908369535,-1.0306358219818976
740,0.9004181645725663,-3.46627994120752,10.053051987339831,0.1763886671561857,0.6518650127920634,-0.9749094812830467
760,0.7130488846627877,-3.3934775604218057,9.751367896310455,0.20065744240662153,0.6536676351016364,-0.9116479571513785
780,0.56863236380741,-3.326719241573211,9.460379280688896,0.21305371058047,0.6489692928418977,-0.8529802735601725
800,0.45520522462832463,-3.259253821919212,9.161916747407325,0.2126822433019259,0.6400566354831568,-0.7932141927738551
820,0.3660998858894934,-3.197034233030589,8.88597365222077,0.20094715941916494,0.6285226942149593,-0.7351170404896359
840,0.2787582643876045,-3.144708964599018,8.65065949169207,0.18276923884177346,0.611943246732498,-0.6804471144415224
860,0.19046461137974363,-3.1019002694029654,8.438300001894103,0.16269128064342428,0.5883244332972537,-0.6269984374246612
880,0.10895365631658134,-3.0672042739198924,8.219029655893701,0.1390665360818525,0.5624251010326239,-0.5733486638317438
900,0.025855911910654075,-3.0446494035122376,8.013909511577328,0.10799163489812805,0.5360031632646438,-0.5182135504124666
920,-0.0551295698522345,-3.034534003164031,7.826968267156841,0.07031556216901855,0.5065434016679463,-0.45892983439966645
940,-0.11141162166448752,-3.0332923752073313,7.65351978916862,0.021333091709878026,0.4802299539760216,-0.3948632087006435
960,-0.14307823032611097,-3.04451146986185,7.540223365225077,-0.03788047842681408,0.45782172574539376,-0.32741992115607543
980,-0.16093464819530007,-3.055250674126541,7.510485145465084,-0.10282281891322963,0.43583028475836955,-0.25650920092109775
1000,-0.1232014335466427,-3.0551809986859344,7.573846541407132,-0.17886145865729589,0.4137406774929592,-0.17112189877922612
1020,-0.034906984034775275,-3.0479497812652956,7.722237330194421,-0.24416403980337242,0.40550276941471597,-0.09504782290124908
1040,0.12170496094529029,-3.049122393487286,7.902336564417581,-0.3015297108909467,0.40730474607927813,-0.028143000354803663
1060,0.3325295712014562,-3.070864586257621,8.092579511306472,-0.3494332550899115,0.407803626027751,0.015344546504693801
1080,0.5261616001428848,-3.113439418969864,8.305357578672009,-0.3848576472883814,0.39732910156710427,0.03133230008226767
1100,0.6503403583298917,-3.1656026687004313,8.524926982744994,-0.4056821171580824,0.3818899855227364,0.03262238594688985
1120,0.7256597833033175,-3.21455275670599,8.717772745815209,-0.41570656620564017,0.3717723196259257,0.03322645818558067
1140,0.7836616645926542,-3.255061487597761,8.87371624790843,-0.4190167499535373,0.3673658903280118,0.03975178130112016
1160,0.8595961506441392,-3.2887184549380772,9.000227705525738,-0.41835012871076976,0.369485452908347,0.05011047342005313
1180,0.951958582738472,-3.3197293138457944,9.114452145063348,-0.41252414077021105,0.3726662490598512,0.055843315637891286
1200,1.0312332770093882,-3.3461339192702972,9.206902408491608,-0.3992920905393199,0.3718090341006109,0.05287662961115989
1220,1.073418166744941,-3.3653611294003185,9.274304796633926,-0.3804471857395923,0.3670881097562827,0.04400858844764263
1240,1.0873342230441232,-3.375784877183683,9.31883824038794,-0.3561913749148302,0.36065933818565954,0.03404201160632439
1260,1.0880047161542024,-3.3778931619995003,9.332956889686516,-0.33498955549470877,0.35688454873779424,0.027856598744388224
1280,1.0881949339465666,-3.3762855941762604,9.330445542796108,-0.3159849878821961,0.3540012527407924,0.023668867153002253
1300,1.0854641660482864,-3.372923200894217,9.324206115858463,-0.29922255019618943,0.35141580460005795,0.02003850151256271
1320,1.0765171422007944,-3.3663547623600136,9.311420959113784,-0.28378730500804267,0.34786205229014794,0.01647206576931122
1340,1.0614291611703282,-3.3573559478805826,9.30004848245108,-0.27010748695074155,0.3441347130748909,0.012632664709182626
1360,1.038747490211774,-3.3458510196724354,9.295929626143607,-0.25591597425514384,0.3403090252779887,0.00904080746687054
1380,1.012302022952218,-3.329352344047318,9.292071073963521,-0.24057196743964043,0.3332799420196953,0.00569540791027577
1400,0.9883044398526047,-3.30633295574696,9.275427027685788,-0.22566030774012416,0.3237789904473403,0.003094667286079909
1420,0.9633575589908127,-3.275111167758857,9.259339314791825,-0.21367806918067775,0.3135435223133148,0.0012106235867967875
1440,0.9422714818626364,-3.2429216505172196,9.254770619183596,-0.2053978517003269,0.3058298547790348,9.849411672604205E-5
1460,0.913591859144249,-3.197627565839069,9.265057353501405,-0.1954859894837399,0.2971718990697368,-8.127929110945916E-4
1480,0.8887258985201035,-3.151060656623307,9.281663821036643,-0.18530215032663036,0.2883566377593993,-0.001367380710782809
1500,0.8748776255977655,-3.120249557461161,9.287108633131682,-0.17544491100314927,0.2806373961125713,-0.0010449721057843083
1520,0.8563060214635385,-3.070457464232398,9.281904353979186,-0.16347072398914905,0.27313055074035625,0.002267850066249649
1540,0.8484328633658411,-3.0336282822113816,9.283468065313292,-0.1561432255036456,0.2697090173983118,0.006868872239155527
1560,0.8456068507968469,-2.99788993400746,9.286949117633723,-0.14943764341123553,0.26779517594840396,0.011688104919223508
1580,0.8459934933871099,-2.962720730938262,9.28763441935432,-0.14313662494208887,0.2659632387219992,0.015584684237247617
1600,0.846425539012003,-2.928070566668495,9.282697538046863,-0.13788971359350982,0.26320104948680434,0.018033763069218695
1620,0.8459332215685403,-2.8924034454541627,9.275195786523666,-0.134542455195785,0.2594129404782312,0.019429974198597027
1640,0.8449101054391389,-2.855994886374823,9.273344693907388,-0.132884815728067,0.25605331294853784,0.020245178498191713
1660,0.8417735694810221,-2.8216541161947912,9.279544135283361,-0.13139880671740586,0.25361925864083673,0.02090232805842712
1680,0.8354016783046692,-2.78877202293658,9.29058445751968,-0.12879298220007657,0.25110311364171095,0.021929497723135516
1700,0.8305238921289071,-2.757160392159047,9.298544835898918,-0.12565013993960275,0.24815747831762172,0.023374453580623372
1720,0.8258837421533165,-2.7230182584257405,9.30805329049723,-0.12143841839199675,0.24448125019997943,0.025127127964713673
1740,0.8272740965502421,-2.694171719281186,9.308448995290235,-0.11825066834620072,0.24164626881574855,0.026236484728101247
1760,0.830918802058376,-2.6657899143245434,9.306923216109862,-0.11600639292850651,0.2391991289964709,0.02660282863006513
1780,0.8326509508808337,-2.6398314398548384,9.309171543205233,-0.11502976205304219,0.23674683396274013,0.025908683368150696
1800,0.831849547494051,-2.615745429401969,9.312861374077645,-0.11434863891839125,0.23411482308991885,0.024559495801361703
1820,0.8285029650958735,-2.5941764665135403,9.31821339379593,-0.11383107152779372,0.23166111820256613,0.023298743013505353
1840,0.823931345979911,-2.572865771017647,9.325865668367888,-0.11303128517264416,0.22976817027030963,0.022418250258271384
1860,0.8184173924069468,-2.5570341859837273,9.331198706342605,-0.11225174634891259,0.22857301263369026,0.02230499342629455
1880,0.8104553130021183,-2.5301698481653148,9.338880094567989,-0.11159613181962413,0.22714781632976155,0.023462148081307532
1900,0.8065136063414309,-2.5079991343622,9.348761607868209,-0.11138018587056293,0.22641079252469953,0.025103572783655652
1920,0.8062570916063494,-2.4858104338060483,9.363854691865544,-0.11107149594377284,0.2258097392930685,0.026392870809531257
1940,0.8079411281999482,-2.464689912901829,9.38441570737632,-0.109241087112965,0.22473728992477074,0.026931823338287874
1960,0.8098728991963435,-2.443806188336457,9.40229023592954,-0.10588201350634335,0.22360506313721998,0.02640205606352538
1980,0.8087972457749752,-2.4219480667174627,9.414887305855064,-0.10150457706002516,0.22235667511083448,0.02499602390142395
