0,0.26225465163588524,0.27183472365140915,9.914782524108887,0.17230980843305588,0.016315603599650785,0.08336915262043476
20,0.32302827574312687,0.32302827201783657,9.95250403881073,0.12973252311348915,0.04610971895453986,0.08596573444083333
40,0.33913478136062625,0.3740062642097473,10.084948616027832,0.1133740571141243,0.06227111234329641,0.08150494009256364
60,0.2940793809565631,0.4025084502769239,10.117578939958053,0.12423975291577252,0.07233883022104926,0.07948739329973857
80,0.26018091436566376,0.4250283611983788,10.055577510740699,0.13759453067692315,0.09389803567106222,0.08399921746515646
100,0.24263015343826644,0.43041924189548103,9.913914914033851,0.13759903822626388,0.1299075821024955,0.09547294813151262
120,0.2705952003598213,0.44143993394416675,9.796386584900974,0.13323843426871718,0.15470654314400203,0.10842622803491458
140,0.3431878898006219,0.47480342938349795,9.633726956294133,0.12548529316599552,0.17233588070465394,0.11487230005172583
160,0.4429145872797052,0.500066975208178,9.431456075955744,0.11523607954995273,0.1939229211444673,0.11153664154140916
180,0.5219368685358836,0.528914952719653,9.139217517994068,0.1015535656903169,0.20919423462696557,0.10081778922302212
200,0.5884213381436434,0.5595196425245049,8.76334993491012,0.07031223575029982,0.22210315920234647,0.09233712243292941
220,0.720431777696634,0.5903106116756951,8.381235417631483,0.015148984666760127,0.2411303404579419,0.09110879223582517
240,0.9388476917431468,0.6083349858011519,8.046125489189512,-0.055992847153296076,0.26930577538330996,0.08378764833101914
260,1.2529734185521018,0.5853512011337698,7.741627858396162,-0.14676730861282794,0.2937843403186682,0.050523660836022416
280,1.498575546763471,0.5405677092246345,7.598455005004758,-0.22978181309891163,0.28106450909160874,-0.0076057210862331215
300,1.6768821900280622,0.4993431695378744,7.575815576773423,-0.3076063768544163,0.24917031580833002,-0.0781119285688664
320,1.7958134724286154,0.44741743522277777,7.6024171113967896,-0.39281904938009876,0.24641297840466048,-0.14334596270708827
340,1.8888174540886324,0.352100694628611,7.837652541186712,-0.48490943711518936,0.2603453764841854,-0.20543309952744782
360,1.985564572518909,0.21629826724529266,8.342475471558508,-0.5496649113453489,0.25652617279458306,-0.27980859585819984
380,2.0251221421784087,0.03604356723803061,9.018431653211147,-0.5614063109035523,0.22297401390941007,-0.3748508731196462
400,1.9613801830393427,-0.19303858437958885,9.62603474925546,-0.523801823382211,0.17492764675852787,-0.4764757895157399
420,1.7975294985546824,-0.42480651465024843,10.147805847478717,-0.4720186050196461,0.13763054113264792,-0.5629423530955454
440,1.570772329365374,-0.6425863416284643,10.652300518046143,-0.4107411928244576,0.12625311231566091,-0.623818481709027
460,1.3257050852569723,-0.8429975240808172,11.079410219929882,-0.3325121895717361,0.12788061901912592,-0.6600543631447152
480,1.1002388112984671,-1.0171719448696268,11.386563585536315,-0.23728103344190385,0.1258775530265423,-0.6815993315839937
500,0.8823252218465011,-1.153715167868705,11.569997702326093,-0.12901736681039136,0.11908630358964382,-0.6938252661088925
520,0.6445555507660456,-1.2556027082819916,11.583649161743791,-0.005946931352660264,0.11274453153361706,-0.6957466386526517
540,0.4484700563523738,-1.303333807753046,11.472967003935759,0.0920300682071219,0.110465429500689,-0.6861259625375369
560,0.2765381280729111,-1.3191971942465357,11.28327381560143,0.174385804203438,0.11179114384279448,-0.6668159133952825
580,0.12931133349859175,-1.305433537857032,11.060299227757708,0.24186088311497445,0.11214184792378894,-0.6407483702759286
600,-0.005706076098390784,-1.2735588435988978,10.795717980282241,0.295581067593182,0.10981552356917158,-0.6093991853619566
620,-0.11980647789350347,-1.2278960474899836,10.501929911867531,0.33303288040632334,0.1075691590256428,-0.5726182086871484
640,-0.21208931664737424,-1.1690925023752206,10.19756303269988,0.35389123707381864,0.10558508025318357,-0.5319908726803456
660,-0.27284064810384406,-1.1012909894639795,9.905696692818944,0.35898450408130883,0.1037629230311987,-0.48873024995184755
680,-0.3023479671181301,-1.029316810015655,9.644871007506291,0.35112332896898785,0.09936744947720307,-0.4457265830552699
700,-0.3166364214008616,-0.959983124868157,9.422237685942363,0.33516494621909976,0.09282321259107351,-0.403421758893314
720,-0.3028741938372453,-0.8883447131514549,9.204938625171781,0.30983283126726746,0.08687238803987081,-0.35526294678915293
740,-0.26594050214081616,-0.8259551773791189,9.047326634142113,0.2854373494302702,0.08267333607510921,-0.32022513871927555
760,-0.22701149127340015,-0.7712569524404369,8.91676420319967,0.2517250780475951,0.07388112829818355,-0.2802268214850934
780,-0.18647150755112554,-0.7179440919447828,8.8088969975296,0.21893232899292567,0.06160822753538665,-0.24830967510251306
800,-0.14450914533921036,-0.6660318720233009,8.732082877958934,0.18318295392982034,0.049036397488580186,-0.21789861794039384
820,-0.08872844160479658,-0.6201973754693481,8.692132047761012,0.14475771700963377,0.041300008612383594,-0.18897663206272922
840,-0.029992810996442007,-0.5858575872134888,8.681271707596279,0.10375085905001595,0.04318374939377944,-0.16128796810450183
860,0.035871466517113565,-0.5677811123477818,8.726388584089916,0.06414115114472388,0.04543765968959674,-0.13834923782432976
880,0.09180030615611391,-0.5651588336293392,8.831542781155024,0.034889757505280304,0.04012393958388142,-0.12197485967708117
900,0.12615057052944295,-0.5754227786780566,8.933706512754803,0.01800731100362315,0.034162500661031735,-0.10735283864496817
920,0.15788220853397722,-0.5872966274937713,9.014891713289053,0.0032149415610260084,0.0354421668802388,-0.09071555883059965
940,0.18966332657896368,-0.5984339235835353,9.107704119334363,-0.010885067634553332,0.04338462227060143,-0.07300996066421539
960,0.22097238705882544,-0.6056913678711162,9.190799924146525,-0.020234004346818865,0.049327540385265704,-0.05797120612232557
980,0.2792770244089174,-0.6013805571828543,9.299618776105804,-0.02822424670520388,0.05539985570171273,-0.03816161722657673
1000,0.33362100946268214,-0.5873887111380985,9.368400551559128,-0.03325530039214193,0.060353441968375304,-0.025413998755565496
1020,0.38366962325119913,-0.5718351129349543,9.436115666746103,-0.037785185846077575,0.06597907702004949,-0.015504047030145015
1040,0.42980831871916364,-0.5575873657978533,9.498982832756214,-0.03994855099294708,0.07062388507330178,-0.00852629111966852
1060,0.4659491441547189,-0.5463604262531299,9.547951288896376,-0.039974090747654574,0.07304976480475944,-0.0035749854598816663
1080,0.49747517239511685,-0.5348482474151036,9.579486507026667,-0.03967554210737515,0.07556437005058685,8.463991795446765E-4
1100,0.5273484220238974,-0.5249058239513527,9.60930517630006,-0.04051511943397867,0.07938464448651583,0.004894099254819008
1120,0.5562575897464525,-0.5159630778199162,9.640728121772893,-0.039805071551651736,0.0817771421360567,0.006799033930860541
1140,0.5753664365137564,-0.5093476488264893,9.665911134419792,-0.03624485015098665,0.08176783249645965,0.006756030078202899
1160,0.5873371344879739,-0.5040386581570847,9.672354571021453,-0.03179908278095585,0.08198886080176435,0.006023275112905061
1180,0.5905476380562045,-0.4995862789375266,9.66726712177402,-0.029091287225715277,0.08325248690677288,0.005478326906690124
1200,0.5897480732105809,-0.4975908315810422,9.663782766621567,-0.02801416822072519,0.08535345985070551,0.0059234155597010325
1220,0.5929131573605204,-0.4957929645588774,9.661862952787125,-0.027921893749155564,0.0869408178597711,0.006849712174489886
1240,0.5964913736663613,-0.49350553382845486,9.664946755051028,-0.027577161056779362,0.08821668212676384,0.007251321161896283
1260,0.596003177462279,-0.491326462945809,9.66490021231269,-0.026733184649543277,0.08790459045536846,0.007159534280865707
1280,0.5924896036094133,-0.48805582412862053,9.66119957586375,-0.02561927369201269,0.08729330781526765,0.007555631934195941
1300,0.592143930271547,-0.48518433140011763,9.652987593387286,-0.025668286691504366,0.08764532205434201,0.008667419248823886
1320,0.5933020344464541,-0.482141312362963,9.644319853480782,-0.027331438449205405,0.08884387336649015,0.00982008996008074
1340,0.5955063844539903,-0.4798225862871517,9.645527888902208,-0.02976161918613467,0.08915728293824941,0.01039206986844709
1360,0.5952610921208149,-0.47888374488840824,9.663268983831436,-0.029843634940073808,0.08728917725715957,0.009921520522805632
1380,0.5932031959663853,-0.4791477954956331,9.66751790703554,-0.027659174756746733,0.08416300279023735,0.00915090450622115
1400,0.590927277162723,-0.47887040487772914,9.665089212474818,-0.026900591454890523,0.08235347715878975,0.009003996086276042
1420,0.5892818178149433,-0.47743193636235504,9.666653145463094,-0.02739194357772502,0.08191704190327366,0.009474294090321883
1440,0.5903905698944469,-0.4760293999904303,9.673723398970973,-0.028125397107357477,0.08173183894809966,0.009723083380658602
1460,0.5901664179284903,-0.4748696175859448,9.681117176250842,-0.02772747684046253,0.08073188640967864,0.009395045692020272
1480,0.5872177733277175,-0.47326692604940057,9.683889023591403,-0.026765293997130932,0.07914229862632068,0.008787840361211332
1500,0.5820559689669105,-0.47220440613545056,9.68132360876818,-0.026398882797892712,0.07857099141929359,0.008658046826220504
1520,0.576165600319544,-0.4716228054384933,9.67996200267375,-0.02732173808583882,0.07881800717144254,0.009194170921236684
1540,0.5712216659530218,-0.4714658761931297,9.683827291991083,-0.02834949737572275,0.0788316943746565,0.010192777742683392
1560,0.5702395517618071,-0.4720175145004463,9.687925628874689,-0.028842229356297697,0.0778464576412001,0.011063021334785974
1580,0.5705847337703801,-0.4727405975277678,9.69281843589069,-0.028510244618550697,0.07598167467719143,0.011173303528556418
1600,0.568581312087201,-0.4734679565629886,9.692823623189035,-0.028166853136983735,0.07477558062825963,0.011008476848600304
1620,0.5647911404120437,-0.4744450798761071,9.690596225788061,-0.028548351876268398,0.07423887629812403,0.01119468237542397
1640,0.5629688125053746,-0.47470645382223114,9.690692033779692,-0.029526414536616325,0.073919767182235,0.011810650269156696
1660,0.5632029501282994,-0.47479855295489815,9.694025115964605,-0.030327525839932017,0.07408553602812497,0.012453392181059291
1680,0.5650503184575875,-0.4750714917196804,9.698135223830718,-0.030217137888160005,0.07363799980374221,0.01243202818311572
1700,0.5652796864059979,-0.4752531047353799,9.699767579153265,-0.028966745582055274,0.07218657281651528,0.011598699876199605
1720,0.5614551942456852,-0.47511201876808296,9.695073499460705,-0.028489994859724407,0.07154107207588822,0.010910148975943395
1740,0.5585710487924935,-0.47414661056539986,9.692779011134938,-0.0289201562490224,0.07165740786672614,0.01085797666697606
1760,0.5587381172097392,-0.47296315390202737,9.696310169694739,-0.029583407608232744,0.0715462741391093,0.010842491423601233
1780,0.5608556919454873,-0.4717201708846695,9.704955123805,-0.028892491744804977,0.07072134346934356,0.010051209551050676
1800,0.5602263270512872,-0.471259161060595,9.70635074169537,-0.027277976239296866,0.06934914800963864,0.00859903652488593
1820,0.5573957475523154,-0.471348876353874,9.703570129279727,-0.026290233717885202,0.0682913917411771,0.007178093016151369
1840,0.5527654311005422,-0.4719016734669183,9.70268316015086,-0.026266237695574787,0.06809121190684543,0.006354720683296538
1860,0.5501107946430382,-0.472253752107683,9.706188927698685,-0.02638221239302718,0.06836200038554748,0.006104442191549184
1880,0.5495946312633654,-0.47186252622244257,9.711074886717446,-0.02583275479821623,0.06801683972609378,0.0057407839362895174
1900,0.5472249456287659,-0.4718065215754755,9.713878657889659,-0.024667959713811215,0.0671701869200801,0.005110757475684052
1920,0.5441179467804113,-0.47199887492854126,9.71395556139908,-0.023422158790187268,0.06647453668896572,0.004652770883759638
1940,0.5419992813922718,-0.47219639231097355,9.714012386998418,-0.022868838410906454,0.06620833048813367,0.0042870120880279744
1960,0.5396837333912557,-0.4722344822874676,9.717422898965754,-0.022167645414095643,0.06563291611324602,0.0038707078957451175
1980,0.5370824086872402,-0.4721948467241082,9.719783085560696,-0.021053029393035588,0.06465015011329873,0.0033619044961900493
