0,0.34461671445104813,0.7882275846269395,9.019111633300781,-0.19371371529996395,0.31264984235167503,0.45978227630257607
20,0.42589084541096406,0.8965826420223012,8.76365857965806,-0.2838264730046777,0.346338829573463,0.512246533351786
40,0.5655120348930359,0.9881850981712341,8.56717679977417,-0.3861883682012558,0.4123852324485779,0.5714113175868988
60,0.8090811841415636,1.0674529924537197,8.515020486080285,-0.5123589377511631,0.49936569278890436,0.6587688119122477
80,1.4032478492434433,1.1573786343016275,8.545955716109857,-0.6221595083068057,0.5505838147023829,0.7216099653302169
100,2.1982370043287474,1.2827529627449659,8.954880607371427,-0.6738232431971297,0.5022261634240953,0.7099400436391636
120,2.957555121497104,1.4833995177034747,9.509404391573186,-0.6630386346787737,0.4018166919745374,0.6188570739080509
140,3.464230092672201,1.727472383242387,10.136238897763766,-0.6310959387284059,0.2888227551888961,0.48337786217721607
160,3.7955155723715484,1.8784827867599383,11.044583810518866,-0.5763853477594787,0.1918536079409596,0.3297068960199209
180,4.043384495340748,1.8693867369934365,12.002478263996265,-0.46467967860308695,0.11419010141657458,0.1635565376714056
200,4.130493905437127,1.7047157658243113,12.786902165145017,-0.3088288557914536,0.03369569625663624,-0.02124748992199978
220,4.008028312442229,1.4654310274024291,13.40909763709786,-0.1281512173411158,-0.03637113723635059,-0.2032982035895291
240,3.7809604627745492,1.194727026476037,13.771955930619013,0.06670729578250931,-0.07623634467877093,-0.36456250791393574
260,3.4053817678308276,0.8931112212798836,13.78274973233541,0.2769170751501071,-0.0842989821215732,-0.510042921378555
280,3.006495622765334,0.6376641584926697,13.471789117719306,0.4259722137854236,-0.057977039260087446,-0.5981650625004388
300,2.572859049244569,0.40927200378993384,12.983272460790781,0.5259942974322117,-0.008238524614045253,-0.648395975636175
320,2.145364865390719,0.22254591288072043,12.437545209691145,0.5834459008352049,0.05395077237778384,-0.6640061380989526
340,1.750447668798574,0.06809400913803136,11.872325570616004,0.6143723573433618,0.10265960476731192,-0.6543275006753329
360,1.4003710843042119,-0.03548984583951049,11.291242293819979,0.6245710650676644,0.13634686388510775,-0.6260265919271034
380,1.0932821053321715,-0.0910698917383949,10.727884293786813,0.6140024958431353,0.16914657387238594,-0.5818228129136526
400,0.8563322210574851,-0.1144255938446697,10.185426783287788,0.5845395020592739,0.20344928892000633,-0.5253053896457833
420,0.6870477068541425,-0.12088122391508202,9.678543435796843,0.5417907852365562,0.2258951434907451,-0.4652383447928208
440,0.5748690895095308,-0.11467766845899244,9.192033840834053,0.48522269292183784,0.22720677464679684,-0.4070509284314129
460,0.48117672317882176,-0.0955785746810977,8.787561592741955,0.4143044943873262,0.2216836893739006,-0.348594231387005
480,0.42499210046870367,-0.04858469144610936,8.431342165228989,0.32382539882705424,0.21123917703058,-0.2756005023408846
500,0.492261661560897,0.009852490118612046,8.162215554380516,0.22884948345969355,0.200286548173108,-0.20764001030739732
520,0.6483613430569161,0.07711087565307748,8.030336781239061,0.11873618012387731,0.18866025240874965,-0.14667061555569302
540,0.8545999777408948,0.13771889647592006,8.050325677840917,0.006731089114289452,0.178170194836038,-0.09699558134350746
560,1.1194729397588588,0.17991182953119278,8.17081840043848,-0.09938654481889085,0.17217490940077348,-0.0637736984944724
580,1.401490578282272,0.20036359060816314,8.453640669515288,-0.18944692011508676,0.1609280353302803,-0.05672305759613559
600,1.6651493219206057,0.21140102926359708,8.794416665607892,-0.2438307633749636,0.13756611312375927,-0.07401816135892028
620,1.8999626036719006,0.21143676564241237,9.080795533458872,-0.27824673264442035,0.11582220082430161,-0.10694152552681224
640,2.0879906713683507,0.19117099922220135,9.386386923624503,-0.30539568611996226,0.10260474423647681,-0.14867227040457953
660,2.2254348198663103,0.14256898104467175,9.754279183955354,-0.31808117617937653,0.09244178006510166,-0.19697168695740402
680,2.3248447039470657,0.0743302317935144,10.145159282073273,-0.30699006499485654,0.08102588806969406,-0.2505185852500251
700,2.3869621523006264,-0.00882289700107681,10.500045896440591,-0.27207358439910606,0.06551170772776853,-0.30926821853315833
720,2.3934977045376167,-0.09879656894176102,10.818704186119513,-0.22039232253374214,0.047792248638894995,-0.3687610271266883
740,2.350509583248527,-0.19398104482294096,11.084835153550829,-0.14911875058443275,0.032545833460617714,-0.43033785826614274
760,2.274707783155049,-0.2742145962694872,11.234999202893269,-0.08141850866229992,0.025729642343218142,-0.47790499011576293
780,2.1637154294200887,-0.35004247445038256,11.300057445451571,-0.010773468600229624,0.015146812296869164,-0.5191990744076773
800,2.0214614867266403,-0.40921652349026266,11.259513909956553,0.056407630736715196,-4.817404151692179E-4,-0.5530532282413859
820,1.8648749827462083,-0.4463753121357192,11.136017125182073,0.11116573278216973,-0.007296054734273211,-0.5757801283705596
840,1.715198805876847,-0.46921738670154034,10.962362736501014,0.15263572568742922,-0.010151291256047914,-0.5876987197860573
860,1.5808407723736226,-0.4779813398104789,10.766084180825672,0.1826141238267523,-0.01537977871707421,-0.5932765514230136
880,1.4655348749442414,-0.471391191368329,10.549699597915245,0.20430081945736533,-0.02886982910030593,-0.5954119469669832
900,1.3618841260190933,-0.45792518411412514,10.329693923589163,0.21764228735444566,-0.046380058181927766,-0.5950758341726126
920,1.2663035956652542,-0.4420008788718597,10.104468079916153,0.22287124687634213,-0.06162379941915309,-0.5913534368247431
940,1.1775780595915835,-0.42583819985216886,9.881246077324043,0.2205526498350382,-0.08019935540415674,-0.5832708942009012
960,1.091006844635274,-0.4055727506267559,9.626066527965124,0.20867364734096888,-0.10420227659835717,-0.5698153013768148
980,1.0264521836498637,-0.3906010960309226,9.407246818352077,0.1883971201658341,-0.12566668112578308,-0.5535413581423784
1000,0.9681562331773467,-0.3791379920245299,9.225430055217002,0.1605748803237539,-0.14545351376060225,-0.5339373169522101
1020,0.9134525156219329,-0.3755971100889235,9.072999968549631,0.12862539311401952,-0.1644643143869078,-0.5109007657066457
1040,0.8571267146747429,-0.38462675919882205,8.937867136155461,0.09289501922309294,-0.18345764057986472,-0.4840575780134457
1060,0.7993336838906635,-0.4103046840768589,8.833769587574002,0.05103671842827984,-0.20046724724365947,-0.45273315590738106
1080,0.7409168068612559,-0.45414416571932564,8.782881445186527,0.005449276213439998,-0.2181950572590354,-0.41624396072983155
1100,0.6792286170634213,-0.5143740879408768,8.781114784453813,-0.038141179109243036,-0.2386289048887518,-0.37383480746325753
1120,0.6287575869006863,-0.5909620057629854,8.805068880667074,-0.08055957183221642,-0.2561964487779174,-0.3240392224710645
1140,0.6126398867619699,-0.6808749772489134,8.86381446161091,-0.12248368819714832,-0.26942148360697776,-0.2680687768179288
1160,0.6302466472724074,-0.7754842642366698,8.974244005673524,-0.1606141911844959,-0.2808651897350455,-0.2095404936892002
1180,0.6813262895440932,-0.8667304483539973,9.13394315847263,-0.19156742348940564,-0.28812058015784114,-0.15048634352728954
1200,0.767878264997298,-0.9512260141187399,9.33670955245774,-0.21155813337411378,-0.2916335559116665,-0.09203608341290262
1220,0.8976829880235081,-1.029566836418833,9.55594189000314,-0.21745853076508628,-0.29030231296497505,-0.03780309797614114
1240,1.0829856035975265,-1.1044374804542052,9.79431538104865,-0.20931960093314012,-0.28171600894682913,0.013064643349407204
1260,1.2540979261319494,-1.1611776519602732,9.982381715644223,-0.19259063416505845,-0.26897167914473313,0.04649357159997779
1280,1.4155066788635666,-1.213391625124097,10.14719276455277,-0.16758210084776434,-0.25577150616208766,0.07051719902499363
1300,1.5616380056847683,-1.2598027586623022,10.276235382117973,-0.13465414874600978,-0.24237037561214722,0.08782042715347926
1320,1.7014625912869,-1.2980829721137992,10.362945042763634,-0.09681864819881193,-0.22623195108309788,0.10054736110472852
1340,1.83509887047112,-1.3313217464055527,10.400978034538301,-0.05707202353514731,-0.20674839255019006,0.10910299985542554
1360,1.9669463459509142,-1.3578130358990321,10.39278851606379,-0.018792494706722732,-0.18808122793267612,0.11305584987136452
1380,2.094588531220707,-1.3718384769399627,10.347331100048056,0.015230778615441266,-0.17122063880116603,0.11161580634699944
1400,2.2100648585291585,-1.3751626975983642,10.283851284514268,0.04361590685709039,-0.1574384444170122,0.10550943897341018
1420,2.3141979995244455,-1.368770185893216,10.20799752600696,0.06686262222874231,-0.14445520765460143,0.09610151284721542
1440,2.4136002765883346,-1.3521770283535703,10.112862998376995,0.08415169326699007,-0.13107476241578805,0.08388833871103381
1460,2.4942190193560267,-1.329815663786011,10.021957644157249,0.09666252539000274,-0.1183147442069228,0.06721762507082661
1480,2.5573680228208495,-1.3057434021033456,9.938984247486076,0.10192270539900444,-0.11014364099650163,0.049716418645462813
1500,2.6056645219100685,-1.279544111507816,9.875246192496725,0.1036605730993537,-0.10380033746066435,0.03027065171239277
1520,2.6528359910063624,-1.2538216149712498,9.826265780078801,0.10483229066802856,-0.1009294450612676,0.00795751171714266
1540,2.6813250540352755,-1.2314614066780323,9.784080297103161,0.10656854961135331,-0.10047965745660056,-0.019146553661730348
1560,2.685517890556644,-1.2156579977831277,9.746478038512066,0.10802044104770152,-0.10365036162343721,-0.04872690658638886
1580,2.666600784911577,-1.204791124668289,9.710949501555293,0.10835222904879882,-0.10483933929130838,-0.0783174853902195
1600,2.625109709819196,-1.2019671167979258,9.681141036811448,0.10720243197137078,-0.10395819399939522,-0.10597035190737486
1620,2.5737380159940018,-1.204557401080281,9.656368217006145,0.10523153330762856,-0.10258483306154485,-0.12736673781182617
1640,2.4910274315514394,-1.2136431867548232,9.640068230009604,0.10083198607548788,-0.09765654929078027,-0.14894851839868004
1660,2.416317310845356,-1.2236433995610572,9.646264306152998,0.0983782685342943,-0.09371185671594351,-0.16268322830546553
1680,2.331857943915502,-1.2322724159146377,9.657209986447205,0.09910005854248465,-0.08923431629007736,-0.17257529936580604
1700,2.263840682512877,-1.2328363596140568,9.65465447505208,0.10131171584579607,-0.08463179423030862,-0.17694667261930172
1720,2.2042549499389925,-1.2254914059250785,9.64641443802446,0.10244642940117708,-0.07801620768209845,-0.1780107976760932
1740,2.152298512719467,-1.2128251632299467,9.644347119464257,0.10357733804544858,-0.07236618833424094,-0.17612901333035388
1760,2.113854299369268,-1.1936944206701203,9.638540280791414,0.1052275839069302,-0.06840559248456783,-0.17313205084356015
1780,2.083808536925302,-1.1699012966745324,9.627478849362827,0.10597676488172371,-0.06434547508315817,-0.17020534549917832
1800,2.055131845872181,-1.1434591728526435,9.619322995386977,0.10537952609482328,-0.06019487090405006,-0.1672192377069302
1820,2.025159705037211,-1.1165233897085938,9.615256976952116,0.10435270276487059,-0.056155719986167904,-0.16313257234537804
1840,2.000679005895979,-1.08756185736553,9.61172335033622,0.1025466535618452,-0.052339916257745034,-0.1581745441557785
1860,1.9795057785868841,-1.0581890065556907,9.613082518953046,0.10043451799781332,-0.04825753350160085,-0.1528884821611236
1880,1.962007560430114,-1.0288106242020756,9.616153501842442,0.09823600131024553,-0.043761551110037544,-0.14737757076030297
1900,1.9484750052899622,-1.0004422956655767,9.618574755338319,0.0957210916816077,-0.03802874784336963,-0.1421608047877299
1920,1.932643542711617,-0.9705504367439444,9.622105775455571,0.09262859070581639,-0.03185649635833777,-0.1373639527770578
1940,1.9159583156531463,-0.945338111971229,9.628942358177179,0.09030610715696168,-0.027124332902074555,-0.13405667367440613
1960,1.8940508877963163,-0.9206383740392801,9.63509819147348,0.08883594571814504,-0.022019228240191358,-0.13053484478606128
1980,1.8745632090125743,-0.8970369918514227,9.633514991000165,0.08726713400721499,-0.01525786412362935,-0.12607929235691498
