0,-0.8665616403926503,6.768325502222234,6.8793673081831495,-0.2630720246921886,-0.23283315111290326,0.010226564376022328
20,-0.9454024810540048,6.716895555195055,7.254892625306782,-0.20126375007001976,-0.2648471523272364,3.180758733498423E-4
40,-1.0676465233167012,6.654783796381067,7.253716115598325,-0.16000499783290756,-0.226579652754245,0.016619944875990902
60,-1.131544131892068,6.637488991873605,7.264026110512869,-0.1466469193143504,-0.17558279318202819,0.047809647768735884
80,-1.1032685789951058,6.628077617911405,7.311716434567473,-0.12973717292554157,-0.1485286145484573,0.07158061732039896
100,-1.1073443725997327,6.622558032765108,7.289688362794764,-0.10945367299513344,-0.14577388808281874,0.0895650305730455
120,-1.0888814701998637,6.601891929820432,7.2556916576320845,-0.09761390788875268,-0.1527937639404041,0.10686151967462847
140,-1.0238530209371404,6.508090538765067,7.314961896013858,-0.08751246687580845,-0.1848483275867123,0.1052570039990233
160,-1.0228330533206462,6.533805179595947,7.350283317565918,-0.06262119381378094,-0.23438102355304485,0.10057883709669113
180,-1.014005695114888,6.556594360442388,7.3293873355502175,-0.04015256330326554,-0.2914666912270366,0.08826313202457857
200,-1.035741861788151,6.584013119987819,7.3438070390535435,-0.020887434715405107,-0.3549560045313505,0.07220027805559094
220,-0.9917800507856288,6.573095109727648,7.313712572810625,-0.012643899815627422,-0.3760246432091185,0.05572794964113696
240,-0.92691695194312,6.4504088163375854,7.215573218133715,-0.0436451141981201,-0.3344913878250669,0.027412521060021525
260,-1.0593419614617294,6.33771747556226,7.189312112742457,-0.09183884072438653,-0.2401516722592501,0.01323564709686064
280,-1.2590463762396886,6.210710836995032,7.190351109350881,-0.12698859836335383,-0.14374549998272765,0.0333786133560352
300,-1.411356044996699,6.0859626242608735,7.1576250285813305,-0.1491579444528642,-0.058342994829713876,0.10203919291080003
320,-1.438790944225288,5.991244261605399,7.0852550029754635,-0.15954867809611772,0.008214039684389718,0.18725881855435936
340,-1.314768690219451,5.943791431349677,6.962839906280105,-0.16145640758268937,0.05570305542465035,0.2642552001052536
360,-1.1159563329226028,5.939464462109101,6.757025895974575,-0.1681670210837649,0.04933289630384817,0.31913733350572726
380,-0.8053983803440976,5.995143050100745,6.665427251559932,-0.18287496582786666,-0.01567111708679543,0.35631713872667536
400,-0.4672516256105155,6.163026052852009,6.6555646048035735,-0.17618218417344397,-0.09549999634801616,0.3983622839807013
420,0.007743885362934735,6.534278845787048,6.681439481841194,-0.1634707996621728,-0.18153694585877625,0.446861113624699
440,0.7294038511250936,7.192104569187871,6.954655463102633,-0.133143044988472,-0.29355244266846164,0.4952137446752873
460,1.463028735537933,7.9649842814140515,7.366885850877326,-0.07319000773699151,-0.40072506438582656,0.5112717036822064
480,2.1145803471118576,8.762337044971746,7.864613567910543,0.008892056981964809,-0.5138257246126603,0.4901431700407823
500,2.665713065872275,9.43111504523407,8.436945769708482,0.10524340524849757,-0.6269351707035217,0.43279487093661345
520,3.068941308021107,9.868022752563338,9.01147267829239,0.21450483203945656,-0.7250688549289712,0.34002222359808354
540,3.266179259358112,10.017770990013556,9.514963260384105,0.32836420461535454,-0.8003438111157238,0.2245018602232957
560,3.289241137568552,9.90242595008657,9.930418346501604,0.4422409343159903,-0.8530859030443755,0.10334317344987475
580,3.1808402353365506,9.586041649628658,10.218541867392403,0.5528092598276478,-0.8821762005838908,-0.012920632140178766
600,2.9732133428061847,9.143332981427196,10.337112975214781,0.6545219619136319,-0.8874730852935482,-0.11443809225783488
620,2.7159522611940443,8.637670431671472,10.31991017184495,0.7504524325816339,-0.8852700121735109,-0.19311449397266112
640,2.4830388278288416,8.10691887616668,10.12341854231065,0.8395780683754767,-0.8832058878808081,-0.2473622529229087
660,2.270874909356424,7.530854940950442,9.723486774554141,0.909718457730018,-0.8748475508247218,-0.2928524853271372
680,2.08147304207803,7.035747013412989,9.340509555843118,0.9396516030354725,-0.8556263807331053,-0.32825798169022646
700,1.8667956112161734,6.538338423282111,8.971222164147363,0.9493154153405201,-0.8266844806828786,-0.3540171048038506
720,1.6444585496985311,6.0522146119384574,8.579277531472066,0.9420755701818017,-0.7933905166706814,-0.36513626612707456
740,1.4331642996850273,5.600467557772514,8.198461223682088,0.9155655738807493,-0.757651828047106,-0.35972318595440517
760,1.2479257373660568,5.2033232552637845,7.8613732643425465,0.8759899195635094,-0.720460245688336,-0.33908252965339675
780,1.1086736932094066,4.866870909837857,7.549660217793989,0.8266370848643999,-0.6884466592157102,-0.30748539115373685
800,1.0124479439416287,4.5782592986336725,7.286022587696057,0.7650951593222018,-0.6613968737114257,-0.2695686850539258
820,0.948511813464983,4.330475618006193,7.086905099037621,0.6929935499241477,-0.6333060593635991,-0.22846396985444736
840,0.9011432468864534,4.118598935689245,6.930570943036249,0.6103958834920611,-0.6013465598313736,-0.18610340607152986
860,0.8704223892516222,3.941319237624467,6.822634881788958,0.5184908282823403,-0.5694868128062889,-0.14351147458194
880,0.858435077808432,3.791570592722386,6.762334658294835,0.4073975069971111,-0.5425946324822944,-0.09631733360004989
900,0.8780589070493976,3.709534143914779,6.7660901193817455,0.3004655663172404,-0.5229105821135454,-0.05587151029892266
920,0.9287048218937167,3.689480845507614,6.83509836715522,0.18506599810976274,-0.4971579989163368,-0.017820406629151953
940,0.9969652081861178,3.782048395365629,7.000378987692353,0.07310544163979532,-0.4708831286341574,0.017839933798560286
960,1.066906215419951,4.005997477757528,7.225624161872798,-0.02157562029989142,-0.45597946798422473,0.05406331706775777
980,1.1896833411465955,4.34783743331964,7.493563313174453,-0.09290701429146807,-0.45671150529100984,0.0985730794637123
1000,1.4582610887374325,4.819345064470208,7.810176317106529,-0.13620429383703025,-0.4713805524123193,0.14224339957708065
1020,1.8213812903463664,5.3854649133064365,8.137166946228092,-0.1545980241563585,-0.4823581295372229,0.16802479151303903
1040,2.1793233854739373,5.965121461030986,8.452052044221945,-0.15370510648201346,-0.47572947906834245,0.1748471199983208
1060,2.4997676498403005,6.482778022791299,8.73685701753189,-0.12502774095548855,-0.4640063910384701,0.16843258015278956
1080,2.7795301293245864,6.8760424058892715,8.905658121093674,-0.06943690131774685,-0.4651572209741489,0.1495991172982584
1100,3.0012280609724775,7.126799371077136,8.952635998532667,-0.003696690237784124,-0.4767750700880712,0.11806764168163332
1120,3.1943264736067345,7.263278983139979,8.942610997337335,0.067115625222053,-0.49242807746172884,0.07134663221548745
1140,3.3335019944973636,7.277906484894013,8.908458172027968,0.11760787831939709,-0.5041373059626386,0.029469411442997508
1160,3.4508241304642677,7.210635694977827,8.847102708385016,0.17172010272430877,-0.5175071577353568,-0.029139829820390636
1180,3.540457411758892,7.082514741615446,8.784519732746555,0.20876788633463325,-0.5267280907047861,-0.08247961680028877
1200,3.6191933644285816,6.908173366169062,8.713593239520467,0.23894955030071638,-0.5351114253962512,-0.1334072025995063
1220,3.6808980777989038,6.701692597486914,8.622099167076014,0.265349268484565,-0.5458008978218588,-0.182265724592735
1240,3.7110361511713563,6.47765802334925,8.500102409394458,0.2871955701120896,-0.5614285508751209,-0.22732852971739703
1260,3.7155874086239447,6.256528193436456,8.360423972500632,0.3025639859959483,-0.5808405083072452,-0.2663534734304099
1280,3.701784084140055,6.050672348917667,8.210118207050431,0.3107765091611355,-0.6020076046950249,-0.2990934696576777
1300,3.662101203129182,5.866350349418492,8.052091730160834,0.31203728726606317,-0.6239350444899825,-0.32607339224352416
1320,3.5906451403639306,5.702268768092515,7.887600904426483,0.3050159544115612,-0.6463885673375069,-0.3467141448101542
1340,3.4906046974706797,5.540949365535876,7.721777146793296,0.28763502928180784,-0.6752268515808708,-0.36228308530741626
1360,3.384534168794233,5.418371156566077,7.609408541770117,0.2655315789661359,-0.7049605946382134,-0.3710932785992921
1380,3.2701294541762302,5.32420452693756,7.540289201760586,0.24248588353093767,-0.7306264934928729,-0.3757817852421513
1400,3.0894674132957385,5.217332337294549,7.493356431558393,0.20654476138616248,-0.7589627773033099,-0.3771019499644837
1420,2.8951570569943543,5.137018231771345,7.51087161615873,0.17270512066654162,-0.7790076478015289,-0.37145954936217424
1440,2.675459073123037,5.074687132377077,7.55453811043129,0.14182192534773688,-0.7952134898801108,-0.3580912823543819
1460,2.447327506917524,5.028122533807769,7.6122490819946504,0.11056714303196469,-0.8064875517528816,-0.33825660778593875
1480,2.2121093553064273,4.986706150803495,7.712954237323089,0.07781843418081112,-0.8075789208383428,-0.3133622096210706
1500,1.9669748992920284,4.953086909475001,7.851937925772111,0.04786907037723103,-0.7978494957583199,-0.281203309133667
1520,1.7477128931030632,4.936323219329863,8.006677068686486,0.022313421204686164,-0.7775571356807836,-0.23913407225832342
1540,1.5960819523466683,4.9427983719704,8.164224627246789,6.946042374270787E-4,-0.7474902360770876,-0.1910356896676382
1560,1.5062319627961553,4.96984133448135,8.322031859837345,-0.01821001685063199,-0.7088781161014573,-0.14369583069659222
1580,1.4752215601833394,5.020395923790594,8.497183277033843,-0.033829211864907005,-0.6559624612364524,-0.09197866710547645
1600,1.5410022275411952,5.0952404603697525,8.61685111056617,-0.04096175657477694,-0.6012338489598537,-0.051167807093818636
1620,1.658756081763006,5.190496602960563,8.686477259808296,-0.04376669793862391,-0.5427935788434666,-0.019574654489257805
1640,1.8003014403903852,5.291820737685958,8.717821686818798,-0.04383481902316301,-0.4857958932867507,0.0032957610529115097
1660,1.954834695084736,5.384095424808742,8.70805255721304,-0.042475262114674374,-0.4366472581121695,0.019330197107456516
1680,2.117239016725047,5.462588532102307,8.679419222063776,-0.04249656614779994,-0.3961800650441243,0.029689655828870076
1700,2.258441761433598,5.5266141584336514,8.649273681414332,-0.04351244260287473,-0.36256201416135625,0.03505611240151298
1720,2.3604173758199107,5.5744522833891965,8.624282481291308,-0.04403452792669259,-0.3365863057638475,0.03807988838640915
1740,2.4302405199069916,5.606606773328407,8.599972066070352,-0.0419071161452973,-0.3189255508418288,0.04086731240500276
1760,2.4750836229047266,5.627460190490368,8.567230672696786,-0.03864281234548136,-0.30633330073020903,0.04372575445490221
1780,2.494908366136712,5.63948382027511,8.532155709376891,-0.036027194641862215,-0.29589220228555535,0.04673824677537259
1800,2.4950912226493744,5.6466125091821775,8.5033646518097,-0.03411061839745721,-0.2878715101163992,0.05025270262033979
1820,2.4864156474683923,5.654057033605319,8.477123807945935,-0.03216017996480354,-0.28215694242013784,0.05384171799876435
1840,2.474144231101908,5.661661227147863,8.450728279506338,-0.03090526471939679,-0.27696134691814944,0.056214430167485493
1860,2.4562906574768326,5.669181186095335,8.428086635302215,-0.029952801422404217,-0.27165885661031103,0.057141433744336875
1880,2.4281398758803157,5.675662221327236,8.402915484845716,-0.028948083539866637,-0.2676449987313942,0.0571843074947528
1900,2.3988750406603097,5.68200113595223,8.382796202127526,-0.027571562969930404,-0.2658269545736613,0.05663364677091006
1920,2.3658777015133414,5.688819824083054,8.361466955180545,-0.02616685415941185,-0.26490877678221697,0.05567186540927563
1940,2.3374728110286944,5.695163625938189,8.343669228631093,-0.025848534761081152,-0.26343589173713455,0.05454676725223698
1960,2.3061351486524693,5.7035929152139335,8.328558311479496,-0.026044006545928092,-0.26048266753344446,0.052629588485377236
1980,2.2666513154256753,5.713028435665958,8.313310986217088,-0.026127211861519093,-0.25705613815933337,0.050301570902347714
