0,-0.4300390813085768,8.378843201531303,4.950771755642361,-0.1355723026725981,-0.027010986322744027,0.025470746060212452
20,-0.4127886786180384,8.396938941057991,5.030950097476735,-0.07938830562702873,-0.03360448555801721,0.023653530296595657
40,-0.3554209142923355,8.416099014282226,4.916687908172608,-0.055561472699046134,-0.028840873884037138,0.019441349259577693
60,-0.29867303678218055,8.441598920261159,4.888798601487103,-0.05006220136933467,-0.020711653139990044,0.013094879604656906
80,-0.2703451428834985,8.456639127033514,4.883853935613865,-0.04398698435823729,-0.023734359967908483,0.006555806322977311
100,-0.26096133932471277,8.46543643951416,4.877888584136963,-0.04061581189744175,-0.029298937497660518,-5.11054266244173E-4
120,-0.23826316011876897,8.460035241883377,4.893438043265507,-0.03723635223437229,-0.0282986909472223,-0.005164790754045905
140,-0.22970080616382452,8.450587287315955,4.896893985454852,-0.03306472578730721,-0.025512332232812275,-0.009133960578877193
160,-0.22552022730579246,8.440437587531838,4.884545448664072,-0.028818727867375757,-0.02404632033289385,-0.013137893386285853
180,-0.21952399484268048,8.434441357124143,4.865161104900081,-0.02846919886608858,-0.02551413115352483,-0.0170488956656943
200,-0.20900538025630844,8.4305755827162,4.857153044806586,-0.028974838622121347,-0.03083410218823701,-0.022069639826400412
220,-0.19849336206228757,8.427145432452766,4.855340213191752,-0.028865292673094237,-0.03516593603274728,-0.026944613530851747
240,-0.18315121844270318,8.433406415975318,4.859449647507578,-0.028495916187376628,-0.03752740206557133,-0.03071190447564114
260,-0.1474407701181215,8.456688295330917,4.865923567822105,-0.027145823104339734,-0.04211313448429696,-0.03612303180750786
280,-0.12202821336075907,8.498118611632801,4.870684674528778,-0.02532664739496273,-0.047948574626314466,-0.044469978072543125
300,-0.13748509635907094,8.612527170254074,4.852785117753589,-0.02590696797706187,-0.04701838247083987,-0.05363333485304163
320,-0.16913318526830604,8.806814571078732,4.79879228159678,-0.03667471694873927,-0.021873277834810908,-0.07574853694347812
340,-0.3123696150436793,9.013804037277012,4.849521050714467,-0.05204186856759432,0.0016923780498822054,-0.09885510258146957
360,-0.6299365203226767,9.226666358209425,5.174602159377067,-0.030171067078387546,-0.01713189881805691,-0.1183708839539078
380,-0.952218664752925,9.329674100583317,5.449624730034109,0.030817339411062513,-0.05118056158306637,-0.1252967874045295
400,-1.3193616872293907,9.340100377623799,5.619752500489441,0.09909106662213715,-0.059996744286955186,-0.12803924211698492
420,-1.708866567418562,9.250930594332392,5.705471961857886,0.15437955332025052,-0.027050889514688422,-0.1204254756104097
440,-2.0720890070346587,9.078994327687962,5.764389607995589,0.19470922610807148,0.038642797772249673,-0.09341111674127892
460,-2.3615384766688714,8.831751586229373,5.8065101611308565,0.23037499985777032,0.11085807472252501,-0.049288330996074735
480,-2.594691112564115,8.525939555150535,5.808382735463786,0.26455469820143773,0.17772260313197566,0.0059346523769016335
500,-2.7508673287963417,8.1736685286201,5.7576953031440485,0.2867899523116648,0.24346487659638774,0.07283548263488647
520,-2.80228232507292,7.782457732174494,5.706445956339031,0.2937298192702166,0.3181406274963102,0.14654703330690866
540,-2.752310132074461,7.367038196929226,5.656466632162422,0.2866089695116858,0.39868419907375807,0.22116368977426826
560,-2.6116720826067823,6.947452577124251,5.608076056013716,0.26900525279144977,0.47103092814201214,0.29498378464436914
580,-2.364610729403183,6.507719869984955,5.555895872780534,0.2366189208763392,0.5382113465686237,0.37781473451874176
600,-2.0575309488035383,6.166054084660515,5.535840775285449,0.1997742758941881,0.5934932373033556,0.4478895550201987
620,-1.7075937277995623,5.880031130405572,5.501765408882728,0.15781184545753954,0.6449327193012533,0.5086986009425555
640,-1.3266442682760864,5.656786152008754,5.454264001170201,0.10897593463444387,0.6846995722153224,0.5631644084820273
660,-0.8944530493539312,5.494817185763985,5.412206356940062,0.05465739681149252,0.7099395048074033,0.6097640014638234
680,-0.4313227867996189,5.387090678885907,5.3699376104583205,-0.007246086539530103,0.7273977658421156,0.6445297283599232
700,0.02660768591377833,5.335841278604564,5.335398359657967,-0.07865933873148456,0.7359719459463409,0.6661030588486576
720,0.4754433339834213,5.341021520391417,5.342937532265981,-0.1527122849551961,0.7266983948484994,0.6797773607168347
740,0.9519892011757021,5.4009092412359845,5.382588895110341,-0.2212962169856341,0.6976561860155689,0.6883453641225911
760,1.4619472685116757,5.51557863220319,5.422961098483846,-0.28376629631052713,0.6571361121059914,0.6859870268756971
780,2.004034520112551,5.710404783483021,5.4381242099175084,-0.35464072175467243,0.60333343325541,0.6603521359511293
800,2.4236447927472113,5.910376230960952,5.520757598561926,-0.42155955094905634,0.5365256092870502,0.6212577257422848
820,2.7992090376591054,6.112258670700009,5.705793633139378,-0.4783471108119268,0.45016951752687284,0.5693807290440911
840,3.081285391461883,6.327010523705319,5.903263606451302,-0.5244349137356873,0.3678197543340919,0.5037000998721209
860,3.253000184100549,6.542911868882874,6.124501269070708,-0.5677783117180883,0.29990737614644486,0.4260166158524005
880,3.3283403491253383,6.7006464398294625,6.395084041160541,-0.5965176177489991,0.24414293356124658,0.3517187381506089
900,3.313435808583175,6.827706559490033,6.792725146935389,-0.6044989568081462,0.17289622382375713,0.25734041008758723
920,3.214380352809204,6.869746076853658,7.085436143274382,-0.5858492904961148,0.11413191781706834,0.18276258400370052
940,3.0782836283195603,6.855962266725342,7.291277103987942,-0.555105486125769,0.06372849956085393,0.11906781597996662
960,2.928728932679,6.802953725569279,7.428807958247379,-0.5211786728854331,0.024376316420072385,0.06520642978972016
980,2.7737402318252458,6.721430405934146,7.517558595280589,-0.4865642300841433,-0.006311559063715883,0.020873201010679757
1000,2.6248951145689077,6.627419459975164,7.571985055978881,-0.45256727981915557,-0.03028691678474822,-0.014400446704040861
1020,2.4721256344627713,6.518607795023319,7.597183898161938,-0.41648416840184427,-0.05013524014690352,-0.0445299278790246
1040,2.3596067519901798,6.427954203372302,7.588680985362031,-0.3890963959594279,-0.06019843980767439,-0.06437313836717674
1060,2.272939239173583,6.347491004760483,7.572800557362979,-0.3662368657012134,-0.06527180831345675,-0.0796682048338087
1080,2.202859573283404,6.277604216481079,7.543398952804873,-0.34639720309049626,-0.0666162716877342,-0.09141224331427115
1100,2.155665371000832,6.225943216205767,7.505601160851869,-0.329225363228306,-0.0654437697214579,-0.09960056863733391
1120,2.129659743060346,6.1921729237069,7.456546305061935,-0.31426917336824717,-0.06270705991640316,-0.10666025216485579
1140,2.1113168087807743,6.1675322594131,7.3954639287705115,-0.30343949662600744,-0.05773466533059849,-0.11432388452813029
1160,2.087885913653416,6.15095155115364,7.334612349087224,-0.29739160698967126,-0.050735781562054785,-0.1213131337114863
1180,2.068183220624004,6.143363343403242,7.281825583167527,-0.29461258381927086,-0.04254586515620489,-0.12606888601111838
1200,2.0595229472361716,6.144621643517732,7.238389303327089,-0.29296511344174264,-0.03439370840684198,-0.1293217740926575
1220,2.052608152228107,6.150687131330378,7.198388956932432,-0.2913160400272187,-0.02790405027674088,-0.13232350250913863
1240,2.041542903268162,6.159342431142816,7.16331588567472,-0.2898565600498342,-0.022837821577273893,-0.13372089000345738
1260,2.0322779809018896,6.174499054230312,7.134417393763401,-0.28731861696551647,-0.018277634825711795,-0.13216317163938243
1280,2.030749409577935,6.192002863820246,7.1068094799143084,-0.28374540814652727,-0.01548675097837917,-0.12891625643635357
1300,2.0378349036047947,6.212734648499151,7.074664170719752,-0.28047718092729557,-0.013135748398794889,-0.1254677729724654
1320,2.050498478464494,6.236498803775895,7.044127660561662,-0.2784401638738633,-0.010297846337643145,-0.12331858910808878
1340,2.06429827660187,6.262328685355118,7.015277661342586,-0.2781423611191191,-0.00605948820427912,-0.12285871008924883
1360,2.0723475005964156,6.287162181993777,6.996550725056575,-0.27861820506881624,-0.0012287726440035434,-0.12300941868133723
1380,2.0772550113735693,6.310602171340796,6.986918552422229,-0.2772845221581545,0.0015088917594731537,-0.12272184971815248
1400,2.0833588466760906,6.334023034518341,6.972664400598277,-0.27385377170599023,0.0015054161015533559,-0.12193539313891012
1420,2.094109854128972,6.357589884491008,6.954200375345927,-0.2706980695836182,0.0012124227714328667,-0.12163097764354193
1440,2.102300409870553,6.379254339559889,6.938562350023015,-0.2681604332988688,0.0022368618004873406,-0.12253345142145422
1460,2.104842408403182,6.399484460906768,6.924573530935883,-0.26539358666760593,0.0033859904432390975,-0.1236750229669172
1480,2.1039241288513977,6.418479005084258,6.909753962442942,-0.26230743678387936,0.003840574362837668,-0.1246794507028673
1500,2.100560727285418,6.435242506399054,6.894424246578682,-0.25922276473081696,0.004225305103170648,-0.12526541787419257
1520,2.097944930440972,6.451044965945752,6.881402707214723,-0.2561070255832044,0.004912210923165866,-0.12560721027797886
1540,2.0939986827929404,6.465945711649406,6.866616182962046,-0.25289556053271534,0.005429759697170217,-0.1260661080785143
1560,2.087804950954442,6.478884171663181,6.851592711999383,-0.250242959863378,0.0062819357908765186,-0.1264343291939366
1580,2.0795053603576013,6.492166410301622,6.837307967889456,-0.24782757929984026,0.007914768099582921,-0.12666448151885337
1600,2.0704214495958806,6.503829149981512,6.8277555642331516,-0.2458422164095171,0.0098813121456748,-0.12646699198393901
1620,2.061736776465438,6.515333496705287,6.818880602178804,-0.2434915827220118,0.011967318271639538,-0.1257969778029708
1640,2.053380058041685,6.526677978932552,6.808556115698247,-0.24085451006682151,0.0140559696636566,-0.12466972971326738
1660,2.0459102970109706,6.537973900444066,6.797129121598076,-0.23804371809288996,0.015645872017022854,-0.12314446587868802
1680,2.039400987440807,6.5497590504826295,6.785849514049153,-0.23515197434574284,0.016586427808570715,-0.12137674456557021
1700,2.033798363643174,6.56179632884303,6.7749530861432525,-0.23220043689572525,0.016969668276419988,-0.1194713511791926
1720,2.0303710861057467,6.573743741661019,6.764467602765018,-0.22907387428412304,0.016985579882202728,-0.11768038068376799
1740,2.027424481085219,6.585685048920097,6.753484440318654,-0.22602280805602257,0.017122322713332958,-0.11619821706396957
1760,2.0230132047759577,6.596822115487238,6.74311125377814,-0.22308097025072332,0.01741803578616883,-0.11472827694055418
1780,2.0184594644041955,6.6089269032756786,6.731483580153665,-0.2197641923185885,0.017789441687441385,-0.11301406529835528
1800,2.014910190797119,6.619229821408019,6.719703664287945,-0.21694008092344783,0.01798798138706337,-0.11163427601056616
1820,2.0106977407814273,6.629041426011905,6.707726667711399,-0.21447189287204396,0.01804498816620021,-0.11034203012655146
1840,2.0071155066598223,6.639159813699539,6.698885821092968,-0.21219408237093942,0.01796214364474926,-0.1090538998747895
1860,2.0038414818630033,6.648958457477817,6.690979885835685,-0.20982488048150916,0.017994426504990915,-0.10800212589196577
1880,1.9984679133213465,6.658385048023945,6.681581551448886,-0.2073844552095507,0.018302396933747377,-0.10685656621497516
1900,1.992397410322839,6.668005907127186,6.67149518263386,-0.20498674796001826,0.018449793394371517,-0.10542404691855324
1920,1.9897884099584096,6.677662546959391,6.662584607616352,-0.2025890582844698,0.018575187248940087,-0.10396101637951033
1940,1.9874555449251645,6.68711226889018,6.6525490897300115,-0.20028071741008024,0.01886059459694338,-0.10290901180859396
1960,1.9833812366347858,6.695721403674133,6.642277486910683,-0.19825853594911916,0.0190585109525995,-0.10200835304560324
1980,1.9780256924517592,6.703988564506344,6.63367742336872,-0.19636325480641478,0.019097792892616094,-0.10088717224587523
