0,-0.20836670976132154,7.0521352887153625,6.735394060611725,-0.0908642252907157,-0.19148003682494164,-0.0020523273560684174
20,-0.009280702099204063,7.04974028468132,6.717131972312927,-0.07781473570503294,-0.22267231065779924,-0.020594586603692733
40,0.0028740223683416844,7.034268455505371,6.762960662841797,-0.10100820407271385,-0.1939221540093422,-0.04145912348292768
60,-0.01146706450504787,6.99084456761678,6.927848324631199,-0.09346484099373673,-0.1779967722567645,-0.044802117069731605
80,0.0032712458519310486,6.9771010933852775,6.985279222814048,-0.06791069779953943,-0.15875075793847804,-0.04072175235714673
100,0.03988440830868726,6.9778163676359215,6.961784430912563,-0.04927678880452806,-0.13981063093762008,-0.03838681347421086
120,0.08243909617068998,6.976902275754695,6.937237404940421,-0.041695027440590296,-0.12768213882258064,-0.04280920582823455
140,0.11267646168573545,6.958747966472919,6.9384824239290674,-0.03666787049195801,-0.11956341450030987,-0.04939616317860782
160,0.1407484135220516,6.951790548350713,6.930858736168848,-0.032968742453990736,-0.11512847959178768,-0.05547333443345987
180,0.1661138307004247,6.966432047478946,6.929294456670314,-0.031466688949292825,-0.11432480232583152,-0.06229648578992504
200,0.17271051678304258,7.046955071138532,6.944049958432658,-0.030641622564054272,-0.1104219357870268,-0.06774338741598421
220,0.13263964388980387,7.2333543571000245,6.951581527277367,-0.026888641504782068,-0.10589989843135028,-0.07705806592028089
240,0.003923269512043113,7.484550407954624,6.993776666550409,-0.02184079417604066,-0.10696207746153787,-0.08949849262079668
260,-0.23298919111849709,7.754779443406222,7.16711726105004,-0.003060214748410018,-0.1171886338607261,-0.10068960354475533
280,-0.496986204628512,7.931990924428721,7.371163696539207,0.028684932062952,-0.11569068002987837,-0.10879997259242552
300,-0.844962926230465,8.013256692886353,7.579500198364258,0.06842936219719167,-0.09639050899646603,-0.11644477417800002
320,-1.2966080948480985,7.964898123257402,7.811443294304005,0.1203127813262298,-0.06224906991870291,-0.10397056687751488
340,-1.714604403179343,7.820001576044788,7.986242150607175,0.1950754856990574,-0.01825244323516341,-0.05556819509325728
360,-1.9852224473430256,7.600828096464083,7.982693712432663,0.2779147159519859,0.03097146259040221,0.009895759230999687
380,-2.1462332813448652,7.306495275394417,7.834848389213468,0.33967404444357036,0.0858022730027176,0.06909140858965937
400,-2.2843415590934457,6.910307892148985,7.625601595990798,0.3656773997552912,0.15637991965803152,0.12616841255769354
420,-2.368620608059501,6.4061393197416585,7.449695084871871,0.3592317005308094,0.23807666185468937,0.19498557611656364
440,-2.3404750036606465,5.834087563658594,7.315626073909062,0.3358695603148531,0.3146099414005475,0.27419985836416844
460,-2.2197140832527626,5.257907594179677,7.192515534223969,0.30283434350720423,0.3726657669962451,0.35815413670311924
480,-1.956129343872844,4.656814828478351,7.056105356498305,0.25927008622041514,0.4194188679756569,0.45464891127053775
500,-1.6203953753141642,4.230467339439132,6.875658663528226,0.20571941066361188,0.45587615868721104,0.5402241483897906
520,-1.1274308980863592,3.932381649165665,6.692953428721319,0.12857637516665166,0.49420822029465544,0.6149044153014768
540,-0.5444818695202995,3.7660681481600333,6.576597284115358,0.036776190415426825,0.5251550541386534,0.666769820340347
560,0.07494882248896868,3.7367605959798427,6.509133380524656,-0.05334534074695028,0.5220641328814499,0.7008611518463636
580,0.7351626057691351,3.8611659022209084,6.485062647258303,-0.1384820382564938,0.49169904332791947,0.7223510493652765
600,1.4485574816335067,4.154967858942144,6.490369600128843,-0.2158489629832204,0.4478402196715374,0.7286608332361788
620,2.2041023397084656,4.613344163018994,6.5184851548846625,-0.287940847715291,0.3860580062378615,0.7012512078158141
640,2.8320613713753637,5.236661103752891,6.653059542402346,-0.36265080196395766,0.3020626464649365,0.6351456914056958
660,3.3080533706498416,5.904132732017474,7.080531523444436,-0.4303469609155912,0.19988066171041943,0.54197427701967
680,3.5936634888503924,6.541958057390717,7.7722364609317305,-0.46099684148115294,0.09909235479724808,0.43769065099570886
700,3.7181568705345605,7.071513585592668,8.575404843104254,-0.43926077546260583,0.018836251818462952,0.3322202745173767
720,3.6943497179355473,7.480396766637762,9.334365499019622,-0.3706939369712623,-0.04494414344915877,0.2308404353551604
740,3.6192168117736694,7.66006596055027,9.851120122841426,-0.258242336745138,-0.107147517756184,0.12460955973584567
760,3.532517534129534,7.6760530969528835,10.20223794783218,-0.14767210447462276,-0.15751964517256034,0.03319089959708597
780,3.437695866154599,7.5538328011968625,10.44717914454731,-0.043047090166645055,-0.19506889272101777,-0.05478181261324933
800,3.3443852173394513,7.3439814510519605,10.593503694218326,0.050503529179757124,-0.21187442454442112,-0.1362800645180529
820,3.2526620760149156,7.086031895284267,10.63026648198857,0.1312894416404614,-0.20839633416069453,-0.20884080182089854
840,3.16812921859506,6.8088068343142325,10.570914687096387,0.19877214834492804,-0.19205927746383816,-0.27288602518610894
860,3.0754474025203984,6.521759570084429,10.451448585879938,0.2554015070389632,-0.17103588999984157,-0.327228835158003
880,2.9835101718538453,6.22473499647618,10.289293868856115,0.30722529696784195,-0.15511133219179402,-0.37026282296718127
900,2.893647269418423,5.915389474781771,10.076105141952153,0.35530668771287466,-0.14647519580772025,-0.404372758153821
920,2.8017569942326332,5.596732313793741,9.801201887938538,0.3917804239789563,-0.13771630894503017,-0.43090579575601673
940,2.709643733142827,5.272166607094948,9.496401007450427,0.40808050781692445,-0.1183557240802497,-0.44989544494238387
960,2.598499532791344,4.943913241622575,9.200020382914579,0.40815595930472787,-0.09737650546153556,-0.46037718235230485
980,2.450335715032746,4.557941174010436,8.885108900474913,0.39728494666597264,-0.0871984219874175,-0.45638005927745484
1000,2.3184137995632197,4.221439574969161,8.614183946433714,0.37745148063632805,-0.08500134697991263,-0.4339973019773127
1020,2.228904257939947,3.9157035071358544,8.36264626299542,0.3443006743337393,-0.0819680001830014,-0.3974047343831757
1040,2.176386163335528,3.650210908329709,8.156912101836472,0.297847510957526,-0.08071024337564194,-0.3532798567711916
1060,2.151286652045286,3.4263797677388452,8.015094893747936,0.2401925299920832,-0.08300879062579633,-0.3052808905219621
1080,2.1555176709161215,3.246354936565576,7.934307167235385,0.17563239313567874,-0.08715653262373185,-0.254607828507158
1100,2.1961748474699014,3.1091901764734167,7.888824593678742,0.10631895793250312,-0.09135060525750104,-0.20324245400502702
1120,2.262010322574631,3.0118021381424978,7.86812266894897,0.030394578875303106,-0.09577230268982269,-0.15268352539824026
1140,2.3528284768262173,2.967904252300003,7.902277927408849,-0.047737860816346206,-0.10285054535112545,-0.099688303711981
1160,2.51468023423699,3.0062366854126097,7.983649838895418,-0.1159378198552408,-0.1178170754061719,-0.0438958683477781
1180,2.768632809742901,3.1370016621713788,8.03570074813882,-0.17280238641608392,-0.13989607271085464,0.006975510722679115
1200,3.1128855481280038,3.3829216061966862,8.063856579755482,-0.2432170827229232,-0.1616039448988017,0.04020071274606579
1220,3.3702220001027907,3.6459259941906805,8.179793581307171,-0.31899258680502507,-0.18016315352744924,0.04027598832717232
1240,3.510967282309909,3.8875583099530022,8.485047395790325,-0.38803054639823076,-0.20019231324914988,0.023647226749773265
1260,3.5358442276101343,4.09136858802562,8.83725257937052,-0.42533698167991696,-0.2141622994477145,0.0097234833425515
1280,3.533774055089065,4.265356953393937,9.078335601793949,-0.43884441966745125,-0.2207699528290667,0.001949605980388707
1300,3.5182838333641575,4.39817998227611,9.245493416705829,-0.4425023942823916,-0.22051374141819258,-0.005597330679967023
1320,3.4765344876606994,4.484015868832374,9.36146894086331,-0.43679224861299487,-0.21408380795402515,-0.01153486688849877
1340,3.432167636862194,4.536036563583396,9.413315517468886,-0.42353570178870786,-0.20730829487343064,-0.013294280270876532
1360,3.403786443736351,4.566469780660125,9.415105484078861,-0.40770783945025146,-0.20412903535471874,-0.012778216369173033
1380,3.389858311195216,4.581147872319597,9.391083579391978,-0.39295226250661625,-0.20299702527391472,-0.012800903643264234
1400,3.384955510914079,4.585995294711835,9.356957860316964,-0.3811245388728615,-0.20152261343140493,-0.014843063605446304
1420,3.38755191297879,4.582465438667436,9.324103130689002,-0.37125985116752164,-0.19778505027953913,-0.020802270143019677
1440,3.381022056802641,4.572412643953528,9.303771908311473,-0.3639620423711704,-0.19289975651372823,-0.028026231819473824
1460,3.366813835647511,4.558070237541537,9.288086077804756,-0.3567898088824377,-0.18783640151474942,-0.034607296409582926
1480,3.351867453124577,4.5417305930368785,9.274415652677295,-0.349589890977245,-0.18315220747144564,-0.03942401298548861
1500,3.3416715812407496,4.526041916921371,9.259792385450224,-0.3426656270358045,-0.17851799492860532,-0.042836233187179135
1520,3.3329600595658344,4.511002197514855,9.244506702185825,-0.33642275731324445,-0.17330088722519577,-0.04537683322444187
1540,3.324484614724745,4.497436964958197,9.231567141937946,-0.33043441370686016,-0.1681991853723937,-0.047030850927228855
1560,3.318725101313086,4.486130407916641,9.2187641717272,-0.3239650230141319,-0.16352279954342133,-0.04769488470811041
1580,3.3177944088751996,4.47870153825517,9.200665987809254,-0.3177823952274682,-0.15873319952938722,-0.04791441569687767
1600,3.320513717319731,4.473604170068075,9.181539977597826,-0.31274043230076837,-0.1538987747717023,-0.0484042517737777
1620,3.3223293248808425,4.46862981493162,9.16542588190076,-0.30821941905938716,-0.15002856990371635,-0.049263866020922815
1640,3.3213032855820215,4.463038792564421,9.14923201463617,-0.3038292292803221,-0.14695474067001968,-0.05000534675419941
1660,3.32017444234495,4.458411954650559,9.131564393310379,-0.30018180578882603,-0.14388195966406064,-0.050512066323225094
1680,3.3183762809318536,4.454381458818653,9.117094803861407,-0.297176595276755,-0.1397687419182973,-0.051138393197487496
1700,3.315257745956863,4.4502974890879,9.109195672403807,-0.29437658927790106,-0.1353284167249596,-0.051773532985203805
1720,3.307304378642584,4.445891290744343,9.09914908778261,-0.29046298150966654,-0.1317349957657412,-0.05148028933465618
1740,3.3012318172913275,4.442815256095753,9.08346854317724,-0.2856610768884708,-0.12976860507617682,-0.049849337503494524
1760,3.3003969242602276,4.442009665413449,9.061842876838313,-0.28151185041933785,-0.1280715235887328,-0.04794829530518554
1780,3.3026728512588788,4.442761436115009,9.04223873408941,-0.2783866606925865,-0.12626101752227573,-0.04656530720991553
1800,3.304691038743603,4.444186732668997,9.025579443606345,-0.2754944100771631,-0.12486618653601118,-0.04579856900169904
1820,3.306968420785251,4.445896850328051,9.010250589700155,-0.27275241453041604,-0.1238406901910068,-0.04557952020500076
1840,3.308031686800879,4.448010095107825,8.996056837128831,-0.2704179450882564,-0.12285188695607352,-0.0456604879117878
1860,3.3080893494985313,4.449833045988099,8.984323721339829,-0.26847953418496456,-0.12166734357524547,-0.04587711408599525
1880,3.30822689245421,4.451680388156092,8.975810109482458,-0.26660578042628913,-0.12083274448730208,-0.04628480311233337
1900,3.307435689860062,4.452193367583005,8.968144864304778,-0.26466152607253274,-0.12016910314668701,-0.04694491122746072
1920,3.3044863822745385,4.452192014806969,8.96178516718992,-0.2625862362234005,-0.11922299283527722,-0.047576034809966944
1940,3.3009773314311572,4.452392855788315,8.956926459021407,-0.26047166528075716,-0.11824928260130736,-0.04779051675568106
1960,3.2973709318161326,4.452416263278876,8.951255834206808,-0.25792255728430996,-0.11709087981207188,-0.04766291519975785
1980,3.2948601803257693,4.4524273652910304,8.942517814147015,-0.25558196180750065,-0.11579360463588048,-0.04738408742105994
