0,-1.0140513062477112,7.801536941528321,5.3207756042480465,-0.11155226714909076,0.18516251742839812,0.06452990039251745
20,-0.6390920781628474,7.845832197289718,5.64871685128463,-0.11206527564086412,0.08346340180325665,0.1026747760755059
40,-0.4256038568327548,7.865954116538719,5.764368763676396,-0.07572584449210101,0.016902024288558297,0.08895404669628651
60,-0.32599638514220713,7.856348691667829,5.651425225394113,-0.05861623151493924,0.016120266768016984,0.06841811565682292
80,-0.3086790409978739,7.907352270081986,5.468888116437335,-0.06964897375207307,0.019370208072021257,0.049924629599635686
100,-0.298766958691618,7.948929281795726,5.501031398773193,-0.0818888281526811,0.002979319423948433,0.03475784814423498
120,-0.29370924063647785,7.972541332244873,5.546226819356282,-0.07433015005663038,-0.01069522969579945,0.018972091167233883
140,-0.3081122319323613,8.015637608135448,5.500585254500894,-0.07164087949101539,-0.015346884597366786,0.01337684184888049
160,-0.2694397088581402,8.116091263921637,5.47659056437643,-0.07435351102857997,-0.01940470125746766,0.007256518344786998
180,-0.2862618702375108,8.33449723607018,5.452091131891523,-0.07886386478674554,-0.021434110129207727,-0.007082502418641178
200,-0.35482736597971426,8.601817120676456,5.452262204626332,-0.08805507885130204,-0.03258795836312777,-0.02958042419049889
220,-0.48331496195867657,8.853429546356201,5.58125795841217,-0.09554666707292199,-0.046905344375409184,-0.059413617714308205
240,-0.6930033626828205,9.039291946976274,5.820696075757344,-0.08646232851229056,-0.04977070854511112,-0.09165266198882212
260,-0.9906296685241677,9.109085502295658,6.046557447005963,-0.05871698436134591,-0.03537569323891838,-0.11901791741798536
280,-1.3556583693341142,9.049504403145082,6.19958560312948,-0.01862426386815646,-0.014066849989185651,-0.12726838491301262
300,-1.7170113430245582,8.887772686553724,6.2839146455128985,0.02821769365673941,0.0025003292760106197,-0.10821806166363372
320,-1.9966252187666085,8.648689593587603,6.308242239270892,0.07793545257965369,0.01691921416869653,-0.06330944002672498
340,-2.1547782642254294,8.31788709499692,6.2628959969386155,0.12700870256220934,0.039951242653390506,0.005174294804791676
360,-2.1910005691253644,7.971479597744668,6.17304871796043,0.16183428440812478,0.06366333877667785,0.06935106833898433
380,-2.1582465385961713,7.5721521182267955,6.015795821854563,0.1835824773449338,0.09073166666326649,0.1326374173079702
400,-2.0507736301770962,7.133143719888664,5.8141662964242045,0.18079786260768427,0.13393869186143223,0.18921786683713857
420,-1.9127076675816959,6.674509505520045,5.605986749269686,0.14296442294719716,0.19925755525563552,0.2346905861693069
440,-1.8057687699735638,6.226949656431479,5.507632787265475,0.07904185937894952,0.26915551840066515,0.2806199129853181
460,-1.6571590656197162,5.826851762471919,5.534659402019481,0.02121946343981902,0.3176597480822903,0.34132034190916244
480,-1.3888309918616604,5.516302671065418,5.541958622234624,-0.02023688823938733,0.34784385837932547,0.40927108467397527
500,-1.0152634363446578,5.3194397917550775,5.448815861218412,-0.06433557631762725,0.3726298408867013,0.4704896427030749
520,-0.5647261259462094,5.2298992408515375,5.3133023087255555,-0.12853040151947023,0.3988219766574174,0.5130950598092539
540,-0.08477741539250555,5.246682692319155,5.244842009773421,-0.2089265960423219,0.4169529941904981,0.5362004507516052
560,0.40470779211680846,5.380184222390003,5.264010637621336,-0.28482562033380954,0.4100870502629329,0.5438728229347066
580,0.9268041690317343,5.63537365321298,5.296786336509549,-0.34971335816330146,0.3761921938565769,0.5370217837792423
600,1.5428640975536208,6.036034081409883,5.369351160807873,-0.4248375682046593,0.3217510785155849,0.5024421195495933
620,2.0311411902919865,6.476535302551307,5.5915481398123825,-0.48767413853184244,0.26492986992847545,0.4461923757272964
640,2.405007751058373,6.987815737296586,5.961328060538681,-0.5296461662225839,0.19287317218431443,0.3722211931952862
660,2.637950437686158,7.554115927061267,6.456197573126649,-0.5458280298902433,0.10076909163705469,0.2886110078225167
680,2.7425822012738643,8.100659844354837,7.124061276862672,-0.5313703287995284,-0.0043700276987978836,0.20166834640004053
700,2.7569445713682947,8.52050231144998,7.894408335491103,-0.47493124570298406,-0.11235832215324805,0.11961668662150346
720,2.736841274949642,8.777334579975893,8.57399583573373,-0.38186646765560556,-0.20627081571979486,0.044143190972864725
740,2.71261468678112,8.8714463176386,9.07173176965406,-0.272193220301321,-0.27335740078030335,-0.03321481622725485
760,2.6495846114853547,8.805372541442326,9.38685017636737,-0.16399481081485795,-0.30978204788048547,-0.11491629712535478
780,2.538838356407645,8.611609011305713,9.557685848394055,-0.06351012827548558,-0.3211988324050912,-0.1923121640535837
800,2.3874699569849382,8.305441946380618,9.586083966582569,0.038426083997726,-0.31457152854401005,-0.26462061749215227
820,2.2800446824056277,8.033133963014038,9.515581085667973,0.10524974166884016,-0.2997073340161611,-0.3090521545674957
840,2.161471001628254,7.701835718463574,9.384398596627372,0.16747811798937617,-0.2735764195942985,-0.3488970377336123
860,2.037794781796904,7.3253576937844995,9.202265863631098,0.22502896517987328,-0.24498257255389208,-0.3799999154271418
880,1.9465179448586962,6.997764460366899,9.017359869600316,0.26950023419094304,-0.23184668163741032,-0.3968598373800171
900,1.879343165114522,6.682130335777998,8.81032561900715,0.30635430244977274,-0.2223917699518303,-0.4073658654429019
920,1.8141617118563338,6.380407356066196,8.573682537847064,0.33194649846271146,-0.20504197056767562,-0.4151189000948816
940,1.734263730204433,6.0897447681507035,8.307410437075417,0.34573118251812696,-0.18423915998009807,-0.41892705447471623
960,1.6403303382717502,5.815888013130516,8.019378105748006,0.3468927912691837,-0.1674890560634845,-0.41609888317829047
980,1.5441109375840543,5.568061700003812,7.7397972423931085,0.33364343343025726,-0.15420984671421403,-0.40698268445648017
1000,1.4493966283882598,5.341897970482886,7.489878542402602,0.30700126735616967,-0.14010781773803643,-0.39175064330247333
1020,1.3645949924835852,5.13606582604014,7.2708832794408496,0.2677211322547564,-0.12398180829352275,-0.36991744102628343
1040,1.3016237098239622,4.9489663352286595,7.097426754645053,0.2188560338285719,-0.11052936176054197,-0.3429381699050645
1060,1.2487741234923966,4.767961551088162,6.954788660126823,0.1578827598560813,-0.10387211895484308,-0.3076363190659322
1080,1.2251060029250636,4.6330264947526825,6.858801638379061,0.10017854567403058,-0.10242815623106642,-0.2717967380293495
1100,1.2358406351086797,4.5151372434032195,6.774575655074921,0.03635770925616829,-0.09967758114936787,-0.23307160180156006
1120,1.2902445636713749,4.428391313011726,6.722727210553973,-0.03600343901228465,-0.09701381809733495,-0.1943835223982801
1140,1.3834688832975481,4.379679049373115,6.730096515145752,-0.11099311096891681,-0.10073037748348354,-0.15755646420007383
1160,1.5164964941912331,4.3781557772541415,6.789860714665459,-0.18177093807559383,-0.1134865447852159,-0.12096383580840969
1180,1.7096415785271064,4.446491380596197,6.883433675366744,-0.24568225266211513,-0.12938809248005215,-0.08630770136369392
1200,1.9396954993830033,4.599403439412614,6.992800642589798,-0.3031731367467024,-0.14473158481362794,-0.06102852892757754
1220,2.1779662302347815,4.812060152158319,7.124584664609135,-0.35740693546194097,-0.16243608484884525,-0.050136104520846395
1240,2.3993699632374046,5.040524650736188,7.312986643231852,-0.40677406167333174,-0.18540258169855406,-0.05511882802875334
1260,2.5730064399218042,5.254654664625056,7.552114095313188,-0.4495171239165267,-0.20338906748690463,-0.0735170436082766
1280,2.6671809552089227,5.423231665291965,7.83088866254724,-0.4805836573125844,-0.20718886921729956,-0.1012033635642817
1300,2.6562417931611924,5.555062960333831,8.122301010394146,-0.49324540946471335,-0.20164361131161598,-0.132571414923833
1320,2.587790149460555,5.629298100251397,8.30442516886108,-0.48566694630421015,-0.20041999575455563,-0.15297812393550342
1340,2.511531058271124,5.668989823393483,8.410797908285778,-0.4675684214395321,-0.20541147232096926,-0.165810468028153
1360,2.4481284464950175,5.681430573045623,8.463137013977144,-0.4457582487038265,-0.21101633866243696,-0.1740765324627745
1380,2.395213255521257,5.6735615943131315,8.480482514747967,-0.423724507500118,-0.21337826389460113,-0.1806208484573699
1400,2.3461147438915546,5.654288541009097,8.467494378008427,-0.40374087604558484,-0.211806879212,-0.1862055145428424
1420,2.301077547296882,5.631047346162745,8.442882278794025,-0.3871945867072154,-0.20865326140465962,-0.19088720017566513
1440,2.263241049119006,5.604426724431034,8.41820726361798,-0.3724635959980604,-0.20697065441269258,-0.19496113208199506
1460,2.2295680110886718,5.576601976482275,8.391798117150012,-0.35943288056330197,-0.20607727949241,-0.19870590598875665
1480,2.1972594410517483,5.54747897877751,8.36671204260919,-0.34857773089862454,-0.20303831467166397,-0.2013891794464944
1500,2.16765968230322,5.521215086739444,8.342781121913507,-0.34005259522282166,-0.19705242518640487,-0.20238339218025728
1520,2.143630708770454,5.499562879484892,8.32511124587357,-0.33268398794196546,-0.1904647151581943,-0.20222382481619716
1540,2.119637707411385,5.478626303791953,8.303910839212735,-0.32486483695871293,-0.1842384523460906,-0.20131402533745235
1560,2.101916981615834,5.464241029242071,8.285148875506426,-0.31860405472694747,-0.1810089155728421,-0.19972178897518678
1580,2.0894298668821842,5.453938715200011,8.268860561071108,-0.3136577028175816,-0.17747210214559275,-0.19759514215975427
1600,2.0774793403667586,5.447068138976545,8.257707396677857,-0.3096945235299762,-0.17166896620383174,-0.19527493726878248
1620,2.0644206169128485,5.442347683275381,8.245585108083581,-0.3056218202562175,-0.16513991761636604,-0.192341083880967
1640,2.053576537674619,5.441179016505531,8.230559598226156,-0.30178646383515506,-0.1604269783058168,-0.18848747691728218
1660,2.0486829380308142,5.4425873056523875,8.217860201720553,-0.29796454986547805,-0.15806603532685978,-0.18399561749555476
1680,2.049435655431201,5.446295478308331,8.202824234058136,-0.2946041025467676,-0.1553036277567077,-0.1797183032721227
1700,2.050603457525063,5.451373503951724,8.189779934836258,-0.29233253413423055,-0.15150036012425613,-0.17595415372590942
1720,2.0494990387480314,5.456573914467402,8.181190313219961,-0.2902867208678861,-0.14827744151655553,-0.17230171596475746
1740,2.0491640388962997,5.462590303005917,8.176690953914129,-0.2878980947484286,-0.14643221631377457,-0.1685334398986443
1760,2.0528104706316506,5.469017386699607,8.173001184484242,-0.2852134617059066,-0.14467140787811253,-0.16506556037831485
1780,2.058078704372548,5.4762271418606945,8.167822936452955,-0.28239063383271173,-0.14184180222784212,-0.16220342608107569
1800,2.059911337998697,5.481587418295816,8.163711240837737,-0.2801560396470346,-0.13942377791167848,-0.1604839060064884
1820,2.059428327996159,5.485986450365389,8.161540787345375,-0.27782313745385323,-0.13731209638683123,-0.15891743998306304
1840,2.0590570645456183,5.489511894010353,8.157696992477144,-0.2751749446334946,-0.13534252101968702,-0.1573982800535907
1860,2.0596980507843208,5.492819017944259,8.152941893275978,-0.27270584355528327,-0.1332864994161822,-0.1560715342350646
1880,2.0599653952623367,5.495566703248697,8.148297898154874,-0.2704261485248654,-0.13102099089883268,-0.15519649287427253
1900,2.0579398354606293,5.497686100188782,8.143349606015352,-0.2682363520258624,-0.12874526371886483,-0.15451240996125995
1920,2.0539408399459576,5.499287665813328,8.139171422931355,-0.26599970850720767,-0.1266186747151478,-0.15360062135196512
1940,2.0504742176875284,5.500989553402618,8.134257900904654,-0.2637652006190645,-0.12453488497760545,-0.15250150003593485
1960,2.0480549584733203,5.502269793505946,8.128535576621685,-0.2617211425529067,-0.1224110290830883,-0.15147667994622982
1980,2.0447738520311867,5.503229458675101,8.124562200689379,-0.2599459407709277,-0.12018920679785697,-0.1506225576500251
