0,-0.6503808862633176,8.58534706963433,4.829956266615126,-0.13403725458516014,-0.091278492162625,-0.028312260905901592
20,-0.5984731386689579,8.600656397202435,4.978823213016286,-0.09844140883754282,-0.11167865619063377,-0.04874027410850806
40,-0.5799939210216204,8.587342898050943,4.931944211324056,-0.07883584297572573,-0.09696730156429112,-0.056408611902346216
60,-0.6042707110896255,8.594201348044656,4.850422830292673,-0.0669524951301741,-0.07996947329604265,-0.06035089752439297
80,-0.6015588343143463,8.600457098425888,4.819363687096573,-0.061905283162870056,-0.07948841109144979,-0.059932428980019034
100,-0.5656156582491738,8.603594818893743,4.818486262340935,-0.058886592067321955,-0.08277328578489167,-0.06190070259023686
120,-0.5306018941235124,8.592153950741416,4.8469314993473525,-0.056519019858617535,-0.08429509198717904,-0.06755884730240755
140,-0.5215247372022042,8.591340725238506,4.850541158822867,-0.052988839837221,-0.07922279416368558,-0.07778150353294153
160,-0.5366156335971127,8.589524647960925,4.856509273999358,-0.05016673093483056,-0.07532789991938904,-0.08506312991862428
180,-0.53577476427143,8.592620802514347,4.871943032300031,-0.043759380552751,-0.0778837778410058,-0.0906631089746952
200,-0.5337933665246106,8.618303245372987,4.853978221336107,-0.038719360141104525,-0.07681430193982768,-0.0982307122413362
220,-0.566113508392855,8.682415303495741,4.840606291269519,-0.035680277793327365,-0.07352164387702942,-0.10637857208086043
240,-0.6457885340565727,8.830323346455891,4.829454453786214,-0.03246006235546831,-0.07048216247487636,-0.1175256205811387
260,-0.8248111497153315,9.032585453568844,4.886218225746824,-0.028653944552500258,-0.07360974142099158,-0.14096397465389027
280,-1.0928356829481047,9.143046340004343,5.031818475879606,-0.017380125290088234,-0.07463349223320113,-0.17252025194466114
300,-1.5366446078969882,9.12266662304218,5.25931574014517,0.009202118257347208,-0.06122801904208385,-0.20426936370248977
320,-2.1496169071482574,8.93276372163192,5.488066009853197,0.06047257320428996,-0.027010109154102596,-0.20628475592188214
340,-2.7468250701076364,8.612589016352615,5.580559795849944,0.1257879588440418,0.02506597928243549,-0.15662555039337236
360,-3.150850527182028,8.256379166980842,5.512495387684215,0.17513461404649372,0.089111284352839,-0.06906899877569893
380,-3.351342117804804,7.855309571334978,5.4170021878348456,0.19797659944455473,0.1537883572027455,0.02617782841861984
400,-3.4557315788724843,7.394468138103976,5.32615737213808,0.20114507033927914,0.20980281581116073,0.12002390807165819
420,-3.4700605404678355,6.910681136831474,5.266298342286871,0.19100019115211672,0.25359173333586266,0.21744254708624958
440,-3.351533833831068,6.4134247677540905,5.2201384395681405,0.1688760898491588,0.2954265298722412,0.31829349816806857
460,-3.0940690899133374,5.957870580755251,5.185489110110962,0.13023379058385096,0.3484117465247352,0.42093312963075247
480,-2.6323271641700434,5.55028691693333,5.184521417899672,0.07799510662604509,0.4124995578410737,0.5292549812294579
500,-2.1207161309700724,5.295717572396118,5.146863140766089,0.028107839290017343,0.4639158223212754,0.6079096724213017
520,-1.5558878971119177,5.1503858176744695,5.081116174454014,-0.030830313513251065,0.5048314041487839,0.6685211504022824
540,-0.9554968088832458,5.1250676890498745,5.011140726736464,-0.09595246188596941,0.5317552228610027,0.7117558227367863
560,-0.4212573775464398,5.202289692579936,4.944610149432451,-0.1572401283097923,0.5441690871619389,0.7350164430900517
580,0.28259256164784785,5.425833197011624,4.9064983281579035,-0.23764351306774428,0.5403349664859443,0.7474711434953988
600,0.9229317320681426,5.740947937318291,4.9296183396145645,-0.2996597673755095,0.5138928115115579,0.7391318858738439
620,1.5708184188310934,6.141699574830219,4.95892976333736,-0.35514678034219443,0.4651403755280387,0.7071912770688131
640,2.1721482081722456,6.5859990077239745,5.0824648878547585,-0.40788923881159683,0.39540282407363925,0.6489431841215223
660,2.642882350696759,7.053463447933847,5.317866757132791,-0.4493159605342556,0.31693762055174873,0.5686939782344482
680,2.9596179687013264,7.525591746841429,5.648996557026786,-0.47733383119441963,0.2382730171018586,0.4722976302201514
700,3.07897814997306,7.989424588924197,6.20123076928805,-0.4820843306354132,0.14747485530575458,0.35619357890730136
720,2.9992032184327644,8.285490577394764,6.79556483745575,-0.4414043302383895,0.058484329103181756,0.2658858924017598
740,2.8545523280181087,8.469131566656682,7.288526858602252,-0.3619200071583006,-0.02573977844402581,0.19277426609225184
760,2.6888945723376887,8.545748373540707,7.637626655494111,-0.2705975434303732,-0.09420564231356676,0.12840595849954722
780,2.498448966657398,8.513599942656763,7.89157490229901,-0.17807218570831335,-0.14437019850851762,0.06918740170478913
800,2.2799865181658823,8.388484125552946,8.02986599881965,-0.08739566184013678,-0.1786441575702145,0.017805750551914055
820,2.0623372851158766,8.202477327613709,8.047068723510293,-0.00666663603281931,-0.19778576482854346,-0.021684920007143827
840,1.8776678314603779,7.984926634061353,7.978140737133464,0.059893977107084086,-0.20637420717434124,-0.05004804667845454
860,1.740869774085501,7.7501758918940515,7.861611572544226,0.11182897788697456,-0.20728886607260014,-0.07105304895942047
880,1.6535241563016405,7.50895240666488,7.723661961136283,0.15227419899003888,-0.203764721105172,-0.0892091084880611
900,1.5763478114179545,7.259832442377604,7.5703866476473465,0.18442360343416572,-0.19894316992084046,-0.10331403881421573
920,1.5187827628007844,7.00847032188781,7.389442304472782,0.2095622333220059,-0.19424333493500998,-0.10830296106195371
940,1.5105413226218722,6.762770028391219,7.175738069113613,0.22632405307436765,-0.19265031166999966,-0.10668084034024133
960,1.5395137544326258,6.523767372508618,6.94382719431223,0.2317169778615782,-0.19453803131461492,-0.10386800105128476
980,1.575993856097813,6.260143716771293,6.688053882186428,0.22440703674621973,-0.19866118244855538,-0.10103003991606795
1000,1.5930533723829012,6.0333502136134785,6.460104429611787,0.2055344588245033,-0.20217190604892585,-0.09580507403641
1020,1.6097603679641268,5.818236559355132,6.2439697767716265,0.17442009718026832,-0.20523038525560167,-0.08726406803536019
1040,1.6235664782911052,5.614607125112574,6.054520301807385,0.1334907270258071,-0.21236011703332586,-0.0768601747624802
1060,1.6206664651785754,5.4184222711800025,5.91028366078467,0.08488572224893648,-0.22806660170763843,-0.06315996804758395
1080,1.5989581401847053,5.228892982081416,5.830651071190499,0.03110409380365791,-0.2504018863058764,-0.043205279229062324
1100,1.5694304362184082,5.059666670390115,5.818364467142894,-0.026074890453351977,-0.27178014895059455,-0.015861262861334987
1120,1.526474312524596,4.919422285619178,5.850736827587551,-0.08847202078101918,-0.2869318228928623,0.017380528960077985
1140,1.461779017782788,4.81528655866157,5.9809410674596775,-0.15504119688494086,-0.2977950129866985,0.05652606024988679
1160,1.387082877987703,4.76743470643895,6.2127311300541,-0.21474566642073933,-0.3057166387132258,0.10324020426040925
1180,1.3355733125802098,4.803965869225531,6.5437258561314255,-0.27125106076135036,-0.30093339365766164,0.1622367451741617
1200,1.3251827639680325,4.9165001865928835,6.883528827738605,-0.3162272492157831,-0.2718942548878404,0.2127550900253931
1220,1.3132817995098172,5.073128683596434,7.255211019502633,-0.35404785071217654,-0.2233560234718711,0.2575104551990906
1240,1.298701722652414,5.253236067959783,7.64353139782507,-0.37803451984518155,-0.16204199532033217,0.2997797561188539
1260,1.3268501021527113,5.454180986688807,7.98361762295905,-0.3814268848781463,-0.09385088533113628,0.34403074818976137
1280,1.4246815057150921,5.666270405131998,8.22684690760654,-0.3665711225493822,-0.029585077944556924,0.3878237604669972
1300,1.594769102743607,5.879001775003049,8.395683019425483,-0.339066103005726,0.025441941937513663,0.42679762858409115
1320,1.86070929236308,6.081423253116517,8.514277124392535,-0.29699647675673874,0.07143879796243427,0.45982139066851446
1340,2.2079032585253433,6.26295892582021,8.536903784999794,-0.24219476164995946,0.10509822348619557,0.482449122518301
1360,2.620855368963379,6.4285760733055275,8.470892579825495,-0.18445518395469582,0.12154722012438407,0.49012045900080364
1380,3.0334235180667912,6.5667206950077635,8.347616666032811,-0.1307032481782046,0.12136215809753244,0.475335147606979
1400,3.397573158660099,6.654199052322981,8.212697570793045,-0.08934351154408363,0.110737448172256,0.44108748012173676
1420,3.714934239406011,6.69703360606707,8.118837209747493,-0.053218829963918565,0.0897734083499245,0.3867686309278216
1440,3.9216075580395353,6.691822651042501,8.07598189169355,-0.02336689972518841,0.06209145585652567,0.3337637723790712
1460,4.086207348383024,6.657962671274285,8.04760183395821,0.005456458482555485,0.024794160632707354,0.2796227266461602
1480,4.209323925424147,6.594708273368328,8.023591971273428,0.029072973966948332,-0.01682878246655936,0.22340851277726684
1500,4.270370611278113,6.50205383298964,8.023346929233975,0.04663270095030103,-0.05768236880421608,0.16580135678736174
1520,4.25563847697766,6.382046887600259,8.046304885298014,0.06077735299202666,-0.09625647729169279,0.11241891288331576
1540,4.1699379188002705,6.248503754691777,8.084402057517869,0.07608189572921102,-0.13284208089767818,0.0688556233589226
1560,4.046541194443872,6.118626758135587,8.108981762687693,0.09297788305009871,-0.16987195073758837,0.03539952567555535
1580,3.900898386416971,6.000090557955194,8.120382548109779,0.10500481566759705,-0.20295329660539252,0.009247160877980626
1600,3.7298243877961377,5.8907244844120425,8.152317746353287,0.11178976582676059,-0.2251805356353564,-0.010074009860062417
1620,3.551926081937627,5.7969011970785855,8.173194150573842,0.11655519926094564,-0.23459351565362255,-0.020320831453863132
1640,3.381781959681012,5.723277211035436,8.167016950740834,0.11702335935808064,-0.23479670007041673,-0.02360772365327215
1660,3.2606078868807185,5.687495399245938,8.15808493774932,0.1153089259579942,-0.23257960358562688,-0.02351182984215591
1680,3.164155105385404,5.6738432954447235,8.140267925548129,0.11434582969563645,-0.23114875933344253,-0.02230103196018527
1700,3.0855354333113096,5.673154591509119,8.114766984487531,0.11397270852935383,-0.22950132801073694,-0.020430850498003608
1720,3.0239980378663116,5.683674173282767,8.078135870053137,0.11351652122737671,-0.22466982127182497,-0.018400409757635895
1740,2.973807056337004,5.701761357257341,8.028906397265121,0.11178089715730075,-0.21687377918903386,-0.018166101684145043
1760,2.927126449384701,5.723750986346406,7.973459450398675,0.10845635506201587,-0.2083099986606006,-0.0200926814124816
1780,2.8790241323051986,5.74794185393014,7.919132421627272,0.1042822847673081,-0.20203642846724137,-0.023587253343846117
1800,2.8270408064500256,5.773494210925571,7.867802204964075,0.0994499410561453,-0.19747397899561253,-0.0272475671245838
1820,2.7737288760610914,5.800216061795401,7.8264091078903,0.09495776693207733,-0.1925772410159948,-0.029444607024792062
1840,2.7358596496948353,5.82154548742498,7.796012445762753,0.09272904173315813,-0.18866005409493422,-0.02997949723402659
1860,2.6821442883681352,5.856324732088887,7.7428555055049015,0.0903463307599166,-0.18389688979445448,-0.029909841894598475
1880,2.636894740870361,5.8887256460259465,7.695301130506292,0.08767172264638254,-0.17962054207643574,-0.02892854319101581
1900,2.589133488184163,5.926599544061339,7.642921226843232,0.08466174601146366,-0.17655533249955024,-0.02749505321169392
1920,2.548080921664297,5.958821075019303,7.603270877680114,0.08154699751633286,-0.17451194089190555,-0.02589323045581945
1940,2.506773104843617,5.9949908644574,7.569204348779529,0.07898136917742446,-0.17273912229898186,-0.02360876553681941
1960,2.4766177259700677,6.026778374440484,7.538612839281001,0.0774902719821195,-0.1711356259617064,-0.02192149311202356
1980,2.4474021596770745,6.057504977834064,7.506482973966485,0.0758133735740845,-0.16935579360226224,-0.021253849123144115
