0,-0.0402363270521164,6.4684689998626705,6.784611511230469,-0.3197872191667557,-0.09207005966454744,0.5048333466053009
20,0.34195558064513737,6.3329641289181176,7.472195042504205,-0.27911779118908775,-0.12180277508580023,0.4566597210036384
40,0.23843750944016157,6.26714543943052,7.630709895381221,-0.1956227599574184,-0.08246689895167947,0.40731233137625233
60,0.044889510795474055,6.2477166448320665,7.5079075132097515,-0.15442013541635657,-0.033465297081108604,0.4105650510106768
80,0.015038494843729707,6.259801543036173,7.461210195408311,-0.13181883393960117,0.005057284142822027,0.4342719607574995
100,0.08528148401163373,6.29974692475562,7.460439158420937,-0.10626123098693058,0.03207920098165963,0.45340300190682503
120,0.19744704515373301,6.36685522532059,7.411327329732604,-0.0791755816031058,0.05077106961033354,0.46679527577707325
140,0.35903846664326405,6.455114094179068,7.326257783975175,-0.06217527627222129,0.058559923147810486,0.46716352452093096
160,0.4868595900386572,6.535593427022298,7.299317270914713,-0.05180574838072061,0.05919039021556576,0.45660171906153363
180,0.5795947512813721,6.588381583432117,7.291478536215173,-0.04202336933553578,0.05782548271411334,0.44561169808169443
200,0.6805014006261315,6.630730277889377,7.27422728905311,-0.035459362952918794,0.06114306289109064,0.43698126536149245
220,0.7997430188374387,6.660912470384077,7.24089427427812,-0.03543317184143822,0.07027839436995412,0.4240319591881049
240,0.9011541169276026,6.673017118578759,7.210352064293121,-0.03960724287910091,0.07852557061727498,0.4055123684283729
260,0.970670217939693,6.658404478819474,7.176061924644139,-0.04578036602546016,0.08300383671227357,0.3856927801733432
280,1.0285343657573307,6.616835609684146,7.145648138309882,-0.05319440293474108,0.08890884348789488,0.36753764724343774
300,1.0751261400727143,6.559867345649778,7.1130985849686255,-0.05870676451391107,0.09517822201712099,0.3535474987544176
320,1.1613108029456012,6.481846901348659,7.029279950686863,-0.06806501619617587,0.10088716083139714,0.3441107925027609
340,1.2812384051975567,6.404185382095543,6.936753598419395,-0.08418920556731471,0.10430961532983929,0.33753145028006387
360,1.4536847952777185,6.358992041685642,6.8649245867362385,-0.10020972770274593,0.09420864413289401,0.33344332496516216
380,1.7177840186987163,6.383574320048821,6.771771954327095,-0.1131668085468047,0.07167664729342682,0.3311960450487166
400,2.0667905397821476,6.513478667237038,6.690125285192978,-0.1274300020196215,0.044384558319633956,0.32745772699803805
420,2.4471512138119174,6.787592066658868,6.6771284368303085,-0.13402193313749095,1.3949718171109757E-4,0.32485952936112883
440,2.904267040269568,7.210435907891456,6.7307185594071735,-0.12486716399360646,-0.07405451340155002,0.3163543514055299
460,3.3693282731276537,7.761329923357282,6.853617490554343,-0.10782618942190608,-0.17320411382195522,0.2827760300561025
480,3.69103049582747,8.344952798357196,7.176793717870526,-0.08350304119613058,-0.2933394156884877,0.23195158997915832
500,3.9031363730670288,8.86358352877059,7.740228943105014,-0.03379608521936461,-0.428956718550872,0.18071948611265365
520,4.08655667136508,9.238004389676181,8.379694672064348,0.04946870993589982,-0.5619498953540725,0.12656513534655625
540,4.209858828179506,9.426190655304355,8.998517542426763,0.1714772248902972,-0.6860829739115611,0.05468996045663627
560,4.236334973191725,9.398077230413252,9.350298098873992,0.2832418652536261,-0.7664271292850406,-0.0180315179082286
580,4.16889824934912,9.214842907263309,9.57483879206132,0.3844270090677072,-0.8203994728149656,-0.09435421033021138
600,4.0224591332889,8.921343983692143,9.69710314415189,0.4764825645180809,-0.853137468306252,-0.16567332871081566
620,3.8307650746470783,8.555322106599352,9.70186663404735,0.5621336719094351,-0.8710445473059812,-0.22581861872525735
640,3.6144140475259947,8.154213816980004,9.587592991754468,0.6397875425549481,-0.879055518779876,-0.2727496076624522
660,3.3982475268240977,7.736051740467763,9.34621391883826,0.7040877606902971,-0.8786085124517579,-0.3083361406551694
680,3.2014437474245043,7.320423712071619,9.00876968335687,0.7454800344358214,-0.8697467161097416,-0.3361350266491635
700,3.0003138401771263,6.921132623386464,8.654293068948459,0.7622196090514152,-0.856722396412235,-0.36039806327086465
720,2.7765995687387415,6.533740851817733,8.331055877711686,0.7609897505413072,-0.8446558306219545,-0.3775902768640324
740,2.5435108489938636,6.161416640414775,8.033701917210829,0.7458889494992154,-0.828730651956582,-0.3835912755717641
760,2.307892293919007,5.820910097531716,7.7579898831408105,0.7179136048240017,-0.8063658056281249,-0.37643564139912933
780,2.0823258693000444,5.520070711511832,7.512166975186421,0.6775031248859774,-0.7792102659837558,-0.35502996735847914
800,1.8694347249857055,5.2222470754010235,7.298528312320659,0.6208612445475601,-0.7475006326218833,-0.3166906717428547
820,1.7072008087936985,4.99042255997832,7.157999359485176,0.5647716279507871,-0.7190507345544229,-0.2735431607137298
840,1.5748827947516526,4.788355894301619,7.0432600318746905,0.5021685325653691,-0.687189890673118,-0.22374250903725623
860,1.4736060729541676,4.611295858783096,6.962723454720647,0.4308090893813154,-0.6495267525887606,-0.16835366229022014
880,1.4116873915047674,4.453925075630347,6.93373887112639,0.35297016412480303,-0.6100639880181906,-0.10808795997923841
900,1.3845390765653813,4.329119645059109,6.963628429560897,0.2729853867748653,-0.5692987544163265,-0.044904672665232646
920,1.3952180595522385,4.249868280015379,7.022260243765503,0.1950205718563304,-0.5262197318647779,0.021459078152922435
940,1.4730107661002338,4.222345907298418,7.094256931486038,0.11865641623556328,-0.4844723875849293,0.08921923746283238
960,1.657822959887884,4.272666872483701,7.213125144810084,0.046992191528297735,-0.4472538475555616,0.15385522661571527
980,1.9341966141831919,4.436449413853032,7.352273727083588,-0.01453266138832539,-0.41182477575419424,0.20924672339423536
1000,2.2782190397948674,4.72665802065445,7.496226310532018,-0.07150289708026347,-0.3739413132549124,0.25060460693090436
1020,2.7162580117186965,5.192425212714971,7.761867937836664,-0.12714157618271807,-0.32864196222918396,0.2812478298730884
1040,3.1453331605663086,5.672162236338978,8.107291475889163,-0.14700838657400708,-0.3057865266863196,0.2951764438275395
1060,3.5748095772184585,6.141812358229742,8.419601483690576,-0.12894451603476925,-0.3000949106087955,0.2970141751314079
1080,3.982644391452406,6.539046559591155,8.61798787792057,-0.08592870770365008,-0.3013024587305034,0.28686922499014095
1100,4.343091756084954,6.824479483542862,8.707185977713747,-0.03075738200984363,-0.30918807457559383,0.2611488780190984
1120,4.610966289963082,6.986929221010363,8.724316794545938,0.026678702883275535,-0.3230501226497488,0.22074332688864698
1140,4.789042615503737,7.041398402770107,8.709176157516152,0.08188773936324115,-0.34170992167630965,0.1711470562284476
1160,4.903280197372485,7.009767463193557,8.673431086717542,0.13274848250655694,-0.3622227796258129,0.11653564348116921
1180,4.966896959808053,6.9143774203757244,8.611379141022415,0.17786310843667263,-0.38284369964856324,0.05981830971457018
1200,4.991511223453916,6.770870494511392,8.5210443832206,0.21300059582055028,-0.4016596508579272,0.0025508685884150593
1220,4.97149890736412,6.588018120312785,8.430050085674578,0.2391516222731001,-0.42138497194989954,-0.05146753310668421
1240,4.915470805810126,6.383228823309309,8.33109687156465,0.260559445617715,-0.44284938539536906,-0.0970100094099509
1260,4.86552844567296,6.142083118196863,8.188194436250399,0.27818399886488737,-0.4701788531884981,-0.14061966695679495
1280,4.816221188341098,5.91898257412355,8.029149082305869,0.2818832856161559,-0.4923363441837754,-0.17854225429155948
1300,4.7340780268319005,5.687957147747945,7.878327703923543,0.26974657682051234,-0.5061062693217102,-0.21462728524816904
1320,4.613239272411995,5.458566730211982,7.77133679946008,0.24860756004272844,-0.5131775005840395,-0.24294308197396972
1340,4.464351310107884,5.245023571629671,7.683231648192674,0.2277232826764584,-0.5215885918705548,-0.25946512577744824
1360,4.310718859808652,5.054808682762086,7.577269012979897,0.20499700471056193,-0.5334516485737237,-0.263421505340375
1380,4.171904944903283,4.8856966828428945,7.474746631740422,0.17406995923313293,-0.5425780636806067,-0.25764905006467353
1400,4.04523806343463,4.734654432085033,7.401766583782672,0.13640459226796034,-0.5478473777426794,-0.24446912467828952
1420,3.9326632560441297,4.602079432840421,7.350167604386551,0.09572077709252544,-0.5532833331516522,-0.22278251433553659
1440,3.8531901241072477,4.492797906057456,7.312642230419442,0.05242699317573538,-0.559818477632566,-0.19205236058317227
1460,3.827137596628939,4.418388098267218,7.290623369260381,0.008491851621268627,-0.5674931778370713,-0.1543057698601236
1480,3.8870578822458075,4.395077320828128,7.276612347612779,-0.03877442719568521,-0.5797114873225442,-0.10968286441012066
1500,3.999457289667365,4.432559252450509,7.267749271651899,-0.07442878464077352,-0.5911739209119545,-0.07930688488345544
1520,4.188463989278674,4.546751250350475,7.269907725566625,-0.12072526117954403,-0.607204879938066,-0.052232483157515525
1540,4.342799669600245,4.668022103595866,7.293039407952441,-0.15931578779013245,-0.6183903356763546,-0.04167557107815165
1560,4.51432760359894,4.826353742822539,7.381188540201402,-0.2059866658100873,-0.6299223797264858,-0.04029140159254894
1580,4.652066919558831,4.98380669462782,7.565903968321458,-0.24653723014229018,-0.6448463236346818,-0.04973378776354186
1600,4.73355185406044,5.121530418613608,7.79414596939573,-0.2716259371821851,-0.6585853981044393,-0.06564437215239173
1620,4.755145564156371,5.2340196262349385,8.001760581929057,-0.2833959103587535,-0.6639822693527621,-0.08372242801474879
1640,4.723042776487093,5.323669558902995,8.189707342302773,-0.2834909911128038,-0.6625962788654273,-0.10261608231785038
1660,4.669036265580249,5.3716386487371075,8.302790980720442,-0.27588677124808514,-0.6588320130249485,-0.11452545540078599
1680,4.610096473373873,5.396782197425864,8.367878781039543,-0.26085944704157915,-0.6527865801009259,-0.1266564267359036
1700,4.551595650348743,5.402731322051378,8.401728857233799,-0.24549993414146534,-0.6473586574354485,-0.13594074869044712
1720,4.493124778581955,5.395683667243373,8.412321299055577,-0.23005005686712313,-0.6405942826617694,-0.1441606399755106
1740,4.437396981545723,5.381021267808921,8.406243453390092,-0.2161241997078095,-0.6313618696797613,-0.1512152236503605
1760,4.389197356391817,5.364199539070404,8.392361375762876,-0.20434019311661245,-0.6196142927163517,-0.15763159696627588
1780,4.345308106318525,5.3457166657097055,8.374749570916341,-0.19487009412179152,-0.6053393733558667,-0.16434333311963636
1800,4.294017072867976,5.321908861550131,8.353244316322492,-0.18624259070206187,-0.5865880144522765,-0.17169592647654255
1820,4.254570745330479,5.3043866015820695,8.330829850174236,-0.18145167588665706,-0.5695875419266272,-0.17649012923040647
1840,4.214356701320178,5.287961613045508,8.310304631626266,-0.1781287248913325,-0.5477395341255433,-0.1814678459271175
1860,4.16162634860624,5.272538278584327,8.291539098368347,-0.17497542034177688,-0.5229239069766259,-0.18661624012304728
1880,4.107253386241735,5.262274920698498,8.271122529943074,-0.17304860927397386,-0.5018473148539468,-0.18911274504158404
1900,4.052927339623699,5.257055772521118,8.255786584431645,-0.17207607279419732,-0.48139860576789606,-0.18897827001226286
1920,4.0077941669334844,5.2569827683762895,8.24328581920088,-0.17130697641948844,-0.4604811457770168,-0.1872865840462072
1940,3.9651390055554594,5.261170387483889,8.231676434422432,-0.17083713564431172,-0.4384000450185024,-0.1851493501378885
1960,3.9184551913531593,5.270584119739303,8.220047809271852,-0.1710009503370195,-0.4163928653422437,-0.18233284503546662
1980,3.8720844228757705,5.282153699639035,8.210848754161486,-0.1719052416135925,-0.3957390215845756,-0.17885982562316421
