0,-0.4438769751124912,9.167602962917751,6.050351831648085,-0.02037311117682192,-0.23171435793240866,0.19014291796419355
20,-0.5533904152757981,9.09459394567153,6.311581134796143,0.02663777582347393,-0.24602928757667542,0.19893309035721948
40,-0.6217470955848694,8.94376968383789,6.4021748924255375,0.07015126101672649,-0.21283367186784743,0.2404024761915207
60,-0.5547736372911569,8.80714037924102,6.495583548690334,0.1278179291861527,-0.18023820221424103,0.29299689468109247
80,-0.3729220806825452,8.670204744106385,6.458725394272223,0.19204146574001488,-0.13253612970371118,0.3328482904812185
100,-0.21838668566577288,8.556378744086441,6.272996338046327,0.23901160787410883,-0.08552915199626503,0.3593065334217889
120,-0.05764853980457574,8.457528666446084,6.084190251534445,0.2678632916261752,-0.05446437634874887,0.37430110965904434
140,0.14174161873983615,8.35738474672491,5.85001691904935,0.28797130712844204,-0.03334520796444408,0.3709771626374938
160,0.2508537032424587,8.288408383931198,5.656511460265068,0.2886321203502482,-0.02234106240172118,0.3550160298608754
180,0.340034375648673,8.188922643661499,5.4503053106912756,0.2742426518759713,-0.011382201320928998,0.32717615047969467
200,0.37804054601324927,8.097508176167805,5.321893315845066,0.2551769115651647,-0.002323015653140222,0.3040140165223016
220,0.39184496743777364,8.023217024262419,5.235512939925046,0.23782826127657264,0.003758177124611918,0.28770829099662526
240,0.39052376994546856,7.9326665536412655,5.130132079124451,0.2149409073984848,0.006673275178434538,0.2737960244687098
260,0.35257210301464065,7.864530182721322,5.064248032737196,0.19208032448302237,0.006395564354821353,0.26929668742313717
280,0.2656116067263924,7.828141314084412,5.034920233194946,0.16902205757186062,0.009865236977691625,0.2790917922727397
300,0.15136524364352227,7.903859582314125,5.073499068847069,0.14949825016351848,0.016025820006885065,0.3223679971236449
320,0.3024319792031378,8.162851717161095,5.230931152468142,0.15603283881817176,0.008604046677330347,0.4046923412361007
340,0.8447201531125258,8.563113836392965,5.348931869415388,0.1966146828019864,-0.021772181521543008,0.4637487504171999
360,1.4481159666819232,8.960390533719744,5.368794213641774,0.2444110730687132,-0.0590951576085864,0.4576406322613165
380,1.9191894752024874,9.29526221093956,5.329521122154283,0.28438437033010405,-0.10690074700446502,0.4005637445424232
400,2.226864046651369,9.462568508951287,5.3303052821354555,0.3083863722270026,-0.1390001025122782,0.3396387940382256
420,2.435427227624635,9.515426387999977,5.332491156775192,0.33989176347685257,-0.1707010760180803,0.2489866256797114
440,2.5360056016454724,9.46857563569584,5.295426846825503,0.3679571777462641,-0.1984472875473996,0.1627333373389142
460,2.5456970741733524,9.336597149188702,5.235021646206196,0.39343844967392777,-0.22995065495234507,0.07944914549589158
480,2.4727692860798003,9.139347724726635,5.153869899035675,0.4188923181901718,-0.26714414929463,0.0033274517931374424
500,2.3335890830516535,8.892310617094356,5.02920071886614,0.4425119594692901,-0.31006211874553036,-0.06174614428767661
520,2.1774993572707317,8.620320891136448,4.862458548521342,0.45544363709685465,-0.3528870993166775,-0.11725965492665495
540,2.0061401899263984,8.322429454421814,4.672546157227739,0.4493308700949348,-0.3841245354161934,-0.16780913306096576
560,1.8179116247657765,7.990682352746421,4.496725810176515,0.41831272889642007,-0.3961274715073585,-0.21690468239657423
580,1.5657711891081842,7.621543834622137,4.376755478481452,0.36877470029663645,-0.39162853659622165,-0.25928686243393784
600,1.262432979738926,7.234734088197291,4.323382583302093,0.3145683882572499,-0.3860094732991271,-0.2814626768231392
620,0.9379818071396305,6.814917829761711,4.2972547746908205,0.2542712594310825,-0.3889837629996831,-0.27251506950706245
640,0.752717896668094,6.506792930530363,4.283640630710661,0.20387161022212621,-0.38995711314723014,-0.24699381271495802
660,0.5801327685164153,6.141802234399686,4.2867727586594615,0.12872207185010548,-0.3823442753934575,-0.20358182920439952
680,0.47890273438320613,5.842009476700824,4.332421863189255,0.05304159852348163,-0.3681085436028169,-0.15882553956405798
700,0.4279047118959157,5.573817645352691,4.411265281399023,-0.028362111494659562,-0.34863337863827515,-0.10974518177801207
720,0.41429050151258706,5.354146225762864,4.499826761508982,-0.11747243067870537,-0.3240804948372534,-0.053723468966782095
740,0.4744316212131412,5.219245449010912,4.633305453272029,-0.214148844809985,-0.29676856951695085,0.01450232853024424
760,0.6830201930236779,5.222279678900502,4.844548701886324,-0.30324012098857495,-0.2756736696297318,0.08756316520415153
780,1.0409908585687295,5.3845807186178405,5.082231659603155,-0.36988644597385034,-0.26879820937846277,0.15046665607089246
800,1.4603415853624422,5.708341736851417,5.2679611053317785,-0.41607933860631235,-0.27301583449999345,0.1938751844509718
820,1.9129021865808788,6.179390161626918,5.396754090597525,-0.4596237784032436,-0.2839435360197539,0.21330904172842993
840,2.384916502543479,6.727637680536457,5.59735358140335,-0.5014386134350608,-0.30928864049268273,0.2044540306810161
860,2.8178886078360876,7.281344065934503,5.902539335965608,-0.5277501128802307,-0.34481307430656527,0.16314436282878847
880,3.148145043064062,7.818249595747011,6.28076510202803,-0.5363870846184149,-0.38360910025466716,0.08440976409267073
900,3.2864035662293594,8.165231925003411,6.656035663315342,-0.5268013140151712,-0.41002008776026266,7.058737285175528E-4
920,3.2923033707078515,8.380808607887799,7.073492477904624,-0.492918498638108,-0.43770132260473466,-0.081946142027619
940,3.206838939472995,8.482383787258502,7.4583989829399595,-0.4308524874151519,-0.4747159006213231,-0.15754410106411018
960,3.0844233223244135,8.487708277090146,7.766608281178348,-0.35587374336773564,-0.5109779525623582,-0.2258074006877408
980,2.937181116723352,8.41303573810944,8.019649328732932,-0.2791147232791524,-0.5335805625248022,-0.28775329585244624
1000,2.766636217576756,8.280690502754208,8.220032137491657,-0.20504053287009638,-0.5389932464898708,-0.34093871470044657
1020,2.586439161669826,8.11201683730064,8.36768660439519,-0.13472785243229174,-0.5304213683990565,-0.38309110254226275
1040,2.42229717826614,7.926789228480943,8.468119492081357,-0.06831142348009389,-0.5142256226712167,-0.4148065129203813
1060,2.2776362700494395,7.729007873462526,8.517588639167272,-0.006498698579910418,-0.4921556894921323,-0.43899224656772556
1080,2.124887196564287,7.50406907735217,8.512286419040553,0.05383392132718467,-0.45774868955261977,-0.4586535213356462
1100,1.9952940243308634,7.3004313279599735,8.476871298027065,0.09842706192695097,-0.4206403137697779,-0.4691145831907767
1120,1.877363617374719,7.097314095366504,8.425191773754822,0.13709258717117886,-0.38053065547439896,-0.47039610382121105
1140,1.7880808937660557,6.899959845008685,8.34505353863252,0.1714908315146223,-0.3393929850167664,-0.46302915451691506
1160,1.7243940960771744,6.710283841820878,8.236221995828167,0.20069947046964237,-0.3004022855015723,-0.448896549688847
1180,1.689188622905961,6.530548332918267,8.101602361771304,0.2242448778186806,-0.2631588184171492,-0.4283269158882614
1200,1.6876646462650706,6.368463869300871,7.93938342569328,0.24201834992117244,-0.22883056902936055,-0.40175805360018485
1220,1.738870132864783,6.235199842342283,7.753518243234946,0.2547828445277841,-0.2016835213538892,-0.3719563845886415
1240,1.837017629092888,6.138745267638097,7.546565982407214,0.26069785724667943,-0.17945390480408427,-0.3448807761511382
1260,1.9478999835575668,6.081713121521024,7.333328186314999,0.2592283209163739,-0.15804047666233426,-0.3243605932472525
1280,2.045137316004476,6.06618404675261,7.11073133338087,0.24977754813020503,-0.14015927907407458,-0.30982129940118625
1300,2.1247232785319374,6.082497711185268,6.903810040334637,0.23157614293902387,-0.12580317110383502,-0.30052230176463557
1320,2.1804665282138407,6.135103505620273,6.732568106088252,0.20703991381726417,-0.11401318103846977,-0.2960310833721088
1340,2.20440219913186,6.211557450870221,6.617569884766232,0.18114213664592668,-0.10952041282964109,-0.296906777698208
1360,2.184077636201909,6.2987814583351645,6.549039546787525,0.15981464598187675,-0.11320227059824843,-0.29889803550349664
1380,2.135867527388759,6.403065984349245,6.495867713260903,0.13997511345091582,-0.11864839093170393,-0.29742562771829034
1400,2.096021217930576,6.499966659681952,6.462279463280802,0.1243565384476729,-0.1209281629685353,-0.2942180726418029
1420,2.065492867707797,6.595111752181325,6.447006691841482,0.11079921743530607,-0.12145611090159465,-0.2919810897739377
1440,2.034818407384499,6.67981107276431,6.44582048895597,0.10041538856816423,-0.11938230882175409,-0.2914395157701624
1460,1.9967186730976942,6.751084544355414,6.447704725203809,0.09447394804142802,-0.11623905947129126,-0.29063675505029835
1480,1.9601992823742023,6.8117988421175095,6.440629980365762,0.09350913323966796,-0.11315497143251232,-0.28840028744688045
1500,1.9299418705659426,6.862163523669407,6.412709853368077,0.09507235766282472,-0.11032866391938226,-0.2858712466236779
1520,1.9005307330993597,6.902108284416063,6.371367317954763,0.09640991149947083,-0.10733983157186532,-0.28420140308120184
1540,1.866627442256419,6.9332743976944124,6.326465237206778,0.09726281117289232,-0.10436940071309168,-0.2827748521873152
1560,1.8292028051079579,6.957265922656875,6.279411647661191,0.09858615880982195,-0.10242776462419471,-0.28084393948351555
1580,1.792407522766838,6.9768957893955745,6.226162631185567,0.10010070025876246,-0.10110052909611737,-0.2776979368024936
1600,1.7600505665655581,6.995643930336219,6.169694897100215,0.10090005400391537,-0.09889576730810688,-0.2737456706951493
1620,1.7295220672865124,7.01536291229172,6.111938383469575,0.1004581961132513,-0.09608143480358712,-0.26952807176777416
1640,1.7033051263385532,7.036139366107308,6.058764331786715,0.09921800362774838,-0.09380254539150687,-0.26520148132516186
1660,1.680682983125981,7.057710170158801,6.011047788194774,0.09787368095639012,-0.09207547290858625,-0.26119805394794615
1680,1.6578479080696504,7.082769283142244,5.957889828267832,0.095820572377835,-0.09008859221928084,-0.2567990015683558
1700,1.6392945885349162,7.107323996064349,5.914198165695215,0.09341170098104022,-0.08839665015534853,-0.2534131370627003
1720,1.6220858158102553,7.129758815958057,5.879510871758671,0.09092623475378653,-0.08699826821448033,-0.2506982089117352
1740,1.600216222673869,7.1580409254679935,5.841022320384725,0.0880426867447108,-0.08560036351157711,-0.24742474316784804
1760,1.5812052684454505,7.182856811526128,5.807862735498283,0.08575984480590301,-0.08448961913018138,-0.24451407791170318
1780,1.5626252968085592,7.206929901251467,5.777655879588245,0.08365594342787197,-0.08307770793020769,-0.2416710415095472
1800,1.5429523502857394,7.231052387126154,5.747454873934064,0.08197337161128297,-0.081543792913299,-0.2388521786236632
1820,1.5239020628730706,7.254282692532426,5.716119963675737,0.08050524414753571,-0.08021110264055233,-0.2360409595767319
1840,1.5056201755719387,7.2767320973848175,5.685439013776944,0.0789840671997344,-0.07861991103175356,-0.233451043264606
1860,1.4867816105045613,7.301530497248986,5.65217080226709,0.07752014499948066,-0.0766368132413175,-0.23094718894235006
1880,1.4728372827066778,7.319978337836801,5.625308601534925,0.07629408711515377,-0.074661740473933,-0.22866333288720853
1900,1.4540204271953434,7.341570504484374,5.589057271890199,0.07495026265395664,-0.07291426370437275,-0.2263370934123787
1920,1.438600314080796,7.356858790020591,5.56095454131006,0.07367993320002249,-0.07167086999589276,-0.22457513760859074
1940,1.4192892393082013,7.375434267063347,5.52586903221069,0.07149688703064369,-0.0698387837551991,-0.22233954512248166
1960,1.404361675384571,7.38923432121519,5.499324331916869,0.06915766148740658,-0.06771639357648382,-0.22086152567135287
1980,1.38354570565317,7.405809248135654,5.468075542463213,0.06547415367850276,-0.06439955684833278,-0.21916772070215906
