0,-2.359892659717136,9.685991605122885,6.589497354295519,0.0375908343153747,-0.19691924129923186,0.08288197813089937
20,-2.1763684188618377,9.425952013801126,7.032059445100672,0.13999199314104557,-0.27065573829938383,0.15080128924455494
40,-2.0719793796539308,9.16564437866211,7.200770244598389,0.2289478455123026,-0.22405981577932835,0.2086163238203153
60,-1.9263215426242712,8.880442489277232,7.158641121604226,0.31610907825983525,-0.1227273414419456,0.2469703657093994
80,-1.897907018661499,8.625575577340475,6.966820053937958,0.3867550861869836,-0.018133805065256792,0.2811525211777402
100,-1.8262757865750059,8.346008008840133,6.683864389147077,0.44702922376122195,0.054882941387441694,0.31456492159620153
120,-1.7270569164177467,8.024802347709393,6.20706502322493,0.49025171113668153,0.10331798797665999,0.3519153390942816
140,-1.5945024648399064,7.74542092554497,5.778456608454387,0.4976719553925443,0.12961135231748674,0.3906605570122007
160,-1.3828972816668652,7.49311021211985,5.39442570467253,0.48208888029920355,0.1420215248709192,0.4332720582118585
180,-1.1073168818725319,7.343422284940394,5.091578076525432,0.4527230196772285,0.14728796057312227,0.47992359003387164
200,-0.7692803049253093,7.458623388078478,4.914260949028863,0.4214641569702912,0.13955106263359388,0.546759584311965
220,-0.1271315531006881,7.87609541172884,4.8351536113388685,0.4082550070707672,0.09218965554419829,0.6106676289904387
240,0.7293512564644499,8.496173993596491,4.85131561756134,0.41617425308889,0.012255840073778944,0.6175249090433595
260,1.4304569867488586,9.096032468896164,4.880839922971893,0.4415447261236024,-0.06782668992354159,0.5560791657925094
280,1.8902987038380787,9.548040257125605,4.943202735947781,0.47232396622044304,-0.13791303025161633,0.46638557102176226
300,2.1977437213636364,9.83118715286255,5.038015913963318,0.5077633549604798,-0.198639966490177,0.36358246099329194
320,2.3618711899912013,9.930966287419416,5.118642902028734,0.5484573490366397,-0.24703065084590428,0.25113080750621075
340,2.379574217104993,9.849298311739553,5.095787145653549,0.5900415947637442,-0.28385555384313166,0.12495560656051424
360,2.230304105579853,9.638455224806263,4.985287446360434,0.6104796670319047,-0.31122822574069425,0.028641778671543203
380,2.0365013722901697,9.330761416558108,4.8889844315183675,0.6264477173965267,-0.35187990940604474,-0.041810897725314315
400,1.846630181267596,8.98639380165011,4.7454442803622685,0.6374985066064489,-0.40061403475483953,-0.09805892132650189
420,1.6285330847571682,8.61647785808787,4.576574778756616,0.6285563648404233,-0.4363360188943048,-0.14847875086072956
440,1.3662626601078294,8.233923824481606,4.44992086243502,0.5998088978332117,-0.4492799413793865,-0.18948897491595185
460,1.0747128778161146,7.84421744691208,4.363406437176924,0.5645047535022828,-0.4501813807930702,-0.21595990607479157
480,0.7797853768679309,7.4577844017460535,4.2687036641712846,0.5254079491323551,-0.4486818330114698,-0.22830382131987476
500,0.49316974821107645,7.086897161129368,4.178230935080921,0.4796606842076717,-0.44801795147182816,-0.2264842499065173
520,0.23311526137808142,6.740372665743152,4.118558876862809,0.4273837470284984,-0.4457365770114067,-0.20968691166065054
540,0.03158895543362075,6.416310363213249,4.075985792712493,0.3679840194743736,-0.43394415359533833,-0.1829351787886168
560,-0.12989935648264522,6.072775260188175,4.047278728272955,0.28593437426530666,-0.4027149947833712,-0.14963959711524893
580,-0.28954215729456456,5.780163952872752,4.067312644886189,0.2010935845663895,-0.3689352315774218,-0.11376485520149351
600,-0.4345629954681037,5.494802316331068,4.139126152982787,0.11654357567056736,-0.34315917052565115,-0.06029984684631465
620,-0.4828175247575228,5.239308112693163,4.217629571832143,0.03294173183217376,-0.32497782996640756,0.008138146781577513
640,-0.42888723750279023,5.028004136831333,4.319954108613641,-0.057571655090567275,-0.30440993698786445,0.07753424236634329
660,-0.33747214006017084,4.881570677831432,4.483042877437412,-0.15268575300897413,-0.28193319354044355,0.14586951250237398
680,-0.160398840195906,4.830282352344972,4.670288288887118,-0.2413047797465328,-0.2609215446183799,0.219169595724785
700,0.12075165105498817,4.896748882455253,4.827867457107322,-0.32922687940927436,-0.23846007600324612,0.28622238359681956
720,0.5155359735836585,5.070528011326678,5.0418835685650505,-0.41790862657740946,-0.2204935464511315,0.3399731588487824
740,1.013388803131975,5.354564062965272,5.318825394882785,-0.49219208895884586,-0.21125268318853643,0.37520866155285726
760,1.5457426466849409,5.741619982301328,5.558673838837238,-0.5461286013838916,-0.20875331035172684,0.38265718530297654
780,2.027694598277226,6.206515986246724,5.740359413587017,-0.5928462598253477,-0.2107600718923488,0.3664434399501777
800,2.5586865133306644,6.807897261317327,6.019266920225756,-0.6286099635276282,-0.23168970749212858,0.3276085524229674
820,2.996878953164449,7.364860979347187,6.327360943090881,-0.6364408871130792,-0.2727199046670451,0.26898151898314177
840,3.3366535228055323,7.8573800417658655,6.6985336687298425,-0.6227586016666516,-0.3247712763642791,0.18773078030364904
860,3.5336938257269166,8.21984156707813,7.135924113397839,-0.5882395177045726,-0.3796132277209489,0.09105866897005994
880,3.5851147448159244,8.417122634473474,7.619915741273801,-0.5311411111372402,-0.4306356604950987,-0.00998251340160631
900,3.50548687191735,8.455793406308725,8.064191650609228,-0.4536958774725748,-0.47652784862428227,-0.10716928617564347
920,3.3099422905975437,8.368047745525592,8.439194292377612,-0.3672020690382875,-0.5142563952394612,-0.1929856329139449
940,3.0629407495911445,8.197752022693187,8.744998624055121,-0.27943381721237354,-0.5368119795557715,-0.26061597213647053
960,2.8139851928620554,7.9834269440254335,8.971659116090395,-0.1931970718571704,-0.5437152085588864,-0.30791159240665006
980,2.6076855589394214,7.757782027349566,9.096615759384484,-0.11054343868637699,-0.5392814334309487,-0.3381593813130885
1000,2.445668797858835,7.538060449409923,9.121800543753922,-0.03904525347985045,-0.523853495082261,-0.3598919815359046
1020,2.3070695145927247,7.328714578745404,9.088195004400902,0.016141519547816733,-0.49729524752470244,-0.3787781795809784
1040,2.166147323251465,7.121504358099535,9.051823204630738,0.05983289429764068,-0.4653570383650388,-0.39333338045573735
1060,2.023058876106048,6.887945243930359,9.00153367908578,0.10645424951827122,-0.43118365209009585,-0.4001509998350927
1080,1.923694813782725,6.679784950289683,8.925711938484902,0.14584280463201024,-0.39999823383840777,-0.3974224382618885
1100,1.8558448031052357,6.481091954276614,8.81303922996122,0.1775572172567758,-0.36204556285173917,-0.38971595280077553
1120,1.813579377044976,6.300031766395217,8.675020336975782,0.19772701693938902,-0.31843578310389054,-0.37919354788128495
1140,1.7919435060246194,6.14656820769937,8.538785169479695,0.2093510267543334,-0.27469909607749826,-0.36649538298593237
1160,1.7962046071544102,6.029817684381133,8.396728416343676,0.217272039857524,-0.23278297151625935,-0.3502999481893141
1180,1.8379262467930593,5.955576076263316,8.243864577593197,0.22125207476032593,-0.19175910420520345,-0.33142327171761865
1200,1.9213972364812486,5.926432461228018,8.086071126230875,0.22336837317167002,-0.1528477978672048,-0.31320219195300814
1220,2.02722668770953,5.937530397258484,7.913726946606164,0.22351799332041644,-0.11924888922061133,-0.30256247656434715
1240,2.101568688875904,5.971093899905499,7.736749345509737,0.21881283319688757,-0.09143822460216196,-0.30018651021060117
1260,2.133231975670372,6.015151924452777,7.582798629517318,0.21063460297097092,-0.06901600702061646,-0.2992103721777473
1280,2.1476191142450247,6.077950859731293,7.432495806634822,0.20194982478234508,-0.050626775441581714,-0.29445989576099435
1300,2.1614000265147086,6.145888990180341,7.308427052833488,0.19551614168862744,-0.04109388532499983,-0.2893642383009613
1320,2.169093867293928,6.216976977475708,7.196059249204277,0.18847847964215217,-0.03661596287697087,-0.286762114742884
1340,2.1565348009854395,6.2850183534804405,7.100811604403649,0.1806678799794545,-0.03464896579825754,-0.28571744893124823
1360,2.1306334669586797,6.349724044809235,7.032009024352955,0.17405844368845472,-0.0342770903779457,-0.2834316082215453
1380,2.1052602818482136,6.412891061916599,6.973849445673419,0.1703841624456779,-0.03483724705644964,-0.27953534455546153
1400,2.086407824482607,6.475333368327145,6.91104368192994,0.16720858574242575,-0.035359585179906824,-0.2759114567530544
1420,2.067596219607835,6.534829565289543,6.853699942025169,0.16361310912259633,-0.035951639848280426,-0.27360486049256183
1440,2.044155343572803,6.589570307151561,6.8024636499344195,0.1604105783264486,-0.03593465076860312,-0.27247824647673446
1460,2.015295075770399,6.637930871911801,6.752300061683523,0.15772663250582825,-0.03406768532793266,-0.27184855689656906
1480,1.9822397826306977,6.679847868373448,6.702022520122555,0.155954061984401,-0.03144089207958424,-0.2709292237995165
1500,1.948416630152946,6.716499607994153,6.646588406366546,0.1557423611391597,-0.03019799645611547,-0.26911317734426354
1520,1.9143345945034151,6.754270109099497,6.573231194108629,0.15583163112084245,-0.029853269343453948,-0.26720996915500084
1540,1.8809392873501358,6.78395375747549,6.504744495807475,0.15464028795961698,-0.029236145085276433,-0.26601826958800373
1560,1.8463281271673622,6.811286159106385,6.440716752817389,0.15276466830514437,-0.028547896197960655,-0.26448185544431907
1580,1.8123276263725496,6.837544517996175,6.379800093797162,0.1511885249483946,-0.028087885685647365,-0.2623890979764523
1600,1.7807336141307066,6.863104015102514,6.317280507521567,0.14958586896704573,-0.028043440752875674,-0.2600997418730247
1620,1.7525185969325279,6.884666372626475,6.264591099483665,0.14775002193444922,-0.028230876123482084,-0.2577851813716384
1640,1.7220869407810038,6.9102277303282476,6.207862351439482,0.14527641184286744,-0.02816588195053314,-0.2546636601653222
1660,1.6896159166511258,6.939914561952601,6.149628531089162,0.14216012956599383,-0.027899214808948112,-0.2508073686930241
1680,1.6618721042150566,6.966826672007216,6.102760683690999,0.13945114868934175,-0.027482834576318945,-0.24721952771759853
1700,1.6366793433372895,6.994352031254943,6.059117516599081,0.13699652755271874,-0.026694153501827307,-0.24366977985148136
1720,1.6142908680736914,7.021523977092081,6.016595516385595,0.13487535811116852,-0.02547928459342653,-0.24057975456195313
1740,1.592250770202503,7.0484956973932125,5.971604726821435,0.13254451621138247,-0.023895234237826433,-0.23780304179091943
1760,1.5707137579033668,7.073810247799459,5.925883996021002,0.1296618209140029,-0.02209042566511117,-0.23541205168504448
1780,1.5481630689144688,7.097693332165843,5.880358810475157,0.12572380759377336,-0.018792502164445238,-0.2331365316472679
1800,1.5244348779196877,7.122989882498327,5.831421115697239,0.11984381870448929,-0.013216078151935956,-0.2304997526984624
1820,1.503956603937651,7.146513560206173,5.7911446288428055,0.1134093355234703,-0.006188692374451042,-0.22822309530030735
1840,1.4843651097191184,7.170663347491898,5.75760176761019,0.10740370874527061,4.078488268249125E-4,-0.22596227513563757
1860,1.465550601280462,7.1948592931187605,5.729000276896941,0.10390404720718632,0.003947769322848828,-0.22371679273542291
1880,1.4453336230972091,7.218028583409451,5.696814269980389,0.10344650389016388,0.0035588604722074225,-0.2211079936108512
1900,1.42732690634659,7.240720769969993,5.651740836849775,0.10327738014555793,0.0020167257766872514,-0.21855839891607923
1920,1.4096627976614864,7.263810817652328,5.6073786312132885,0.10099338781638041,0.002403143841338012,-0.21672706966255761
1940,1.3884529896200286,7.286120888763572,5.573364731971959,0.09823493635776502,0.0031229723485113,-0.21510933882813468
1960,1.3670090400601054,7.307453085468982,5.544198372865214,0.0966653402885797,0.002357532761438887,-0.21303185248037057
1980,1.3487424345166688,7.328523252939297,5.511783924943805,0.09567785387898609,0.0013629714128964526,-0.21064519362520698
