0,-0.24603383221917532,8.705243110656738,4.291004245931452,-0.013362358959222382,-0.028043158183043652,0.08966234123164957
20,-0.17370194838823458,8.705770291780171,4.460534986696746,-0.003729106276296079,-0.020655115907031455,0.06177687823870465
40,-0.21289063338190317,8.704743244029858,4.469816287358602,-0.002704334436674361,-0.003895370591500843,0.044359908508205856
60,-0.2274584362283349,8.692689568655831,4.481834472928728,-0.0016914877840983017,0.007105034942339573,0.03536152399278113
80,-0.239836152274768,8.693252918332123,4.471445976301681,-0.0022818071139586527,0.01796365376063731,0.028373601608151614
100,-0.2744410733929744,8.683777678246592,4.470045879775403,-0.0020185269817125564,0.024621920792532025,0.02446568897907056
120,-0.2987685507100265,8.668428534168308,4.467401734853195,-2.738864701714809E-4,0.026350984148586453,0.02415432312162751
140,-0.3159281118119608,8.652812715786606,4.456666850332004,9.82575823983817E-4,0.0277386844999143,0.02452149307494288
160,-0.3463517725840211,8.6432745997111,4.452437308629354,-0.0011963934482385715,0.030002133067076404,0.023638542604943115
180,-0.39859969739890877,8.616596358163017,4.472128927707672,-0.005853628365522516,0.035642708089047424,0.025000559243684013
200,-0.4457860469473931,8.57901240431744,4.5019600676453635,-0.006352350776306475,0.04108481968844147,0.030387533170616498
220,-0.48345866355113687,8.535323076248169,4.517007033824921,-0.0038684320193715393,0.04552836173446849,0.03980215518735349
240,-0.5139091211043436,8.480276659682945,4.504189246230656,-0.0011409604943495382,0.04898317193793547,0.05234939204011527
260,-0.5292167532787626,8.420806457256448,4.457668359937339,-0.004161930770476766,0.05778826998972238,0.06746835825996923
280,-0.5291448231531127,8.368121358656115,4.417961385942275,-0.010723408941562557,0.06687901079872503,0.08936908167426384
300,-0.4532393229151653,8.348929593057344,4.340936807068911,-0.019790261672548666,0.07807574179341001,0.12295992626582808
320,-0.2155517725739628,8.461296456200737,4.300257759434836,-0.02815950464906304,0.07407592738080504,0.18091469406416374
340,0.43168610065697216,8.812021642117887,4.34511583076941,-0.012652400685191105,0.014412995838446895,0.2392259956954198
360,1.3863479011059285,9.34601141856267,4.355005449209457,0.024348376743429795,-0.0786410464042535,0.2195283847544581
380,2.010677403548914,9.87574663394835,4.324207954290436,0.04324782730105742,-0.15493894576679962,0.11996096959507956
400,2.230932944502985,10.272907589757166,4.498041818308276,0.0482934829406711,-0.20815420574589827,0.001494260772867778
420,2.1913238800290293,10.504820760442406,4.909790255088174,0.08815049680106815,-0.2735068891030217,-0.11647942706747032
440,1.9902486489179037,10.5334991122049,5.232370255485414,0.1564399749785908,-0.34479408233584197,-0.20480205137627544
460,1.6423512851762665,10.420961428414747,5.4586509472222495,0.23131738171551075,-0.4095398212539571,-0.27266790596106405
480,1.2502002474965481,10.204863230775043,5.604345945032631,0.2993893624766071,-0.4482075488365187,-0.31195698914049963
500,0.8852127496843957,9.929863855872355,5.682560761769612,0.3619403532654825,-0.46429827465990586,-0.32381370155787875
520,0.5867256225714654,9.632183770248792,5.657426515855401,0.42100151968388755,-0.47236491415578014,-0.31668564286799383
540,0.3650679268373998,9.330285319594838,5.519338436262056,0.46975621086185365,-0.473481012023294,-0.2988726635683149
560,0.20445584976173278,9.026778482938115,5.312577984236841,0.5028497932546572,-0.4694831058773986,-0.2761515857797226
580,0.09791230889683475,8.732554414358978,5.0767182313514,0.5216816278103245,-0.46383750736238244,-0.250418482848196
600,0.04015680807808289,8.44207502687313,4.813894799796371,0.5277014514877693,-0.4580184159378922,-0.2236011872645983
620,0.02211492912936599,8.155399740006333,4.537360109346009,0.5203690773765539,-0.4526070688032256,-0.19765442481863943
640,0.027090330149426505,7.836734883466528,4.228256363545855,0.4953383557744221,-0.44503913361285985,-0.169359749643546
660,0.049106514178511265,7.557854917014299,3.9659802092359864,0.45934177061129133,-0.44020383241804145,-0.14379585826963776
680,0.09039105183503532,7.28147938579868,3.726131349372176,0.4108568556526174,-0.4375460844941216,-0.11904753888371056
700,0.1301782746533198,7.002695271384199,3.5113920486171026,0.3502363722211504,-0.4362667261703624,-0.09585984434368608
720,0.15753201686696994,6.717221166549979,3.3266664066333447,0.2779914694780404,-0.43786822209699044,-0.0729976314974221
740,0.1575304822365363,6.420336864486097,3.206220505542813,0.19436748118868338,-0.44536972276250564,-0.04966424403622025
760,0.10146447686103624,6.104995433293845,3.170072084175622,0.10786765040397796,-0.4633122532586011,-0.0209809557443965
780,-0.0021893160126280563,5.783649172182509,3.2038603716078526,0.019282075659689018,-0.488330975262751,0.020865159824867648
800,-0.14995404642666438,5.481396831823011,3.351535977929563,-0.07007204473798001,-0.5169129917686693,0.08003771476430852
820,-0.32335566369577023,5.237837917302131,3.6550100514044366,-0.15142398536966417,-0.5549148310660739,0.16113304840918216
840,-0.4340049301912742,5.083600253787424,4.09775541666363,-0.22171882957452907,-0.5865851085493341,0.2654875703541828
860,-0.40890611818205963,5.069346734333013,4.677245881502105,-0.2863129902258385,-0.5746593495288489,0.38189809575453193
880,-0.2784096116443705,5.2366353900955955,5.4435337293355115,-0.3360612990529928,-0.5130594424830872,0.4901679138019376
900,-0.12663586491098006,5.485961728478472,6.124914622813463,-0.35968630349853387,-0.4271170523930341,0.6034207982383668
920,0.16880198432176372,5.805602636475204,6.7470016786366624,-0.3418447462469218,-0.3581397436898416,0.7037291442136482
940,0.6617114580334034,6.172584263017149,7.219691743202451,-0.2893003388459835,-0.2963018969167024,0.7904668210414917
960,1.2927463616181474,6.538955839117405,7.535824233904145,-0.21062814158808796,-0.24416164945248506,0.8535637469521087
980,1.9667877664569884,6.8750715771831885,7.677750337502807,-0.1113406857655839,-0.21311372445029017,0.8877553655125238
1000,2.6383305486269206,7.134261407106217,7.6913487418857684,-0.003180147799191974,-0.2054601153936686,0.8917446852594345
1020,3.2470917594475983,7.289330024866665,7.602222632458235,0.10320610005048546,-0.21495639561591823,0.8611332619129008
1040,3.7093575177627796,7.350576438428942,7.458024460865561,0.19531534650020535,-0.23370235662836053,0.8021916766421926
1060,4.048848894556267,7.338143763673367,7.328825550803019,0.2752069143861095,-0.2618013890794264,0.7298124410808171
1080,4.327677252560737,7.28007742814653,7.180376025954349,0.340058589539849,-0.29581051773779193,0.6469988981584791
1100,4.542336339726635,7.174152357585647,7.042105184053327,0.3818020897889305,-0.32419058243887355,0.5526918284154937
1120,4.658488689297569,6.997535065350379,6.935450372221911,0.40695158610394394,-0.3432993602608772,0.44278299589822034
1140,4.664747268957938,6.813272705542365,6.861142648699677,0.4206867077828373,-0.3581637961339103,0.35661917810932087
1160,4.619883104896871,6.62254863283985,6.7988120940513905,0.42954425414233505,-0.37477868338028203,0.2896526658257547
1180,4.578521737296394,6.43521163700011,6.742961839299466,0.43568834894337716,-0.39235394279096564,0.24165750905340844
1200,4.56981335290625,6.256361075004773,6.685185473502403,0.4394017019322717,-0.40920654938682055,0.20141961389209986
1220,4.561086798458183,6.086315141802299,6.619539647082251,0.4390288496758172,-0.4246987839028912,0.16123849756383737
1240,4.523780447418176,5.921564431879233,6.563392266834853,0.4348944907526402,-0.4421172553170436,0.12273019912845484
1260,4.4616360210330015,5.767133595411164,6.515429839463188,0.43239715039000237,-0.46154309249474096,0.09092668581198758
1280,4.392012409430181,5.626436380292007,6.446521942108644,0.4303608384588822,-0.48099561929341167,0.06642806270092753
1300,4.321410783533521,5.503478091616712,6.357981770674684,0.4238658876372449,-0.49905262611338996,0.044617370546816276
1320,4.226751785405213,5.399545357963207,6.27410614326158,0.41064753671889775,-0.5145576748742743,0.023729172368321623
1340,4.097852563844873,5.3215687607543245,6.212637545082016,0.3940800409310622,-0.5295611973223445,0.005548010591208341
1360,3.920975870741681,5.280962802300399,6.153868471768663,0.37231465534837466,-0.5437280074763817,-0.009379310937641511
1380,3.7456086694961823,5.290181673058228,6.120196975283128,0.35027437190494953,-0.5514244536909328,-0.019832560490581137
1400,3.552216749162166,5.3251456026426895,6.106436698957374,0.329021570931489,-0.5553129045934331,-0.02812203966594419
1420,3.360421343244867,5.378567245885985,6.096745605244596,0.3090838920693192,-0.5553319807407152,-0.031669716068153456
1440,3.1901580747703804,5.451218167809898,6.102647348057359,0.2896805576821883,-0.5516499511526134,-0.031792909817057104
1460,3.0378891317973444,5.535005945734023,6.140878164133494,0.27468527358404193,-0.5481962173996638,-0.029341811707054268
1480,2.909071862313756,5.620627362742923,6.184609255865094,0.2682317404754304,-0.547103687378766,-0.023388485712487073
1500,2.8117297602895905,5.706248793651379,6.205033947718201,0.26653983664975883,-0.5452107578629969,-0.015466781558749693
1520,2.738438626010716,5.787593690684438,6.214957157993316,0.2662266609909013,-0.540306847826764,-0.008029102813452482
1540,2.6789183760779847,5.859776875233693,6.216805056655576,0.26816047605669263,-0.5331910506834675,-0.002920048366525868
1560,2.622654854886629,5.920966800217998,6.196734060642314,0.2713938054402378,-0.525091217551453,8.848686470082044E-4
1580,2.5758454622471207,5.972507338864709,6.164817441317995,0.2743767175957265,-0.516184077128547,0.0036144283117987615
1600,2.5284346038699264,6.018691628358941,6.117731869130149,0.276968671173306,-0.5053350095942157,0.0048394793351563
1620,2.485721114168486,6.051099823225659,6.069900360282835,0.27783309950233875,-0.49455007832663767,0.00467433757708036
1640,2.4394447616085917,6.076839970731528,6.017874155182513,0.27749162401678595,-0.4830617988920834,0.004170145192086829
1660,2.3896466434244994,6.099033390849152,5.964835027358399,0.27634749662071667,-0.47226320952416023,0.004363486797294833
1680,2.3397814572788773,6.121246721609023,5.913185460239217,0.27493733796105463,-0.4628142516057857,0.005846101075302863
1700,2.296405216007838,6.144316507447351,5.864222729530581,0.27288722735779614,-0.4543762585561173,0.007970058759487631
1720,2.2548601002664577,6.166578504420479,5.823507201485864,0.27015781014839124,-0.4460827197702127,0.009852745659944862
1740,2.2125620741869327,6.185731934067853,5.791305066407228,0.2671031368924409,-0.4379436993362977,0.01177380969408764
1760,2.1681495749783752,6.201482063683054,5.763299613695726,0.26384762795919353,-0.42923847458182146,0.013993865036382405
1780,2.1172236034378717,6.212890911268147,5.738821373818672,0.2604898199295523,-0.41964419212874843,0.0168489280501253
1800,2.056679299859668,6.222286977260032,5.718138583226579,0.2578233272969208,-0.40976064801840795,0.021717770542535517
1820,2.0001817059643248,6.233028971959635,5.694894379888718,0.2567183896580876,-0.40033969189441104,0.02970082836909764
1840,1.952267740268433,6.248545958193032,5.661439404187613,0.2568689435800624,-0.390520063992158,0.04034120403723606
1860,1.923062471899001,6.2640072756576455,5.628157844458978,0.2573160696805276,-0.3826741854488493,0.048398312217900606
1880,1.8924823073658172,6.288904768617993,5.581845200294024,0.2571051285136491,-0.37289099265827325,0.05723465703089129
1900,1.8677089624262504,6.317821680582523,5.532797040470461,0.2556812760610478,-0.3630365189042177,0.06543948394809024
1920,1.844104254522433,6.353959704144577,5.4774798968241205,0.25291925849211955,-0.35275076825989427,0.07348766206057206
1940,1.8261196252017182,6.3914548407584055,5.428590665898233,0.24958753037711592,-0.3445230272414057,0.07951972693345456
1960,1.8136233991443425,6.433010811677405,5.3812124327585975,0.2462047118977516,-0.3377316181110729,0.08356943732810362
1980,1.8038282575143247,6.46975820462139,5.3398175029475015,0.2412873789406508,-0.33005578104193883,0.08599778574511961
