0,-0.9570498526096344,7.8609333515167235,6.278783464431763,-0.059059303160756825,-0.0332676945370622,0.09592091366648674
20,-0.8273462288909488,7.892654101053874,6.206560267342462,-0.014270851854234934,-0.03017842780617583,0.09276654736863242
40,-0.8259133100509644,7.874824505585891,6.071927419075599,-0.003026393743661734,0.006716597319329874,0.09067243824784572
60,-0.8423424924121183,7.859749976326437,6.029391457052792,0.004430572721449768,0.034708600980914474,0.09979306029922821
80,-0.8129380913007827,7.850190037772769,5.992453155063448,0.017747103414010434,0.0461900977922293,0.10988815270719074
100,-0.7822134113311767,7.850012130737305,5.9130160522460935,0.02314848717302084,0.053422272687312214,0.11500578165054322
120,-0.7498889056773022,7.833118159195473,5.856731431237582,0.022504910240592115,0.05431565696750928,0.11853716830755102
140,-0.7206106036901474,7.817198919527458,5.813002933155406,0.020282262134997203,0.05077175634990757,0.12151105814810956
160,-0.7003814171294909,7.8054337050463705,5.773162435840916,0.01663998515947684,0.04788613855379407,0.12472006819538169
180,-0.6814122930532549,7.790239456223278,5.7458857443274525,0.010629522173719413,0.04555057711393868,0.12793299483089912
200,-0.6661880175272624,7.76502619849311,5.738679917653402,0.004462531780397209,0.04486119867069647,0.13185305181476806
220,-0.6482035972253241,7.715640410028323,5.728016024888164,-3.7675870922300025E-4,0.044293472560997485,0.1363740497165256
240,-0.635956054814508,7.659317546915785,5.678658685951589,-0.00727972613877116,0.04497042396611024,0.14104851616441078
260,-0.6127918063298515,7.592462149910305,5.656869755620542,-0.017339825636514906,0.04050850145134103,0.15524866334770038
280,-0.5634332372829681,7.532005728744879,5.623973416119087,-0.021375519479293663,0.028081477075489615,0.1816642166880088
300,-0.417281893913755,7.576452637446746,5.587123736170412,-0.021210207991552616,0.008841238540014295,0.2253536853853983
320,-0.034633022927337415,7.792876967423254,5.572400858076357,-0.011189153374603232,-0.027301578084844427,0.27455567187971347
340,0.48301192319818903,8.180051054273333,5.5746607293888015,0.01190846765926266,-0.07939179726245933,0.30091605776426744
360,0.9401147376385427,8.654241183496291,5.61058844289472,0.04089995327296727,-0.14138291716620688,0.29558361546406825
380,1.2516108110684192,9.100868883308458,5.726065840457846,0.07179032414962332,-0.21816624223863124,0.2698124205019394
400,1.431885596190454,9.441139346674868,5.9780530483402,0.11723329425549096,-0.3147300564410296,0.23690256305387494
420,1.4920570913015465,9.649279842163597,6.280892169675347,0.18063375647501714,-0.4150379868529935,0.20098912169605326
440,1.4299676037607665,9.716120727559462,6.549418138310234,0.2573371575222373,-0.49551833048898647,0.16675282117318024
460,1.2778162915373639,9.65645029350203,6.696548228361169,0.34418242723352577,-0.5505305862247858,0.13620420532985306
480,1.108706247152797,9.511162979930054,6.674567524124594,0.40792876929623945,-0.5726387394705157,0.11583141123364661
500,0.9296517266874325,9.292427602803931,6.58456422697823,0.4531990355252725,-0.587131461642028,0.10456358412069813
520,0.7868945887312293,9.036343724077398,6.456668123331937,0.48701553976531037,-0.597110479176362,0.09760397671806541
540,0.6744921527835622,8.75503625498529,6.276905283462583,0.5107404614017261,-0.600523251896671,0.0911771488016504
560,0.601170226315952,8.456002422797857,6.04241128186932,0.5216219850313422,-0.5975161860810427,0.08340758788478324
580,0.5574310054452937,8.13992571316232,5.77419603307594,0.5158196555957013,-0.5884281595225148,0.07407836099231585
600,0.5334431045200854,7.813827556498822,5.511149275367932,0.496535176405612,-0.5794436997130683,0.06475810697006565
620,0.5245829940558626,7.4879551623733,5.254912588659387,0.46800194000993195,-0.5750601344844863,0.058039506546293314
640,0.5306755832132342,7.170617262137804,4.992400562112678,0.4301200625502961,-0.5752231817194713,0.05511059088688066
660,0.5556445565155667,6.8620089069953645,4.735162087513701,0.378970531957537,-0.5774513407896333,0.05461901412817879
680,0.5857797868026976,6.516873605823831,4.497292243780797,0.30685464046525834,-0.5815481970605457,0.053631289146448435
700,0.5808045246190179,6.202463244606102,4.336178967748283,0.23251097770906434,-0.5859939311960801,0.055191906861986315
720,0.5294982631044134,5.881706695805653,4.235763302784524,0.15078521969925807,-0.598767932705145,0.06685682300762877
740,0.4533175361677281,5.575125128115169,4.22084619323075,0.06785802246125273,-0.6299328736890812,0.09528429773681373
760,0.3760105281692198,5.310974900455035,4.293446683839011,-0.014754819503139957,-0.6705034292836993,0.1343325821312632
780,0.27032034034912406,5.1083189283769865,4.491863014617792,-0.10763738699123049,-0.6986927948000196,0.18056076610317598
800,0.12232580955501075,4.979698905570282,4.919212110866387,-0.20842922694134028,-0.6964440765415175,0.24181674453276056
820,-0.013794188931191073,4.963548230143848,5.544056077255619,-0.2981986495492266,-0.658005342272225,0.3229752087807201
840,-0.08266592089801941,5.078018051025092,6.278890531958431,-0.36456334960647263,-0.5949032643038038,0.4156257714382386
860,-0.04184911064073151,5.305619212290068,7.102782950775714,-0.3896952097237153,-0.5305368240726381,0.5159984954870215
880,0.18297950176343525,5.632456235230377,7.845703756084589,-0.36218702942523656,-0.46182838808202936,0.6174800452406276
900,0.5881988526029817,6.022029643274105,8.374195803356315,-0.2987316474756232,-0.38168044846933136,0.7046641291246497
920,1.1740737476273981,6.442477407753078,8.76751485678577,-0.19311343330814668,-0.3009213035879291,0.778884813823391
940,1.7939188483433846,6.767220073355696,8.915319370698088,-0.07553816470563805,-0.24848644044936802,0.8220968170903432
960,2.4373717706407136,7.045786686756428,8.88746054815924,0.047069137247823925,-0.2145961671245715,0.8355107670696686
980,3.03056109391997,7.242610146140157,8.773358081444512,0.16028182830291932,-0.20427427397039605,0.8152482602745295
1000,3.514477259007053,7.320695675972507,8.648300222809548,0.2598559797171628,-0.21380394988930626,0.7667095113257711
1020,3.8867195853124863,7.300280900248349,8.524907826044336,0.3472652196391321,-0.23494012918851837,0.7019041244788051
1040,4.164927991878154,7.226442601956254,8.391647539105874,0.41998281684740674,-0.25895138289535763,0.6264494629013677
1060,4.3589029151555065,7.109008815309637,8.251148876066418,0.4741417042810452,-0.28375758921496835,0.5430583621047811
1080,4.470449123949213,6.9409816881032,8.145107379216585,0.5097373674336937,-0.3117486145282102,0.4589186072132379
1100,4.509948566884196,6.732400180599631,8.085523004385147,0.5371731056057769,-0.345215143908445,0.3844149526832256
1120,4.532372466671519,6.509538938069627,8.014534058839534,0.5585133710530767,-0.38145745242618273,0.3225066103766878
1140,4.5650399007695786,6.284979938557173,7.933986660592416,0.5687974937229808,-0.413237321410239,0.2665860697864852
1160,4.5929962813106044,6.059249348829356,7.864482904897387,0.5692224268572942,-0.4373133571905661,0.21081019139158924
1180,4.549219294556357,5.8015145713145975,7.808698430267264,0.5661913289121869,-0.4645410906195973,0.15095568136971835
1200,4.455027401024996,5.606925185015689,7.773555003023643,0.5670486946037272,-0.48940874259284534,0.1141100710989372
1220,4.294227339223649,5.382756621519448,7.687203596951533,0.5679363967233664,-0.5194900552823188,0.08046885933097504
1240,4.120089928289683,5.224817342356343,7.577148478449033,0.5589361430105134,-0.537380308351833,0.058948327351631254
1260,3.909115041439244,5.111525650873694,7.473679555066806,0.5394139533515581,-0.5466084487479169,0.0416934363228163
1280,3.6572176933401677,5.043056949252082,7.3902216673646635,0.5130478302219532,-0.5526385625426267,0.03116399049052025
1300,3.4047688544910644,5.0239364278511465,7.3417872171605305,0.4840733272075179,-0.5557753966527199,0.03242144641057353
1320,3.2008047927699255,5.061386602126323,7.32474634628297,0.4602558216736433,-0.5579281569255728,0.04385799104364976
1340,3.0689807568293084,5.145145471848399,7.302966911548549,0.44454134961909414,-0.559334006290435,0.0559755045643411
1360,2.9708868850002563,5.255504255204699,7.25230798749703,0.43105559999098014,-0.5574075876881347,0.06274096585796857
1380,2.883764141924167,5.372455654307753,7.197198755638362,0.4154478749021624,-0.5506516590489016,0.06480364075071808
1400,2.7978660913653997,5.486577611371227,7.152969822371784,0.3998409353301395,-0.5408694018032807,0.064859022271374
1420,2.708209451185922,5.608258348813102,7.119696209800417,0.38738122714235096,-0.5322608629443718,0.06584546304856466
1440,2.647823655575111,5.705931990722044,7.084063530075238,0.38122282307542904,-0.527135039465557,0.06666702933836023
1460,2.5970874304076035,5.789265403933823,7.040743018494298,0.3760222651346703,-0.5210007452217784,0.06584659745994334
1480,2.5448265264398957,5.857768951461797,6.996482635511232,0.3708841005962696,-0.5133590238767379,0.0640297975631639
1500,2.492616674391093,5.914197712931056,6.955323658309054,0.3673363515596751,-0.5063481201643015,0.06280146615485988
1520,2.444900514080356,5.962708426006616,6.906300125697341,0.3656055037168605,-0.5008588066833536,0.06228151721566414
1540,2.4006585316095927,6.0036624083295465,6.850476190359391,0.3638417825147567,-0.49590962290648916,0.06168455488042599
1560,2.357994118100032,6.038862376089673,6.793959695944795,0.3614130876862873,-0.49054487857574713,0.06038179860770469
1580,2.3091093836651173,6.068092703991742,6.741292825917265,0.3588610627812608,-0.48473968864547917,0.05886955194629407
1600,2.2563056374741035,6.093820777051605,6.686266870856875,0.35665221341022096,-0.47935458393157004,0.05834334647984289
1620,2.2043053665344257,6.118957750936858,6.626283522925329,0.3541067410617224,-0.4742532549152454,0.05867128332176369
1640,2.1537784222247347,6.144829166953319,6.564556374885363,0.3505407585865517,-0.46946757492523394,0.05959062345833185
1660,2.1076806676300133,6.1717613123685995,6.505810216162354,0.34603414783615494,-0.4648790936869131,0.061129057286170255
1680,2.0667000308546215,6.201067866443461,6.453916513041571,0.3409317138456424,-0.4603547416904909,0.06210372639145854
1700,2.0253400874120753,6.231097801138872,6.4061613672991,0.3359389244143058,-0.4555930846414914,0.06243535027312029
1720,1.983606964307414,6.261595120642927,6.357681693260516,0.33090375204475014,-0.45077622582175536,0.06260206864614949
1740,1.9418832575588414,6.29187130943736,6.30982724678169,0.32525010839596147,-0.44611025153295647,0.06267377489254276
1760,1.8932015602780448,6.326240068820826,6.261591165064319,0.31809025898957805,-0.44097334799910903,0.06296668490963302
1780,1.8496779270051111,6.356907760972267,6.22596689679025,0.3123101443811626,-0.43638347684302264,0.06398984839863799
1800,1.8106088387189758,6.38771558955332,6.189315691170772,0.3077850989848748,-0.4320688669890762,0.06535576450672592
1820,1.7757286306595643,6.419199128268949,6.149587446656203,0.3038798587977255,-0.4272778255927483,0.06599170170511875
1840,1.738752441062712,6.44972743597599,6.107153770383967,0.29956387030324066,-0.4217737221998839,0.06617557118828613
1860,1.7031012874943512,6.480054495829242,6.068281086692868,0.2949991685707145,-0.4165379230016243,0.06684761227055915
1880,1.672415107953688,6.510068238779457,6.032260283464457,0.29070329117206906,-0.4120344278276674,0.06771623012785387
1900,1.6419429525847913,6.543901672850154,5.993749058419949,0.28630036888888005,-0.4071210625438992,0.0682538570040133
1920,1.6147124799532442,6.572689550362394,5.9598631577533085,0.28296451996114685,-0.40320714018989806,0.06833237429463844
1940,1.58759033848867,6.599865710545772,5.927583114405911,0.2787735941637306,-0.39773481396162974,0.06845841117576233
1960,1.5614034798451493,6.626601237153397,5.893265356228424,0.2750540894131493,-0.3925820908519646,0.06853604338020365
1980,1.5358580783929354,6.65318121276336,5.858235776944109,0.2707261556040145,-0.38754758919175303,0.0681064702892377
