0,-0.5306299097008176,7.3846438725789385,5.865136941274007,-0.1268235362238354,-0.1731973389784495,0.2678424335188336
20,-0.40349037068731647,7.352428464328542,6.170415850246654,-0.10146258322193343,-0.16401030298541575,0.28798846900463104
40,-0.4040877157449722,7.281434459686279,6.244869995117187,-0.06348527815192938,-0.17819461226463318,0.30178176462650297
60,-0.42544258137543994,7.136432719953133,6.352027531826135,-0.016030651799431354,-0.18826168369163165,0.32641584358432074
80,-0.4561052064343197,7.026169788546678,6.247262687217899,0.014139243765029966,-0.15928538755241145,0.3646126182340994
100,-0.40353637295109884,7.005579062870571,6.164878309989462,0.023348558485051806,-0.12211778541855818,0.41251186783216437
120,-0.24034232502443748,7.066820571297093,6.08990468476948,0.025636989525274226,-0.10944655410569619,0.4412282368070201
140,-0.12374268607659773,7.259885108832157,5.989798972100923,0.013699911372510322,-0.1142742236772778,0.4446601897026553
160,-0.13023728833256945,7.642960767488222,5.973891013377422,-0.01951173586594696,-0.1119334338566389,0.44909573829657323
180,0.02482641991455017,8.190499829082954,6.257660598289676,-0.05223842323530556,-0.09052386532378633,0.46529958905970176
200,0.4988027553901904,8.837196689181857,6.876686848534478,-0.04154911485707594,-0.050520298029813504,0.47978862805498973
220,1.1922309916675546,9.526997099117358,7.536442532831309,0.05442602189770919,-0.05327778706821252,0.4504374525300702
240,1.8132106117324307,10.0755312757672,7.882325982147792,0.1984835561092521,-0.09621467190039046,0.37114293152853
260,2.271360973084117,10.418335412677965,8.002306879612437,0.3350636155401732,-0.14129702735430838,0.275392724593219
280,2.660591968342845,10.564745715407074,8.030461612294932,0.46719577971494713,-0.1898665913212739,0.1693840533433879
300,2.9292195417201863,10.5198474077078,7.900580266805796,0.5879698378714517,-0.250838268849139,0.04845941235812811
320,3.046291414020664,10.290878724360812,7.6839866517246636,0.6913368901865475,-0.3163544640511922,-0.07657763591387133
340,3.025369108201655,9.918038779742098,7.380892802591193,0.7690934760476884,-0.37774066985521004,-0.19442031820853278
360,2.8943656676618215,9.428321389989419,7.085370131901333,0.8257081339456286,-0.44110518704809537,-0.2977126853467969
380,2.6408985130477447,8.76362663233207,6.682486838221184,0.8721970291551134,-0.5086027713938176,-0.3932195069279773
400,2.390905827760477,8.179104761341039,6.286137622112737,0.8788940486799487,-0.5493133062058512,-0.4454711704788839
420,2.04727348147803,7.377944950118411,5.821128698575763,0.8359001423648491,-0.5880695535754524,-0.4854661606918167
440,1.6821746954813919,6.632027089117683,5.535799740011838,0.7670954402043101,-0.6149418941415089,-0.49257708753254964
460,1.2689428134940757,5.888284725867785,5.361822597204875,0.6836853015045516,-0.6405817179439159,-0.46741703303578575
480,0.836392764492979,5.1835539668358015,5.268618487977776,0.5962518165782644,-0.6673046304325899,-0.4055284312903294
500,0.45187550143590327,4.560526005888438,5.216125771350346,0.5064087569364898,-0.6904335559491439,-0.30800673900551706
520,0.19129535606445652,4.043055607167553,5.159047294986438,0.40667391312627554,-0.7035500154868789,-0.18738851194444311
540,0.07043678759461851,3.6403665383744346,5.158745705310075,0.2852935145018286,-0.6969825204724388,-0.0627258226833417
560,0.02384827907018839,3.3959543921846023,5.258342067754649,0.14743598014155918,-0.6649943797353735,0.054992693678495734
580,-0.003725587313711153,3.3865380514060517,5.4754485716207775,-0.0020207294278276064,-0.6107012385908713,0.17121150036468918
600,0.11131593172041425,3.74018097410639,5.917721408786646,-0.13808820495174165,-0.5608493972317393,0.2951244962553817
620,0.6708081532233896,4.63928198917554,6.6229109750487485,-0.2304418018284755,-0.5374930168537853,0.41483757921422904
640,1.4780130878111708,5.766152749421881,7.308563302271068,-0.2670666675566376,-0.5236786912688847,0.46355577381744756
660,2.2889966198303937,6.913467128315697,8.091851551045218,-0.25523513884020405,-0.5020407997780358,0.456927556409568
680,2.986049752233183,7.832877949195009,8.751907763779688,-0.17633398427319727,-0.48938824738454545,0.4224226214778675
700,3.5733528784508115,8.421512366259751,9.10763633293291,-0.04712124826380192,-0.5028950071746917,0.36870007933921195
720,4.008288885178044,8.697817142109075,9.19441653451572,0.09439798251570512,-0.5421656574650358,0.2957029934972525
740,4.30929350487392,8.739504378434125,9.153656205972778,0.2212349568847446,-0.5907804236245378,0.2085786945875976
760,4.506396178412546,8.606957779183418,9.085976919430438,0.3267714982525198,-0.6411559738165734,0.11122342267462725
780,4.59790546458249,8.317297016994821,8.998561883057802,0.4129602347606977,-0.6869346835955196,0.01152473800804144
800,4.6027227563149555,7.889916043549058,8.854632887865854,0.4804168966141563,-0.728942985800712,-0.07955252798835197
820,4.505432265876216,7.276434850701489,8.65866323860903,0.5342226641599493,-0.7805184449132019,-0.165095533771424
840,4.335987460239121,6.639035571825539,8.4437687029491,0.5681489181363245,-0.822933650447488,-0.21644408140534316
860,4.1419617090588146,5.975728251227812,8.135875012829942,0.577487365169195,-0.8612979705463729,-0.24564813229800606
880,3.898068337507342,5.32000129896484,7.8545489358269185,0.5529481812150613,-0.8956005035886822,-0.2586597629401782
900,3.5845160864008934,4.7110870554443975,7.671061703910297,0.5072881222512803,-0.9190255852426145,-0.24633657337034037
920,3.2759468282629145,4.1898133684722145,7.527842181971849,0.4511719819542089,-0.9367850835745534,-0.20569046537863614
940,3.0211725819707493,3.7625942817460603,7.42309555581802,0.38402630670886767,-0.953912754432995,-0.14560963267072613
960,2.82702808680543,3.434747693408046,7.3891121852645645,0.3041484799829572,-0.9643234892699032,-0.07551185081077162
980,2.6876378097077027,3.20800162292557,7.424489921791318,0.21004146582757433,-0.9559951278461535,-2.7805033289355995E-4
1000,2.6221579600364584,3.1140242116864023,7.545935610972219,0.10160745368801401,-0.9244736377397872,0.07333981777940478
1020,2.601309899114639,3.2004174866543247,7.800470874120532,-0.01063936797795804,-0.8850055385730505,0.14149669559579564
1040,2.7274081606161724,3.5388117567712056,8.218903478017914,-0.100359401549484,-0.8542837852716342,0.2075734554262428
1060,3.035142067561962,4.1259227549525095,8.693987063824858,-0.15533384255685542,-0.8242712320197263,0.2581905799340329
1080,3.462070694341504,4.92806968323452,9.250414323195347,-0.1790218633033686,-0.7871920678184071,0.28238454491167325
1100,3.8432996162000044,5.5997563246391415,9.710454151838492,-0.16208378906107387,-0.7526727994177737,0.27975347649617865
1120,4.179143379702438,6.119575805768564,10.023831120639782,-0.1082728202706727,-0.7218461497848071,0.263131054368241
1140,4.450017830085485,6.4475660808859985,10.139371698286306,-0.028779292054117677,-0.7059524874698292,0.2388277678255071
1160,4.666520400454044,6.608861242658673,10.094556838227241,0.05504889822580606,-0.7053841892980569,0.2045170779975139
1180,4.811466327349084,6.635525069394966,9.983585161758672,0.12819577691168238,-0.7103932636594514,0.1604038470045284
1200,4.913503994756126,6.565175433209551,9.848747403228934,0.1889656478593782,-0.7163883866893075,0.11232190073924025
1220,5.010839094135139,6.424854834538057,9.682558683596877,0.23612740605167926,-0.7230497341551094,0.061259928259597834
1240,5.088815627778497,6.219152151661761,9.50135285534403,0.2687329358229523,-0.7310623974740214,0.0060349392394224806
1260,5.127265439924342,5.946454589719018,9.305964400941455,0.28918102883165664,-0.7393242094816791,-0.04938034772240057
1280,5.118739785284809,5.620683046631487,9.092623764188684,0.29870788219469835,-0.7496991528608896,-0.09967927987414621
1300,5.067798763449035,5.265320574578721,8.874848432824963,0.29572767101329395,-0.7690424094785856,-0.1426091812104545
1320,4.950518824124081,4.855229653761093,8.660620376399098,0.2762980077863357,-0.7962468198944795,-0.17889170133222312
1340,4.792977630772616,4.507339993589802,8.515429304253493,0.24703583752520097,-0.8177558767242517,-0.19506051531991161
1360,4.600965543386855,4.194069246753171,8.404633769788822,0.2114068741930152,-0.8379537246168353,-0.19150316296728437
1380,4.420716264685928,3.9284657845947057,8.324344841845505,0.17212677431396312,-0.8619168849080485,-0.16716550842479425
1400,4.2896259548401705,3.7108975504273953,8.274005624891624,0.12983517614152768,-0.8879431004595497,-0.12584206319373586
1420,4.233039047854983,3.5417122925227544,8.250887849069429,0.08388405402892271,-0.9129234061098783,-0.07474242748874743
1440,4.252031140305203,3.4294978933386795,8.255426021554396,0.033011568061748986,-0.9335801001802062,-0.019146476174167367
1460,4.358703832580507,3.3981130149258996,8.302921340099608,-0.019037173780300135,-0.9472934389222594,0.03646453923992004
1480,4.543632395367585,3.449617387263543,8.35576188029749,-0.06881716804689371,-0.9552821291601393,0.08550800692406675
1500,4.778052497090302,3.561475956754956,8.418427827451529,-0.11349182943843839,-0.9589595636898949,0.11578228703247996
1520,4.989437159514099,3.7016931198429717,8.538687110862083,-0.17335200646031126,-0.9622150817871046,0.13218975873188643
1540,5.12957791139692,3.8428488365491105,8.72194795294557,-0.2208150762336981,-0.9638745788036124,0.1314632366885536
1560,5.193736893830294,3.972786585326672,8.921789226356854,-0.258673457393105,-0.9596860826639269,0.12433664609823107
1580,5.201412590417775,4.088457670448553,9.115118991053869,-0.28612678452183304,-0.9498344135472128,0.11569784053761822
1600,5.174469138414701,4.209422233469057,9.311807144302648,-0.30162582462511334,-0.9367316053668393,0.10781001015903982
1620,5.1431676109744995,4.304752003558608,9.433434096047183,-0.3054499275756562,-0.9167005021268143,0.09951884743385157
1640,5.107578965867149,4.383349233994349,9.50031584390949,-0.3023481257807275,-0.894262255400896,0.09084456009943442
1660,5.0722988687540695,4.436832054220524,9.532869503631726,-0.2970173141208583,-0.8730990741942325,0.08143839257167836
1680,5.025120740622184,4.480590163555208,9.54412187998667,-0.28899778085089733,-0.8503986113898597,0.06937126834382705
1700,4.975513734908359,4.507861138612246,9.537554031787373,-0.2797672967681085,-0.83213923698787,0.05720489080409057
1720,4.922343701620279,4.523525277173824,9.517671961977612,-0.2685711428262452,-0.8157886146152371,0.04448527059155987
1740,4.879341218650624,4.52862554974854,9.490897709362502,-0.25947188075273453,-0.8019411234967306,0.03416522311421472
1760,4.839529698164875,4.527458613303801,9.459622370829392,-0.25215052817366085,-0.7881387371246495,0.02429717989822772
1780,4.79934300865932,4.521948387191355,9.431278088227282,-0.24640580332149742,-0.7750435638648284,0.015328634607862773
1800,4.760693779851705,4.515022011736975,9.409648173817676,-0.2407020163392071,-0.7626007003393328,0.00827959928558456
1820,4.726719337354053,4.508431299259105,9.387865349455106,-0.2343856584755153,-0.7504533455664573,0.003401719750517288
1840,4.699869336668114,4.502426696445872,9.365437656289284,-0.22776242807207808,-0.737886613996531,-1.1870618138655505E-4
1860,4.67876540523292,4.496775402383585,9.340015649447512,-0.22167390328035444,-0.7248801090301161,-0.00331061592641115
1880,4.659298649124442,4.491485087686063,9.313663803317468,-0.21717349373830075,-0.7120232050159151,-0.006628135727775468
1900,4.634785289842601,4.485763877687767,9.29104869273351,-0.21393547056317233,-0.699614655810946,-0.009378939967082823
1920,4.611331150399604,4.481304444040463,9.280673638389558,-0.2096581269025945,-0.6877366619777813,-0.010933356731388552
1940,4.591714738811804,4.478668581661481,9.270350867800161,-0.20439183567257183,-0.6786218347840604,-0.011212734229983656
1960,4.573411096858277,4.476611617371235,9.25430804182695,-0.19957120681167598,-0.6687687647037124,-0.011028342819121548
1980,4.553491862128144,4.475015721174489,9.236735168549753,-0.19604746783635726,-0.6583790997646481,-0.010216208467661773
