0,-1.1469482845730252,7.606582323710124,6.211084259880914,-0.07592124160793093,-0.2042143146197001,-0.00950356676346726
20,-1.2115981719073128,7.48824021395515,6.4428845573874085,-0.05016690543647308,-0.18851732988567912,-0.001816952628467013
40,-1.2293156814575195,7.43030891418457,6.464828586578369,-0.02263671149732545,-0.14119326941668986,0.010047586839646102
60,-1.2516517783656265,7.413964719483347,6.454795635107792,-0.003015185658692975,-0.10020576702487288,0.02384243904133186
80,-1.267958443339278,7.402830449546256,6.46374909470721,0.018640467458370526,-0.07666838300845973,0.036177225763023624
100,-1.2606601325833067,7.379202112859609,6.39812387738909,0.03207266198979614,-0.05243587011129272,0.043310361999866306
120,-1.2700326944652356,7.3732149893777414,6.337810198465983,0.030203395718177616,-0.039911289315409305,0.052412594872804585
140,-1.2891011761896538,7.377458810806274,6.361970489675349,0.0364560905242494,-0.04477973459429587,0.06537968348570619
160,-1.316807690504435,7.375171674264444,6.339746430113509,0.05232076652621775,-0.046065729533045274,0.07926847261527704
180,-1.304818383077296,7.364802203527311,6.2738999680774965,0.06168624580335213,-0.040936555019892164,0.09064861495479397
200,-1.273618221282959,7.310824044545492,6.236311795976427,0.06390655689497685,-0.034310552353013515,0.09696961690464781
220,-1.181917752652448,7.175478823330938,6.153929642268589,0.06142722020740621,-0.028146753467177515,0.10127487975856936
240,-1.0492445476142302,6.980397701263428,5.985425206850159,0.04218744475972171,-0.01442639782688721,0.1144422982898453
260,-0.7946423102300941,6.820175564079954,5.686995137156102,0.0027120971164805,0.03007845293062641,0.1473005593043605
280,-0.24747227825468682,6.815636939689761,5.326955561430697,-0.06456569371578956,0.05575823478570559,0.18775518030523644
300,0.6684315536171198,7.026361208695632,5.1533453287234385,-0.12554207441370147,-0.008930855645135474,0.19872559021728542
320,1.7997010481152413,7.498459366784579,5.136032834146307,-0.15299466422436744,-0.15972795013458116,0.1515868073936714
340,2.9823571885744595,8.132666476785321,5.226785866093937,-0.16688460741895378,-0.32903632409320444,0.02663638503354502
360,3.8508805424797456,8.71249044715584,5.4536774349429145,-0.1943246909699179,-0.45844245740694795,-0.18325004785309557
380,4.107133438672732,9.089572606263337,6.024450140726396,-0.22955604631167745,-0.5815678247143543,-0.42912571951402007
400,3.7755593888635874,9.25191883176391,7.194246808456377,-0.22176902569123758,-0.7413412298546281,-0.664569593927883
420,3.305876388001209,9.15884943914147,8.29846205569377,-0.13861711054823136,-0.8447417840774577,-0.8183983783367709
440,2.6660282800900426,8.905118454586376,9.145235187017962,-0.0025091412515170315,-0.891224457697761,-0.9263013300939119
460,1.9473352063351717,8.566186888064616,9.67551085928646,0.15483968573091075,-0.9104874587208869,-0.9885364984138272
480,1.2973927627386423,8.197715673070364,9.932346990348064,0.3052232008002437,-0.9007059054565616,-1.012717428396965
500,0.738664927446588,7.804858198775623,10.003281907825091,0.4377308581992697,-0.8659760420256454,-1.0135070121586676
520,0.2473978776671843,7.399779519098109,9.907004180383447,0.5497274018617317,-0.817271920988181,-0.9980240279859672
540,-0.1682633158098496,6.974951316711251,9.708586632243321,0.638275646509978,-0.7599284751994622,-0.9690940769867241
560,-0.5207486032647022,6.541807583646175,9.449096436535028,0.703732709760748,-0.6945197702125409,-0.9292713231397198
580,-0.8246752363878759,6.08951975102249,9.145190275337455,0.7484515381231042,-0.6253713382282984,-0.8812514143879047
600,-1.1159460943576598,5.545439859325554,8.765106572124678,0.7722285858959251,-0.5391116793346425,-0.8171729005675482
620,-1.3314282657292027,5.0551679419550615,8.415251519206839,0.7662918802778362,-0.4568957244581095,-0.7460333503361863
640,-1.4648583559597383,4.583013056907733,8.114398007592145,0.7394818253395992,-0.37886078394719214,-0.6611804984546433
660,-1.5121425089385847,4.135886519801452,7.865504801021956,0.7004643811612724,-0.3075689084427617,-0.5657462836319135
680,-1.4687710940496812,3.7242049323837603,7.643924419195916,0.650464330878376,-0.24113181008097329,-0.4635168729672982
700,-1.3418015514002883,3.3588017789465185,7.452841777295474,0.5873071262610945,-0.17614620174133785,-0.3599229001971153
720,-1.1355905797953407,3.0511592079000547,7.302526627572564,0.5095206591609167,-0.1115709589450853,-0.26086501877832535
740,-0.8791743837079251,2.805252277308942,7.182803846984896,0.4198635256448201,-0.049803806447489,-0.16907142549103077
760,-0.5692719171012316,2.6196209328835596,7.085074406817166,0.31958451500450574,3.407478210578166E-4,-0.0853236683687089
780,-0.2013886323382641,2.513114795380525,7.030683619181487,0.21332051330170576,0.03334848945805901,-0.008752866671851801
800,0.27418645364737293,2.5178437393806674,7.021346317888911,0.10706793015289082,0.052202113194521574,0.061835211790755885
820,1.000865346623743,2.6731930872537415,7.00581871815807,-0.012300983104271721,0.06822361934488322,0.1160393921744428
840,1.5848147654263625,2.8846222096451974,7.002128947904901,-0.11066358210000439,0.07852042932882931,0.12863832419863955
860,2.2830910326323424,3.2165717386708437,7.0773031399298345,-0.2357186251725931,0.07189539239525988,0.11357785716420692
880,2.852566803083436,3.5600621578768408,7.252106325750635,-0.33504190141835877,0.03169532611931049,0.07696857428854356
900,3.3874053217710345,3.925443588182999,7.505349434246796,-0.42076717775540384,-0.026526286780937817,0.020465869136309454
920,3.821219244429211,4.274261404771182,7.8662754032807305,-0.48962696728720073,-0.08907194144451218,-0.05680765902924197
940,4.093747325691665,4.588611328446457,8.286792550565181,-0.5334756180434846,-0.15066071948533935,-0.14724876050799032
960,4.2340568647220245,4.845987397054872,8.743691818083704,-0.5510975909831357,-0.21619512687096495,-0.24355304953454518
980,4.25689014484301,5.012084186457695,9.216958073180537,-0.5449163708837278,-0.2807476096152742,-0.3430728908587983
1000,4.1665918701768065,5.082196859353093,9.649992230579429,-0.5190441121752306,-0.32873416923143794,-0.4391718599815643
1020,3.990933275730692,5.078294947932556,10.030387739240547,-0.48055339040527245,-0.3595417660998121,-0.5271639831617448
1040,3.740205568198488,5.005836669845173,10.383454095089204,-0.4287111549085985,-0.37991716556610877,-0.6033845155446688
1060,3.450176489051406,4.885401597603499,10.675090280354015,-0.3634925549829888,-0.39036382944682757,-0.6607744559327042
1080,3.141524690307777,4.720347410939726,10.900271352759516,-0.28301472417739293,-0.38995015357436735,-0.7038524585777075
1100,2.913071866758529,4.557026007146029,11.01790272414434,-0.21594352984510154,-0.37318433361886466,-0.7279426596555162
1120,2.724858410067824,4.385726768776443,11.080179903022259,-0.15534206912401777,-0.34105591966407234,-0.7409171523265259
1140,2.582381501246957,4.212340141907136,11.085078301450158,-0.10071338450429625,-0.2951846001648711,-0.7448893135458112
1160,2.480488756359808,4.043013597673943,11.026309641953908,-0.05342011232034763,-0.23784269055994092,-0.7408994900059758
1180,2.416111567529079,3.8826323566534806,10.915563169938661,-0.013812379187299705,-0.17708198579184906,-0.7301891326196224
1200,2.3822106335779676,3.738771088250728,10.757070697718659,0.01669554010791014,-0.11857280611927312,-0.7146006981066432
1220,2.3805159209704256,3.623130351938567,10.57574831456432,0.03601346871028543,-0.06299584706402495,-0.6948427387380571
1240,2.412000783562076,3.5425815440084345,10.402415574205966,0.04811757221149153,-0.009111304436787489,-0.6719626346461511
1260,2.464549171691581,3.4945925597099654,10.217431176607551,0.05641654142055887,0.04238702149526396,-0.648671546652931
1280,2.5203711282136094,3.4825953107863707,10.019978988783773,0.059760515365511455,0.08806995152127964,-0.6262651268687602
1300,2.5766105529492935,3.5099775124618553,9.825608416020081,0.05821060537862459,0.12328846172060319,-0.6043824394262302
1320,2.64722445638744,3.580488185069831,9.628437645111617,0.0524277326823075,0.1515337623379015,-0.5838101477526012
1340,2.699139306243989,3.665240674922767,9.475923436924566,0.04478261997733526,0.16998907371845431,-0.5727474263614845
1360,2.7133215922122567,3.7541996945247176,9.34799727886392,0.03526486686298837,0.18342164585174,-0.566188085278203
1380,2.6976622490629527,3.8442810665400504,9.251990416150448,0.027275409891021257,0.19142502498851163,-0.5580637629100367
1400,2.677565299777881,3.9352380116956067,9.168768279328132,0.022633661478656628,0.19403592700391764,-0.5467937149305868
1420,2.6686762960221917,4.026015675378289,9.093753985519877,0.018663811521252415,0.19562867917545781,-0.5349732617600813
1440,2.661924506239782,4.113184831553499,9.030609973073604,0.014919498730383896,0.19887354162999535,-0.525569102952616
1460,2.643509912209738,4.193795326241262,8.971663584776428,0.011991895728947467,0.20216689095725515,-0.5174787283221257
1480,2.620782780232402,4.2686983320265215,8.913852732385397,0.0104919040062207,0.20397648102225263,-0.5093374720101799
1500,2.599246651891286,4.339206997440689,8.848799211885478,0.009743710982753343,0.20421211351082108,-0.5016808323747652
1520,2.5772564030741227,4.403852919976931,8.780526415956913,0.008034963507476572,0.20400225152128884,-0.4955451454844679
1540,2.5505630587553827,4.463944626575787,8.719063288326304,0.006384737948940922,0.2035233757419699,-0.4909384024953809
1560,2.5141934065938183,4.519405794333585,8.657902279448242,0.005601870968660226,0.2026047117423145,-0.4868412728906727
1580,2.474517992696217,4.572525579634179,8.596158572919581,0.0055850369148093115,0.20090940591659315,-0.4821687651959347
1600,2.437683886699094,4.624845070405401,8.531754678882345,0.0055710536156752585,0.19905953600528145,-0.4774843523591643
1620,2.3972270863512195,4.681181295344982,8.460969546368677,0.003858461320250862,0.19777511258713734,-0.4733030763580969
1640,2.3575546785390804,4.727961211938583,8.409013731390587,0.0017261387110054436,0.19714753736523216,-0.4701378325823628
1660,2.3125816439442777,4.772485180009458,8.362274454169057,9.183892547940452E-4,0.1960060127943186,-0.4663311447359293
1680,2.268550059953055,4.816273085845412,8.31348911610765,0.001240365450939862,0.19448769025832516,-0.4611877288038539
1700,2.23823211838086,4.848651676668895,8.273433130724968,0.0014313110480016576,0.193369233898999,-0.4569764685674815
1720,2.1903475106016477,4.9028569374263915,8.207936410439618,6.488107988347606E-4,0.19191091626081205,-0.44966730611155403
1740,2.1535935768166956,4.946300842356476,8.160249007119551,-2.2872700020762455E-4,0.19102166958156191,-0.4434003091935236
1760,2.1191067145516476,4.989358122716011,8.113721116618642,-9.129186929688634E-4,0.19016180093175433,-0.43678433269314054
1780,2.087489896709775,5.032015206626806,8.068452687286081,-0.00144306203319402,0.18916645494507495,-0.43015060704047947
1800,2.0587276333295135,5.074415307559716,8.022801630428622,-0.0017604960688439187,0.18819564165752797,-0.42386155356096267
1820,2.033519743831568,5.116341377685463,7.977494932537753,-0.0023946919551548567,0.18733519401724552,-0.41830338032225206
1840,2.0080456060179053,5.156413573758711,7.934483482073274,-0.0034148685300216188,0.18673316323815442,-0.41367445531037406
1860,1.9804921522932617,5.194602201709303,7.894747343411252,-0.00441216602362386,0.1862005741961184,-0.4092733360826969
1880,1.9525709373604816,5.2308164359098255,7.855689351977465,-0.004843570669663677,0.18541900641753273,-0.4046185281234405
1900,1.922192819195978,5.270935783579231,7.810439528863244,-0.005219913320840628,0.18420037876419362,-0.39939892999204585
1920,1.8959585576490232,5.305636652171683,7.771548873667196,-0.005719236172305622,0.18324510345871672,-0.3948648147000249
1940,1.8708697339663138,5.339697782121115,7.733092554493174,-0.006105719312064204,0.1823930607306064,-0.39035232878591947
1960,1.8460249171014433,5.373646647656004,7.695458221587047,-0.00629163957304134,0.18149951670428427,-0.3858874391359783
1980,1.8202267596578716,5.407267502921764,7.657247832652218,-0.006489669932245319,0.1807809851509496,-0.38145757408534053
