0,0.008143066801130772,8.333710193634033,4.3076822519302365,-0.1976186592131853,-0.28985164016485215,0.08341832011938095
20,0.09260742583622535,8.283308453030056,4.873066571023729,-0.23135794968240792,-0.28999367770221496,0.03337456451521979
40,0.053058895927209124,8.297269160930927,5.234775955860432,-0.21159820530850154,-0.26022089903171247,-0.009063022354474435
60,-0.051422481151188124,8.271693426020006,5.393443339011249,-0.17112177287858418,-0.23227096086039262,-0.024825080243103644
80,-0.0725348814656692,8.27798623130435,5.41274436882564,-0.1393182586623533,-0.20806976390026866,-0.02521075334932123
100,-0.055508103093826304,8.29503313700358,5.4499376194149844,-0.11783766410970951,-0.18427139798215791,-0.028778046150417888
120,-0.04246085738542221,8.312910225431798,5.468763476711208,-0.10195339966754792,-0.1708435432638152,-0.035666508884248084
140,-0.029383674389057195,8.316080136085624,5.468509015752308,-0.08868583164928454,-0.15957297529302425,-0.0439865127094646
160,-0.024269532908995948,8.321447842915854,5.463582665125529,-0.07996020301943645,-0.14706359043717385,-0.053599543621142706
180,-0.015062654144074544,8.329185761601092,5.459663675492068,-0.07218505616975858,-0.13742127839520754,-0.0652098131915891
200,-0.006211260149439612,8.345195896022922,5.438642163853069,-0.06743922882654531,-0.1287485531807601,-0.07727220920579773
220,0.010692915644007499,8.397712986878675,5.424646890524662,-0.06449325858542432,-0.1229894228956916,-0.09089880839291245
240,0.06285247718480146,8.486696100680627,5.396807409892572,-0.06693083345378688,-0.11879335093163998,-0.11280691223306076
260,0.10929620042443275,8.602993824170984,5.411661394782688,-0.07696780346830011,-0.11356465722555699,-0.15024885188626205
280,0.07936666669642053,8.733526710572281,5.467498792865412,-0.08622745350164142,-0.10323511042851742,-0.20073925664390974
300,-0.07269158783077284,8.87711283996815,5.541088167947668,-0.09139211639230502,-0.08316081003037118,-0.2576996951669682
320,-0.41947058252990244,8.9955910887037,5.706510637487684,-0.08902571412077773,-0.07286552107626838,-0.3234123092943004
340,-0.8600062355902549,8.981097053837132,5.95482793208715,-0.07039874080274368,-0.06558826449956442,-0.3699701459876992
360,-1.401301420508669,8.857151049834032,6.180747330188751,-0.031687246425486267,-0.0335764044848008,-0.39279998946361816
380,-2.0109402608671565,8.645787199822868,6.323435979645427,0.016170344219994505,0.009170527819816659,-0.3783105103208161
400,-2.551197184942836,8.355555108120274,6.388547773971114,0.06192026847836746,0.05111511775054211,-0.3192138784716642
420,-2.932195917641123,8.012857504421845,6.435763696829478,0.09667635284357756,0.09134050702883137,-0.2242126029605667
440,-3.1506992754863297,7.615245178406266,6.520695740872241,0.13223972969702097,0.13079995547044784,-0.10766462080101384
460,-3.2164135999901564,7.196276376199699,6.583640143579366,0.17451996574438491,0.17287000340922754,0.01786190497555903
480,-3.186737976128272,6.778046431261863,6.581420030079636,0.21288358746638622,0.22526433768079562,0.1498276601344639
500,-3.000146186857853,6.402090815778927,6.534607719700292,0.24532437990150494,0.28566850858898657,0.29475701739132965
520,-2.6094609718431125,6.099723080397498,6.433131601593711,0.27345689228307246,0.34457765218209135,0.43354268817400393
540,-2.1146972830358304,5.889164184649034,6.238332851740875,0.2860377422222978,0.40365592844522835,0.5454139697545192
560,-1.54926442722731,5.7544742489296485,6.011842871014076,0.27961128868063406,0.4540047881661085,0.640176103949421
580,-0.9844605954325929,5.730646556117857,5.824981018034171,0.27029773680830604,0.47252873544182095,0.7119082829021678
600,-0.2882353950866126,5.802138575794462,5.604459542221584,0.2604300249485288,0.4726748713568265,0.7640198090890415
620,0.4389584729041176,5.929774955189805,5.342765754367086,0.23817386097516471,0.4715998513888125,0.7761586021731868
640,1.0761740320677207,6.060129738530511,5.085561543301468,0.19715392328240497,0.4678998713322732,0.7510970085790055
660,1.5874743631600472,6.157206379001563,4.91904177115087,0.14538561914932313,0.45094205127080855,0.7024742981842601
680,1.980656043061039,6.232227635269233,4.8204434133853695,0.09657780291867982,0.4174360092794686,0.6436691570112056
700,2.3088479886282833,6.285479698867343,4.743397692610977,0.05039163095675529,0.3660777080486252,0.5784023989424262
720,2.576006751321875,6.3023230755157105,4.713653259738921,0.0033408443409055346,0.30333911357725973,0.5050747376182844
740,2.760566305381195,6.272564152192361,4.737875896212148,-0.04485901154243933,0.239250208326528,0.42717527315430465
760,2.850677804427944,6.20521630651438,4.81309794274244,-0.08947175041620388,0.17672256617704024,0.3484609989561023
780,2.8619232014509346,6.112104824406023,4.886576983600568,-0.12784999806953307,0.11325142544049482,0.2731482554800235
800,2.8187516867936013,5.984795509957468,4.963972189685352,-0.16926930439578297,0.03938820025699581,0.19373813052354993
820,2.716890680293242,5.856019069568652,5.065480525941691,-0.2055085269669248,-0.021722642519669225,0.12822870460845398
840,2.532904350544725,5.728667972803648,5.171887507644881,-0.23880212814364182,-0.07162577922855105,0.07349955673196486
860,2.3009582639323267,5.609309904852247,5.267638289930257,-0.2704336749431716,-0.11507474464577669,0.03542786548902702
880,2.0816123519357435,5.506922285527988,5.365707752680345,-0.3027474635601606,-0.15649623806522192,0.014056456173500402
900,1.8770294120525295,5.4196860705313075,5.505548179661357,-0.33459172398552306,-0.19106289429619988,0.0032137709216558358
920,1.6469459241519424,5.352003649064871,5.663280977193432,-0.36031268650854215,-0.2106539886737369,-1.4597723621348436E-4
940,1.3800594557172212,5.296076195469747,5.7936998766524574,-0.3834310656623879,-0.2185319457680751,0.006197639038929573
960,1.110928068920296,5.2509902677798275,5.935219710378033,-0.40677900586804333,-0.22406036631396067,0.02635548795437693
980,0.8829717854487484,5.2260980005192526,6.125610756347176,-0.42403006462539145,-0.22484747985644,0.05881959291661314
1000,0.6996812827273268,5.228524539594939,6.31469487988588,-0.4341237638298937,-0.2123707069740923,0.09819864683249147
1020,0.5502983400536374,5.248952257506532,6.500412453578397,-0.4409709184082121,-0.18791828623209236,0.14064989528526062
1040,0.4127658100457313,5.271210368258096,6.728938247268402,-0.44301631601309627,-0.1551036940252283,0.19348404831371838
1060,0.33112375295650986,5.281929367862574,6.939730329938649,-0.436065864574895,-0.12565324522537902,0.24639736197396672
1080,0.3133886002787541,5.288106892560036,7.151839391391941,-0.42078727095555074,-0.09435190081229679,0.30107361814986405
1100,0.3503150605565899,5.285213509064864,7.342919645887277,-0.3982976106349839,-0.05655862162565137,0.3523568937084177
1120,0.42514444746028784,5.266177432158998,7.490742031133836,-0.3744902640243451,-0.009020693656499648,0.40146532303957394
1140,0.5592345498866084,5.2436386833655515,7.596788708724659,-0.35058810818318037,0.04418053390209083,0.4499346023215863
1160,0.7572662134446779,5.233022885768439,7.664102827732515,-0.32599987825517307,0.09382331442080112,0.49341671878086996
1180,0.9971937238252139,5.235926010121937,7.699560263956222,-0.3004706482240668,0.13446357750641735,0.526112561628559
1200,1.2355978894414323,5.2465058045800435,7.699760715071714,-0.277243986862801,0.1698455097323114,0.5444163946491299
1220,1.4313170635854273,5.249692565961473,7.687270233362254,-0.2598579447605614,0.2036476675235846,0.5510722570876715
1240,1.5870778085609238,5.243696280736877,7.68780679726215,-0.2437062995876696,0.23176868854057767,0.5533670447402271
1260,1.7229651298539028,5.2330394368529,7.684265900807911,-0.22560288806040799,0.2501240260899067,0.5534554272315865
1280,1.8500800923811216,5.211399412821541,7.665586930017911,-0.20613880330049802,0.262596965139506,0.5492653794530215
1300,1.9290095822079414,5.1841808435969305,7.645939318681267,-0.19186225498875745,0.2711513923939818,0.5429480498128417
1320,1.9871090471689754,5.1566005312676735,7.631369046123034,-0.17934599747636906,0.27697219170273885,0.5354859225643689
1340,2.0318444099925133,5.132101858731534,7.606330703696796,-0.16881551441158238,0.2803827784078169,0.5262427179858197
1360,2.0616927760786243,5.111972660965486,7.575891887844773,-0.16227628238900382,0.28296925725548394,0.5150741062193577
1380,2.0701571464486106,5.093279099244375,7.551808929486482,-0.15823557865480042,0.28370118526164706,0.5030610655486899
1400,2.063542263246038,5.078755545399165,7.531779571251213,-0.15503486246001963,0.2818809295939799,0.4920798755548377
1420,2.0581830879545784,5.069313306790419,7.518114266862091,-0.15245538142843457,0.2789960292499665,0.4816521754654201
1440,2.048251537429924,5.0651590440224075,7.506048169209641,-0.15020473447372285,0.27576983122413073,0.4702359053771943
1460,2.0270089000463485,5.062233236104561,7.494128199936046,-0.14856094052132296,0.27157682879536876,0.45894830057397484
1480,2.0007237696654077,5.0599753004452825,7.487083481057198,-0.14797310632591115,0.26567112964499084,0.44903526694734436
1500,1.9756579165590333,5.059292338372741,7.489529659725913,-0.1476227588829314,0.25932307264411536,0.44045189629587067
1520,1.9508182161726058,5.06271894557029,7.493039265175909,-0.14737718385206536,0.25372917754668745,0.4315325112044811
1540,1.9286983385130374,5.068565281524395,7.496880619937486,-0.14766307745769247,0.2503959836320963,0.4235018343616153
1560,1.9034689425798816,5.074086341276102,7.503323757072966,-0.14788450011026402,0.247150144261085,0.4159848754600783
1580,1.8780644250558676,5.0783199076203545,7.513106475185993,-0.14739384397461464,0.2429330129916665,0.4100164119182915
1600,1.8605766527211547,5.084593861678521,7.520237708310462,-0.1461676682294715,0.23834432046773632,0.4050656160941458
1620,1.8480403677350317,5.092452801681382,7.524784335983511,-0.1451936587275538,0.23439946575046525,0.3994994653518403
1640,1.8332825473061365,5.099505684767499,7.5317210914839725,-0.14470579186539176,0.23117204320076978,0.3934530784361435
1660,1.8168808853687246,5.103642633369414,7.5418851761750485,-0.1439579874089927,0.2277130704504238,0.3876253995178035
1680,1.8017916936252985,5.106536407316987,7.550443655279356,-0.14253257555153467,0.22458334461269164,0.38243012322235925
1700,1.7877429910959513,5.110119713148318,7.554469206857454,-0.14127590849909094,0.22234160562940783,0.3776865247426584
1720,1.77170390075814,5.114798490682263,7.5616197678261825,-0.14021600752835764,0.21979986042601832,0.37257257174923436
1740,1.7588031296911766,5.119230343405867,7.5708717456060075,-0.13897644910553447,0.21679380680400165,0.368080048942195
1760,1.7460820978640261,5.122980156326486,7.578445857021199,-0.13755706142044982,0.21368985826211176,0.363605196748014
1780,1.7340007765594971,5.12662809668364,7.58355080372756,-0.13641977742711425,0.21081008297536355,0.3591642157956065
1800,1.7221294563903466,5.130209929470054,7.59038839408141,-0.1351996131300791,0.2080093414874004,0.35468455390193243
1820,1.709870652597143,5.133008634972438,7.597862691503023,-0.13373216261986415,0.20577202840131112,0.3501496058854402
1840,1.6962329504921272,5.135055492877891,7.604676510137567,-0.13222521076768462,0.2042568118529319,0.3458225027752536
1860,1.6837774826826848,5.136451622401456,7.6084266220544965,-0.13091267089908037,0.20333998166102704,0.3424699716064981
1880,1.668675497749385,5.139077597988358,7.6096243478424315,-0.12947887119106863,0.20185277429038911,0.3386478741214816
1900,1.6565901356621149,5.141423730640541,7.612683812052773,-0.1284386814239879,0.1993969899393794,0.3355809658808289
1920,1.6471275231408775,5.1438074235320945,7.619374082077167,-0.12724415487001067,0.19672691295154182,0.33268220159942025
1940,1.6394844477009778,5.14621547627983,7.6262915006220595,-0.12611116409091241,0.1950175436277472,0.3300652201630969
1960,1.631283111103283,5.148951763130418,7.633190370052751,-0.12451682643965757,0.19354094635801763,0.3264544710265519
1980,1.6206476931902867,5.152722107532814,7.639355689891396,-0.12282631388588026,0.19218815955165255,0.32348514528870354
