0,-0.037255862106879555,8.578960418701172,5.037524594200982,-0.15620672537220848,-0.053736085486080915,0.09091235366132525
20,0.017187787329449374,8.558391458847943,5.227623462677002,-0.123016425572774,-0.032911210142842984,0.07126414315665469
40,-0.013412110358476639,8.553860664367676,5.221142807006836,-0.09070020663551986,-0.017658985448651947,0.058822375386953354
60,-0.03236905372504032,8.533527663259795,5.179193670099432,-0.06912982875347194,-0.0023608859950344954,0.051574338848392166
80,-0.04673209095873484,8.516456255098669,5.160741573426781,-0.054028504814884463,0.010396855289511179,0.05055845433437243
100,-0.03305127127096057,8.499349956512452,5.1400953388214115,-0.03645747452275828,0.018358134568843526,0.05350861694663763
120,-0.0033034755334514997,8.479773554308661,5.090903298608188,-0.02308921418995757,0.02094643288226758,0.05244104483903482
140,0.009507502132857388,8.464072039633086,5.02932351285761,-0.017844206094389047,0.025279899337461262,0.04878350262614814
160,0.006990868057048804,8.45338370348956,4.989861597885957,-0.01758404083493342,0.028266129321284982,0.04471475894663583
180,-0.004381133504666206,8.436252268349252,4.979537905716315,-0.01680952974555378,0.027766185118241814,0.041764692255727404
200,-0.014742676448076964,8.416684500376384,4.975094466739231,-0.01507785440577815,0.028278349038413985,0.04247569384881192
220,-0.009189054840339385,8.401240144457136,4.966830827751938,-0.012900608518084854,0.03041349148852347,0.04526636279093064
240,0.0028920993779979224,8.397707084439835,4.939931352183504,-0.011509263255954106,0.03023651473206042,0.04645496308979279
260,0.005630397217413574,8.39395559043215,4.91802576131988,-0.012981027855411205,0.02879017394476697,0.045752695851485455
280,-0.0021201810975116295,8.387515826303451,4.917053836290954,-0.015006332429694623,0.029533070961436158,0.04605498941248802
300,-0.007442983902560977,8.38489006482638,4.919812492223886,-0.014987807866418734,0.03084417897390757,0.04795075168546576
320,-0.0042346721899736185,8.38666456333105,4.9178083668584405,-0.014886518696110452,0.03106151899713871,0.0493719782207863
340,-0.009251993433380984,8.385423065864877,4.92399633094056,-0.015292480280574998,0.03032475862281687,0.0498202646801835
360,-0.023950196152504582,8.380329224970433,4.9352645564388915,-0.015434910396987862,0.030456575848424487,0.050851450392420026
380,-0.054247929300381546,8.368786332066074,4.951519430780703,-0.01459404344183387,0.03165711913223199,0.05453736660144995
400,-0.08319541884106937,8.354976966367131,4.970492098066542,-0.01214789461081695,0.03309958870854564,0.061649399199550266
420,-0.0696027494431083,8.352142611029429,4.981480286774023,-0.006935870235554312,0.032499812321536446,0.07414238097135747
440,0.05973460944369435,8.376395465218447,4.975365126196714,-0.0010675019880303526,0.030510113541491923,0.08899579823196413
460,0.3539470597027013,8.452306786561623,4.93715488971808,0.002003091686250021,0.026615966476114968,0.09382428762335808
480,0.71819914011927,8.549818964427327,4.886713120737687,-0.0022421075886211775,0.02470273424903094,0.07904497011486679
500,1.106953103190191,8.654306972196316,4.878598245964231,-0.005862477130667082,0.009654116215914272,0.05380476441375594
520,1.5179175087505925,8.745277500588056,4.884987039653134,8.214077939913017E-4,-0.025481174326330087,0.014093993890809413
540,1.877927508982645,8.802783898845117,4.8540823123528565,0.010966758890947254,-0.06868469328287474,-0.04204186847605763
560,2.1595943022975104,8.821499394355936,4.822917289936796,0.016919632726646167,-0.11413253704736138,-0.1070279842797429
580,2.3755637959868423,8.801707022474627,4.825442197391526,0.02408282844629522,-0.16822473926010012,-0.1752249116323306
600,2.537257186778348,8.749367886119419,4.83942229880227,0.03616347187106305,-0.2415852530768519,-0.255105062236359
620,2.5983199512209887,8.68459912630228,4.84910414310602,0.04505840894819882,-0.3105670574233675,-0.32754313863742235
640,2.593716893461533,8.598763935601534,4.877475363994712,0.04723343609244938,-0.37945509874727795,-0.39791825378605566
660,2.537870402803874,8.487793397212375,4.970064913880998,0.047024477257197585,-0.44866858385348285,-0.46715856816930074
680,2.3968917939625025,8.355801856014091,5.087949354044149,0.05172225605765305,-0.5130993726530172,-0.5354800090869285
700,2.155730922149864,8.19961219536115,5.200276607519959,0.058329633179548104,-0.5704281536822087,-0.5971246844329807
720,1.8321421132655815,8.02566290338834,5.329397691885631,0.06723712537204847,-0.6219900761580114,-0.6437690608544896
740,1.4711485793617518,7.840501135723158,5.45790760315858,0.08077821264711704,-0.6676845808439097,-0.6710827359173737
760,1.0973737377694017,7.662046777768226,5.5446371979351285,0.09468039901871116,-0.700374025949161,-0.6756373569221955
780,0.764839171091336,7.497815950509207,5.609165550014119,0.10650200767939864,-0.7222859298866146,-0.6639601455298597
800,0.4577084523162816,7.338787430291434,5.648336392569255,0.11657793805106959,-0.7354315054825671,-0.6435551092734123
820,0.1540702050373725,7.176887667310589,5.6741678076631885,0.12378129541449358,-0.7433574636662396,-0.6144618333776153
840,-0.17083558088627493,6.991178983020567,5.694835133402258,0.12955629760279377,-0.7431000443392671,-0.568011681089594
860,-0.41386207193788405,6.834648082490634,5.704467153014923,0.12750074464412986,-0.7289058728022022,-0.5167689787227848
880,-0.6238205907955664,6.690136304868972,5.73401820888258,0.11721893925385626,-0.7021581957171342,-0.4616655035856601
900,-0.8160403341956277,6.553762555046222,5.798682839876845,0.10236457941851432,-0.6666392032385148,-0.40395638702909187
920,-0.9953098107689107,6.425089635017262,5.89328210998395,0.08788797940650657,-0.625687602191549,-0.33960062496821225
940,-1.1294395376468476,6.313013174926628,6.004689783547409,0.07604560816054805,-0.5786403949641588,-0.26779652128994447
960,-1.204906021454782,6.21651779592239,6.119534572365903,0.0661133859636173,-0.5216627164866781,-0.19147773290355632
980,-1.222394363955813,6.13721120747864,6.227074699048643,0.05767695131872631,-0.4584073180382005,-0.1132461730040104
1000,-1.1770158688848968,6.081644948476082,6.3355286144459795,0.052594198863930804,-0.39453437502051847,-0.03651970059083229
1020,-1.0832656712775648,6.041422811160948,6.433682639355331,0.05140520705766268,-0.33259675978999415,0.03710608757123121
1040,-0.9435707380949565,6.020409430729959,6.527159842577848,0.052271898428308136,-0.27227017057477904,0.10922501028932215
1060,-0.7115893776089516,6.029344101590946,6.603337672536925,0.05857456511353277,-0.21135753914701205,0.1785010948070715
1080,-0.3550213813466425,6.072910596506937,6.606785162147385,0.06751443094922639,-0.1432279611965696,0.23791223580086596
1100,-0.057744234953165906,6.128443769490067,6.540830264532619,0.06443021595037013,-0.08754114081110884,0.265440126637403
1120,0.17565551281955044,6.181058381094489,6.5066773586975035,0.05330884418786943,-0.041519870133184804,0.2847319052083966
1140,0.423337560237207,6.239026151885813,6.493040901042045,0.04726456824660381,-0.009041571773946572,0.305457807374385
1160,0.71554970165625,6.3049242636802605,6.451882254628456,0.04698850636547782,0.010769850509863486,0.32339285534882534
1180,1.0413013203443247,6.371905384795096,6.37894259313497,0.04697688953010097,0.018593622518840117,0.3318021596958401
1200,1.368894331107248,6.430860435494942,6.289205192554335,0.04174175604033521,0.017831641145403778,0.3267160172971071
1220,1.6720958508623474,6.473709449412271,6.2069653169329895,0.028209720107919695,0.013677460536381844,0.30893666042150386
1240,1.935476423926907,6.4997451689340835,6.15611149762191,0.009849001719689398,0.005713172846527396,0.28205146804388026
1260,2.16456142192595,6.50683373011717,6.115927677011858,-0.010159435314773564,-0.007491842683830117,0.24807405831610504
1280,2.3531750973000656,6.492661459876947,6.086336806359853,-0.032133302431351755,-0.027991010912167512,0.2084743037502044
1300,2.503082569377246,6.4574932012356445,6.080371784918317,-0.05428762260557602,-0.05541960065790355,0.1656174685702265
1320,2.6343098909415743,6.397269462411074,6.087742936874622,-0.07768924779543382,-0.09303105011448701,0.1150415965941654
1340,2.711527354686526,6.330510682778808,6.107534779502779,-0.09816897857533649,-0.13117384112306626,0.06916605574569028
1360,2.745892161102749,6.256408250025158,6.144506410643965,-0.11818925416212002,-0.171753219948826,0.02400425927045427
1380,2.7299422291468836,6.184743261055912,6.195125893205142,-0.13863000006585774,-0.21226403849941947,-0.019176710716890567
1400,2.65873004745773,6.122503236949282,6.284489861052969,-0.1576543800820313,-0.25352802258007656,-0.05737211898414661
1420,2.551570943027166,6.07171574613482,6.407232110025952,-0.172818334095458,-0.29478967805314865,-0.08806739834226719
1440,2.425356558316849,6.027417450641359,6.566884477025563,-0.1816470125897326,-0.3314131260528704,-0.10978446986373394
1460,2.3013060048979725,5.991875315600468,6.713579896395911,-0.18279190744251597,-0.3581253911303879,-0.12128249847933413
1480,2.2071506749106726,5.9685704298156335,6.820937006339995,-0.18038440683183046,-0.3765722705863573,-0.12596740226086406
1500,2.141809601496481,5.951417391331549,6.900873271527329,-0.17719858769380403,-0.3894580065918475,-0.12858956264581803
1520,2.092516747354881,5.939956240489762,6.957966446780852,-0.1741304951499442,-0.3982604446615226,-0.1311298460706345
1540,2.054243649510304,5.931169337829909,7.00252121006819,-0.17167789581388224,-0.403535000420724,-0.13400666802795383
1560,2.015932942911604,5.922299770500831,7.0390749727375805,-0.169051856590886,-0.4046122065470854,-0.13728519214600965
1580,1.9859961213646053,5.914759709007527,7.060333080221842,-0.16728525844806472,-0.40251311114405797,-0.13976223134244561
1600,1.9606886750034613,5.907571494808597,7.077253808789864,-0.16550085261760836,-0.39904350734750327,-0.14189305222165918
1620,1.9395330786383822,5.900477136700577,7.0872310052614615,-0.16296691341916134,-0.39570724217560654,-0.14362118336903662
1640,1.9231651356835973,5.893544565577897,7.087675691094427,-0.16056067774860866,-0.3920826420364522,-0.14501965934947034
1660,1.9104578625403947,5.887247073170318,7.085982573470648,-0.1591791967919562,-0.38682480438987754,-0.14607035022276893
1680,1.8983663715372068,5.880678297000867,7.083388925031867,-0.15822157570259743,-0.38056049520726576,-0.1462906904848222
1700,1.8878260601476509,5.875175865433291,7.077606483180633,-0.15738468951225848,-0.37426035319093764,-0.1449976061566481
1720,1.883063784270648,5.871581146199208,7.068117986094546,-0.1569436002864677,-0.36806405406458576,-0.14226236227808509
1740,1.886535446525138,5.871121529994004,7.058331415643183,-0.15693808016347635,-0.36233839661482115,-0.13884050551418664
1760,1.8972209570264178,5.873564752768829,7.048446450005292,-0.15731902435020223,-0.3562980492623084,-0.13523968185773494
1780,1.9065080143218338,5.8766675717984125,7.043502713707122,-0.15798827848214256,-0.3515162809771637,-0.13257432661043572
1800,1.9177403902507175,5.881074843403717,7.042607299416609,-0.15864822871852716,-0.3463004865247572,-0.12937297527874445
1820,1.9324883069561782,5.887684803722964,7.043794535710507,-0.1587309976955313,-0.3409866419803834,-0.1253891034373676
1840,1.947351351102683,5.894464565188083,7.0446973927467464,-0.15838706769465974,-0.3367134755785779,-0.12173299706704262
1860,1.9653260543955913,5.901813048611759,7.045405024219593,-0.15793411849391353,-0.3332595522308877,-0.11881719282184923
1880,1.9822966368513637,5.908176639623586,7.046347348407532,-0.15734513233019243,-0.3295213760079794,-0.1163710714181434
1900,2.0008740040588706,5.915458071839659,7.048028023930283,-0.15672049845000693,-0.32530828450668675,-0.11453146790573793
1920,2.015630225371569,5.921135345577695,7.050431341198599,-0.15601550491591976,-0.32158485724470964,-0.11323708277877871
1940,2.02843364721756,5.925912819964245,7.052447904479158,-0.15507151711230668,-0.3181346977576926,-0.11213605904870656
1960,2.0404849742043916,5.929339047713779,7.0534434548478,-0.1539721662104804,-0.31504337747973205,-0.11115876704102123
1980,2.0522505888348155,5.931898186802381,7.054827860244567,-0.1528800732939077,-0.3120579658715552,-0.11034893970942293
