0,-1.072968794239892,1.3028906848695543,7.808296256595188,-0.20834638889775509,-0.4653287861082289,-0.2470705492628945
20,-0.9481283985078335,1.344204768538475,8.50142154097557,-0.31531669506512117,-0.45803468488156796,-0.19295289274305105
40,-0.7782855808734894,1.384704556465149,9.237494907379151,-0.3335433693509549,-0.3980017077922821,-0.14528097525238992
60,-0.6833789357633302,1.4567525495182385,9.578481804240834,-0.2907914021687413,-0.3294806737791408,-0.11872231774032116
80,-0.6095324978232384,1.53736310005188,9.747490322589874,-0.23705970484297723,-0.2862741144374013,-0.11190623841248452
100,-0.54274077683079,1.6923502075428865,9.912839548928398,-0.17718559250767743,-0.2372667880595795,-0.1193293928719905
120,-0.49581108235737736,1.8788718926279169,10.05193935360825,-0.15013062128829852,-0.18810462512958206,-0.13174165050057987
140,-0.4108955555711873,1.9696042723953724,10.172471605241299,-0.14655540346575435,-0.14875855744321598,-0.1466974562208634
160,-0.37368779336857433,2.063989081898251,10.32933123691662,-0.12703068884139931,-0.12371848555709664,-0.16302201310424386
180,-0.3784715175208431,2.107033127691688,10.340117518494768,-0.09463729625340642,-0.1512490034092036,-0.18504973516867654
200,-0.38040446715555,2.0800072771779607,10.2702208690429,-0.08604149819676125,-0.18914160527435414,-0.20540091460256765
220,-0.45632455679968154,2.0808810409234493,10.244378717578186,-0.08990883300727119,-0.2045381766487369,-0.22908830610389003
240,-0.5465662900846274,2.088183407556443,10.267836893172491,-0.09230735612412294,-0.2036520317329892,-0.238456577328699
260,-0.5955615484098528,2.0909781968384458,10.339719893639547,-0.0941140200583297,-0.21920890198906132,-0.2368714781804827
280,-0.6321281322896419,2.135101110231681,10.466589126430573,-0.09493200412233833,-0.24243143647832827,-0.23161509820855544
300,-0.6840544545843911,2.1960119256606467,10.699142217636108,-0.09157672522303004,-0.2540155755320134,-0.21615225142584396
320,-0.6676898221789009,2.26655633121297,11.000776384187782,-0.07386658646409279,-0.23489623918683958,-0.197804298022411
340,-0.6293652287256993,2.2895731493218303,11.322274844940395,-0.034730781156773846,-0.18178451492144942,-0.199715204849482
360,-0.728956885245786,2.268270214656731,11.686824882185304,0.038176607261956125,-0.11162319762160541,-0.2237739181811256
380,-0.9428689583739335,2.1369193050504465,12.009456360781634,0.16001349712296584,-0.04388703481455184,-0.25728287097687524
400,-1.2761672993996644,1.8588993850420092,12.056444817816304,0.331208964771651,0.03144696492385882,-0.2958772999904396
420,-1.7650090476794573,1.5682160316149616,11.841619326415675,0.46730214612839444,0.09288732747302791,-0.31606009719612377
440,-2.3754240064831937,1.2336272180956953,11.477881862836725,0.5813489976005359,0.14318617124777824,-0.2909113893305315
460,-2.964420175626396,0.8906525252339167,10.927627135775028,0.6507860980498102,0.20277753164991735,-0.2042790441415631
480,-3.426482598840952,0.5153185517843721,10.300330561590313,0.6636150062882474,0.270061639566525,-0.05820544286553055
500,-3.7225869380586487,0.12385996664163626,9.70734376386161,0.6317422521649309,0.32339588088596954,0.13180154157246318
520,-3.802394387994778,-0.2959981807358733,9.179508782072698,0.5817294587853225,0.3480430532387164,0.34694508947517094
540,-3.626882659704199,-0.69328960910899,8.649755856210964,0.5222920285997346,0.34842052614513275,0.5611294247168999
560,-3.2125672051227316,-1.025313007482823,8.099406070087818,0.43975755727275256,0.3423195157140652,0.7488476303465506
580,-2.616090764232179,-1.294789019343539,7.637845753826231,0.32807581429848826,0.34165501764902667,0.8886706717887226
600,-1.9877326911170614,-1.4929083024422487,7.266107904186762,0.19267997053262603,0.3449926061566875,0.9821330386499663
620,-1.252613674217047,-1.6351720254295148,7.018623471030822,0.042122037394482885,0.34632869126836135,1.0492546601350417
640,-0.5845103509399747,-1.6770340158754073,6.93981607643406,-0.10932622763785195,0.34685657308907825,1.0957605916176563
660,0.3918600762991065,-1.6786910394375973,6.932075163884597,-0.26098862114616417,0.3573826989142055,1.09070179796693
680,1.4368262714919515,-1.7226263107600766,7.080521368434732,-0.4234009753210916,0.3935011641965182,0.9986410446196112
700,2.105796437150773,-1.8346178522716239,7.265456114525664,-0.5520107459104684,0.43309486809358866,0.8735250711077441
720,2.6052385095770783,-2.006100381935636,7.543689149022103,-0.667646709162121,0.4616766238103931,0.7354668842597554
740,2.953930132189318,-2.2092967504853167,7.97650403461673,-0.7620091282296926,0.46743027951913074,0.5914497842691694
760,3.1408711977412076,-2.424623894469836,8.600742901239213,-0.826853272920663,0.4459913125795112,0.4481847741599843
780,3.19639025389556,-2.6552192965453423,9.430227214723457,-0.8524028300853838,0.4091685057321655,0.30886618911150704
800,3.116526520127958,-2.9521646879568517,10.366755950702242,-0.8396935172811016,0.3809081445159166,0.17038675414185117
820,2.8291380823548775,-3.3143690480248016,11.342559427198243,-0.7848166217507028,0.3781811177634689,0.04498477427781943
840,2.3494113302005077,-3.72482511642413,12.226678192273935,-0.6659941322124833,0.40976966399950293,-0.04880454932689069
860,1.9994724201735015,-4.030355136205001,12.639840246081686,-0.5321271670617017,0.46014404813537285,-0.08522763983176954
880,1.7681937894605304,-4.282570690590225,12.805126686455452,-0.39340419155124523,0.5099460789512792,-0.09851970567737948
900,1.614988072389542,-4.503856887067132,12.80301730162976,-0.24942367811794655,0.5400806603011933,-0.10568252159157723
920,1.5051942145366124,-4.670552989624833,12.677885179613765,-0.12567839032578232,0.5533567825344539,-0.1112116529875876
940,1.38493862694499,-4.8203103351262735,12.420300232688176,0.0022298708418864257,0.5683433743705013,-0.11160077472678241
960,1.285311120359335,-4.92598226683341,12.030430976629857,0.12071695820351017,0.5955797339184327,-0.1005715523173174
980,1.240395456811206,-4.961510841290892,11.620244973088488,0.20140344325545026,0.6216838667341681,-0.08510847631841897
1000,1.2400634626871467,-4.970031077236154,11.192489266395569,0.26412515859762276,0.6413704198649826,-0.07367754598840458
1020,1.2286280093110673,-4.9654502737868995,10.743181996843877,0.3129755003165427,0.6440983004702118,-0.06658659329651158
1040,1.2132309751209558,-4.949182458638728,10.261336017877628,0.34345879582666505,0.6324787025279116,-0.058565717574756045
1060,1.1980030740487646,-4.91694790378929,9.7919802373825,0.3486369377283435,0.6171234229279072,-0.04674687295580961
1080,1.2029564722796924,-4.883278188226598,9.371943264061146,0.3305330081539375,0.6062820695879545,-0.03334573027834799
1100,1.2079023064292622,-4.852668502733177,8.959124861572283,0.28970629376634166,0.5966497498563397,-0.01988750777621692
1120,1.2000396247092409,-4.842429025816324,8.616119428372487,0.24083990973996974,0.5776073964291506,-0.008665481584299823
1140,1.1934551390052748,-4.84279097875616,8.338222564918908,0.1886026448091623,0.5521256637125056,0.0032969369813164416
1160,1.2030013303932925,-4.8597754244556235,7.996309178893037,0.10724552511334981,0.5171879121607995,0.021579557606973783
1180,1.2289013330884078,-4.90188569978738,7.72750621592557,0.020016864549613905,0.484481855984988,0.038609728376177974
1200,1.2755273424234121,-4.97459153120636,7.486191417765521,-0.07878813371326217,0.4441307735500239,0.05444678444573693
1220,1.3350182988308,-5.086849947805067,7.321546401220014,-0.19294709982944142,0.3946083642248309,0.07251862781419163
1240,1.4617133601559509,-5.263398464009458,7.318898239614917,-0.326280530240825,0.34820198785175804,0.09594930606693322
1260,1.6977545186871856,-5.507666677998875,7.681160869112807,-0.46636413141876515,0.3143875551186178,0.11399521109644453
1280,2.007527312675505,-5.740169972932044,8.4265715208457,-0.5584763673261629,0.28875476626472146,0.10277561819846583
1300,2.087299975389545,-5.849032639522343,9.131402559773752,-0.5785625606604367,0.26218537919612234,0.07671915596588218
1320,2.10549131090089,-5.8538249609906154,9.612832521920266,-0.568005401828081,0.263880391273747,0.0693826981242163
1340,2.126142818833145,-5.795008642730825,9.862786475900297,-0.5600600464171485,0.29681561356148395,0.0713046015563088
1360,2.0822103601123985,-5.701012202966725,10.127368365129547,-0.5503649839961465,0.31078059410498093,0.0766112131444814
1380,2.0932302628660238,-5.642226970398132,10.3969280583623,-0.5154767320663841,0.30217258298048516,0.08688022155393527
1400,2.1457209979135383,-5.598364652771017,10.52640700739363,-0.4636591354012489,0.30130448718069364,0.09266078335921402
1420,2.175542009470319,-5.561564812353489,10.53546090577681,-0.41912569688101814,0.311897442957364,0.09363702914911191
1440,2.185240269737255,-5.523369934409857,10.497200546678851,-0.3757755593096806,0.3284792651907715,0.09380122987490337
1460,2.189272227713427,-5.4867817289180385,10.437839982750823,-0.33751323214890966,0.3414795281436375,0.09346046986955414
1480,2.1914074536991386,-5.444672717109838,10.353539654067557,-0.29949751229959815,0.34543184882921324,0.08968365573074172
1500,2.1869294238473644,-5.406139580614683,10.280943045044333,-0.2701945725858696,0.3413449652315064,0.08340228895497759
1520,2.180229044668107,-5.368088607241312,10.214085964913544,-0.2439722182830111,0.33614730651723596,0.07592287523459709
1540,2.174017394041988,-5.328641616988768,10.139898228616987,-0.22234325234891875,0.33658165136085033,0.06727747638191786
1560,2.1560498968718487,-5.283953045094051,10.059562200904825,-0.20812922924850283,0.3439576796497217,0.05844261652479569
1580,2.1249561832225963,-5.232388669144149,9.989104934462809,-0.20185857382495032,0.3529311331910969,0.05177977213771349
1600,2.090073301643844,-5.173191227826453,9.942644272369282,-0.20033636913485542,0.35846519970463037,0.0486015202107889
1620,2.0649476366638746,-5.113363315740412,9.92687592018244,-0.19866210818613794,0.36001999714189853,0.04783374894070432
1640,2.0432765563782,-5.052570550345806,9.916509180816915,-0.1939367567627634,0.35780294428596165,0.04783124038977368
1660,2.0222642803996727,-4.9876583790041735,9.89749093562233,-0.18930937517338345,0.353159274948097,0.048093779029705956
1680,2.0024522439837944,-4.913814448946437,9.878676205397,-0.18740922227152623,0.3483893849039559,0.048013426540121654
1700,1.9851340464585268,-4.852296023233526,9.876372736289927,-0.18721029033346487,0.3460795026762283,0.04739733946030617
1720,1.9641338286224213,-4.791284415193579,9.881381521382453,-0.18583107543831415,0.34478827027619857,0.0471599258618715
1740,1.943013498442525,-4.732175333530046,9.882974505633786,-0.18258422975143251,0.3431894188325622,0.04798413486301041
1760,1.9255758269670575,-4.672111171235641,9.878105456506212,-0.17869862013742224,0.3398410395990747,0.05004023427027278
1780,1.9183251899392038,-4.611991937998887,9.870731267504967,-0.17566589639038563,0.33516370169025245,0.05179141330530171
1800,1.9142845239693997,-4.55381744881363,9.865717158571858,-0.1740835110047002,0.33089416385147435,0.05184438971121816
1820,1.906912056737334,-4.498567962318018,9.866772677509054,-0.17314152569154537,0.3280258315827532,0.05058397567688277
1840,1.8937789685906534,-4.4470100414324945,9.870633899095528,-0.17174715485251657,0.32570228804159224,0.04916126618070151
1860,1.8792269446231473,-4.396083757202876,9.875642855739907,-0.16941218786462406,0.32282284331281275,0.048531013540923595
1880,1.8678970180802328,-4.345931533918095,9.878813566213163,-0.16641014149384623,0.32002558002053166,0.04825164102294366
1900,1.8582327718319631,-4.2961528948364185,9.878418963172079,-0.16341920070783428,0.3180492487757049,0.04782496564559514
1920,1.848722986789653,-4.247536780198618,9.877580290128078,-0.16088333867082838,0.3166322955093703,0.04694977664829431
1940,1.836548170169362,-4.194624710052943,9.879362354250002,-0.15759344273575665,0.3149759279629204,0.045500009019728775
1960,1.823808945955525,-4.148395276657502,9.879058305876383,-0.1537512276701271,0.3128078271016902,0.04421976260630444
1980,1.8119848170041422,-4.102221609930173,9.873703789394188,-0.1498796606879009,0.309617999806348,0.0429747120194639
