0,-0.497099628051122,0.6924267941051059,9.67534711625841,-0.44355957375632393,-0.1540170395746827,-0.030182070228167705
20,-0.267396896118846,0.864179435898276,9.741249308866614,-0.48997864828390236,-0.19743526776266448,0.005946408943547045
40,-0.02644101733341813,1.0147219181060791,9.803869209289552,-0.54533731341362,-0.14704073879867793,0.022276286324486135
60,0.08099520978320277,1.1179661389553186,9.916542544509426,-0.5981143884586565,-0.08499005281676848,0.026217765026641162
80,0.08283263000818651,1.3222845036809037,10.210377646655571,-0.6450793227044548,-0.06886227978620588,0.03796165604030759
100,0.007331692984289661,1.5300754016759444,10.672696308213837,-0.6670018659562481,-0.1060571369848081,0.06301302922300386
120,-0.015546618707543402,1.749540833004734,11.216339194983767,-0.6862751491237105,-0.18278500205722817,0.10979553785485525
140,0.20051841381220864,1.9068040939477773,11.971634659400353,-0.7160047444013449,-0.2385610344604804,0.1470945494930045
160,0.158394948308784,2.112213126710943,13.273134141354948,-0.7296838514708184,-0.2955771461380897,0.17284552825652566
180,0.0909523322962497,2.2703617854816156,14.653781693156173,-0.6902175974555131,-0.3809901921351145,0.22621142239275774
200,0.405024433016984,2.320082133346134,16.066909482744006,-0.6070254690738188,-0.46265253310816157,0.2759075737015034
220,0.8472015370035126,2.272189343462185,17.585944963961232,-0.4614775947732281,-0.5366835869582636,0.27598823234201314
240,1.1215018325371071,2.127003382118243,18.99119530983691,-0.22138841989678595,-0.6464067569775682,0.22585361675614105
260,1.1950307581614572,1.7806760932792698,19.888033021960343,0.09504398228110451,-0.7730665715542018,0.15300746222655698
280,1.1713216483447946,1.2862825982394765,20.189701463355394,0.4339365773055641,-0.869135851391637,0.07096362345829056
300,1.0259527148284877,0.7300756823558073,19.989239223186786,0.7598691618929688,-0.947755803182148,-0.005550857348582492
320,0.8279825808865059,0.14061195284560107,19.354535517485246,1.0526286147237904,-1.0249874234550458,-0.06511197887205829
340,0.6261499937757696,-0.39977142235187635,18.30336344180858,1.2887490326028368,-1.0932555056929791,-0.11160833756152336
360,0.4367897723260666,-0.8591785213639659,16.88371412311831,1.4582043455132554,-1.1202941291875417,-0.16290937979525374
380,0.20259221174977035,-1.1571911944567792,15.61811408034863,1.5327970461999894,-1.1004086620534308,-0.19496613018860343
400,0.03266190343443849,-1.371155733079241,14.448719298804713,1.5578962912706777,-1.0659127164937077,-0.20616310878591448
420,-0.044261034866846974,-1.5184959564462055,13.460251212286549,1.5746222940590962,-1.0201607954808036,-0.20935170485783763
440,-0.12605231798896416,-1.6333521469072863,12.490808681530112,1.6056540598545004,-0.9607352206164742,-0.21128196735557586
460,-0.2242475303869026,-1.7825823929065312,11.35855873379952,1.6277589687647729,-0.895423688314473,-0.20227009490347253
480,-0.29198002835203496,-1.9844212319169725,10.176237886909194,1.5997255496368767,-0.8685270746380751,-0.18318993114324955
500,-0.39832241068510293,-2.2218063497712826,9.068565920772146,1.509286084706714,-0.8560543451855462,-0.16370879979340705
520,-0.6283919061916842,-2.442832522060229,8.21577038245114,1.3796695892456663,-0.8318434576929193,-0.13643324753316333
540,-0.8574803265915273,-2.6288241792617915,7.531334440744921,1.2352417252982437,-0.7860768798611533,-0.09173180901913161
560,-1.0147137623339733,-2.8249001684341026,6.968223008323223,1.0799516538158058,-0.7244170192886699,-0.03933283392280499
580,-1.1336229094457448,-3.0155169795815344,6.509840785353272,0.9134781362887456,-0.6642635004928359,0.013896787879268022
600,-1.2212119189580806,-3.2136010856504935,6.161879808897991,0.7379833533283902,-0.6100686317350552,0.0641343515483195
620,-1.3350944786529557,-3.4456042105188738,5.865642596322757,0.5344362361893917,-0.5327323591641079,0.11338131269708705
640,-1.4536875478989348,-3.646542509878749,5.669976641655094,0.33640267887263936,-0.43929022007253465,0.15769509350752403
660,-1.5022500284080245,-3.8371164970423863,5.633953951186149,0.0954976818099132,-0.3294560415957096,0.21068892036345316
680,-1.4448208900834236,-4.111051210110456,6.058758769022026,-0.18490712304311005,-0.22094662247625718,0.26312778220744804
700,-1.2474443332391012,-4.445697784321766,7.2036121118102505,-0.4285453156000386,-0.1820470688000245,0.310475198190806
720,-0.9368518423646067,-4.664556210736434,8.696220505828968,-0.5674382494048525,-0.22814589473884553,0.3545268772255319
740,-0.5151780495017936,-4.820583550864226,10.1015085305054,-0.6070207373039531,-0.2558416110091516,0.37988404699453066
760,-0.10918560280918461,-4.906864694307877,11.247815608785228,-0.5850959376732618,-0.23566622113885619,0.38656585429768564
780,0.30727214802108294,-4.923864692725517,12.112442210680276,-0.527854020388245,-0.22378782485468013,0.3855561921452057
800,0.7501894099517243,-4.914219600518784,12.757389510786778,-0.4550222131418042,-0.23024805418793562,0.37565755553709074
820,1.2162895953296409,-4.919412601607688,13.306785454290152,-0.36233705789782106,-0.24653995097477865,0.3457998580484213
840,1.6135963099090724,-4.983292586416349,13.723558869679865,-0.24178852448400495,-0.2620399398100295,0.28871808925994147
860,1.8863362591799755,-5.170840692035958,13.916821776147076,-0.08651268731865312,-0.26569325273533034,0.2041678041009707
880,1.9960028106538095,-5.369056600985462,13.874972113350738,0.04832884367963631,-0.26251989904255285,0.12927883158386877
900,2.0179421013538246,-5.548971558304319,13.694747962353466,0.17052775718042024,-0.26427064607439227,0.0638953117877195
920,2.024338494166194,-5.715447209247454,13.398934209847631,0.2752787070397747,-0.2811509565489362,0.008480944318129752
940,2.057956031508083,-5.860385256055695,13.03466964390124,0.35692291563869977,-0.300572462505625,-0.046471144082886585
960,2.0535755093204755,-5.991132578786734,12.628618804363754,0.4193862594115156,-0.31316713638889887,-0.10308051892668853
980,2.009841349915268,-6.080061906576157,12.173039162689015,0.45868553748055374,-0.3292017757812124,-0.15425242085159285
1000,1.9521555770064545,-6.130542789691874,11.714649943491674,0.47294396942043926,-0.3479993029375793,-0.19991979763175632
1020,1.880949443362149,-6.140090800733295,11.28761945662781,0.46507941937901415,-0.3658015694648399,-0.2411340336584112
1040,1.7897105310861203,-6.113575143900229,10.908549601742932,0.4401883268728852,-0.3829088428422444,-0.2768046055884602
1060,1.6976798065699363,-6.060013514020623,10.569950574677591,0.40320235843081836,-0.3996786275288214,-0.30597934818046607
1080,1.608508082725851,-5.989514517610383,10.228323368294031,0.34936951773424924,-0.4222175041182309,-0.3338548998361988
1100,1.51845300664596,-5.913229633992464,9.968957990880785,0.291615061669114,-0.443418875460755,-0.3574064429341672
1120,1.463221042901969,-5.874230155713173,9.85668762706273,0.2607004484792106,-0.4518066608808593,-0.36894054862814973
1140,1.2209096776133284,-5.753448667741837,9.584460923417492,0.16135761063506313,-0.4653984183257327,-0.40035904394512245
1160,0.9825893834508005,-5.67575562081327,9.469476740878411,0.09117350354206176,-0.46964928825097507,-0.4133213572890915
1180,0.7048651308152794,-5.602039640393767,9.411766816705748,0.019075093792805087,-0.4743147630315397,-0.41315485551472325
1200,0.41816849741982937,-5.5375762985423505,9.428271146099977,-0.05241434839233636,-0.4762080180192902,-0.39878087583410854
1220,0.13699321912701773,-5.486923199072777,9.506243235703401,-0.11802944495524484,-0.46858511645387696,-0.3722399487350307
1240,-0.14015091078301126,-5.463462445607372,9.640564526903315,-0.17780016183524447,-0.45989589358351246,-0.3346330923105901
1260,-0.4027701759464593,-5.45443991833442,9.854571833250986,-0.22815986180994444,-0.45929488634895604,-0.2822613108486951
1280,-0.5924531833787481,-5.457767108830662,10.107046603385408,-0.26237981368968183,-0.4571497052998243,-0.21658711423504276
1300,-0.7100002137778727,-5.488794089087816,10.400706272614928,-0.28429985460520624,-0.4406986813600584,-0.13562512040425476
1320,-0.722890143942184,-5.534189077866012,10.661357121923716,-0.2897710001789047,-0.41836818870805326,-0.060038432662853795
1340,-0.6239134807151466,-5.580673942386347,10.882378075516085,-0.28374429737232937,-0.39579389985911073,0.013679126654067052
1360,-0.42483963697985455,-5.625185622991944,11.061700238438894,-0.27433603645297355,-0.3709834323511234,0.07845395495023826
1380,-0.16601245243815177,-5.651266373286592,11.234120496071553,-0.25972227692255845,-0.3451239459234663,0.12910811191242405
1400,0.1351957374624908,-5.651729854345322,11.383407534018321,-0.2366660546786759,-0.3235799904418704,0.16020899234380087
1420,0.38799317986952014,-5.654900174862729,11.472291939172216,-0.2011999574315768,-0.3125426569948768,0.171209396677424
1440,0.5656541950579941,-5.662280301605989,11.452846106054347,-0.1617984950791433,-0.3120034558945942,0.17147383995648857
1460,0.6879184086424592,-5.6723421191631855,11.352313098524897,-0.1287838180342655,-0.3189452901530781,0.1674319261382606
1480,0.7694602267520542,-5.667808054552046,11.217443376160464,-0.10853629327752003,-0.3274178679754783,0.1611141871267399
1500,0.8189565161932109,-5.641910764889989,11.10364593715157,-0.09837433405493091,-0.33477710437226466,0.1536443876038207
1520,0.8379954548909914,-5.599909592449761,11.009455471436372,-0.09361757426993565,-0.34090344863981126,0.1458423461501201
1540,0.8345827349364202,-5.5484672220403155,10.938195105701856,-0.09187334409447036,-0.34718254931409814,0.13887459525975757
1560,0.8264613980260037,-5.48889103741385,10.878007036000053,-0.09261089312247874,-0.35186073506041105,0.13265311937008187
1580,0.8156170860124347,-5.4365835262137185,10.851734015745883,-0.09510344838783998,-0.3528709775995653,0.12589974390303965
1600,0.7875744570848793,-5.361032402841374,10.847109640807215,-0.09690269732013027,-0.350738714428522,0.11895671345842945
1620,0.7702368691413529,-5.293635438235634,10.852201872848182,-0.09520477131962866,-0.346055735069529,0.1160009606465759
1640,0.7773264296736757,-5.2296893242136795,10.843465650648882,-0.09245902200373599,-0.33738171880083556,0.11347225629773068
1660,0.7882080035729279,-5.167240780482397,10.828912216354407,-0.09065280537230565,-0.3278715978088953,0.10994718576445901
1680,0.7985580268669278,-5.105520452740927,10.816333364885502,-0.08995772909551052,-0.3221902966859404,0.10623003574742036
1700,0.8060479850632717,-5.043491540862055,10.80980412055666,-0.08958933372890186,-0.32119911565611287,0.10252946257509624
1720,0.8091356083439843,-4.982709080107849,10.806172096187021,-0.08879427754420083,-0.3212881600391649,0.09900756582283066
1740,0.8108016025344318,-4.926615943488654,10.800159394338836,-0.08780837376465304,-0.31935239804181365,0.09559323983835946
1760,0.8100954306318373,-4.873898227352442,10.796928137143064,-0.08708554298678386,-0.3159978733688654,0.09260395775490907
1780,0.8086481107159641,-4.822312823471173,10.797630192420911,-0.08578231390153063,-0.3135569945756448,0.0897052498661611
1800,0.8065074237936721,-4.766946997038585,10.797073477093798,-0.08334354522307574,-0.3116274933681619,0.08680173028683798
1820,0.803775016824096,-4.718516595556632,10.795218269552585,-0.08043512623779,-0.30950372551920224,0.08433532382661614
1840,0.8011197529412846,-4.6701483460487045,10.789935585923349,-0.0765982206697807,-0.3057684777186646,0.08221133671556247
1860,0.8001442712281296,-4.622413078903095,10.775341253493314,-0.07280069115555156,-0.3007182407549857,0.0799619279561366
1880,0.7983980128554911,-4.575166460785467,10.760190982595013,-0.0698939359137396,-0.29685288986492564,0.07782789128735633
1900,0.7962253544499985,-4.52638984261083,10.747948060102852,-0.06732534901781351,-0.2956418662674427,0.07635954579373191
1920,0.7978985010919155,-4.477344291619245,10.735374989114394,-0.06461166839877583,-0.2941515523732334,0.07518439117647042
1940,0.8013258488927493,-4.4294211992578205,10.716713175586863,-0.06213073231192355,-0.29044861047939585,0.0734942698928153
1960,0.8031358958952147,-4.382138428202692,10.694513164000812,-0.060954130841558624,-0.2856752404340467,0.07161115778095034
1980,0.8021036198343138,-4.336003946078244,10.677678434986953,-0.0605625492731876,-0.2823367443980637,0.07000757403279181
