0,-1.7074312730269,1.2083962830630215,8.57199309088967,-0.40035751732912933,-0.2040946280414408,-0.08384758538820526
20,-1.298856967373898,1.1307013819092198,9.332004973762913,-0.4205695061307204,-0.1719124287759003,-0.08996393668808435
40,-1.0915967281217929,1.0988705003703083,9.650864689438432,-0.39747735637205617,-0.0961872847509329,-0.12885231786855944
60,-1.0512083317552294,1.0549035140446255,9.826697145189558,-0.3705301114491054,-0.02185831627409373,-0.166657371286835
80,-1.1063876755015796,1.036096644956012,9.957154883894809,-0.34196615946847336,0.02675808858949431,-0.1941981760048589
100,-1.1374934415022533,1.0440407243429446,10.10444694406846,-0.30923562935170007,0.05855572250142109,-0.21131284337709932
120,-1.1341838730593858,1.0642817808409868,10.232010994927357,-0.2679397262104045,0.06894709584224275,-0.22662995888267534
140,-1.1295913489007239,1.0979199053636237,10.31152468297019,-0.21934205463587014,0.04760192308241307,-0.2453565704844781
160,-1.1418176249663035,1.1292996676762899,10.34182254155477,-0.17964182151171068,0.0055565166100859644,-0.2638165971140067
180,-1.1071916046630905,1.1988371854805084,10.36195146606629,-0.16688491564793848,-0.04850826604314238,-0.2766452902501606
200,-1.0249104882375553,1.3494751348600282,10.507503839639517,-0.17631249898625026,-0.09448945689127668,-0.2903497982565518
220,-0.8306121599832268,1.548150375635937,10.865599280655987,-0.19067258093590764,-0.15176755283027887,-0.31307851368881234
240,-0.5296098029206472,1.772004074520535,11.43533170223236,-0.18605688333519976,-0.2089031198217223,-0.3591565799175037
260,-0.4019916560661433,1.891446121807756,12.006233416754624,-0.15647164618411777,-0.21862722948546812,-0.42144291671314116
280,-0.3759794517780744,1.940970278555347,12.605451864580955,-0.08789998691176035,-0.20798199056216324,-0.4849360537444872
300,-0.38995274112588074,1.9975189638860298,13.210347684946926,0.04521758886667984,-0.19974480419974003,-0.565786942416294
320,-0.5131500612545227,2.046646935599191,13.674398807116917,0.23413682227255778,-0.18487041494320564,-0.6551305796684963
340,-0.7438801472780068,2.0674197995984875,13.942768628532821,0.43081867602823704,-0.17092388196436553,-0.734484347967884
360,-1.0101762897430513,2.0096671287543497,14.129571856596531,0.620469887178236,-0.14747532746220643,-0.8011828217989742
380,-1.3766689687717433,1.8376810534789068,14.205474798272295,0.8087667044033524,-0.11469071360864667,-0.8519783659906286
400,-1.789998684695727,1.51913868536263,14.13493243760841,0.9886239648263273,-0.07310476468283436,-0.8867024384482309
420,-2.3431275402609675,1.073980034598046,13.884993267059325,1.148765489033475,-0.024115878862357932,-0.8960522261137763
440,-2.9503584448743534,0.5886652519173444,13.43063313022573,1.2656970270500676,0.03854692059417659,-0.8506404421232799
460,-3.483140588576468,0.11398338773572932,12.895714386803458,1.324249460294187,0.12288361253584819,-0.7391962493978896
480,-3.8593696810941145,-0.3961245607675576,12.323041945586844,1.3370924274266767,0.2236158459457972,-0.5524582839411933
500,-3.9519622948615343,-0.8209857359668459,11.861149204343977,1.3343992663422783,0.28749381444637473,-0.36367384143208675
520,-3.875206782006368,-1.2192058693701866,11.342422844766222,1.3307948494698785,0.3304982375325524,-0.1767596076347979
540,-3.693580444828977,-1.5717603901002606,10.747530332461455,1.3143613795825082,0.3672254357362287,6.49102406340395E-4
560,-3.4549522365714553,-1.8827481693293475,10.074099336652564,1.2653354316672805,0.4009495190008153,0.16525156288270207
580,-3.153409921491937,-2.1632599306045748,9.41934827800308,1.172746069659954,0.4124594570260509,0.3210806496441364
600,-2.7283154802374807,-2.408670289802693,8.901010001748212,1.0529763322432153,0.4177656973382111,0.4627938741899055
620,-2.239994869927851,-2.5901265474057746,8.478736555125293,0.9243780023612839,0.4312932558519515,0.5862119115774888
640,-1.6882840608589378,-2.7047695582628695,8.037970799191068,0.7828341887209592,0.45223339149795716,0.6900365778200024
660,-1.0464938871280058,-2.7782400524519413,7.645525200837141,0.6131222111093964,0.4715813397141892,0.7632746162962182
680,-0.40463226602919267,-2.82417352249225,7.411165559945399,0.4273603632449777,0.4857819986831409,0.8013214876907959
700,0.3033691404615434,-2.8669199490172117,7.310023529619789,0.22084025224452192,0.5041232945224358,0.811646998752238
720,0.9665093654026555,-2.941385457131839,7.3670645340635685,0.04583497638336154,0.5264703821728067,0.7887323820186372
740,1.568227941296514,-3.0579919600438688,7.5400780751099505,-0.10933736133193897,0.5472912285468943,0.730850189900206
760,2.0713003336996683,-3.2144326564604007,7.746864233025402,-0.24957707311750138,0.55748212926668,0.6461383263410637
780,2.4630646394062903,-3.3953884599353272,8.102263261592643,-0.377573220214258,0.557730894317903,0.5487637060688683
800,2.7865121274640012,-3.549189619028461,8.585987626100907,-0.4725446728996453,0.5589755971512662,0.44340611447741884
820,3.019363440545984,-3.7141712228413564,9.08120014063186,-0.5424062584680696,0.5701839651861647,0.3208873127069738
840,3.039102005378476,-3.942982393056154,9.656034876640353,-0.5863977346522734,0.5848275170893924,0.183803912039314
860,2.8040461767641776,-4.198750381425606,10.183235481152488,-0.5862425418587547,0.5903793286899863,0.05086700424718457
880,2.341570123393964,-4.466358234383207,10.538387416836505,-0.5589517237920101,0.5907404930756636,-0.06374303420466151
900,1.7220447344884755,-4.712963157856369,10.783159667496534,-0.5206120655066359,0.5897902299588615,-0.14048800926237182
920,1.1220228123717517,-4.89600945773159,10.958870037395448,-0.47763446864796344,0.5951388941593428,-0.16382979900034936
940,0.7248066377324553,-4.991736739778366,11.053691143580735,-0.4252661885556359,0.6021337044442846,-0.14687976961334545
960,0.5143589830927009,-5.001401223690438,11.051460962565173,-0.3596417285638504,0.6091045865638139,-0.11003938296758442
980,0.4613855309573892,-4.948192920728017,10.982700906474262,-0.3006275277361686,0.6116236971012423,-0.07780125394866273
1000,0.47285190412707356,-4.861855203792992,10.86790657418679,-0.2457983491117561,0.6161364270884373,-0.05219525258584195
1020,0.5135760105239232,-4.750948897789697,10.704458166539105,-0.20381913260208886,0.6234073109003034,-0.034276771788478745
1040,0.5710593714506264,-4.63596890726734,10.556779779044353,-0.17682163152906377,0.6247248074894092,-0.025975654148032108
1060,0.6241453933001311,-4.523531932511063,10.46362802218264,-0.1561683879529841,0.6185410750731452,-0.027259928575273526
1080,0.6614969252198268,-4.419234480650499,10.384087173747403,-0.13798576288427367,0.6120377110199307,-0.033850770085316645
1100,0.6948609955486033,-4.322447190589302,10.310838515434291,-0.12506530633718185,0.609442296189705,-0.04196109354168504
1120,0.7330001585676332,-4.236049994102179,10.260450342062612,-0.11735972660778746,0.6078246754566677,-0.0537381471007998
1140,0.7694979458849585,-4.148957067566692,10.235907126906191,-0.1097338399726249,0.6025754219892614,-0.07087570164676937
1160,0.7984665486152772,-4.068323328515557,10.213153735098734,-0.10080147848857299,0.5938353533025076,-0.09362446093671258
1180,0.8009398130688518,-3.9991811399005766,10.186918487309553,-0.09378016590201955,0.5834236147553118,-0.11671734126992295
1200,0.7770100418260442,-3.9241141027258335,10.161643393112406,-0.09073714819415697,0.5708606939080945,-0.133308585267514
1220,0.7517890623541519,-3.859564614279883,10.149912640703695,-0.09076397885828988,0.5631695906303364,-0.13682818162949786
1240,0.7400236471112294,-3.79061439320958,10.142580715488293,-0.09285496122038239,0.557395793632594,-0.13199343437736388
1260,0.7503412305413244,-3.718829868981937,10.14538607919732,-0.09540911654162651,0.5529130583382469,-0.127146634617104
1280,0.7540501611497761,-3.6448388358368184,10.161632851683393,-0.09543354557183303,0.547819671126242,-0.12606416817994393
1300,0.7411692126049424,-3.5811441503091603,10.162810049408963,-0.09212928766223129,0.5439614768859957,-0.12483017655687212
1320,0.725849445344305,-3.521453700813307,10.161980255137143,-0.08837391600921846,0.5436034772501176,-0.11916287180707406
1340,0.71734309310188,-3.4540608501157966,10.164116219779396,-0.0838290612543157,0.5465606828055425,-0.11294676560868064
1360,0.7085580073496592,-3.3867544767754487,10.16431791400537,-0.07940550744990885,0.5481940833755808,-0.10908251506209905
1380,0.6942015030342613,-3.3223982031143953,10.155633800059661,-0.07573296901446924,0.5490847398025797,-0.10621795343222018
1400,0.6777572943634974,-3.261526076295316,10.147939355435987,-0.07342559755448343,0.5482038809669424,-0.10256743564645553
1420,0.6599181346301857,-3.200541818352601,10.141046270536744,-0.0702912893879055,0.5439151431890498,-0.09830189155963288
1440,0.6477457844411945,-3.1340507841496263,10.131894292972643,-0.06633937184645482,0.5365164052372047,-0.09382193535880436
1460,0.6407494479062008,-3.0776838982228294,10.117933794992439,-0.06367253117106805,0.530842847140023,-0.09140553638748143
1480,0.6308379486487637,-3.0228451079006913,10.105433368147006,-0.06314681124283163,0.5266870990833441,-0.09027618976854314
1500,0.6153841879433157,-2.9709189729968832,10.099040864171336,-0.06327958042262427,0.5231855618627581,-0.08933237958356068
1520,0.5978428871169686,-2.9204677643455565,10.093846654903889,-0.06275445226114243,0.5188038474652683,-0.087834931483306
1540,0.5835889792909751,-2.875630329272421,10.08651150292658,-0.061873633707571436,0.5135562845518069,-0.08621222735327357
1560,0.5675710824197637,-2.817499586243717,10.075253516028805,-0.061248279139058094,0.5053047891259228,-0.08398994071973566
1580,0.5571428283213857,-2.7666868094178363,10.066810000670618,-0.061836156582435416,0.4981721001041998,-0.08238803098736638
1600,0.5463415280883194,-2.718824814413242,10.062815343601065,-0.06315151120793312,0.49232539956319615,-0.08124588790230589
1620,0.5335743611482413,-2.673706263945879,10.067906223035845,-0.06394423535601342,0.48753405724705945,-0.0797091239261532
1640,0.52140253786839,-2.6294753148212178,10.069715926066639,-0.06290969615324744,0.4837454005921345,-0.07771820874980209
1660,0.5089662565789637,-2.581065586905331,10.060501215755503,-0.06246338082202567,0.47936452049301737,-0.07543149581705541
1680,0.5016143025546942,-2.538526418905678,10.05881172367844,-0.06296934093368928,0.47349431532453257,-0.07323360654181274
1700,0.4931338583652923,-2.4976074373366894,10.059281475916718,-0.06270490591094047,0.4682044449617696,-0.07193763723782394
1720,0.4844995829376996,-2.4584774626267247,10.057291285860387,-0.06173653892477547,0.46299598208018405,-0.07070197023829926
1740,0.4775682587440045,-2.4205799131720727,10.051374121216917,-0.06097412996479318,0.45781173349808724,-0.06964915783792808
1760,0.4714539776597471,-2.3837875749153494,10.0462846964123,-0.060969285131625604,0.4529238498806262,-0.06891328813263069
1780,0.4648962788117973,-2.347565422863508,10.043642785787991,-0.061556278976726615,0.4488034160070764,-0.06867875313603204
1800,0.45555350607826417,-2.3125504617658783,10.041947359325198,-0.06210961667467464,0.4453778403705586,-0.06855900493970388
1820,0.4430336875044529,-2.2783442805714698,10.041559646030933,-0.06225625328325115,0.44197504265368004,-0.06795345986746976
1840,0.4313894137480748,-2.2440380911504607,10.03815621059556,-0.06162202216617501,0.43836965982087583,-0.06684155410062398
1860,0.4220829241092652,-2.2102950880740306,10.03141715051973,-0.061263230402392926,0.43421857630168414,-0.06562997276232922
1880,0.41438816533629574,-2.1773092258026123,10.027636158630832,-0.06124599971793374,0.42978436514255575,-0.06478320666446725
1900,0.4050476926014996,-2.1452172261939304,10.023785161797752,-0.06110178459968997,0.4250230448524422,-0.06414554760597435
1920,0.3956657773151558,-2.11461340392698,10.021895664348326,-0.06091239206944936,0.42030714577774186,-0.06337178607590369
1940,0.3872511487404912,-2.0849460215250297,10.019030730439448,-0.06054301091961877,0.4162108597755413,-0.06251500596855919
1960,0.3804318486582813,-2.055500204773025,10.016324487716851,-0.060382894496230216,0.412040224647482,-0.061843343606152505
1980,0.3729016019732772,-2.0273042738190448,10.014452301729241,-0.06000960010526426,0.40771458944056777,-0.06154266707929725
