0,0.8366601864496866,4.705947505103217,12.52009826236301,0.1996079550849067,0.5935587088267008,-0.3075038227770064
20,0.6489094381823259,4.895983639885397,13.400557518005371,0.2847107561195598,0.577517081709469,-0.3192913549787858
40,0.2444836038351059,5.2387701034545895,14.138088264465331,0.4700667726993561,0.469455406665802,-0.34684285521507263
60,-0.19232733367067395,5.628296100732052,14.562154827695904,0.6981302147561853,0.3134425881408705,-0.36381219643535034
80,-0.4020128079303881,6.030776233207889,14.997729789919969,0.9310144978325542,0.16506258548711564,-0.3683523644761341
100,-0.37244999173040294,6.31248969447856,15.230565285196109,1.1459009848078903,0.09297138365515394,-0.3940197211139056
120,-0.3865645719087568,6.365121816333971,15.177029341982122,1.3273056395221174,0.10374264592629563,-0.46268045640828315
140,-0.56905666249446,6.096172431799082,14.852585323040302,1.4667118040414957,0.17150913422810846,-0.5623360152427966
160,-1.1884475699059565,5.406594993898997,14.303704583967054,1.597922705717989,0.2646871075514748,-0.6842011595899994
180,-2.1639294313868827,4.548375942903321,13.555986404418945,1.7199727271388217,0.3201754830302756,-0.7511460428557745
200,-3.354038708268975,3.527970376776324,12.399602124757237,1.818076075779067,0.3436535937320312,-0.7347754663477342
220,-4.500437389398754,2.3687233138753445,10.858823540563487,1.8356270926947496,0.38724525571457463,-0.6074910964816809
240,-5.303942038495803,1.2920788984923135,9.400520522537686,1.7600157822881426,0.4675430101494948,-0.40948343940434
260,-5.870823377731109,-0.069875734547774,7.739400937107572,1.569704685850363,0.5577508919122282,-0.050988454404368735
280,-5.666969810005614,-1.1063812684084549,6.5795901156351215,1.3624003779020954,0.5810986275602892,0.30185412007887835
300,-4.971508056057903,-1.8977766923033275,5.638428950539002,1.1389340222168427,0.5789973824802124,0.6017317058088688
320,-4.1315824196343245,-2.488460092116957,4.900001945918885,0.8989206177007029,0.5709527350464022,0.8290008238746204
340,-3.28445773634562,-2.8816679280302298,4.340234931405276,0.6421361594422631,0.5541001646729642,1.0162603284857452
360,-2.2131225541385207,-3.0207107288690356,4.036696763588236,0.3599087360085218,0.5584499629517917,1.1843306198958066
380,-0.7335856642579821,-2.9077016684560126,4.131970696059274,0.06838644620169092,0.6046157812850225,1.2956928545724096
400,1.0704046805854888,-2.556077653783209,4.637039809191928,-0.1896985050290823,0.657856841879616,1.288390069345341
420,2.777393191457107,-2.0517691629392476,5.3100395167673105,-0.4226188949158405,0.6935031552753196,1.1272311522183138
440,3.7535720759888185,-1.6678558105931562,6.125512471651648,-0.5946821449075472,0.6715879316108966,0.925398923994545
460,4.408776659449228,-1.3274795479499377,7.231288945827728,-0.7103664321586107,0.6014963208206703,0.7275189294455907
480,4.923381645312725,-1.065087646906599,8.5950530073032,-0.7947773448755882,0.5244556087093013,0.5263728595022203
500,5.047430052212329,-0.984137403950872,10.418653277283031,-0.8179035915406112,0.444724633522697,0.3104476989622082
520,4.6967318843790755,-1.0232529987891514,12.311472711361706,-0.7369824410947763,0.35850740813628396,0.13665710670286663
540,4.353174984904359,-1.0792570386557852,13.806771229411012,-0.584505154418919,0.29691074651628546,0.026051666653235054
560,4.151394502713563,-1.165120996249483,14.936728503222161,-0.4026160075150906,0.2805001817414527,-0.05684889591437705
580,4.054107846291697,-1.3458433376295575,15.707425840965515,-0.18853846276677194,0.27495918334104835,-0.135518450412608
600,3.992030137791799,-1.6440139889598369,16.072814581759896,0.04451695881576177,0.26094795051167635,-0.2244009749436996
620,3.87837824345347,-2.0414629414620085,16.066106142109426,0.26929732019434105,0.25047366357123946,-0.32051005382738057
640,3.667936786277734,-2.502062700522035,15.74907720389206,0.48707124925871836,0.2579805607595368,-0.41706004214764975
660,3.4717507530799643,-2.7972609909556128,15.317639861215245,0.6243035006658597,0.2798945254772182,-0.4751801478727297
680,3.2353510322937953,-3.0701452938078995,14.618103566828747,0.753687801718397,0.32032778451264704,-0.5244500121678894
700,3.104700009241279,-3.248368393017413,13.947774164174518,0.8319392924975246,0.35612515728888405,-0.5540325254686687
720,2.982517919482974,-3.40297161017855,13.243532529373963,0.8870787439867854,0.38353830428241054,-0.5809170012548566
740,2.8315819172330756,-3.566899611529979,12.458441157329393,0.9164886666316684,0.4036338508450207,-0.6029860045301256
760,2.6717807978223655,-3.752813845448479,11.683102872269817,0.9149073847227648,0.4192194517213178,-0.6162582468830898
780,2.504421739245443,-3.9655463511101257,10.966277498245976,0.8938200926856587,0.4222369306370649,-0.6199814271480765
800,2.316993910453215,-4.189884848578508,10.284921306174203,0.8546994319129511,0.4135675544082433,-0.6065098238345908
820,2.1496428057921175,-4.398932554397513,9.688122136890888,0.797173452864894,0.3973558294647613,-0.5730044808348312
840,2.020859734373349,-4.585526608144757,9.190034484469342,0.7257807471939287,0.3777661629498036,-0.5247637189218196
860,1.9122078743059543,-4.747655484741658,8.765637343268047,0.6458922589061719,0.35355406189708527,-0.46670087283539974
880,1.8236401077347157,-4.914252191659522,8.317831043756172,0.544038441210781,0.3202629573750852,-0.39334795131054645
900,1.7868900978750482,-5.0676817465323865,7.9285680593338475,0.4323898209933062,0.29302564840668616,-0.3244268633624983
920,1.8088747036638437,-5.242817402472646,7.575541424078579,0.2920278042916629,0.2719033973155087,-0.2564009808082124
940,1.8752818832875429,-5.415945932575547,7.329819090338783,0.11891014024059846,0.25727885074793494,-0.1924752216010443
960,1.9622027677816976,-5.522239595539023,7.33529966041183,-0.08545658588690933,0.25069653320409796,-0.12562105351453765
980,2.3106912650202434,-5.546912773119079,7.8905075383039165,-0.27093252682667457,0.24529354157620453,-0.0764940233786165
1000,2.7159986301622925,-5.526557089305386,8.724134517134535,-0.39844104528120444,0.2282478327340177,-0.09208342064054768
1020,2.803435876269796,-5.471920123186644,9.685197746739535,-0.4604885681817693,0.18740073179281672,-0.12582115775014047
1040,2.8138744860729052,-5.342791927201209,10.403820173793184,-0.47683416535786954,0.169399735907954,-0.13581831568291972
1060,2.8390244599250605,-5.1884674925348575,10.908179986190468,-0.49172445364057743,0.19057066076390128,-0.13648123492740385
1080,2.8334858081763965,-5.035773656910725,11.34909926244382,-0.4913499852119202,0.218316345228068,-0.13626331974113925
1100,2.8204554571136913,-4.897915596236983,11.638970661702798,-0.46800090032516595,0.22713246069190393,-0.1370819162240223
1120,2.7929453811521574,-4.766213480044495,11.80369357558298,-0.42875479870108946,0.22608059592431892,-0.1395012487887175
1140,2.744407111219071,-4.664316016594146,11.849436084577377,-0.3906387150802828,0.22610040670997672,-0.1392115627296586
1160,2.698786262573799,-4.571701654486327,11.82212757397147,-0.3535109957150149,0.2249205747095524,-0.13423036957144052
1180,2.6729404478757393,-4.484620048829312,11.75587996172071,-0.3197098140616292,0.22290611190575516,-0.1274711411358183
1200,2.6632327204636157,-4.402094561893207,11.67126036396152,-0.2889441728840774,0.21876814302479092,-0.12226133725911319
1220,2.648328719277536,-4.32252379453396,11.567038359691898,-0.2619262507957113,0.2157477495066086,-0.11892476483652613
1240,2.6296376126754444,-4.245853230912312,11.448438057069685,-0.2411240476494034,0.21591869103944833,-0.11546728375970441
1260,2.614649384763473,-4.167056740509727,11.334666230331056,-0.22683978982945782,0.21840099417140418,-0.11199937726489653
1280,2.6060727486916297,-4.088389573356724,11.234062710925654,-0.21916897290743917,0.2232836186526739,-0.11045155333538324
1300,2.584961712035117,-4.008222327389744,11.159984191537797,-0.2162683338505889,0.23028213786756338,-0.11037843829968749
1320,2.5546640206731484,-3.9274698464248012,11.113854420855917,-0.21433678447746593,0.2365483055126959,-0.10933852336490596
1340,2.527210787029095,-3.836352005330491,11.07602258456597,-0.21077346564863217,0.23827041099647017,-0.10710671162592586
1360,2.509569245884578,-3.7556821228619763,11.04515361130131,-0.2049228597135818,0.23507313362120946,-0.1056764443323336
1380,2.484872977526093,-3.676055225456623,11.015400711874062,-0.20002760802686373,0.23147943078098215,-0.10543165722700917
1400,2.4570402088461685,-3.5991105414732645,10.991507346370947,-0.19605779412162044,0.2288240434516363,-0.10445818590648148
1420,2.4331180907324224,-3.5239242504687907,10.97096462504328,-0.19205440629567586,0.22599303043972802,-0.10241601731720833
1440,2.4155981412682173,-3.4503925259393684,10.949267904014151,-0.18782504153943758,0.2223094833841726,-0.10044806188936842
1460,2.39620312964637,-3.3766738016388453,10.924712133576755,-0.1837006452476267,0.21728115270915363,-0.09903329382736067
1480,2.3788187071839055,-3.305182327671342,10.902437139627764,-0.18056420263369405,0.2123941393676801,-0.0983867612536966
1500,2.3601397033318188,-3.245033159439455,10.88385857690235,-0.1786143503581092,0.20966454434578485,-0.0979170593257132
1520,2.333979290961639,-3.1693067934549446,10.866023400669878,-0.1764232581324373,0.2073252389560559,-0.09644501717061546
1540,2.313452306204282,-3.1025790255014947,10.850630763451763,-0.1736612873522361,0.20437016997742982,-0.09453064051313582
1560,2.29905365613803,-3.043274111999053,10.836292616859499,-0.17056483892522473,0.20117927757985007,-0.0931007334105612
1580,2.2788593125662016,-2.968558348795914,10.812769605580954,-0.16712139682539118,0.1978321568179898,-0.09192234825848859
1600,2.256269118642838,-2.896126373625565,10.793170591907167,-0.16438870139422873,0.19504861456139558,-0.09046613601165562
1620,2.2388672215200636,-2.834974635908582,10.777545076043133,-0.1617774581655871,0.19265224856263305,-0.08886245232607036
1640,2.222941732440848,-2.775193355378828,10.761471872040559,-0.1590984115949444,0.19018771806765603,-0.08710985469536224
1660,2.210293160956216,-2.716487616760766,10.74645310311633,-0.1564722187385675,0.18795428200524733,-0.08566637732848689
1680,2.1979317799891445,-2.659258524800629,10.729743663871357,-0.15388077820264084,0.1857356259260996,-0.08480535910652982
1700,2.1838174256430563,-2.6037098026523986,10.714608979165211,-0.1515517092220239,0.183526648520487,-0.084356721090193
1720,2.1678533655325407,-2.5492398424963043,10.69787231108851,-0.14942688960383582,0.1813709014656359,-0.08366860803554035
1740,2.1515685624274257,-2.4960275641694833,10.682386332892635,-0.14756900587006672,0.1792187134242238,-0.08255384352124882
1760,2.1381471088848127,-2.4438846827588145,10.669240337154932,-0.14575832658091611,0.17677479875779278,-0.08113983361820121
1780,2.1271985210548667,-2.3924930155645687,10.65565291362313,-0.14413815979739641,0.1747599266097925,-0.08004297118839951
1800,2.1141840411905632,-2.342680640943834,10.645139873230264,-0.14244249021952704,0.1728728035025241,-0.07919067754134987
1820,2.0988730292661026,-2.287787045828448,10.630479506878245,-0.14047240147526507,0.1708305857607223,-0.07800063687023526
1840,2.0851810489506626,-2.2392320314132834,10.617882219641649,-0.138875887335147,0.16926548157477408,-0.076705457730643
1860,2.0747667826417193,-2.1914649912977344,10.604725223842337,-0.13735703424166315,0.16733153477526372,-0.07543121049570412
1880,2.0656281145082445,-2.1444675625726988,10.592296688586124,-0.13585315965753658,0.1651386101321049,-0.07453048302624278
1900,2.0558638782564076,-2.098160490968973,10.579624733447721,-0.1343062190679675,0.16300043920944254,-0.07407879632129963
1920,2.04455349745917,-2.0542129125754545,10.567052408882008,-0.13304389360520966,0.16101644635285772,-0.0737740539941213
1940,2.0320155841244376,-2.011876891964922,10.556956617295517,-0.13176808079723287,0.15926592381377316,-0.07325515341237399
1960,2.021109512949551,-1.9708589609530982,10.546673785620712,-0.13042399315764464,0.15765476659712493,-0.0724181280968148
1980,2.011863845799404,-1.930492397383942,10.536487745745074,-0.12902748219639942,0.1561525049141268,-0.07167468791970309
