0,0.5685776710510254,1.947629952430725,9.862211894989013,-0.07837338410317898,-0.23108261376619338,-0.036843834817409514
20,0.5758691678444544,2.0903198983934193,9.914316813151041,-0.05546428035530779,-0.22889290501674017,-0.040246762335300446
40,0.4408678472615205,2.1774413127165575,9.925329831930307,-0.038540688128425524,-0.18056449759751558,-0.037151122107528724
60,0.3805263568373287,2.2291997390634872,9.841276561512666,-0.024740452234468916,-0.12273895452894709,-0.026817815967232865
80,0.3728247249410266,2.271390994389852,9.796884854634603,-0.023933297976674067,-0.07855957283061885,-0.01665453669348998
100,0.4313909387588501,2.3002726459503173,9.835770835876465,-0.01897423836402595,-0.057082319539040326,-0.010936602922156454
120,0.4769392558212938,2.2950894873717735,9.85145904277933,-0.002884703937211427,-0.05035499085126252,-0.018155789717325364
140,0.4284907861076521,2.286009933009292,9.786195379315,0.014824343485419045,-0.05073818555948409,-0.029427333657319348
160,0.3367268146594634,2.265623824016468,9.68882537532497,0.026876183811927568,-0.0551844215322588,-0.034691711642301164
180,0.2517691368646011,2.2374156408193633,9.55624517580358,0.029359928315232802,-0.05602199186729949,-0.03223201824443006
200,0.17206885529061158,2.2281665841738385,9.476826583014594,0.017423481333793865,-0.048490370127062005,-0.021444844485570987
220,0.16876421210290204,2.221029908970149,9.49153538906213,0.0015973100354048338,-0.03563617890456108,-0.0028333838069529243
240,0.18237962653843043,2.2396343255711493,9.60183517955174,-0.008776271937710939,-0.027619593785466436,0.009910820983350277
260,0.19110174130486404,2.2876394344412763,9.800711913730787,-0.005576453038045893,-0.029342370107769966,0.022632658003788927
280,0.2057380288899914,2.3776508608484654,10.029874917937487,0.011250432395202115,-0.028658552337589304,0.02938227001880485
300,0.1721854580438319,2.477876331059987,10.274561110343642,0.04115538671257273,-0.011339294560651744,0.024776834169871934
320,0.03163493513096151,2.576110670892455,10.531228724143489,0.08745955367297899,0.015995511677946977,0.012915126979351044
340,-0.23552655466661163,2.6400284969887764,10.768106045366144,0.15766711844460798,0.04856198396356333,0.0012756018918387744
360,-0.6527432836111515,2.654238001761898,10.953274646882088,0.25884974288543866,0.0766947157801159,-6.159620720051951E-4
380,-1.2012125372749531,2.6007562144402345,10.964958243574833,0.3895412418117141,0.08288793775190148,0.020728420369052813
400,-1.7962927339239079,2.4248803324169583,10.728063273848148,0.5274033244693793,0.06045594259998516,0.07483692974266079
420,-2.3426235503199715,2.1537782606465856,10.23227316191857,0.6450155425436961,0.0395827020112654,0.16241678388987008
440,-2.7289647643459354,1.8523875844669853,9.547265492825405,0.708686612324819,0.06076183384981624,0.2770160322829603
460,-2.9160585836982547,1.4911441054879402,8.756094031347132,0.7013981054342181,0.12464829271763792,0.4173544348189037
480,-2.915161529172431,1.1675016208022249,8.134707671907439,0.6354566772500345,0.1948958111940609,0.5413145453020857
500,-2.788028783832659,0.8182155259375302,7.656764800965628,0.5314391975989565,0.26106768983354756,0.6659286399767295
520,-2.4621672623706137,0.468400528756055,7.27909608551682,0.40537711390167136,0.32102043435443195,0.7840462094807829
540,-1.9859964883020311,0.14582308813145287,7.011293928226734,0.2658890559758762,0.38928282178995577,0.8724760931565246
560,-1.487631926486679,-0.10667984920032954,6.905754961584442,0.1277329174908257,0.4501164183947968,0.9287463018189231
580,-0.9000758415271268,-0.30817227236560135,6.926612724418385,9.828357190107468E-4,0.4823703484621174,0.9631713253300881
600,-0.22482769772232997,-0.5047218681327881,7.035940411905314,-0.11226859539636366,0.5048828325733277,0.9628693420728225
620,0.4502821341013679,-0.673497938651305,7.249687579394175,-0.21044240724474478,0.5485771497550349,0.9197274847278515
640,1.088161098965402,-0.808158260228029,7.562453230264347,-0.2868119023841069,0.6138757535920186,0.8360597853402871
660,1.6174886750219308,-0.9298403345156407,7.920451415950716,-0.34421293452496815,0.6637906714771078,0.7200063758199036
680,2.013334479642061,-1.080339380972822,8.329895149973797,-0.39263555443104564,0.6694982076230996,0.588400078245478
700,2.196192150318887,-1.2667937274678982,8.871136371902931,-0.4536042709186444,0.6366499423100247,0.43436344142418365
720,2.1276077253123122,-1.3967754471302032,9.475368286276547,-0.5078144009302681,0.6040911051367099,0.327075065538908
740,1.908187342162657,-1.582681677102271,10.546410831726762,-0.558141381936419,0.5702533210495119,0.21760344405547025
760,1.7094698364520298,-1.7416099189583811,11.646232523287027,-0.552460255226185,0.5369212478619622,0.1404916756589565
780,1.4957155732466625,-1.8933330238782442,12.644303520922191,-0.4886528241763321,0.49801092292110505,0.07068335731728718
800,1.2533648599822957,-2.040714952322814,13.38565686900398,-0.38548297845750107,0.4601704154048932,0.008642203605233191
820,1.0257286303990747,-2.2075619330504073,13.90259033171023,-0.2644272632910556,0.4249598137212267,-0.04122231383685055
840,0.8346334793591568,-2.409636796374717,14.26278801523229,-0.132916470921537,0.38795094228186844,-0.08377358448400794
860,0.6318558396495023,-2.6441687585926856,14.456445872537135,0.007387253488427033,0.3427880107299933,-0.12228593625472624
880,0.4554474470141816,-2.881884471357685,14.484225748258655,0.14675319234470593,0.30045555909483196,-0.1537969395186599
900,0.3401441694344656,-3.1201776381152566,14.37969790794949,0.28366233842776983,0.27087007576709576,-0.18600682649341968
920,0.21944918645804948,-3.336582938204287,14.099046867588912,0.41603546825132465,0.25501243061119605,-0.22034924380295468
940,0.07499483231550608,-3.5289570279610465,13.608317353408067,0.538009593491323,0.24746111335638815,-0.24871235217373722
960,-0.03327752189270815,-3.636542443354525,13.100300082238391,0.6109632116510771,0.2417927013666851,-0.2628456245073534
980,-0.12723098317243783,-3.698146271294561,12.623204666041893,0.6523439538346264,0.24578156263000914,-0.27058658050373197
1000,-0.2158410106808091,-3.7231100812050455,12.201514329530685,0.6748637816798986,0.2618204902644958,-0.2725219295972031
1020,-0.2933955719050073,-3.710259984737324,11.80523341774424,0.68789154297222,0.2857040028739941,-0.2667730654561142
1040,-0.3311031009915263,-3.681000357727672,11.403512841812876,0.6951974126391199,0.30821450314062193,-0.25538906768765735
1060,-0.33938192868749845,-3.6386909895835946,10.978966882991388,0.6945351221966536,0.32471136200575573,-0.24144158830555776
1080,-0.3264959415780055,-3.5921857671085493,10.544283398801895,0.6824915739634563,0.33295414536186985,-0.22621265670280452
1100,-0.3068790274307066,-3.5498516744716575,10.125488894826441,0.6586489099547644,0.3349594892272397,-0.2121387033647394
1120,-0.29528206640056204,-3.5171744571877763,9.738035809106568,0.6241711506900253,0.3333767830828624,-0.1991458945631481
1140,-0.29027637181744137,-3.493997320596208,9.387692240644444,0.5812525239188541,0.3289910078558952,-0.1856151242373868
1160,-0.2860094290216956,-3.485344802859438,9.077725699945903,0.5318846495375894,0.32588304453344324,-0.17247263783351305
1180,-0.2875793931395718,-3.492833681297498,8.764906335112427,0.4705493217420208,0.3267113202164481,-0.1580049534026128
1200,-0.2773384276768099,-3.515637219915486,8.513138439862828,0.41142341655142833,0.33050222184951183,-0.14664346631522282
1220,-0.2750701401891857,-3.5587420523996145,8.288939188005843,0.3494904569598289,0.33343977173355227,-0.13748694249849108
1240,-0.28136558705620074,-3.625797254348688,8.075246945463682,0.2832708342243241,0.3300751224164751,-0.1276383691142931
1260,-0.26970043131249,-3.705782955896418,7.88038988351402,0.21039608331497664,0.3251054669252143,-0.11689473365690121
1280,-0.23560266421782647,-3.7968105332222564,7.711317906289607,0.12841819335160462,0.32808414563948407,-0.11065445136388435
1300,-0.2167962747921941,-3.8865214618566992,7.602992088329395,0.03572451353473502,0.3436175346796653,-0.11340664864091254
1320,-0.25162260842459827,-3.983045554622102,7.642291545211878,-0.06838939973268089,0.3531285362325876,-0.11716361329539184
1340,-0.25895768789635354,-4.105559168515318,7.856611996296685,-0.1739150986874885,0.356211502504317,-0.11418499650362669
1360,-0.21915071623146615,-4.2644631307112295,8.280049912833936,-0.2694714054613572,0.35064600951917974,-0.11406242918916219
1380,-0.1862117132653254,-4.385994808068351,8.869893990919435,-0.3325526867976751,0.330406538419823,-0.11767548167128675
1400,-0.14590042390496186,-4.462908739318018,9.448623226209666,-0.3557718349709783,0.311808485492821,-0.12280164109138043
1420,-0.11377983005982122,-4.522026726134019,9.92606866543663,-0.3528851604202561,0.3125831489143717,-0.13215780720325573
1440,-0.1267779868138661,-4.539320018186586,10.176450597253895,-0.33853627115806373,0.3255666531941518,-0.14101193421213004
1460,-0.15046310983831063,-4.528103951116403,10.396420990827028,-0.317901988797045,0.3384658381595121,-0.14415120978684476
1480,-0.15891427289630214,-4.500021295229855,10.5282463433342,-0.296873655339464,0.341521055266448,-0.14256229846949664
1500,-0.1518559209843416,-4.46932471699831,10.608978984997858,-0.2768926821808081,0.3380941845934717,-0.13937785634922423
1520,-0.12688605744693648,-4.431316837740174,10.66795567429309,-0.2526208062545601,0.33189163905087066,-0.13653938941744248
1540,-0.10100074238977771,-4.399191797346396,10.686182882255252,-0.22802066894856218,0.3257163762252943,-0.13525599423757564
1560,-0.07971672510248026,-4.362258820515126,10.670673197696306,-0.20256441177116358,0.316749141613036,-0.13374930519566988
1580,-0.06680921402136093,-4.3260633468076035,10.646830647266153,-0.18166228390462627,0.30904217645343407,-0.13239018124726568
1600,-0.05034651899378088,-4.2900131988997865,10.602773842472077,-0.1619990858477938,0.30455253184694947,-0.1313264630770413
1620,-0.030262365232429367,-4.257984210119908,10.540986400234361,-0.1464490858839365,0.3021050719211175,-0.1313151376334535
1640,-0.016815027501295498,-4.225470410127725,10.476122400769825,-0.1357745056108494,0.29834308866044185,-0.13267608528327574
1660,-0.021118431612986193,-4.191481592812959,10.421927953645012,-0.12911398193648305,0.2923385733461199,-0.13364705053664855
1680,-0.029506078756787967,-4.154962212280479,10.377070070874504,-0.1248604284665753,0.2859085503756475,-0.13293483034981046
1700,-0.03364709901344165,-4.117399546730638,10.334142064605539,-0.12274335348181127,0.2812693920264144,-0.1314951345771444
1720,-0.03757972052347258,-4.084306812709105,10.305718543852766,-0.12244279458986741,0.2790226543424585,-0.12983765960241675
1740,-0.04113521211457975,-4.046407502463288,10.286558959295458,-0.12327565263622398,0.2768617614455192,-0.1275960045369005
1760,-0.04064557009186704,-4.00992058112122,10.28044075790816,-0.12370662185933115,0.2723996255727002,-0.12467126396772724
1780,-0.03326744106068022,-3.973498551933854,10.274956211470073,-0.1234062657881891,0.2677636282331347,-0.12176395459445538
1800,-0.022806300592749018,-3.937288787140128,10.272242476369458,-0.1226571273384679,0.2652164330498127,-0.11976676994841166
1820,-0.013354238039570168,-3.902049569275555,10.273174730245174,-0.12116838345216625,0.2638206646968329,-0.1189992825269399
1840,-0.008834814129550842,-3.871721218201391,10.27404185828562,-0.11907346710745999,0.2627443143366613,-0.11874343371737074
1860,-0.0026562317205977267,-3.8330385156279325,10.269353242649155,-0.11608219095450703,0.260961100089201,-0.11847855044105403
1880,2.1178875862098794E-4,-3.7987129198016674,10.26420080475933,-0.113899343225606,0.25928124766257893,-0.11815559728524039
1900,9.987008802237966E-4,-3.7674121172041506,10.260233303603322,-0.11183547857247456,0.2575832034171735,-0.11727787120605758
1920,0.0011837857828778066,-3.735156681089644,10.256792112370466,-0.11004233862967439,0.2562407053126153,-0.1159220425284521
1940,0.0014237449498570311,-3.698447230931193,10.256982289425329,-0.10762055792144361,0.2548394567384185,-0.11399755168557214
1960,0.004921606241303325,-3.6707488160752475,10.256060136095522,-0.10516776378556025,0.2535370795283532,-0.11226360660340502
1980,0.012179375846602013,-3.6385588243658966,10.251767581857727,-0.10218686382637367,0.25144880659025215,-0.1107618838196968
