0,-0.7070097923278809,1.423120665550232,7.497369432449341,-0.4309238910675049,-0.2406838834285736,0.10167358592152595
20,-0.48592287053664523,1.6496363149748907,7.951731284459432,-0.50518466035525,-0.23906231506003273,0.10913635459211138
40,-0.34709361295860547,1.9060671833845286,8.274055902774517,-0.6053240757722121,-0.1901739611147115,0.08678856232346824
60,-0.5456418253700522,2.2675200805944553,9.059654894997092,-0.7534922466558569,-0.12860553204903707,0.05437270895687535
80,-0.9948455349852642,2.784723557177044,10.800854240145002,-0.8685754253750756,-0.14494676269324763,0.07523071612065126
100,-0.9766890075057745,3.3103003525733947,13.341121606826782,-0.8640292286872864,-0.2463823332078755,0.1461297266674228
120,-0.40294141829784574,3.675364109976538,16.182899976598804,-0.7322166742243129,-0.3505630515162544,0.1579362212876982
140,0.16663529819837122,3.6718554189710906,18.947726199121185,-0.49443114122770954,-0.4279141499604465,0.06593058888525279
160,0.3400280482160884,3.3719934680171915,21.464101308100933,-0.15560353247801195,-0.49569523748564154,-0.06410208889881049
180,0.2655550950184101,2.790606792743613,23.220942177423616,0.2690479627969425,-0.5031647526931654,-0.16548879682398743
200,0.19910595781273313,2.059025004506111,24.05605630344815,0.709209038462076,-0.468980178097263,-0.22089984534282445
220,0.378558248883546,1.1119664970672491,24.168893163854424,1.1740386693578477,-0.37994977939554087,-0.26226288487904265
240,0.632732846748049,0.2640341355978886,23.68638611285486,1.5448663025641831,-0.27937396736293335,-0.3062344164332967
260,0.8420055956944176,-0.5329855729704318,22.723779736394466,1.8961742517578861,-0.1734915004030842,-0.358330291650339
280,0.949596074296207,-1.142365930283942,21.140507347578925,2.198973209135295,-0.09205665786531035,-0.40565441622554016
300,1.0345022193803133,-1.6193257850090057,19.19621039745007,2.4022230949423466,-0.03883611941567928,-0.44965836145108184
320,1.0611143075733733,-1.9544738537544826,17.253583649401186,2.4900583922729003,0.004560543783679069,-0.49441007606051995
340,0.9812085856588519,-2.2271401490889438,15.61311674635021,2.5097764472850934,0.052002263600703605,-0.5209098307338232
360,0.9135068414192046,-2.5405132030287096,14.017478230980135,2.508518003059491,0.11025770391607957,-0.5195270139446122
380,0.8280008957704152,-2.886277823177583,12.323066631252049,2.4711542964964375,0.15598496948683097,-0.49980772510270927
400,0.7632409325196293,-3.2129398408340433,10.693832711431018,2.3942742218639244,0.14931610194770129,-0.46258432692262663
420,0.7809101977234696,-3.5240506098590085,9.266585207767992,2.2713331767571208,0.11586187258310741,-0.4259625113011187
440,0.6965175678190636,-3.857153632380861,8.056081712483726,2.099871027431986,0.08033082953981183,-0.3799015344584985
460,0.6051579161632654,-4.103279594103901,7.201824072900475,1.939827160653183,0.046433369294094036,-0.31465272430261615
480,0.6011264436083901,-4.310260467523453,6.4574895386456275,1.762521399668984,0.021207533801869287,-0.23922917692107148
500,0.6192255439895715,-4.507946611434783,5.861946156775614,1.5616119251727074,0.008216590135147408,-0.16815131825102791
520,0.6176320140461692,-4.692692595042965,5.407170544090596,1.3466511754234407,-0.0036068204896185885,-0.10056012468994595
540,0.671256769591485,-4.900777401500626,4.969245596086247,1.10899120733436,-0.005795733850008171,-0.04131211242138147
560,0.6833112751078492,-5.096804742969699,4.595149653632257,0.8262407239921138,0.013469043035865208,0.004175978888840399
580,0.6259835295066176,-5.2620544461686105,4.495824882936221,0.4973054895345427,0.03889032794338208,0.05029408920978074
600,0.7055993911344558,-5.371933992774713,4.958108847776043,0.17493519950510253,0.05355831967955012,0.09103033745094084
620,0.9060174977371039,-5.466798117412971,5.774908196661048,-0.1052366049745335,0.056419045297214046,0.08793772132574725
640,1.025515228381325,-5.663738851115775,7.105612198551143,-0.3296167293855392,0.019793567030496007,0.0413022227607035
660,0.8866084929440926,-5.7652634873554325,8.791752620633908,-0.4577307843036302,-0.05088522847559627,0.021315524208214323
680,0.946915122745722,-5.693995302497295,10.668543510027883,-0.5062871024731481,-0.10259087745329006,0.05788824253903473
700,1.1384435560865767,-5.539328918547557,12.176001876459136,-0.47683190617316207,-0.11939740456392792,0.08723964289334561
720,1.2959045332475903,-5.3536725198955235,13.375174118997993,-0.384992948891069,-0.14116243815878746,0.11170940530800455
740,1.5924477714496668,-5.1883721065415145,14.20773700503542,-0.2528252718264906,-0.15897873575229524,0.13395373112315606
760,1.9945451422015716,-5.0891522822978,14.69195705160428,-0.10465048173037049,-0.1503496036030446,0.12971395603344374
780,2.3456453673971387,-5.069733338310169,14.915032652862942,0.04587265079411176,-0.1345393019871643,0.09038168312444424
800,2.615721035141822,-5.14729276035462,14.933429281783846,0.19797506481520943,-0.12275322640381821,0.021547537231636053
820,2.749145393003095,-5.297628910616695,14.759290920821758,0.34030410123557464,-0.10806039617672737,-0.06370645331982196
840,2.7443219066642888,-5.445121742208571,14.461773612325675,0.46461598776323576,-0.0888750879721113,-0.13894423243441595
860,2.743189726418787,-5.5542853369014935,14.07127032532808,0.5683532541758624,-0.0690173750876316,-0.1942566363463773
880,2.7823453329254164,-5.6377191663684085,13.539504037910431,0.6551848290935973,-0.044829458360880856,-0.24820698356819518
900,2.795717928048104,-5.681357989615616,13.044801013090991,0.7059119760561834,-0.022344690310534706,-0.29423605956300286
920,2.793545867942995,-5.708736195263126,12.564849795837015,0.7387892256749315,-0.005976032403526896,-0.3379175239251756
940,2.7676355430975748,-5.726418249691144,12.102574612291004,0.7586216103619872,0.0045163174888166865,-0.3791117748278432
960,2.7026291990023217,-5.743413539650152,11.637520739532558,0.763841731993285,0.012469717946100101,-0.4164137241869917
980,2.5887330529942942,-5.761850929282275,11.195242005372833,0.7530241000874363,0.015810581074403644,-0.4465716687370014
1000,2.4348787605112356,-5.775028696634632,10.80991531431153,0.7318856975711558,0.01164395710259928,-0.4653746031372637
1020,2.2678565606331427,-5.78256491712908,10.442785023279065,0.7042812235097256,-5.195169892797679E-4,-0.47132768322050494
1040,2.10961125287184,-5.784262048609035,10.084959797296934,0.6662906997815468,-0.017312699219558473,-0.4651815546922884
1060,1.9807687078094425,-5.781347740968885,9.747445552635376,0.6165107806089875,-0.03867890880672797,-0.44948772168649176
1080,1.8884461124045482,-5.776830320634917,9.441618460489462,0.5550432607840596,-0.06386691473127915,-0.42985585934431353
1100,1.8168914181740323,-5.773527180275465,9.168050737415609,0.4839572687612822,-0.09338215644274415,-0.4088735170936774
1120,1.751682090572005,-5.756870336056529,8.918119976317179,0.4026779252834199,-0.12891011947294237,-0.38585552677499063
1140,1.7044098569137576,-5.706848719792002,8.700257124331822,0.2964953962760936,-0.17766715520636955,-0.35206324875531736
1160,1.7191140748325167,-5.6235161044621265,8.598490472762439,0.18439879761872685,-0.219142047319919,-0.3132107819152008
1180,1.8596860076916581,-5.510895920408702,8.733146462486234,0.060715887982405924,-0.24227461317607663,-0.2773847028073325
1200,2.0767674708183894,-5.415066819615436,9.143730135288353,-0.04511752450330691,-0.25108648340753986,-0.27019830844576725
1220,2.2217973204835078,-5.378223715805509,9.715370939111349,-0.11280559388102286,-0.26787862087698067,-0.3014174260031969
1240,2.170534567082749,-5.386375726683616,10.301593424650292,-0.13807141835894254,-0.29368128265307053,-0.34523229996711124
1260,1.9952405396739454,-5.373002740818297,10.739554133844026,-0.14050181838459477,-0.29959788020998096,-0.3664629749820508
1280,1.8285043074067264,-5.331231905469067,11.046357712787938,-0.13772514913110964,-0.2803274101676663,-0.36044576229236885
1300,1.7292041575405572,-5.264996286599993,11.274704880256937,-0.12385619943874461,-0.2603678780573063,-0.34163617109684014
1320,1.679398335546468,-5.180352489510294,11.392530577078901,-0.09715563430353094,-0.252902715033843,-0.32324055240178245
1340,1.6434528929783123,-5.083422656203139,11.42107055982247,-0.06841160909707122,-0.25274771147115177,-0.30613117287347025
1360,1.6289389541460957,-4.986353760461901,11.411561597981665,-0.041911934360808464,-0.2507905780699284,-0.2893933560222317
1380,1.6303168344926287,-4.88191019998155,11.36548975709183,-0.016327345753613283,-0.2435032660289156,-0.27362336661288694
1400,1.6368628471932931,-4.792467554539649,11.306987466610735,0.0029641494523578635,-0.23622010143945874,-0.26378986841781527
1420,1.6369138832215206,-4.708009847962897,11.234848436130823,0.019496257088389504,-0.23160172397532333,-0.25761766337103065
1440,1.6326347034372628,-4.628949926234782,11.157870523540328,0.03145185124594718,-0.2274500597661638,-0.2530158325686431
1460,1.6217236631759442,-4.554752541507284,11.090290082801754,0.03898558593355119,-0.2201618252834305,-0.24867697707280362
1480,1.6049861527242588,-4.48208228844267,11.030420475599577,0.043503720034526565,-0.21089543580034698,-0.2434212030790437
1500,1.5923225684839832,-4.410848564262707,10.980107465840561,0.046317844074098516,-0.20275860503709017,-0.2376819794969981
1520,1.5815726948136357,-4.33718097432015,10.938208180082698,0.04837524221362307,-0.19667925937728098,-0.23231782065909684
1540,1.5752862541592987,-4.262020811556449,10.902447682873145,0.04985887813381851,-0.19178453214095223,-0.22812860181074018
1560,1.5610962367522006,-4.1866814327659085,10.868486816165387,0.05014611574297305,-0.1866276791683049,-0.22439698230209615
1580,1.5413503534164865,-4.111309924542352,10.839319229594512,0.049632237305716295,-0.18138115070214103,-0.2192310903149148
1600,1.5264695778119135,-4.02625037502934,10.809179265848737,0.04843525923614013,-0.17684165542715624,-0.21177839291798692
1620,1.5233621292201367,-3.9506227037288193,10.788709870414962,0.04710684318399176,-0.17399587981486903,-0.20553297326721504
1640,1.5218445728311556,-3.875504758635212,10.775139933806273,0.04605535231111191,-0.17213186144484222,-0.2008780182135481
1660,1.5169090597655093,-3.8018492447340893,10.763619143277866,0.046189250688404654,-0.17148405453497914,-0.19726395044833417
1680,1.5098356592998785,-3.730363006623805,10.750398428683509,0.0462334579429525,-0.1705536663918168,-0.19395258225935155
1700,1.506855625899073,-3.661074433748315,10.73948106303052,0.045730262961904376,-0.16835088202418488,-0.19072792673910402
1720,1.5041130839186516,-3.594642505852889,10.734056728874855,0.04584818192413374,-0.1652151757286505,-0.18838258055781826
1740,1.49849625511701,-3.529009367209999,10.722170333967114,0.047297649990516125,-0.16340858104069658,-0.18672484018514
1760,1.4919410948628682,-3.465802686327704,10.704276151456527,0.048752628149063976,-0.16251009788833468,-0.18587808787481067
1780,1.4806280653350137,-3.405901901454592,10.685782532395466,0.049293797218969954,-0.16128793649435882,-0.18545907505980178
1800,1.4639711751573525,-3.3486144142566574,10.67275341597905,0.0494669250386285,-0.15993548117526615,-0.18426430324554377
1820,1.4477298830879615,-3.292165057871166,10.658454589483222,0.05005171631612102,-0.15858347416043223,-0.18208068743169983
1840,1.4335367665860792,-3.2297379777072597,10.638289668286017,0.05016858719235418,-0.1571203359520714,-0.1793093482513828
1860,1.421824452533262,-3.174589098066952,10.625344286838992,0.049904659397591804,-0.15632503080418045,-0.17694896879942668
1880,1.4119667062608452,-3.1213824352080173,10.612045817335995,0.04946359905165578,-0.1548296189975249,-0.17480849356060946
1900,1.3991778468794565,-3.0696270949468207,10.59975350279227,0.04877693173732186,-0.1524181355288347,-0.17253677635007733
1920,1.3855218939422735,-3.0180660161087833,10.588125821371248,0.04775999662028383,-0.14994934985631353,-0.16974546570664403
1940,1.3731666991084823,-2.9671095903371683,10.57869310921729,0.047208308515375566,-0.1479053021893669,-0.1665924813600447
1960,1.3647192065979115,-2.9159931464125393,10.566707148894835,0.04662246581850233,-0.14660335474896452,-0.1633476571839226
1980,1.3580648259300003,-2.8655197646330905,10.558038949752572,0.04601268650727479,-0.14532909750570844,-0.16053319512622108
