0,-0.13542747395959767,1.303761601448059,9.778212027116256,-0.10665561732920734,0.19815286045724695,-0.07049523801966147
20,0.06731265538225048,1.4672646773488898,10.653803674798263,-0.0684793921138503,0.13054679696889301,-0.06444769685989932
40,0.391009130342691,1.5991634881054912,10.873921394348145,0.029237645626482036,0.10373319806186138,-0.12055478231222541
60,0.46285464971193246,1.6700814076832362,10.834795134408134,0.080229679162481,0.12655273407165493,-0.21197676115802355
80,0.3780789125039307,1.690661069958709,10.949807011803916,0.10959715932217795,0.16982922085755786,-0.3012524854478448
100,0.11007697786222778,1.688441879609052,11.030051642773198,0.15102526807573205,0.1910588743311225,-0.36435824376987475
120,-0.11057684083579708,1.687636375427246,11.05484235084663,0.194660828014741,0.1777962771228562,-0.3923403851182784
140,-0.2035409248183801,1.6865227791800428,11.147422306573214,0.2351261134843217,0.16508540426339233,-0.4128532007670225
160,-0.28810489738360046,1.706211986541748,11.361398366292319,0.2787690375186503,0.16122920983781416,-0.4342310498654842
180,-0.4099811955063368,1.7462867239871658,11.608227350625647,0.3341490516764482,0.15758374579116163,-0.44865785794983426
200,-0.5178506210968308,1.8054237012024765,11.903773957556421,0.39549579446275646,0.15507090299461895,-0.4517450177489401
220,-0.6224656039802358,1.9195124328136444,12.351068334579468,0.486211641873233,0.15845765660516917,-0.4585638068988919
240,-0.8101375660712451,2.0618014412897603,12.706732281932124,0.5928422718921125,0.16361904015799086,-0.4746298468844206
260,-1.0909314428191181,2.2127090928883386,12.935046771477008,0.706846508354045,0.1802777245496239,-0.49952281744958
280,-1.452463521618366,2.2948151067379983,13.050616456616309,0.8080133256134426,0.22432221937173558,-0.5342919388185104
300,-1.9570576372718664,2.219021982315815,13.146262725194296,0.9065775075384105,0.2857415227600458,-0.5716578575754256
320,-2.6119399841575484,1.9716828090803964,13.13247425896781,1.0281140513684868,0.3432763988085623,-0.5915897611262543
340,-3.314545343475844,1.563138695987495,12.763674524990288,1.147070581744727,0.40110163780155816,-0.5783302393447721
360,-4.101993091998454,1.0309638442137303,12.05634456509963,1.2039843590374892,0.4895018731446889,-0.5073221483609627
380,-4.8681986699215845,0.4204719895269813,11.307880707812018,1.1928619654230184,0.596178868439094,-0.3344060761474993
400,-5.236181277540772,-0.24490468862444856,10.581001758055631,1.153055191210601,0.6825306092139853,-0.07537484975859285
420,-5.09928950528459,-0.8607168343332079,9.756192273067104,1.1004113149078978,0.7322551232814375,0.20306441012912224
440,-4.623763735562147,-1.3854933837626844,8.808576428668296,1.0139464122277901,0.7436706359309957,0.4451453611942038
460,-3.991202443778724,-1.8321655854886891,7.9591634195982195,0.8764014318371571,0.7379062690211422,0.6314956219575834
480,-3.3132584518934713,-2.265945600881809,7.242329036462598,0.6842034201592025,0.724992038904712,0.7951723379963191
500,-2.642864793064641,-2.5964486554195063,6.738460786605665,0.4906837146689879,0.7196841075308096,0.9198596669801515
520,-1.7436176332965392,-2.822655264608461,6.415054632628935,0.272099531729752,0.7278906886857761,1.005928639566412
540,-0.7472042865119874,-2.954241029039741,6.354792365438293,0.04021150483566796,0.7445577276773002,1.0300740627526188
560,0.26333089272063304,-3.032094853839794,6.593054477266873,-0.18183341196577069,0.755404777459423,0.9946876345158119
580,1.2798398295702527,-3.1158912142928767,7.069824210569567,-0.3682569405425112,0.7756351984695208,0.8981137006481805
600,2.1497241749111637,-3.268359283213559,7.564551153290178,-0.518040281880588,0.8206136267109527,0.7462450311452025
620,2.7195677250727184,-3.4774950957389628,8.013772379478503,-0.642242142882455,0.8726772287275314,0.5648755929803019
640,3.1285366804172807,-3.664736174296269,8.52933265338046,-0.7425508719772017,0.8960381620373148,0.38086921959158143
660,3.3942356527487103,-3.8384815355500588,9.157240815622066,-0.8090456753367363,0.8820307128541575,0.1808347627449115
680,3.308354061987382,-4.051902617906269,9.981567837559341,-0.8443516458482727,0.8422471843431132,-0.030229975603798632
700,2.797399224512292,-4.430753731403221,11.179397673504491,-0.8324177312481323,0.8059286316666028,-0.22526798204720694
720,2.0626829053777955,-4.922891469191241,12.248669655586513,-0.7566818334918742,0.7911210902411466,-0.39257790763216366
740,1.2068735757557254,-5.4690968521179695,13.164665775601902,-0.6313602682579527,0.8103166966218381,-0.46946022792366304
760,0.4684146264430323,-5.978270252545674,13.677053331274468,-0.46396175762735464,0.8446108756510763,-0.4849700772459033
780,-0.04524089182167103,-6.408132147203925,13.8246704256562,-0.279158860309413,0.8669450434376171,-0.4614198357955998
800,-0.3339833395575134,-6.749394774436951,13.696314147556436,-0.09749336482848607,0.886040508883732,-0.4229470211402569
820,-0.516988102770111,-6.993877489664401,13.383985958078451,0.05914131482123269,0.9094054139088512,-0.37551555631727207
840,-0.5815381441464914,-7.141510579926627,13.005435598407473,0.18437926390199988,0.9380268374112035,-0.31891492760108253
860,-0.5415821826207717,-7.203857779502869,12.608453736125425,0.28522164024815533,0.9684800786621786,-0.2638247917310657
880,-0.4336686985951446,-7.192047629200045,12.181436291320727,0.36577560044079194,0.9942679859193988,-0.2184033584555158
900,-0.32085579266039566,-7.132048261994346,11.70985293021814,0.42556146277171714,1.0093652871785994,-0.18347711217207435
920,-0.21339500058535,-7.028906112566045,11.22772663441628,0.45841323357940644,1.015653917734165,-0.15380491497249865
940,-0.09104750329114096,-6.882441110289691,10.748088556329918,0.4678650136709974,1.0169704053050759,-0.12265271437681897
960,0.05989349292787282,-6.724002599389407,10.373172167399174,0.45815704402420143,1.0102062880792153,-0.0967271153334841
980,0.2321227090467564,-6.541169331731682,10.061142048759601,0.4328229568831603,0.9981213321506575,-0.0812745995831582
1000,0.34819545244169703,-6.324179178233965,9.82537470269634,0.3955194339144229,0.9824003923392619,-0.07472305568524198
1020,0.4203231099466782,-6.089000515877567,9.68438360993321,0.3542603026914116,0.9618205987640831,-0.07389045199164658
1040,0.4551426363199206,-5.859885076333157,9.603295208994307,0.30886297665957496,0.9403104799842298,-0.079893172727498
1060,0.42801564566235234,-5.6435391430176605,9.65688281833854,0.2659477028891138,0.9221322096834926,-0.08950024596091936
1080,0.37436246099492215,-5.440509440889895,9.757020643126777,0.23691441343624042,0.9045819759062101,-0.09791385138045863
1100,0.3192797998897731,-5.246651062574033,9.846331011626747,0.2188675650681374,0.8832099010551266,-0.10403568630674752
1120,0.2725459883164526,-5.0609195947920655,9.917791809460256,0.2076196787831978,0.8596083705831967,-0.10871389602209375
1140,0.22803027235908777,-4.88848422183764,9.967014031330491,0.19975178024276544,0.8391743370580473,-0.11373189234668132
1160,0.17009628589827722,-4.711901738222999,9.988499224216987,0.1919100479057306,0.8202652259009483,-0.11716152240818095
1180,0.11731669527467066,-4.567655791001791,9.99783276928375,0.1856423097148659,0.8044099919400158,-0.11711837723684215
1200,0.07566523312444558,-4.429202504673852,10.002229707886375,0.18170835933127702,0.7886194933349954,-0.11458742724179531
1220,0.05104622813329721,-4.2947929118139045,9.990168613130374,0.17965148719269478,0.7730459985006803,-0.11213471125769761
1240,0.030442941010733193,-4.165968238819914,9.96040015949984,0.17621599993339032,0.7586104014824286,-0.11120673652362711
1260,0.006392856523430405,-4.0463303872957255,9.936761431539288,0.17060204727050193,0.7465948373027809,-0.11158768079633144
1280,-0.0292482730486275,-3.934028391564039,9.924915993783737,0.1664111105562342,0.7344480735317286,-0.11059321999566622
1300,-0.051385685348876324,-3.8245693053563694,9.902968282158028,0.16521115576731754,0.7196757930911706,-0.10778410613442138
1320,-0.05969058414698606,-3.717722043812768,9.870527487494709,0.16395152071896413,0.7044489655572226,-0.10644206540767781
1340,-0.07212877954303974,-3.625146909094603,9.84373932700949,0.16227409208421392,0.6916985699069008,-0.10651460341824398
1360,-0.0975371776872115,-3.5058211722344694,9.807365889235266,0.15939447243072208,0.6756381180280836,-0.10607868411191573
1380,-0.1165379477774685,-3.3984906820147494,9.770963277641526,0.15505825178474303,0.661775263958704,-0.10413563760320499
1400,-0.12690277935002492,-3.2922039549189828,9.744752758104974,0.1477104932603955,0.650020221727876,-0.10201076390229799
1420,-0.13997559475386118,-3.1757550805870793,9.742931675732645,0.13923519871375853,0.6417200978542758,-0.1009327588815797
1440,-0.15596303518965188,-3.0762310578702974,9.74447461527978,0.13234934412972832,0.6320723812459005,-0.10000132599375941
1460,-0.1663761586129058,-2.9809984355334334,9.748598646229992,0.12855450091130036,0.6216563397684148,-0.09952382870698766
1480,-0.17574489145342426,-2.892994936641263,9.747163595653129,0.12444129858954699,0.6119766186394046,-0.10006641727116736
1500,-0.19301451865139885,-2.810270222872979,9.761851593610533,0.12074726012056525,0.6041570303860125,-0.10045077083851219
1520,-0.2096351132325828,-2.7310811137974262,9.77115894625187,0.11955782384314098,0.5969502539487738,-0.10008525091054765
1540,-0.22290709053826818,-2.652455857185438,9.772588169428786,0.11955546804338342,0.587498611171206,-0.09930296552641167
1560,-0.23710320975308927,-2.5741939946207073,9.768257581522796,0.12032176420593296,0.5783221075500546,-0.09871520425408044
1580,-0.25057293480916526,-2.4974703715112527,9.753759897016964,0.12056608149159925,0.569595885363505,-0.09798271805069514
1600,-0.26473533861619764,-2.4224912644714074,9.738171702310375,0.11900630845679247,0.562787083408879,-0.09696648847148719
1620,-0.2780599810064007,-2.349359384677688,9.728742623889357,0.11742799723353692,0.5558609685555969,-0.09546370296528969
1640,-0.28966945435683233,-2.26940546366621,9.714064602350446,0.11621588624265765,0.5473709523961783,-0.09383922146021137
1660,-0.3002834904691767,-2.2013601620362038,9.699625833315059,0.11464951342147402,0.5398470764632182,-0.09258239574305702
1680,-0.3135601381400087,-2.13622560257605,9.689937041483928,0.112996725291832,0.5327145797615547,-0.09101583621889839
1700,-0.3231629523412621,-2.0722066611318413,9.678926276635474,0.11050961904927727,0.5268673113142647,-0.08916926984962097
1720,-0.3332741084019192,-2.008892251125856,9.673911736323037,0.10838593351747873,0.5213713454814409,-0.08713143111025867
1740,-0.3405422758596691,-1.944581504613787,9.663662703452157,0.10707447069870074,0.5148691195100794,-0.08498185569406108
1760,-0.34561261402022536,-1.8803226059338805,9.653262635037674,0.1051089440889149,0.5090096843934558,-0.08312852720960902
1780,-0.35093271478640603,-1.8169603092876607,9.647171889286335,0.1030427597704334,0.5032699196602614,-0.08156170598071782
1800,-0.3526520395852111,-1.755445532021201,9.641797339710278,0.10138584138197872,0.4970656675819767,-0.08037744639431907
1820,-0.35561226060097145,-1.6962132514491877,9.638772560528233,0.10002006645909424,0.4914392947357263,-0.08015818973074994
1840,-0.3651102631438069,-1.6394766926301017,9.634763751821271,0.09884362828360274,0.4858298851488978,-0.08002058428725159
1860,-0.376240950457991,-1.5775865533414783,9.630270355514117,0.09795302423352692,0.4796386108600057,-0.07912516520284775
1880,-0.3832155692151925,-1.5232573282094395,9.62323237024006,0.09700082683255237,0.4747713483147077,-0.07801411231878864
1900,-0.38873105800730945,-1.470609684184251,9.617562584167727,0.0958890472938153,0.46987893108926493,-0.07695801521992772
1920,-0.39507781530954084,-1.4194280055920763,9.610839466903988,0.09464150223647436,0.46543926189285545,-0.07600392674476386
1940,-0.4038575519877925,-1.3692763985187377,9.608216243738648,0.09337082661431335,0.4611030140592945,-0.07496251360229188
1960,-0.4120447872755156,-1.3202195188186014,9.604923500089093,0.09297184405053484,0.45592255322007486,-0.07369510224393475
1980,-0.4184698815579249,-1.2717465572242892,9.598281858018089,0.09259518163966138,0.45089355326957,-0.07227996749526094
