0,-0.32620167136192324,4.679868412017822,11.885524463653564,0.3945487171411514,0.2894436001777649,0.3361684262752533
20,-0.3334399527973599,4.4943874147203235,12.137693405151367,0.4949439747465981,0.2747074415286382,0.3388197504811817
40,-0.32240648911549497,4.329458575982314,12.045106484339787,0.6067125235612576,0.29431923306905305,0.3461901064102466
60,-0.28317585083491664,4.194242919192595,11.741372473099652,0.700426879174569,0.33020563073018017,0.35075001769206104
80,-0.2706929166303125,4.063178661257722,11.213927535123604,0.7914873299210571,0.36385108218636625,0.35694851639658903
100,-0.2379992059340664,3.9753569060680913,10.640555680966845,0.8536161061595468,0.37412167881049363,0.36877596436762344
120,-0.15928910255937254,3.8997414718239996,10.001196061150502,0.8987880677489911,0.37294949818465667,0.3781362367888628
140,-0.09487137520935998,3.8138006765451005,9.315911449603181,0.9233547693757869,0.37327355057445927,0.3839972125950144
160,-0.033721876243750254,3.7013591512044273,8.544535916646321,0.9304016260306041,0.3734645561377207,0.3941543245315552
180,0.07265854734613235,3.562577284962298,7.678663794983582,0.9133216253964298,0.3798242279564042,0.40771826778549747
200,0.21755200288780444,3.3944008009774342,6.689842542203573,0.8626159944540852,0.3837721803031125,0.41265793259327227
220,0.3264968165695065,3.170038316210713,5.652826953190144,0.7687088928486437,0.3824497927920987,0.3993569074405564
240,0.33839165161703233,2.8353451180541627,4.626506434213892,0.6307970204686519,0.3647886575156144,0.3663064575401596
260,0.19889076067053754,2.415054498742456,3.7044497560547747,0.4517187105613234,0.32283732265072024,0.3351216960637628
280,0.017758194993181927,1.9506753510454806,2.9653069050452574,0.2440749481963978,0.2593087379146761,0.33496719754179866
300,-0.015531338864203655,1.4099771029908548,2.3022307652528538,-0.017288142303710407,0.19074523129331117,0.37133588222257624
320,0.13364209671105656,0.9402505050280264,1.7709117300276245,-0.29105927198792675,0.1379553824330547,0.413324020678244
340,0.4229246310028089,0.5425126886590809,1.4863133380303577,-0.5825824861186651,0.10490645840130493,0.45111699583053233
360,1.0991604990110948,0.07357009495489109,1.7016614463944466,-1.0080338191115656,0.08259113263697006,0.4762891103850845
380,1.9514737002915,-0.2708708809734118,2.735754972778079,-1.3583525500981501,0.06105493923944489,0.43975879944344165
400,2.7595082428739515,-0.5123114092492087,4.6946840565651655,-1.585269680720494,-0.013490746821125233,0.35629600842705345
420,3.4368798246814145,-0.6345737555374702,7.03026081211865,-1.6242313389950949,-0.11310472019120223,0.2557628843687578
440,3.920137597287589,-0.6210234931254006,9.012509878843705,-1.543808613029467,-0.18664988299257101,0.1500053266422486
460,4.2316087013756745,-0.6058422094401048,10.634889179536579,-1.4251881624757292,-0.19940361310727894,0.03745100694371159
480,4.31559060287534,-0.6738692964701092,11.967866154460639,-1.2794642968299599,-0.1509878868282791,-0.07276371295230609
500,4.260988495049049,-0.8574622170823925,12.991490260785762,-1.0976155810563315,-0.09038790602254558,-0.17124847981986538
520,4.149240904030475,-1.1324523707682437,13.713338067484173,-0.8756829949752004,-0.048895846091380174,-0.25615976397265594
540,4.030033674107369,-1.4941157377182657,14.051235028392103,-0.6051215453776958,-0.011048652121886677,-0.34022115618620863
560,3.9103091690484986,-1.8296737307486153,14.03859451164802,-0.4058502503193252,0.02262945707997907,-0.4019392314475519
580,3.7426825419372443,-2.1520766587889923,13.8412583411044,-0.17501097064351245,0.07104561919992676,-0.47311869055621936
600,3.530126432479606,-2.4389441040429203,13.518172378743825,0.008539586686878925,0.10731369099053352,-0.5198724189646203
620,3.3459984491725536,-2.6820549360865376,13.08392800439249,0.17253628957096015,0.1345627815551856,-0.5486279570620678
640,3.2139026895442417,-2.913875260650004,12.505474803477636,0.3121539248122408,0.16506399813568615,-0.5722575502212204
660,3.040032164123084,-3.1209267363866746,11.788667059412717,0.41931552277366874,0.20301391249892406,-0.5915725898116975
680,2.820694479450845,-3.3001185566709754,10.987997105534662,0.4866641090774353,0.23367331368816002,-0.5960688403717715
700,2.6171270729433553,-3.473301610747295,10.175269498225976,0.513950540968646,0.24190764002972392,-0.5875145747594904
720,2.3877470701734884,-3.6342075638398774,9.41476646083039,0.5036984872942376,0.2278858049187896,-0.5669149741912539
740,2.1522468203576253,-3.7676681684251743,8.764733225275977,0.4635741535866555,0.20110873614880934,-0.5245805328077423
760,1.976261424952501,-3.8799318078000464,8.19403457065768,0.3989324624949849,0.17505142536625407,-0.4611486573828449
780,1.8570218362782631,-3.994995604172075,7.6138408698507245,0.29331408640044093,0.15300755049359122,-0.37416888429123357
800,1.847291567903793,-4.09426455288947,7.180311874246704,0.17457583089481793,0.12843832054348317,-0.29430785198196835
820,1.9263661289424228,-4.196718675961272,6.817528420961217,0.034351369334733366,0.0952006514151499,-0.22619741121021084
840,2.009489916903632,-4.284019523262978,6.555770902867828,-0.12998874300159513,0.058395020128893,-0.1685326519468799
860,2.07458485964309,-4.338308967817365,6.456044514872803,-0.27019312586295263,0.030923677145325568,-0.12209243296705752
880,2.337957979388576,-4.515724454339736,6.701526679963769,-0.5258068300038067,0.002587558648197866,-0.04059515147065347
900,2.801929645200464,-4.708326835603637,7.450649926060422,-0.6988351004992557,0.003536891010415586,-0.01685053146665886
920,3.0852116419694813,-4.86017196582562,8.408475038590622,-0.7849862017895519,0.009811824292471115,-0.05051484849018713
940,3.0476072289933187,-4.927894144715407,9.203630566300872,-0.7969936219724612,-0.0025888249684029663,-0.0810731568845371
960,3.0002856405765455,-4.920032272910952,9.735634450646277,-0.7749424270768392,-0.008661443206139995,-0.08452616383885525
980,3.0068114868163365,-4.861028598080128,10.063825303413378,-0.7482883012176863,0.012843979607460093,-0.08049906424093037
1000,2.9968101721144764,-4.771467770654035,10.31115394185286,-0.7171972728177277,0.05364600109632116,-0.07727798523257924
1020,2.982806390503116,-4.710440424870425,10.423330231412644,-0.6904149394816411,0.07204810618655202,-0.07592698532204208
1040,2.9651902754574495,-4.621374191724977,10.522045312102797,-0.640568425999088,0.08014223366152755,-0.07727783255219503
1060,2.9322132769577496,-4.538960471036494,10.547186357565309,-0.5870196148148549,0.07698612956962377,-0.08146819026407771
1080,2.895316209562823,-4.470317545819869,10.526931047181222,-0.5420787907393037,0.07633928296945873,-0.08300205808933991
1100,2.8648961803353914,-4.403646280149837,10.474110399243923,-0.5033773720499825,0.08229406868097383,-0.08176848980122256
1120,2.8462786707982777,-4.347178368534877,10.414105228797505,-0.47528458721189887,0.09117299775407525,-0.07997305842456146
1140,2.823987494349369,-4.274911736670067,10.337860698920464,-0.44485381703463933,0.10088400633594381,-0.07918167185243971
1160,2.799312960871715,-4.212794539512822,10.268454164709889,-0.42005548990839053,0.10482282515727995,-0.08028875518248015
1180,2.76893778368104,-4.153386988740192,10.197983752783136,-0.3991637832917334,0.10482178391980532,-0.08189319217772638
1200,2.7378606589097116,-4.096460939236362,10.139690586299908,-0.3820710638171118,0.10550405201643254,-0.0831498617757902
1220,2.7021619061337017,-4.035009331942078,10.080637629313896,-0.3674305460022186,0.11061073578653917,-0.08406665255796046
1240,2.665329420584385,-3.979905169340782,10.037471142837603,-0.3582484270364148,0.11634705511733046,-0.08367158594228385
1260,2.6273365503553157,-3.921485401334492,10.006207789143977,-0.35032805868406564,0.11855026476998598,-0.08154020750371274
1280,2.5956569722320912,-3.859111469446251,9.983122231615143,-0.3423218677361905,0.1165315738895019,-0.07824271305964264
1300,2.5707854892895208,-3.7934876877020476,9.963085066256072,-0.3356785613881883,0.11488417581891391,-0.07453486835909834
1320,2.5477813937759493,-3.726720995525658,9.949615973109545,-0.3307041969905292,0.11572026057333193,-0.07030651439987089
1340,2.5261816804287145,-3.6584705928352363,9.941240549310232,-0.3263863861177832,0.11671930420603874,-0.06556291350115435
1360,2.511314955641449,-3.591656982774813,9.935858697770163,-0.3220901641454215,0.11547747186850757,-0.06088733602227876
1380,2.501412488908743,-3.524929181458658,9.937248483726519,-0.31728851333921315,0.11206784535160053,-0.05707317400165394
1400,2.496192591958485,-3.4606869494786627,9.937252465435044,-0.31204137404428267,0.10932347596907574,-0.05485559143299826
1420,2.485046135716153,-3.398754320817853,9.935993214386631,-0.30759557391587034,0.10863433683638729,-0.053914515882067075
1440,2.468124382067283,-3.3407287410219717,9.938174425152358,-0.30333111127185625,0.10793863101689322,-0.05301506970430932
1460,2.451582024365974,-3.283875290337795,9.94147103012229,-0.29801567847879296,0.10559078760367507,-0.05146316579407236
1480,2.4402098828929746,-3.228880387371694,9.940410813420863,-0.29233990681065114,0.10188204086750231,-0.049927572347721584
1500,2.4326712187914805,-3.173595419065126,9.93839835366476,-0.2868366329662363,0.09777590279186194,-0.04937002349999437
1520,2.4206970174250624,-3.121286311959221,9.937826911805388,-0.281448861408325,0.09512114170147704,-0.05009604017910673
1540,2.4020606979825003,-3.071688475284012,9.933487930069854,-0.2761191112859487,0.09358789811509108,-0.050470781565055876
1560,2.3834518104655067,-3.018001233902433,9.927307804555351,-0.2704726547012236,0.0919363739734658,-0.05005606185509017
1580,2.3703535242057843,-2.9712635750612546,9.924806364334097,-0.2651937625220961,0.089459961745888,-0.05023436113501051
1600,2.354023614585048,-2.9261380243370283,9.917714326717583,-0.25928785214505384,0.0858691484338492,-0.050880958416351776
1620,2.3349172556044575,-2.8831714581579138,9.908862504211807,-0.254420302699397,0.0833787342694525,-0.0512260590793733
1640,2.316229546823183,-2.840799338824322,9.901445325209384,-0.25037443038127366,0.0820658177740728,-0.0506575596506706
1660,2.2996338535600755,-2.7978119990930628,9.895088676319467,-0.2464314365732824,0.08107000855570344,-0.04942117962338681
1680,2.2878868340843064,-2.7546897116901166,9.888323468468402,-0.2425815533060602,0.07910163426252706,-0.04797231890913369
1700,2.278732333301568,-2.711148483752857,9.883005563811087,-0.23904929961908977,0.0767711380495285,-0.04710004831529977
1720,2.265064384182783,-2.663729983993355,9.879788438090396,-0.23543789363617906,0.07497227309395693,-0.04631759093318493
1740,2.2526535029256984,-2.6222714436017447,9.877698297432365,-0.23254497375643188,0.07400126039267045,-0.04510417744401237
1760,2.243549577722847,-2.5810814806823865,9.876152051953273,-0.2295664061932151,0.07350251152776079,-0.04366387906671344
1780,2.2363052998261193,-2.5402824987969934,9.873484841606592,-0.22651959942711186,0.07262652929400235,-0.04267468799690218
1800,2.2286274377975945,-2.5010041234160454,9.871057191358874,-0.22365793254419525,0.0716612799601695,-0.042126264383695856
1820,2.218976067290479,-2.462638810383725,9.868129405679916,-0.22081551681635977,0.07119867237017617,-0.041589603207858115
1840,2.210781009325545,-2.425856308519361,9.862646378799088,-0.21827359659200787,0.07066181874451097,-0.040913864997689876
1860,2.205052467602063,-2.389632413850051,9.858479134528226,-0.215898286791401,0.0697825474718346,-0.04060600567920735
1880,2.1981179235587742,-2.35414256119387,9.853658203185573,-0.21344849729801638,0.0687064026204216,-0.04069128043725845
1900,2.189325012071513,-2.320490812262099,9.8479636336095,-0.21153037499601696,0.06809054432941988,-0.040875440199768465
1920,2.1777858761963897,-2.2882797665598993,9.844932357323268,-0.20992642399439063,0.06787822615537727,-0.040721770143728825
1940,2.167468645313159,-2.2557404972771207,9.842873118240714,-0.20831387431474557,0.06794455239340494,-0.03998624041714056
1960,2.1587508057822866,-2.219762658036359,9.841985712168857,-0.2062061788210678,0.06763859503411898,-0.03919369924307835
1980,2.1513300853874417,-2.1884455015594613,9.840217238882357,-0.20379195183141757,0.06637201554793061,-0.0386062209918158
