0,-0.3975732587277889,7.217690944671631,5.691165387630463,-0.3468020483851433,-0.18835142254829407,-0.09734875336289406
20,-0.30790970986709,7.20990714430809,6.434070557355881,-0.36780773289501667,-0.18974958080798388,-0.0946855922229588
40,-0.2972818110138178,7.175378978252411,7.077682197093964,-0.2861485527828336,-0.17783193414409956,-0.10589306211719911
60,-0.32924035424366593,7.195237696170807,6.917415469884872,-0.21464267478950205,-0.16694626305252314,-0.11813805508427322
80,-0.34470320083200934,7.212841093540192,6.763535463809967,-0.19537470378854777,-0.14130667780991643,-0.1323160594329238
100,-0.40121568522105616,7.234056979417801,6.724317014217377,-0.20238103656204962,-0.11272873838849289,-0.14483069737131396
120,-0.42695501792643753,7.2649926628385275,6.766871392726898,-0.21633568353510263,-0.08181546083609906,-0.1545306277860488
140,-0.41238553455242744,7.34383026269766,6.820794861133282,-0.22052211395214097,-0.04824968038234287,-0.17349160187519513
160,-0.38572939495517783,7.476004567864823,6.876691942345606,-0.2191554546812294,-0.032221771551819184,-0.20642982576399632
180,-0.39018122336746736,7.650195363127155,7.058241143638705,-0.20540051791388655,-0.04438043273496729,-0.25454841471380657
200,-0.5131531402970968,7.837230827031511,7.272678959235717,-0.16874952483699876,-0.07692131406779328,-0.29927097922295665
220,-0.6479886129652102,8.05185847429885,7.43579524816926,-0.12079232580870986,-0.11340745490826859,-0.322850552185909
240,-0.7091995305958249,8.25677316302345,7.597800631750197,-0.0703576753819583,-0.15465672220480406,-0.3410058081859634
260,-0.7888304521288492,8.375637995458282,7.8095231984568905,-0.012833978380674117,-0.210281842366578,-0.365220935273487
280,-0.935443207128974,8.385280443617136,8.070582787852642,0.05944502930020267,-0.2592074598160703,-0.38601836863874406
300,-1.111270544949428,8.316176554953405,8.252290803332661,0.139906654847775,-0.27647366431314324,-0.3968083263021107
320,-1.317907628242987,8.238535393763632,8.305316232416752,0.2051278969233033,-0.2557259919351293,-0.39594598130805647
340,-1.5339853014411597,8.140275323802028,8.318431752303551,0.2516254177176522,-0.21812234433801395,-0.38292090432911086
360,-1.7349584465483567,7.9866595361139865,8.32541484646983,0.3008761520897395,-0.17617091357741238,-0.3516988041750216
380,-1.8614477043350537,7.817610202012239,8.256711918630717,0.3480865652547189,-0.13998791736616742,-0.3144202261450298
400,-1.9605630796621827,7.627066822612987,8.090742621702306,0.38646412937087005,-0.09624755571199142,-0.2714513501371531
420,-2.030408347983145,7.462515839075638,7.905080284775988,0.40510200905267646,-0.0515029249827267,-0.22983914408517087
440,-2.089525873222018,7.262755401672855,7.675110820801027,0.41386049399459085,0.00217557325771439,-0.17004231897292918
460,-2.0994692806576944,7.106010911390953,7.477732767763826,0.4128886956530119,0.04158029163594732,-0.11104687922586177
480,-2.066067865164719,6.990728679581068,7.3214320341746015,0.40930153487339405,0.07231078296726041,-0.05776736122644066
500,-1.9859845022205262,6.859142350015186,7.109250827062698,0.40339332980774567,0.10982561866985634,0.007221530475431965
520,-1.8970093654507105,6.749505904836393,6.899667043478117,0.3946372885975256,0.14068031245938697,0.060146069606988255
540,-1.8121144396584068,6.6610605398813885,6.702595502005683,0.38214570006484994,0.1633903282534124,0.10274075060254997
560,-1.7160827490624486,6.568453932419802,6.446328401278991,0.3566531930986939,0.18592458622555974,0.15583990402042103
580,-1.5859662366613225,6.491262126851965,6.225937314484836,0.3192970258226415,0.2029538111969131,0.20938520791936557
600,-1.4747261300731644,6.4485951781751645,6.106222788492839,0.29009695378731537,0.21362628865412933,0.24260509566938782
620,-1.2335090930501726,6.395849076016989,5.9517624976552135,0.2374808572901999,0.23278201975397636,0.28969518169329206
640,-1.0204487988666007,6.376807054776824,5.846646581249737,0.19635091658462753,0.24569422846410618,0.3182113507923004
660,-0.8601191068842543,6.37292792683556,5.766566851200202,0.16585281620167994,0.24958811915819037,0.33505861556000543
680,-0.5783760858183009,6.378351972296887,5.638451698390839,0.11053871190238763,0.2471481272839701,0.3523408174712224
700,-0.3442655558941111,6.3841429420353215,5.565671724142487,0.0577273267248079,0.2422810550959128,0.35294991728443253
720,-0.15803915051112088,6.387589698669895,5.545475074108815,0.005952861165704405,0.2372981448467952,0.3427265517526125
740,0.029652991697665436,6.388211689088554,5.582478711970078,-0.06285376766152795,0.22600371113345816,0.3214574005843083
760,0.16906557245002615,6.393371858294048,5.686012309695047,-0.12003620041678438,0.20735565094639444,0.3022448298536123
780,0.2749870485521714,6.400887693571525,5.794776119547098,-0.1566579419126911,0.19031089815315486,0.2871185804882618
800,0.43528577146117553,6.4209969908089075,5.999473533601559,-0.20511563875824299,0.16172172000323595,0.2575961090342966
820,0.5368788699112723,6.441250334767735,6.191055316784802,-0.23463518296912833,0.13188822928521618,0.22976810547030146
840,0.6124643293870399,6.461549622574072,6.349369105936467,-0.2524366057804055,0.1013415917575536,0.20680031215172562
860,0.7037993924930336,6.480559839961234,6.496006370260474,-0.26725506993436404,0.07356824124725064,0.18324444016567273
880,0.7897708836090904,6.504478541704325,6.631664613446037,-0.282509386964663,0.052123990293993915,0.15605175315535494
900,0.8424352792890302,6.544816074191883,6.789326974781611,-0.29746412359204977,0.03363667053492209,0.12561724599831367
920,0.8462045552784969,6.599407271962416,6.975406447837227,-0.3025522232991582,0.010374373604702813,0.09845315296889136
940,0.8432506107108322,6.651506547460851,7.166170343295815,-0.29349146413748256,-0.014134684390059585,0.07793872012785569
960,0.8451455767640392,6.6946060519025785,7.315992689493931,-0.2705408137465411,-0.033723297655627114,0.060827541988192485
980,0.8361582650726956,6.7188422437941675,7.402715203195515,-0.24105147780469585,-0.046795826059210545,0.04267220863482297
1000,0.8050288804117319,6.724668694352641,7.4392855832877665,-0.21106292161843582,-0.05373701799035895,0.02295566401308746
1020,0.755012831534259,6.71168327161244,7.441000961689722,-0.18541765283125208,-0.05669803958624557,0.004020661829660336
1040,0.6888389095722639,6.686660341449551,7.439785147602463,-0.16292085846826881,-0.05567275363238776,-0.010474614881517448
1060,0.6364668757906204,6.667175639412223,7.459439364396189,-0.14200785039224528,-0.054280596287085654,-0.016596627653974964
1080,0.6128613039840725,6.64796632970317,7.473984382393655,-0.1163504849579133,-0.052392695624946375,-0.02143325885611304
1100,0.6038674548932373,6.628034434308017,7.4613585182636255,-0.09014371345906722,-0.04677250296973251,-0.030255472682268414
1120,0.5832730016727687,6.600928678429825,7.417043309925435,-0.06935019347523268,-0.03820010405407568,-0.042205295175992745
1140,0.5418106350195863,6.5773928846631735,7.367713619651062,-0.05596199510199552,-0.030076877075507602,-0.05350782024437812
1160,0.49253553660797345,6.553943610541226,7.3371401397937,-0.045785417839219945,-0.022280842126825476,-0.06181496212676761
1180,0.44303418873646055,6.536003640263351,7.3081974801328995,-0.03604779451660639,-0.013375821800364816,-0.06672254566909726
1200,0.4055841873082546,6.523829441283344,7.274500499148881,-0.027613676094915718,-0.004583704482261507,-0.06857973360976027
1220,0.37928314964582555,6.519759732568097,7.237089629658682,-0.021094648595392784,0.0010943632891695359,-0.06897958342409777
1240,0.35879182203239185,6.518796432229062,7.20196049574082,-0.016719573893157074,0.00464026319743125,-0.06904770351565774
1260,0.3421357356730625,6.520044866798003,7.173357124715986,-0.01420039283703901,0.008664690377370849,-0.06883040038468875
1280,0.3296612485802375,6.526915697543793,7.145595716886194,-0.01343325640908407,0.015689513983803416,-0.06830688732049424
1300,0.3249646962824372,6.537753262769863,7.12605351142669,-0.013882795778058616,0.022240053591061574,-0.0681965147332056
1320,0.3209635633605831,6.551386194035576,7.109624619413566,-0.014555742496231957,0.029156377505961242,-0.06891067095472034
1340,0.31375192704271865,6.5646399493650955,7.098333061825145,-0.014461083619072187,0.03249751985200088,-0.06955286343327978
1360,0.3059873654345204,6.575685210979968,7.089262407313111,-0.013274283876361353,0.03415546211202072,-0.06965737308852882
1380,0.29931398236041384,6.584755266934318,7.079453767820298,-0.012168085568172317,0.03622200313828846,-0.06934486798507691
1400,0.29398240167598927,6.593501565763759,7.070173062098566,-0.012189536119360179,0.04049230730509911,-0.06904200176653234
1420,0.2879990537361245,6.602739914586044,7.0625054971458985,-0.013078898672315315,0.04546704261181268,-0.06931944657117128
1440,0.277830396432398,6.612645146402262,7.056324563188068,-0.014323304865856545,0.04975437676115751,-0.0699956123575063
1460,0.261557771675569,6.623270597346251,7.052736065060797,-0.015587857280418676,0.05234958884426171,-0.06956971781157006
1480,0.2453274735389431,6.634350613398914,7.052360582272999,-0.01567729067121918,0.05302261486272988,-0.06728382377805367
1500,0.23566759190012485,6.647380892150953,7.051507299420112,-0.0147745997837596,0.05358094506152278,-0.06381960420608399
1520,0.23357602285889018,6.662213022302585,7.050156145233816,-0.013460117761327188,0.055775045343507024,-0.06083583547823562
1540,0.23195575107487718,6.6768015191668555,7.042452587021722,-0.012399681309415472,0.05892626917662306,-0.05909625414152822
1560,0.22705762190554513,6.68957513514731,7.031402246705417,-0.012368489791446462,0.06135479856076648,-0.057736741868650604
1580,0.22162088059283933,6.700045179287346,7.0234432696558,-0.012709099458077858,0.0629448429591256,-0.05610583376517121
1600,0.21695587048164874,6.711532438074359,7.014613944701566,-0.012625841709308838,0.06405090348517792,-0.0537272977344123
1620,0.21613697578489982,6.722140980701821,7.0070471680901525,-0.012272554026568254,0.06504224342024333,-0.051791330728522565
1640,0.21848932498283186,6.73257865600188,6.9965804909451705,-0.012119787364529138,0.06676880682293942,-0.05100013040444757
1660,0.21813725985981666,6.741694558878184,6.983750266424861,-0.012996663158040751,0.0692148041182413,-0.05173447609238535
1680,0.20800414373162793,6.748182217974156,6.974304142650732,-0.01463927267684589,0.07135031128395755,-0.05269438852156137
1700,0.19327980777074535,6.754093208930475,6.968852376937866,-0.01623716933096645,0.07233613792826964,-0.052304836724409096
1720,0.18218842839522773,6.7606873135817676,6.967749192399287,-0.016962246164867648,0.07216683179133467,-0.05067553376755114
1740,0.17552698069054282,6.768433276778703,6.965970179870326,-0.016715114902830702,0.07127093277860475,-0.049386293956100856
1760,0.1677379817863789,6.777529155760382,6.957049029924607,-0.016812026809631578,0.07046534592640018,-0.04978808969445786
1780,0.15207551097679253,6.786978306107868,6.947144827455733,-0.019422705574127674,0.07080209724706926,-0.051846342527677794
1800,0.12648636394364088,6.796022990933892,6.952119610909702,-0.02332154019564694,0.07256274055166892,-0.052916994554047685
1820,0.10399986506860343,6.802724921254701,6.968856868243987,-0.023887314381183036,0.07231407363192424,-0.050841517081754585
1840,0.09587722243691617,6.808168166178338,6.973574203696657,-0.020475561847598193,0.06895528265081242,-0.04750798065636426
1860,0.0962293680904335,6.811445293614739,6.963232808050356,-0.017183993068695263,0.06551582339743618,-0.044696660610651105
1880,0.10081535786836564,6.812427526650329,6.94913386957099,-0.016682416430436813,0.06471686044809151,-0.043452340843941784
1900,0.10028218825050082,6.812139529850065,6.940918125749863,-0.018041666747747737,0.06697641469561615,-0.04348289191401228
1920,0.09208911609341752,6.811008156258232,6.935927976455007,-0.019232546061880847,0.06924964095051851,-0.04299241606008299
1940,0.08189334198738439,6.811136460966534,6.933182664290823,-0.019611851612077742,0.06918770089528566,-0.040741788198691654
1960,0.07750283553730697,6.813223122060299,6.931510142385959,-0.018884351287269965,0.0671602551137039,-0.037199931660434234
1980,0.07894968818688747,6.818262238018583,6.9273867958252975,-0.017918783983464658,0.06516834241116194,-0.03367349740906185
