0,-0.13704834423131412,1.250200245115492,9.837410185072157,-0.13933439387215507,-0.10813847846455044,0.00774994445964694
20,-0.11341122231062721,1.1942694958518534,10.416081316330853,-0.06943772771560094,-0.051923150607549096,-0.013698075651465094
40,-0.1779978597164154,1.1770084524154663,10.133519687652587,0.009563537575304508,0.0026158821024000645,-0.0191396969743073
60,-0.2787657678127289,1.1698582244641853,10.166858340754654,0.04843729714665449,0.01700857367761659,-0.015357685515261961
80,-0.35025701653666613,1.1635122211968028,10.133736959317835,0.06598306104268242,0.012286924700275427,-0.006724949256039974
100,-0.38374079855120913,1.1815756024146566,9.986449786594935,0.0646685809467216,0.007009119821750388,0.003980454618149266
120,-0.344966862971584,1.2113336993936907,9.93067577428985,0.054014220346672165,0.009258647149085607,0.009241937994630191
140,-0.3214484811115723,1.2202072308613703,9.891209998497596,0.0462528848545984,0.016993674788122567,0.005628520766129861
160,-0.3296268794889728,1.220114863082154,9.873058319091797,0.040572073246027046,0.02469691770208668,0.0031864946031917446
180,-0.32037083530959526,1.217882266751042,9.856984209131312,0.04206304708538853,0.03176625269137461,0.00363355250109309
200,-0.325509778679245,1.2214067896207175,9.795284366607666,0.04289092865397429,0.03092587744144516,0.006104703045760592
220,-0.3173889786347139,1.2317732584719756,9.738711931267563,0.039993578531869634,0.02634149608059729,0.009692663559690118
240,-0.29795399842397224,1.2468788500102062,9.687583293554917,0.03309161235514659,0.02158482571984729,0.010317075857014026
260,-0.2825282803458864,1.259696288066998,9.64869375396193,0.023074829184527818,0.0175144471158682,0.008681272515994414
280,-0.26474782544928677,1.2687125694556314,9.628999756985023,0.012874240133449526,0.015204689070414447,0.006194736335243358
300,-0.24340768707020638,1.2785167464843163,9.61663021674523,0.00372015270897044,0.01587924452391095,0.003686461726633402
320,-0.21530879346782045,1.28996104174766,9.612914603689443,-0.004106275371589657,0.01518646632557384,5.812811921688094E-4
340,-0.18015140768185206,1.3082220578846866,9.6136416147833,-0.011012993866580934,0.011388408398089854,-0.002858516402950842
360,-0.12961099658300496,1.3341814542745616,9.615926067550461,-0.018004538187856918,0.006307508211353092,-0.0063628879097568525
380,-0.04742730090273889,1.3727306340947563,9.614688049128025,-0.027139689093872467,5.184953276320924E-4,-0.011122333150311017
400,0.06465144241913495,1.4132729060509626,9.621991376315846,-0.03852625989855048,-0.0025700752719250673,-0.02179095255320563
420,0.1783347780818873,1.450170928842566,9.624346031231827,-0.052435213186205205,-0.003277423575761194,-0.038613329453163606
440,0.3153056234474324,1.478873113791148,9.642864109367453,-0.07043965602379983,-0.00616327101509938,-0.055715379705752736
460,0.49081935711706487,1.5221762186441665,9.690200311709672,-0.08603110979102217,-0.023188646530541472,-0.08025910870578044
480,0.631730672294329,1.5572464824310077,9.7196267696437,-0.09475188104927842,-0.0490323368728326,-0.11652711944957378
500,0.7206511933685356,1.569600519410807,9.762792415528502,-0.10329098294084114,-0.07348933735734373,-0.1667862612295066
520,0.7254284823145377,1.5527929331614003,9.82083814873543,-0.10949401789558541,-0.09966419621149597,-0.22263011554910983
540,0.654051375949739,1.5212383942457022,9.924845296380804,-0.10879550920107037,-0.12824580340137468,-0.2713748947983928
560,0.5432821767216429,1.4744250428109886,10.052366203957416,-0.09634278850912295,-0.15593536094405708,-0.3103458319651954
580,0.3930986130029469,1.4257955962337876,10.161881030832298,-0.07939244533813301,-0.1745114705837696,-0.33683899977846155
600,0.2519923240860991,1.3772698746598975,10.267935798462643,-0.065054715421112,-0.1797590069704693,-0.3474575175543824
620,0.15680443332350766,1.3363932126541496,10.38702444864516,-0.04976009427858373,-0.17427444923039828,-0.34853394876834737
640,0.09207819029078418,1.3047744026154713,10.509462760182355,-0.02685190968791874,-0.1626391929202828,-0.3490830632031299
660,0.016434191039509393,1.2729747067992998,10.59920728856867,0.005565890372434461,-0.14778977647847072,-0.3511167786405845
680,-0.09840663290881015,1.237398698892359,10.64095416539152,0.04705792033293081,-0.13185582786526295,-0.34819508942736077
700,-0.20132108491268136,1.2085498718294467,10.647625723930254,0.08321730810443213,-0.12216182889126573,-0.337721847233758
720,-0.28724268664217867,1.1830838139782038,10.641375602086384,0.11721738773145868,-0.11184678568582361,-0.3212771066837013
740,-0.3533742589348407,1.1614989847263817,10.617059831495409,0.1473691215526612,-0.09454329402938896,-0.30143422709003864
760,-0.4074868204218005,1.136292810757391,10.582447308528272,0.17255398779691203,-0.06996294737372052,-0.28039641421924855
780,-0.46257882196683275,1.1101950876879,10.540400095927863,0.195512089074013,-0.04537336357343183,-0.2568515563832113
800,-0.5103339566281121,1.0847996147622982,10.482560891702951,0.21763169583748795,-0.028384471282009483,-0.2297888797460999
820,-0.5431481861831237,1.0591129019246985,10.417729610555313,0.23902526039900668,-0.017432084277628317,-0.20004886290715898
840,-0.5631049017565078,1.0323154012901419,10.332940571609585,0.25946735408763943,-0.007518948701440474,-0.1691859950975183
860,-0.5739503068309225,1.006345538060793,10.221546872278278,0.27609862853937095,0.00362285348688765,-0.137392673667604
880,-0.5746204778494487,0.978852419033621,10.083973559704456,0.28482002918502947,0.016687847066870227,-0.10517361930540793
900,-0.5653662725736046,0.9543509408174413,9.938166162660044,0.2833398239271182,0.029206655485810893,-0.07028831692252269
920,-0.5201467154468129,0.9431977048461274,9.786540543313414,0.27242992753379924,0.03952273512026906,-0.027749554755219952
940,-0.44156404089477097,0.9470240089289393,9.664415243045836,0.2579876442796283,0.04678020981298448,0.0055757478444542555
960,-0.35304519640087084,0.9516311878055775,9.546131998225484,0.23955241537764926,0.05588108740960452,0.028680314284090132
980,-0.28782222073145763,0.9536435941251478,9.42845900853475,0.2150370057124679,0.06742499040865144,0.04504340145231029
1000,-0.23092512191909187,0.9554272620340011,9.320378380306696,0.18440397348540744,0.07747833186041193,0.06220280757449008
1020,-0.16580817373215073,0.971308460299284,9.23492833101268,0.15098531322590808,0.08141969017531821,0.07877459811962557
1040,-0.08462960744495905,0.9908681914925636,9.16527118493905,0.11661049711074581,0.07815698490777685,0.09038284199967946
1060,0.008933371133799719,1.011103848173886,9.124032817661625,0.07860915292546183,0.07311478824870452,0.09506600724801728
1080,0.08925763812169919,1.0213572003135063,9.122149699980074,0.04330967629770434,0.07180163856576877,0.0930690647119673
1100,0.16542025478752062,1.0274475606453397,9.160342086493047,0.0011233513187730137,0.07283458472167863,0.08480485226490245
1120,0.2056443887058678,1.0336198169458253,9.203260376758534,-0.028877073074281903,0.06846729271192661,0.07639261316144415
1140,0.2474274888782621,1.0506016607083548,9.242712696478057,-0.053446468438080416,0.055288504955591136,0.0700174360267961
1160,0.3305978913987289,1.073605127799691,9.285556251035075,-0.07895071204777546,0.03814793120491003,0.06043100642687232
1180,0.4088732214427051,1.0847911237554104,9.3377380238639,-0.10316033562065156,0.030690025288607817,0.043794674871665704
1200,0.44844561325893306,1.082684622975236,9.416601471090123,-0.12533081391119769,0.028074362767230614,0.022214510651524008
1220,0.45590773538780954,1.0783885997711715,9.510274678587438,-0.13920942856060559,0.02028471183549405,0.002958253549181845
1240,0.46896363279882675,1.0756643655358393,9.59868454138438,-0.1451968288776127,0.005113402530824875,-0.013212446148927305
1260,0.49274061677094666,1.0725619185488477,9.682153523658693,-0.14704876322927166,-0.011137835541650164,-0.030427064225221463
1280,0.502608078564234,1.0618314979621828,9.762851311226761,-0.14864893146038513,-0.018978164538815477,-0.04997461310060192
1300,0.4883283609354324,1.0420219116920102,9.843777367684725,-0.14890548184634822,-0.0175098779873769,-0.06847365631299854
1320,0.45740898403749763,1.0165621052179108,9.914285403336105,-0.14397652663955915,-0.01322719680078369,-0.08338411279861227
1340,0.4215931325003674,0.9883679921006445,9.955021031553095,-0.1339885949772063,-0.012208727529822765,-0.09432510084387931
1360,0.38875718681203486,0.964321604876038,9.971531183061634,-0.12381742277324924,-0.013810077915176763,-0.1011599890961175
1380,0.3721081950893468,0.9448733278200551,9.98557312539104,-0.11497269014882618,-0.012429154813067507,-0.10568336922306791
1400,0.3600235198312641,0.9191752123861048,9.994121192019918,-0.10524788630610007,-0.005823793524025899,-0.11133046845703021
1420,0.34141970574767944,0.8905241690846847,9.986237707923248,-0.09650840708240307,0.0013740335598725372,-0.1162310486074735
1440,0.31348821590812137,0.8614208848572568,9.963224935854349,-0.08874905197229158,0.0056885998928919435,-0.11928840491813553
1460,0.28714246537345145,0.8360657678051807,9.937448244063006,-0.08290778378692093,0.005881173174691469,-0.11883355303821411
1480,0.2734820469910865,0.8168437381775948,9.920597449165985,-0.0786323566224673,0.004619945855611779,-0.11557046007794594
1500,0.27543506199222495,0.8032638397130732,9.911894067102612,-0.07533158541094673,0.005035071103630363,-0.11264306505086319
1520,0.28346191715624,0.7910792128826502,9.9041750484638,-0.0717916492434229,0.00895302343955129,-0.1112218806333242
1540,0.28537551186153765,0.7805258905154944,9.8974205314074,-0.06909353012876236,0.013245767151432115,-0.11145707383152635
1560,0.2787795373852449,0.7737039593106784,9.88949029236378,-0.0674166127439584,0.014792887681546303,-0.11108929004453029
1580,0.2744500037988754,0.7688383189356747,9.887862614170293,-0.06578842928991877,0.014439557863426735,-0.10874385449465312
1600,0.2767545768525451,0.7659638432757432,9.891215348061715,-0.06403257481314825,0.01438355538300914,-0.10653107129321754
1620,0.27833316940426794,0.7639569125424243,9.892166618500102,-0.06273491341529454,0.015421808986296193,-0.10499305579016681
1640,0.28320839723270946,0.7604169483753213,9.892698194515154,-0.0612568944077918,0.01874934956615294,-0.10262258883826601
1660,0.28796589271309236,0.7585379382855643,9.893914157152176,-0.05976261982654892,0.021312994074576316,-0.10096752178677193
1680,0.28881632797073836,0.7568855554709868,9.895023615992798,-0.05825921033657395,0.021769862563814968,-0.09997290116599042
1700,0.28818005184012724,0.753068500437945,9.893120675593957,-0.05476576249001765,0.020754945753128858,-0.09775205622440547
1720,0.2873343183339536,0.7490287818244806,9.886069508100098,-0.05230559957577829,0.02006742339918591,-0.0955450692305352
1740,0.2870953913492767,0.7463657025024819,9.879570680604854,-0.051419401583737284,0.020465361001297935,-0.09367490605005181
1760,0.2901499784011523,0.7421300971401958,9.87248382071654,-0.051470049579721594,0.0225317385251401,-0.09055547535277178
1780,0.2953835642454598,0.7393372966588097,9.86958311187042,-0.05126358952878905,0.024111043477295334,-0.08883102970507385
1800,0.2970868521817257,0.7379336101053744,9.867709296600696,-0.050653626971731563,0.024505729147243218,-0.08805653636409756
1820,0.29381804961131597,0.7333878462330529,9.863614733821603,-0.04899906077347408,0.023426450985816798,-0.08642836294815405
1840,0.2916573402137456,0.7306943737661485,9.859528276831545,-0.04780554295552491,0.022218927400783597,-0.0842376448074108
1860,0.2923975048920481,0.729739446702201,9.855808716988847,-0.04749966163824132,0.02191313851302016,-0.08211566665061358
1880,0.29720356389613745,0.7295279631279749,9.855371868656889,-0.047834933650730146,0.022653629060202463,-0.07952540226568927
1900,0.3015289673284463,0.7304624935583316,9.855971232344285,-0.047842754910569975,0.023093553242289212,-0.0781692823357976
1920,0.3049719534578851,0.7309856855299794,9.855860608138649,-0.04759512452111612,0.022998565770174218,-0.07762631244117711
1940,0.30777965675485125,0.730635018146645,9.859232721232527,-0.04663548939651428,0.02167049239913394,-0.07719613128479143
1960,0.30750736729654665,0.7288484276585123,9.861746001332886,-0.045211429627552355,0.02003304699183524,-0.07655024801272801
1980,0.30736184226664426,0.72731328575454,9.861326077665181,-0.04375825485979277,0.018939550148958643,-0.07562942512227483
