0,-1.1988403797149658,8.323491626315647,4.763960202534993,-0.1929527065820164,-0.11245872038933966,-0.2535949299732844
20,-1.292606185464298,8.221398016985725,5.259040467879352,-0.24373379218227723,-0.12536373975522377,-0.20224988329059937
40,-1.3114169454574585,8.154467067718507,5.763375225067139,-0.18150229609571397,-0.09547367088496685,-0.16425002187490464
60,-1.3114546862515537,8.182475740259344,5.87766846743497,-0.1066393836923508,-0.08089891555860187,-0.13712064120354076
80,-1.2695356505673105,8.224497434569567,5.570523581853727,-0.08271226806497974,-0.0788581423552298,-0.12194239429947806
100,-1.2583628661778508,8.248007725696175,5.430291540768682,-0.09308838944559042,-0.0894734050166242,-0.11668792100889343
120,-1.2582676818496303,8.25933027267456,5.379088037892392,-0.11681121464802377,-0.1027529780475194,-0.11533793800494127
140,-1.2286819164569562,8.283635997772217,5.492516939456646,-0.13101531617844908,-0.10800282012384671,-0.11920408623722883
160,-1.247608377508921,8.312653848569687,5.616222593882313,-0.12064038098100828,-0.09941369018912928,-0.13276605854091578
180,-1.364635457352894,8.348980048807656,5.670267375504098,-0.10258204829254437,-0.0898875278540001,-0.1460602417497373
200,-1.5090486513243782,8.373361200756497,5.713532201449076,-0.08953919839890052,-0.09126587606604314,-0.1466009575045771
220,-1.6344053903404547,8.398649561161898,5.783874635793725,-0.07534847498576784,-0.0940605648056775,-0.1332266951283934
240,-1.6924428838603902,8.42504642144689,5.854851414572518,-0.058506057498853584,-0.08899163681121965,-0.11781112492998254
260,-1.7215989378460668,8.43389355927183,5.947779126334608,-0.03616882663571455,-0.07049602251847095,-0.11098343559965622
280,-1.812853180971302,8.413566538544952,5.989335511551529,-0.008527098488841266,-0.04712201601188233,-0.10849582722609039
300,-1.9449217512057377,8.342866648160495,6.002600844089802,0.01802337548802965,-0.019114695558360276,-0.09521924698940264
320,-2.0561243563458538,8.243188975513846,5.976077271544415,0.0401793913865138,0.010327159537616577,-0.06780020617609979
340,-2.1055011316521526,8.139900720282776,5.925409792220756,0.05162966252170656,0.04261670541257457,-0.03397372533720344
360,-2.1411008966433536,8.027919174788835,5.898544539104808,0.05961450286868766,0.07917436032311072,-0.006995822172974805
380,-2.2284179315154935,7.881447809713858,5.849524973351278,0.07278803405553148,0.11262771196557025,0.018616298417687232
400,-2.3537689454415265,7.72657283334171,5.734761790668263,0.0827666301129605,0.14182025162598993,0.06279104277217651
420,-2.3685807589046117,7.591743932755966,5.616053428063846,0.07757751801436215,0.1726426792210072,0.1452447685007235
440,-2.20711945806117,7.504505845952162,5.563271982784578,0.07364095968971238,0.19723764463529528,0.22335174404592675
460,-1.9697869687890395,7.433968991499681,5.4569601058959964,0.07455340918416205,0.21883397166533636,0.28515390887235603
480,-1.759301195774466,7.378076245632077,5.277396254792002,0.06469144455955497,0.23890916734481954,0.3261611000267706
500,-1.5939479943770933,7.344878219315226,5.115943538210403,0.03359549863692108,0.26086233693265504,0.35959826229510927
520,-1.397729083997746,7.334512501546781,5.0660898741249625,-0.0024933113459259543,0.2757369410772872,0.3937956151535488
540,-1.1597486935588757,7.33585017998313,5.048944042774024,-0.02731216458977089,0.28028545941540045,0.42008497401669886
560,-0.9263426381539791,7.3440372446750075,4.991292245464122,-0.04823589965086827,0.27740741805817454,0.43458906484847054
580,-0.6976702072554164,7.359727779043064,4.932321162994016,-0.07650132710018306,0.2732503029298413,0.44117886462505645
600,-0.4542808405965923,7.3925859158732505,4.92586835838884,-0.10793903748786812,0.2667862700638862,0.44218991711490835
620,-0.1841113601009358,7.434880715079289,4.952854354524244,-0.13377820185213044,0.2558558922792285,0.4344559882436681
640,0.09809749815335024,7.493006587028503,4.967789033566838,-0.16220821089670756,0.23185268106458556,0.41059060094342914
660,0.31114428401317284,7.537048676739568,5.036717602416225,-0.19179738285711737,0.19618492946830118,0.3843041980163316
680,0.5294932977781749,7.584639241997625,5.179533542986487,-0.2089450093302679,0.1540889095225614,0.354230536120078
700,0.7236322126517148,7.666498845570708,5.257100898211133,-0.21482690632716459,0.12339257373122103,0.30585110269021243
720,0.7905560607463121,7.78446843624115,5.3062298592925075,-0.2304227913892828,0.09542882259430674,0.2452127730830883
740,0.7992911428551782,7.903308170182364,5.488210812114276,-0.2466248184323081,0.052295459320620546,0.1911468203950601
760,0.7749631688753261,8.019465538519848,5.761431933298141,-0.23950109226243052,-0.0037749630765240827,0.14311868140821735
780,0.7123187516390541,8.112958977251877,5.993957967761858,-0.2129609371502424,-0.054401807066262985,0.09842399903141928
800,0.6183262540094824,8.168683352240597,6.166266588651272,-0.18362647277956648,-0.08498626843505785,0.055390753299390603
820,0.4999462570337688,8.18690264785991,6.297591403740294,-0.15789071024354437,-0.0899656247583848,0.01456902272424058
840,0.359397466926054,8.177113187724146,6.399065747428899,-0.13157959660078966,-0.08037017782696458,-0.017572541005277855
860,0.22094055583302893,8.148569906695505,6.453218928297584,-0.09972577501059604,-0.0731719385723327,-0.036240430529166555
880,0.09850420176166377,8.103499706477335,6.454577902653446,-0.05981961881473967,-0.07586696594475117,-0.04035802091637703
900,0.04124184947550776,8.053481452266908,6.4101769356082015,-0.025073437692457685,-0.08322741172679678,-0.03623260046297999
920,0.024195352642554936,7.996555661279072,6.320701962772004,-4.291300554307583E-5,-0.08412762416992337,-0.03452419166225852
940,0.014166938117046895,7.931319919527343,6.218492998332168,0.009659162784177226,-0.07138335705312222,-0.0378673267131791
960,-0.004114369338645743,7.855809176298473,6.129066380580666,0.009859126241248973,-0.0516475626793561,-0.04269106379506044
980,-0.029852000909087097,7.776143824023965,6.048264301338314,0.008265228010139163,-0.0357438970544019,-0.046172169782221315
1000,-0.04538359527293476,7.698109212279609,5.973683477097504,0.00954197229621323,-0.028153082942443543,-0.04928756432413838
1020,-0.061280647854623775,7.618739489988023,5.883118254909039,0.011505252044015252,-0.0246803943212133,-0.05362436282636505
1040,-0.08006288569707137,7.535535681775678,5.780734384740705,0.008832550601651654,-0.019085020769337553,-0.05661744446578351
1060,-0.10330920282845094,7.454671239962021,5.679369787227371,6.242361547344404E-4,-0.010976503149486942,-0.057077889631180524
1080,-0.12890588061863117,7.380406381307023,5.586396742436324,-0.01085100068417744,-0.003643086088266684,-0.053403155794471836
1100,-0.14181371585817526,7.312634662287125,5.498092712715235,-0.022973261937544277,-0.0012788949536866865,-0.04526675932076461
1120,-0.15255392234521936,7.253600094168409,5.4183136940067085,-0.03450610789211786,-0.00856218601596176,-0.0344018223786367
1140,-0.1562673909312233,7.18869728433325,5.347722129270117,-0.047214832600265585,-0.023741708155176504,-0.019748489911410403
1160,-0.14314000533745627,7.129627717089952,5.298550028837126,-0.061720395203052426,-0.03338524412240046,-0.0055195611928858515
1180,-0.14672698813812507,7.081072660630623,5.252489953527971,-0.08366665503138546,-0.043522301155148234,0.010129249263784768
1200,-0.1548472342509324,7.042826725403789,5.23412632136813,-0.11218860010882305,-0.060411590191315076,0.031585171513319736
1220,-0.1137729779941464,7.0217872544588795,5.2684706726456545,-0.14096329650568937,-0.08096209358246774,0.05488352934306717
1240,-0.039409815685312245,7.034839503437865,5.339170302275349,-0.17071722373320702,-0.09860888801209226,0.0698520719968513
1260,0.0012206256804937446,7.066819824767389,5.463571491072306,-0.19789046349685321,-0.11231636264452236,0.07271130596247995
1280,-0.006520283586405813,7.093292307491085,5.606945853411244,-0.21789213415800093,-0.12105722946204252,0.06863225593157254
1300,-0.06311370286312694,7.111239365870587,5.750738148971666,-0.23328280561884399,-0.1209552328676519,0.06742336793823607
1320,-0.1388183441124788,7.133530620719234,5.900683221479404,-0.24209976571524428,-0.11349668506575006,0.07979691045348467
1340,-0.17768433055163108,7.165554723306136,6.0239054780927574,-0.2415338212111965,-0.10616214458428493,0.1042837738474323
1360,-0.18761416483673812,7.211283928604536,6.112759675309863,-0.23579332659706995,-0.10434991770401417,0.12949553928104326
1380,-0.20219541546466516,7.2572516272307706,6.2033458383888584,-0.22874145711709729,-0.10455190108836887,0.15325247563628686
1400,-0.2052885884783514,7.293317942826644,6.299680533746015,-0.22277712464292088,-0.0976773764875353,0.17714963120205895
1420,-0.13548909656393565,7.33510296831409,6.4141994378630125,-0.2142585013728704,-0.07823209790133522,0.20244107887669632
1440,-0.013316473981141792,7.388254625946535,6.506571311156963,-0.198047709116687,-0.051907775677975374,0.2141898401521222
1460,0.08371373051186659,7.4358842181841,6.536316449460084,-0.18004158499902534,-0.026022514347212453,0.2075268419635154
1480,0.1271254297574488,7.4704647366651,6.5459556011283615,-0.16899117702177896,-0.0011995163835551363,0.19272093505781188
1500,0.16226549807981383,7.497595322229029,6.600604007423408,-0.16198439905760673,0.021184917863238815,0.18035107302456732
1520,0.2227983325518022,7.521488027817556,6.686625708474585,-0.1491310463236857,0.044174298323970435,0.16827410262415893
1540,0.2960335331785946,7.543651401335389,6.73759255783777,-0.13035214596675937,0.0693409795149284,0.1528576597735203
1560,0.35818848849080376,7.560870827643524,6.748220809865073,-0.11235019529612912,0.09348907911948166,0.13392792979301957
1580,0.4015242987244827,7.570405719088919,6.737914645860409,-0.09730593358034087,0.11249411188140138,0.11544903540707423
1600,0.4389165512707777,7.575604078609769,6.727091714126489,-0.08207895540846682,0.12344792466195408,0.09814188633009041
1620,0.4852259234526666,7.574783408139125,6.707901733220521,-0.06897096719602627,0.12547806645052773,0.08224456303076909
1640,0.5307463251443724,7.566989674809433,6.684171905585875,-0.05831590656245161,0.12584533011578883,0.06471886542567518
1660,0.5599414972732227,7.550852349575828,6.680280333866968,-0.04814418815042111,0.1271838388814906,0.0477653270607869
1680,0.5689304596852929,7.5373010833190515,6.676014384262947,-0.03651673310935183,0.12544156046868254,0.035017038571473424
1700,0.5785520871513758,7.521270091163701,6.656041732229207,-0.01974902042935752,0.1195980249835518,0.020196900319645245
1720,0.5917705637859233,7.503797217864882,6.625815012005412,-0.006729985227138968,0.11551527636484851,0.007081962139636744
1740,0.5946361446077607,7.491327927481961,6.595128459095116,7.84557827249904E-4,0.11233317379652798,-0.0026540614854754277
1760,0.5834899800965407,7.4684994833336935,6.536983219885991,0.009983133131754585,0.099786350978118,-0.016257720242073344
1780,0.5717056574598006,7.454432800248429,6.509268580659569,0.016721646312002483,0.08256524246410533,-0.02553266676585446
1800,0.5681923708085062,7.434645316846993,6.487662375074528,0.02524301444171452,0.0665087701698054,-0.035202300386710864
1820,0.5526282422861675,7.417688047052712,6.460520393846016,0.03404789644334796,0.054947690876615135,-0.0434820283165512
1840,0.5130621828936575,7.397194651810138,6.430678605499021,0.045228449729485205,0.038741170111913754,-0.04788832040750984
1860,0.4721560574731005,7.379490363911579,6.410645058064868,0.056111108570813056,0.019554573394155964,-0.04624549874263865
1880,0.4304370361644295,7.357154597851638,6.378183325900368,0.07037963740490086,-0.007743110486805216,-0.04060931290924956
1900,0.40456720569651655,7.344828583865859,6.339080632672654,0.07639422575509273,-0.024059130170291463,-0.03712301340105163
1920,0.3788713286019035,7.339959228221251,6.311108903408202,0.07352562928459445,-0.027793364253813374,-0.03588408525208753
1940,0.3384226125448914,7.33911331755216,6.306349451067619,0.06507286932325275,-0.025165538587912796,-0.034489506682378684
1960,0.30749241057632215,7.344565403744225,6.317586376518941,0.06222201949630756,-0.02553526262014979,-0.03391107858871383
1980,0.2749417366785756,7.354418455449259,6.314257589144671,0.06391311892566164,-0.030121862806744726,-0.03558588607872207
