0,-1.7781690226660833,2.2233765655093722,8.109004179636637,-0.8766749501228333,-0.524538516998291,-0.10007849273582299
20,-1.2344212974695599,2.2516002234290626,9.217021689695471,-0.8533157110214233,-0.5554799227153554,-0.03309215616215678
40,-0.753760578557849,2.4595893573760987,9.935020427703858,-0.7499487125873565,-0.47683834314346313,-0.04928668223321438
60,-0.6886044315655123,2.71167025421605,10.095878673322273,-0.6605768989432942,-0.4165540613008268,-0.0889739165590568
80,-0.7897723280347702,2.9251951996873067,9.973153800499148,-0.6365458572783121,-0.44038551718723484,-0.096622877504404
100,-0.8326847875224692,3.14842439670952,10.28910207748413,-0.6452432189668927,-0.5171553465176602,-0.06855535967161461
120,-0.6784628446360952,3.3702968589046547,10.891078622717606,-0.6542184446987352,-0.5824677230496156,-0.028350685281973136
140,-0.34676200102728144,3.5613205212813157,11.747129095517671,-0.6087290643499448,-0.6004499919139422,-0.025223178101273683
160,-0.09409475038210822,3.69403893000459,12.454889434657685,-0.494176093131712,-0.590880010430127,-0.06835403995052593
180,-0.012182080980252337,3.753616706824597,12.988250573476156,-0.3475935967800058,-0.5998237826573996,-0.1259538972589337
200,-0.03385320466974478,3.733808707655146,13.40968796912204,-0.177660642798697,-0.6186023014649916,-0.17178036722490628
220,-0.07241269058490894,3.6728114911488126,13.63863475468694,0.02247649727731335,-0.6173934673472327,-0.20240366669865895
240,-0.061479706848743106,3.6037363376257554,13.61659033343477,0.17680181359063904,-0.5880831078678932,-0.22364414523724677
260,-0.03939177452488557,3.5181367815586557,13.516944512986301,0.3045475968535532,-0.5436556559350145,-0.24616923560633472
280,-0.03241129419919042,3.426998261545525,13.400193679528158,0.42320188189871977,-0.5003789427430659,-0.26673999231797263
300,-0.03990471529631087,3.3334988694924577,13.218371233573327,0.5404782299238902,-0.46991002834760226,-0.28420536012317127
320,-0.06400603472012216,3.231384790461996,12.963043727736542,0.6472836391109488,-0.45046533023317653,-0.29843768605665455
340,-0.09058423794818761,3.1205629485927218,12.64890245868735,0.7315857740603897,-0.4284563680204933,-0.31055578302387915
360,-0.11457214248366654,2.9964183986961066,12.295362029756818,0.7885217043002705,-0.39466425976655506,-0.3232410251973318
380,-0.17244141618146297,2.8689821954862573,11.93361403029642,0.8211724783443375,-0.353576726630836,-0.3339632271133639
400,-0.2467574658228413,2.7501306069247864,11.578764654608333,0.8385968253454741,-0.3112962490221595,-0.33208682939191075
420,-0.29785702356890764,2.652578433745363,11.22938590371207,0.8501609647123332,-0.277810439357555,-0.3179220858689272
440,-0.3116983607595657,2.573813616432608,10.810619104354776,0.8566729955096296,-0.2567102759827506,-0.2972065387741927
460,-0.2967613590761828,2.5135792507575108,10.424267660654507,0.8517621599328824,-0.2442692636249539,-0.2828642198959222
480,-0.28412248000842083,2.4447841343327696,10.028206740840902,0.8349144037185919,-0.23223095036360739,-0.27504290965856004
500,-0.28794719753080705,2.361375854690493,9.658399058850174,0.7961279505342951,-0.213066749976533,-0.2662925675458394
520,-0.31521302068044676,2.279664993218091,9.305537083734796,0.7518647126513257,-0.2003608738969518,-0.25282233995151576
540,-0.3447140178331359,2.214222031805484,8.949048868442029,0.6980625360646174,-0.198888793517938,-0.22888867840138039
560,-0.333060605231514,2.1739032712388546,8.605111883120967,0.6313756233675683,-0.20701592602232036,-0.19762725551870275
580,-0.26095858254036847,2.1319025826061706,8.292405572033836,0.5479124196854884,-0.21590116043257002,-0.17006154904916207
600,-0.1701895257484064,2.0782186532637987,8.046397635913584,0.44972902523034597,-0.21664856433259894,-0.15827546373336202
620,-0.14904605133933624,2.004381762522643,7.886762646418856,0.345138372702373,-0.21817445098764074,-0.16015694331392127
640,-0.2115511000138962,1.9085794881628024,7.786693197748299,0.2383809836253468,-0.23397001992101862,-0.15639388068031507
660,-0.2839186936058104,1.8238814820078286,7.775696853087707,0.1309959356215867,-0.2629041894965551,-0.1308336488563906
680,-0.2604308823376973,1.7649856025728237,7.853531714265528,0.02902527799823259,-0.28875517571022463,-0.09284561354495822
700,-0.15179157297885448,1.7290478025745486,8.000040442481176,-0.06814776203527893,-0.2996951148035549,-0.06705895863166175
720,-0.06873706658526013,1.7086070095126829,8.260430683903396,-0.16512918105969826,-0.3035464486448715,-0.05767209324364861
740,-0.050816409965650504,1.7024312799844843,8.546993018563402,-0.22997141301680307,-0.31561506500576514,-0.048582643349110693
760,-0.013809262195755316,1.7121737696159678,8.85445577718459,-0.27612292682869904,-0.33548685162964786,-0.0330848232489315
780,0.05521850380040475,1.758720577372537,9.155391261728917,-0.313150043392347,-0.34553134726233964,-0.016412494249963834
800,0.156000897110193,1.840702443114336,9.474062814601663,-0.34670498241187936,-0.3317794851840934,-0.004398816932800664
820,0.2644594725454226,1.9247152677901527,9.813578828478999,-0.36945222906549186,-0.30639289722449203,-0.0019786054597181434
840,0.3492392829108191,1.9791465003107642,10.15247444021676,-0.3708431951316266,-0.2933740907204177,-0.009547852878940517
860,0.39972608277098054,2.0014021964743733,10.465307373522121,-0.3483378498951036,-0.2936981380420078,-0.01926801232307145
880,0.46081756628604587,2.001519226653317,10.71456114654071,-0.30502187389020735,-0.2854009558891898,-0.027102026433407606
900,0.5358019432726426,1.9893921580546166,10.852484196594727,-0.2544225669235632,-0.25808972312808437,-0.03685562188426653
920,0.6113397599530365,1.9661413958868172,10.914588478772737,-0.1995647063288163,-0.2191883356889754,-0.05283918894651368
940,0.6598556115277647,1.9396395919734377,10.922052958180558,-0.15007573260822762,-0.1974528840261782,-0.06927619560365506
960,0.7037315710977902,1.9100915045390652,10.88657077059375,-0.10018376170913278,-0.19092216667594852,-0.08693844504110158
980,0.7482894965929283,1.8745593421050522,10.826668445288323,-0.059818084010540847,-0.1877152848629152,-0.10370408666163387
1000,0.7982954141891339,1.8130298646360852,10.7205311898548,-0.016311966496143155,-0.17453924539898122,-0.1271189321689398
1020,0.8260485256663712,1.753689128949778,10.601682385903144,0.01462134384415212,-0.1567010698694019,-0.14781297162847679
1040,0.8390831222078201,1.6948309001493287,10.465850564297332,0.03897283375610561,-0.14178783941953194,-0.16684251902125655
1060,0.8367935496838487,1.637886517772822,10.32377869464474,0.05844347862616284,-0.13664235978960582,-0.18413444463530176
1080,0.8205337230754451,1.5821069147981954,10.17581408225586,0.07237488244021877,-0.14054751985109923,-0.19848140401116918
1100,0.7955430413526432,1.5293654301933632,10.027111836230057,0.07837266185491554,-0.14497319080560545,-0.20858144381846286
1120,0.7696013706958491,1.4848290495493666,9.885524043688093,0.07473318300607923,-0.14376873701786594,-0.2138723114630664
1140,0.756938547429158,1.4569175093730629,9.76756412325415,0.06409036019431756,-0.1372143175941445,-0.21689303530685938
1160,0.7629819538227558,1.4398034601716376,9.67266083551684,0.050964940761057835,-0.1292896726475228,-0.2229691468632196
1180,0.7662337990832196,1.422345982044322,9.590033123898223,0.03589941836402985,-0.12279792019039576,-0.23773324192183498
1200,0.7231116938576299,1.394197169261483,9.52316043819282,0.023372772847290946,-0.1237711026427536,-0.2515681602875231
1220,0.6407679378164495,1.3692212753754807,9.455904858884406,0.008391237940149478,-0.13505397180829984,-0.25523999527809155
1240,0.5833375525834295,1.361423083036846,9.406021637900496,-0.011608488309909315,-0.14871182484442697,-0.24658578035841677
1260,0.5812130038667844,1.3659287080183107,9.38072318357189,-0.0362756550383959,-0.15706466692481838,-0.2355686199247233
1280,0.5967833390574506,1.379426584164736,9.390421190989619,-0.06130939711437706,-0.16237268023575327,-0.23097134853745085
1300,0.5975843050982803,1.3877479312418217,9.42814277609887,-0.08102479555438297,-0.17155928336683843,-0.231745383508629
1320,0.5746765616994242,1.3897786350556516,9.472700333580155,-0.09430513138508224,-0.1867493380211651,-0.23208284517406483
1340,0.5490517158645459,1.3965011125328866,9.510170076442035,-0.10689020363444632,-0.20024726739322599,-0.2280012634278021
1360,0.5369694076960833,1.4103661144359245,9.558321614319118,-0.12198661871948764,-0.205049860878684,-0.22146900899634833
1380,0.5325914300268997,1.431036926101722,9.617759884779371,-0.13630432870515455,-0.20189753780964195,-0.21605963510207754
1400,0.5315691803392179,1.4492998169962226,9.682380078048915,-0.14650100844065278,-0.19821508254414547,-0.21379547755198247
1420,0.5205367684602341,1.4525239489154689,9.756151495325678,-0.1516134594830702,-0.20344817745427426,-0.21303490059383176
1440,0.5065810957367259,1.4446466653946592,9.817947335963574,-0.15204036082637493,-0.2115280106253985,-0.21023423165908672
1460,0.50600886971881,1.4317859196366869,9.8715951979123,-0.15149729893556818,-0.21273812039977621,-0.2046069045394087
1480,0.5181054800903789,1.416955957137036,9.91503011012416,-0.15086149876627342,-0.20362082374461696,-0.1987734057018426
1500,0.5352382059996509,1.4022314222181231,9.944682293312578,-0.14908603800894177,-0.18884366353655735,-0.19467657840076258
1520,0.5498319203176059,1.3860436098808557,9.956438753335329,-0.14594038211515198,-0.17588403452947185,-0.19341566857775705
1540,0.5452901726498574,1.3726157375719108,9.95644959472651,-0.14201265486503734,-0.16928670223855463,-0.19342841420960266
1560,0.5338532469987415,1.357245258086963,9.956276515938914,-0.13798572545507135,-0.1668355496341934,-0.1914695179248768
1580,0.5311390964927546,1.3396710752976635,9.961119859541263,-0.1343152289771996,-0.16313113184941577,-0.18792494525413217
1600,0.5326011727869738,1.3233598717363935,9.963508375825091,-0.13092955646988444,-0.15492762152286857,-0.1841034665668227
1620,0.5347396075180528,1.30883668753709,9.957769153620008,-0.12816384526085162,-0.144736123101141,-0.18054211423641034
1640,0.5351051208868046,1.2961012280634132,9.945112312040735,-0.12629150910834142,-0.1365299423783394,-0.1774116230461957
1660,0.5314372439786572,1.286815872783978,9.941134785121196,-0.1244179062289357,-0.13396809516758795,-0.17500183514031745
1680,0.5263751848996076,1.2781781164322152,9.938482082086118,-0.12156209399083394,-0.1330954636090779,-0.17205429680545295
1700,0.5233668456544521,1.2704856524136232,9.934011505857837,-0.1188798365521883,-0.13048505315797312,-0.16864724269059175
1720,0.5206241947201885,1.2619950403839704,9.929424804640638,-0.11706505360953914,-0.12501205878040558,-0.16499607517074433
1740,0.5172233249850864,1.2531906598613185,9.92280853188628,-0.1156822976162801,-0.11842697471091812,-0.1611763498650372
1760,0.5138381545975184,1.245353660769696,9.915597497014742,-0.11486734037219624,-0.11300910427218898,-0.157493291072832
1780,0.5103990789937818,1.2381560638669116,9.912380925824886,-0.11432197763936998,-0.11012763875408052,-0.15445673456709771
1800,0.5058209855316976,1.2295204260871802,9.914066623010592,-0.11355254926409385,-0.10867802595638078,-0.15186250639216387
1820,0.49931652399070403,1.2191197188149872,9.918056362343611,-0.11235723934860485,-0.10636685592211878,-0.14929471604753866
1840,0.49002037803454207,1.2090931767557545,9.919970672107004,-0.110800636565205,-0.10258983281559306,-0.14630204888167198
1860,0.4804956977587296,1.1990802702937597,9.91459762901753,-0.10945200681048183,-0.09768608654864529,-0.14220193611169124
1880,0.475702597254037,1.1923460428053767,9.907305487968095,-0.10951429982206412,-0.0941846842714979,-0.13859009166443126
1900,0.4735388413252623,1.185713497843615,9.905320350349218,-0.10997015714212087,-0.09248352426531553,-0.13561884401260638
1920,0.47296298354757343,1.1789323974338473,9.908977276433236,-0.10928564292725745,-0.09228669541285842,-0.1336628237282442
1940,0.4702634622382815,1.171490783025399,9.912146648803132,-0.10710906159308296,-0.09265736684606564,-0.13276787523901346
1960,0.46167666040135363,1.16300778038487,9.909846726060843,-0.10457897696864399,-0.09238227334826343,-0.13160819577322935
1980,0.452919230106251,1.154568210590403,9.902914748576611,-0.10298050655848122,-0.09117244893128952,-0.129443056902725
