0,-0.03353027179837227,2.5942852973937987,9.913944244384766,-0.8748683273792267,-0.34628191888332366,-0.22050953060388565
20,0.37740466743707657,2.851838136974134,11.618366191261693,-0.782773411587665,-0.35605431701007645,-0.2338309413508365
40,0.6425748906201787,3.1875050332811146,12.399814888283059,-0.5996237154360171,-0.4136658123245946,-0.27096361032238714
60,0.9081914405737604,3.560778372628348,12.896838515145438,-0.4394034294810678,-0.5253680884838104,-0.30725249137197225
80,1.2436278627015824,3.8274642035018567,13.288905631664187,-0.30043808930705107,-0.6604630759982175,-0.37103882847830305
100,1.4983430643584215,3.917406858182421,13.58342425028483,-0.16427635669014326,-0.8000678437597611,-0.4734450911774355
120,1.574786300250029,3.8747358685832913,13.846704499196198,-0.035058965030426194,-0.9116448189242411,-0.5976239932795703
140,1.4323647279125542,3.7648994033016376,14.183878158455464,0.10137977536573116,-0.9595148852512018,-0.7115296841557346
160,1.170366261700789,3.5874839703241985,14.430599950154622,0.2541486677216987,-0.9598245004812876,-0.7938845924536387
180,0.8814826470362135,3.4114313657025255,14.501006988157709,0.40191788133794826,-0.9414643921765936,-0.8417153132249073
200,0.6633941183214659,3.2844931044421353,14.476814542497907,0.5324911980091461,-0.9185770759870718,-0.8623419269755647
220,0.5355167117233228,3.1529103144250734,14.3706983412155,0.6509627044116232,-0.8954988895642637,-0.8831051290035248
240,0.34647950688721957,2.960732162274696,14.140905486212837,0.7658086132594488,-0.8776723011224358,-0.9162870427524602
260,0.10401818098436141,2.7459313225258013,13.914485898511163,0.8529575858064445,-0.865223639227193,-0.9399754047907632
280,-0.1618183385580778,2.5172429116623056,13.666368261460335,0.9354764800330985,-0.8464948635908865,-0.946389356207463
300,-0.4078790993062836,2.3076377220338946,13.35713329820922,1.009022031808413,-0.8105507802331087,-0.9312612710125519
320,-0.5755283863102789,2.165235607583317,13.044827595031519,1.0596642142945647,-0.7595914798946181,-0.9014940422644718
340,-0.7019349413647039,2.007835596044724,12.594696160909292,1.1035271738372692,-0.6724802724265091,-0.8520616685367517
360,-0.7817282658070326,1.8844505904290156,12.157273132067461,1.1246802050662108,-0.5948927743936506,-0.8084324251006668
380,-0.8733351445506986,1.7798500917397622,11.707001955043978,1.1325485234165837,-0.5327928205682305,-0.7647206891106624
400,-0.975079326825433,1.682027870875805,11.258708758409632,1.1296763742683715,-0.4910922193815823,-0.7152648189262119
420,-1.070014934779869,1.5971853827436766,10.802815845277575,1.1142408424238157,-0.45826782993584253,-0.6549243992116923
440,-1.1228820203228833,1.5260351807909442,10.353262168989378,1.0792783202796659,-0.422355385810543,-0.5823747907750348
460,-1.1065479442097095,1.4704687489785861,9.935396761956568,1.0221198619015477,-0.3798469748616466,-0.5042661141570923
480,-1.009413148535461,1.448180759761755,9.541664715256633,0.9400877107638956,-0.3318150944428564,-0.42440117500586116
500,-0.9022814772428481,1.458780606526514,9.25669462275757,0.8644519964289882,-0.3003234965038079,-0.36700192630124834
520,-0.8088664003559367,1.4819644656605446,8.997904493022558,0.7904745716310835,-0.2856302789688464,-0.3175662372080078
540,-0.6936144150435665,1.510954097311895,8.772569911741533,0.7132228403108186,-0.2855353171634183,-0.2736383428386368
560,-0.5643959737968344,1.5374813446468567,8.594967509403762,0.6311540511586087,-0.28746043080129985,-0.2391777540722131
580,-0.4469399878869251,1.5556092500154461,8.459932704148244,0.5439900479507538,-0.2796398322620638,-0.21543759221059022
600,-0.3672805189085101,1.570943557646258,8.36125016804387,0.4512141479801372,-0.2633053576582932,-0.1991206557534105
620,-0.31471108416830446,1.5839613826295995,8.313360874937183,0.35597084431777,-0.249317031265397,-0.183450554559985
640,-0.2575046748864606,1.5953679917428685,8.33324374167117,0.2651491008723175,-0.2484172056108838,-0.1655285908307423
660,-0.21301689056040596,1.6044708594312742,8.385995133324478,0.21424822507079447,-0.25669957390208015,-0.15446954012005487
680,-0.09569994135383975,1.6281427550276644,8.557060565681834,0.12477006397716571,-0.28750892822761415,-0.1364483450408698
700,-0.019257912298246305,1.6513253101242744,8.706303647814357,0.06499218441970443,-0.3085056173109899,-0.1297582958200883
720,0.014943012887259258,1.67573397337425,8.83907056352328,0.02194748554483947,-0.31615576610987095,-0.12438067531002765
740,0.0642483324052826,1.7133197907057982,9.039128549084548,-0.024873492910316396,-0.3153200641522304,-0.11403758631147926
760,0.13403072046502582,1.7468128443853754,9.21627651616556,-0.05590573695499989,-0.31075785871457495,-0.10665824455970535
780,0.20849894867078658,1.7769870231088045,9.381424098864107,-0.07787638346870299,-0.30753384494048436,-0.10636270178719053
800,0.2649436686968732,1.795777118809432,9.526255084569762,-0.09194846524477764,-0.3045838779949689,-0.11195940809801198
820,0.2976267087921413,1.8027494883992605,9.645878504090316,-0.1008831097197049,-0.29925048386484754,-0.11882520850396536
840,0.3160331047645637,1.8026012648482408,9.743473575647387,-0.10583763371221722,-0.2910366335629286,-0.12431187923398933
860,0.32684658985980397,1.799409026836758,9.818590344850744,-0.10731095770327115,-0.28083172054586064,-0.12835119369078177
880,0.33129796176090265,1.7924693415368922,9.872493389057494,-0.10626045207472651,-0.2709244854169035,-0.13082267885424625
900,0.336237702956971,1.7830344855755489,9.912499549733923,-0.10330522603873303,-0.26241805632632936,-0.1314110922655788
920,0.34727159354534226,1.7696756326469445,9.941207447052781,-0.09748812414360458,-0.2534865598951457,-0.130575807438677
940,0.35609643201415353,1.7599586868563142,9.948076347987621,-0.0921808786654415,-0.24793122197868517,-0.12976356584232493
960,0.3678005839835731,1.7477640797591822,9.947723024937892,-0.08633669555061181,-0.24152016353645808,-0.1286558644620837
980,0.37797764377526627,1.7343825989011539,9.945404326465411,-0.08223028379979862,-0.23482844450997867,-0.1277538093135301
1000,0.3876353702092745,1.7182505700647472,9.942251646249408,-0.07860305431040834,-0.22782743405873315,-0.12652973278582724
1020,0.39958892549535624,1.7002714346460206,9.940905487160451,-0.0748020080248462,-0.2212939648799561,-0.12531921838137186
1040,0.40989844125896485,1.6819483840799179,9.934241345355378,-0.07058595540650241,-0.21504011167320822,-0.12436620041397412
1060,0.4187083522829488,1.6642058543003841,9.92354287388724,-0.06726488029448514,-0.20833110973620278,-0.12327199025293875
1080,0.42633492622932867,1.6463482856992173,9.91352739658465,-0.0645047531867404,-0.20093163412563833,-0.12223005373087155
1100,0.43068243122690325,1.6255393056792544,9.901116418985875,-0.06144016273422064,-0.1937174401244732,-0.1206581765222926
1120,0.4341037743453331,1.6078289275783764,9.885927177289778,-0.05896579175403032,-0.18776029348059117,-0.11815703253877263
1140,0.4404293639296686,1.5922761759157205,9.871375956242378,-0.05705043452548658,-0.182790325449225,-0.1155316451057246
1160,0.4488366581654797,1.5730189594478967,9.85694278840286,-0.054977243476120444,-0.1774330584922912,-0.11336304398137145
1180,0.4536010132125411,1.555319862566186,9.841675519592084,-0.054183949532223954,-0.17322900979557804,-0.11176559185469905
1200,0.4568017080816771,1.5400652276509772,9.83207707985815,-0.054976557455618955,-0.16916916640782861,-0.10962475460649829
1220,0.46204870798817227,1.5260076704102434,9.82919858149179,-0.05642458883627865,-0.16486938026932804,-0.1068004885353961
1240,0.47065877985733096,1.5148312092387641,9.831396542154835,-0.057973010886598786,-0.15999031848048162,-0.10399270029211038
1260,0.47970400878156605,1.5058870200103578,9.835396828688681,-0.0589104281586165,-0.15474206519821354,-0.1019289014601292
1280,0.48625248920341785,1.4965153193475227,9.837797153755233,-0.05931202594497749,-0.14978701678873305,-0.10044816894294469
1300,0.4903802692806765,1.4881114923332666,9.841975709965537,-0.059366753178043984,-0.14542109053310462,-0.09903548660066062
1320,0.49498539901448085,1.4816014126032206,9.84635716119288,-0.05864540002200075,-0.14114538885330738,-0.09780828192443176
1340,0.5003248074267438,1.4759568841216844,9.84852031317364,-0.057991271500688286,-0.13666651490812132,-0.09720814035635145
1360,0.5046391899165298,1.4686003804506202,9.852050115074963,-0.057618343966065105,-0.13140823171613322,-0.09731281192757056
1380,0.5061110025680966,1.4584364744692202,9.857345195261267,-0.05689014109737045,-0.12559826000090704,-0.09760818170115142
1400,0.5061253444703241,1.449040840804396,9.859503021802707,-0.05567759447456685,-0.121661006975689,-0.09740975200145326
1420,0.5071873709814161,1.4404016559227155,9.860177100125032,-0.054081210560507624,-0.11902690294594703,-0.09710658109133952
1440,0.508463071643502,1.4315593764594243,9.85972635230618,-0.05211113487813201,-0.11647644566525556,-0.09700111023890103
1460,0.5080789066417245,1.421756981442777,9.855892338205793,-0.05025731664601893,-0.11360571284640113,-0.09697820916198528
1480,0.5053530749306694,1.4108985959290725,9.849791562530305,-0.04907579377426633,-0.11066696695340736,-0.09650199164748069
1500,0.5023175209301797,1.4013853797921534,9.844625333635019,-0.04815453757921376,-0.10801333762964573,-0.09541657522269427
1520,0.5007928568720817,1.3921616864472628,9.839008894073963,-0.04746906622182578,-0.10582647624379024,-0.09405129708014429
1540,0.5013044724979483,1.38289871593234,9.836296444361526,-0.04703484178781156,-0.10361831984583857,-0.09269107790041485
1560,0.500958895615873,1.3747786351635052,9.834376558045422,-0.0465233764409955,-0.10121101372054009,-0.09146120013558712
1580,0.4999501996649248,1.3674491930707073,9.831123824950268,-0.04608443127754926,-0.09900503623174096,-0.09019024230759355
1600,0.49941080589771636,1.3612533373449174,9.828650217361556,-0.045992616808383555,-0.0974381104078182,-0.08901915733087269
1620,0.4988339685743913,1.355422646773601,9.828289001608702,-0.04599431311778192,-0.09617400856174815,-0.08819991079845318
1640,0.4973823262671512,1.3480549248886082,9.8308093693848,-0.045937002954820796,-0.09459958374449322,-0.08738961837355334
1660,0.4949473121976398,1.3419344187727815,9.833999776169438,-0.04543479259588136,-0.09293013490205446,-0.0867028450671873
1680,0.4920133953617103,1.3356226173243013,9.836401167911465,-0.044545911421385205,-0.09136578395589005,-0.08574947027145359
1700,0.4901417971276451,1.3291878606563696,9.838774963668987,-0.04383307476451268,-0.08998304098731282,-0.08455926406478781
1720,0.4889639514807095,1.3239437868744768,9.843035404567763,-0.043214854445782026,-0.08856826230739975,-0.08343827981460925
1740,0.4876179466498833,1.317891421378264,9.848186555456797,-0.04235461546438785,-0.08696363024751581,-0.08241701401125755
1760,0.4855255450011125,1.3120129869817407,9.852520308428936,-0.04119400815426184,-0.0850124200574239,-0.08138370739974576
1780,0.4830262471041451,1.3066570967257227,9.854823373533684,-0.03964805534820723,-0.0829427271826617,-0.08031030015522385
1800,0.48136649326216885,1.3017223799843494,9.858861413842375,-0.03751637993760907,-0.08084284643921653,-0.07918871394964314
1820,0.4790681361173337,1.2975163351339924,9.858401646013634,-0.034682882666786326,-0.07867090992793227,-0.07804334627516847
1840,0.4763039706536724,1.2942127063895132,9.853187004287063,-0.032088940505362026,-0.07702330099694359,-0.07666726990859828
1860,0.4743520010990209,1.292751870358541,9.847435546040456,-0.030047845879289763,-0.07619315906849615,-0.07521034571283504
1880,0.47500290806693946,1.2913722220624662,9.843505839361832,-0.02763886267700427,-0.07564002448810239,-0.07392272456390868
1900,0.4753329978923436,1.2897565052874473,9.837025092496264,-0.02570647191760203,-0.0751102297424936,-0.07341463987288736
1920,0.4737574032956339,1.2881005990521313,9.82959879740713,-0.02455038966103948,-0.07470625991021991,-0.0732295608303002
1940,0.471261536128491,1.2857489692550972,9.823846340563687,-0.024104971532803613,-0.07435597877531407,-0.07311788432405524
1960,0.4682427425294706,1.282412220374826,9.820839147722513,-0.023952985429297784,-0.07408431380095423,-0.07296200180635004
1980,0.4657442001706281,1.2781962873816086,9.819202488736146,-0.02382698440858256,-0.0738107840738787,-0.07272841319333849
