0,-1.0194800231191847,4.0342774920993385,10.422859403822157,-0.5259070330195956,-0.11032818920082516,-0.0031394256382352775
20,-1.1528497338294983,4.368797554689295,11.134023666381836,-0.45437417486134696,-0.06527028753257849,0.0013722828589379787
40,-1.2095807099342346,4.7599578475952145,11.947411804199218,-0.3666239531338215,-0.03294264452066273,0.026751894261687992
60,-1.0199154786426912,5.0717081156643955,12.677564707669346,-0.23098479842089795,-0.034124119538870276,0.054368712840545355
80,-0.7554242381508031,5.355497581202809,13.395753767432236,-0.054599680903753854,-0.06758192785243254,0.06075045806015047
100,-0.5106768367469919,5.561724400033756,13.647994995117188,0.12247548025215463,-0.10241962957424017,0.03939506062781628
120,-0.2923184457774225,5.652036265323036,13.773841991759182,0.2925400124911807,-0.1131626674374402,-0.005288644179113601
140,-0.14849121407247506,5.588575671269344,13.620624072735126,0.45573234535897006,-0.08977860290772066,-0.06607197373389051
160,-0.07811700662419405,5.441419003760978,13.174018781479091,0.5821277129795556,-0.06918498684575602,-0.13110249856333822
180,-0.052924089429036876,5.189043707963897,12.521425543761834,0.6683901125031364,-0.085191269981584,-0.2008239346067989
200,-0.07589550839944018,4.928258522351583,11.914610645506118,0.700928456755355,-0.1420198087554632,-0.2566072737953315
220,-0.11711157001174834,4.633947540302666,11.408627169472831,0.7050664417341124,-0.20030438820878993,-0.30434295800704586
240,-0.2257644907518659,4.3038051037363845,11.007736201556224,0.7084542050439302,-0.24508302768402435,-0.3368335250229135
260,-0.3605555005273537,3.9794301764810815,10.554998604874863,0.7177440616947582,-0.28714651690199644,-0.34521080128309367
280,-0.47103361634262764,3.6794765257261326,10.026003722284662,0.7155645898902087,-0.33051292168274216,-0.3300009872497166
300,-0.5189454864567289,3.421303979508006,9.455721761171635,0.685677876470324,-0.3641825326127358,-0.2998442636695332
320,-0.49507485676988744,3.199485911650286,8.922211778984554,0.622952385633455,-0.3699066374177599,-0.27022747679586534
340,-0.439371274159073,2.9974326973347223,8.469970543294737,0.5362082515454099,-0.35332968852910124,-0.25435213871899837
360,-0.42048146736554126,2.7970874511044133,8.07843234109414,0.43598142999538836,-0.330551250815065,-0.2482540159419711
380,-0.4517420993565961,2.605249142964129,7.75615282356739,0.32719225793168594,-0.3229898287078228,-0.24109781100874605
400,-0.47676297391585093,2.4160145796748282,7.528022923141892,0.2006967757686929,-0.3516853450925487,-0.22692283698798796
420,-0.4261261759710878,2.2697828605396455,7.476970327133573,0.1036409923016732,-0.3873142354841752,-0.21900210666124909
440,-0.34955759949105625,2.159949104416179,7.534718968173399,-0.013434437524407783,-0.4085417876809457,-0.22471158902215607
460,-0.36535717651056937,2.101218283529847,7.645971225622373,-0.10553364205198028,-0.4222257836566617,-0.24153195958202467
480,-0.5021282558242235,2.131425903394378,7.826593822593172,-0.19251744443403895,-0.4522532943344854,-0.246072203476037
500,-0.601978537639806,2.2000809349031387,8.149877246098496,-0.2782922226260306,-0.47141609083688973,-0.22673137233950091
520,-0.6040698840754898,2.3010998774217826,8.63729383371192,-0.3493414692831604,-0.46755497151301095,-0.19949101893545967
540,-0.5424666724820101,2.4451251429493337,9.210190437570017,-0.3858698538365048,-0.4492564357105347,-0.17752603794722963
560,-0.47045759663272363,2.5855977026204395,9.67046494425362,-0.3866692232027745,-0.4292383164209194,-0.16618634988434422
580,-0.38608110782694177,2.758274145125423,10.1363538858086,-0.3598024883736768,-0.40113442150565487,-0.15996345511633794
600,-0.30499764075465646,2.872353738084792,10.44924166537376,-0.3212444491933037,-0.3730047630875249,-0.1601937881808179
620,-0.22073943640418264,2.941527987114769,10.678051713465724,-0.272484680801328,-0.34058937034929265,-0.16507196618049877
640,-0.14225699211913773,2.976812075174759,10.811916973372076,-0.21734273829759004,-0.3073216501060064,-0.1738311021801517
660,-0.06507337782397002,2.9809143405367173,10.87728539120028,-0.1531468076425591,-0.2743435325649351,-0.18722947877561807
680,-0.012076295997527704,2.958844372117236,10.874384259359099,-0.09606823529621822,-0.25008142252967525,-0.20149429778988198
700,0.03254602055307733,2.9161742756538707,10.820633095115015,-0.04259151745785334,-0.22737128140918322,-0.21689459382020548
720,0.06899253251031041,2.8535940528226393,10.72370041579008,0.004144893538517256,-0.20511068390139067,-0.23377983854773143
740,0.08860017477183954,2.778650466757887,10.596437781371854,0.04237485981951528,-0.18484693307311625,-0.250685447672769
760,0.09770315906174387,2.695480919590432,10.454510820534411,0.07268713212047433,-0.16878476179030996,-0.26638616872892446
780,0.0941006176110449,2.6022627617370477,10.31421858780546,0.09652798029703352,-0.16051726767083307,-0.28046327908983293
800,0.0793963441855263,2.504144528426275,10.172304859093154,0.11678452327628676,-0.16016923070181138,-0.2911458710820066
820,0.05911472028066569,2.4128343626582884,10.00996343502227,0.13266330541193705,-0.16485998069059432,-0.29763805784339853
840,0.04379169540426255,2.33651371768558,9.82507941683476,0.13987764497903102,-0.16966413286442322,-0.30043239571721475
860,0.040809256311620815,2.271639233319407,9.61272326479105,0.13512885541438596,-0.17684256537499152,-0.3029875044609193
880,0.03425862345436256,2.2246123549260504,9.453897097094417,0.12014003122633654,-0.1902530190834699,-0.3070535436604325
900,-0.016649559926711043,2.193857255973541,9.359852311838088,0.10270546360850215,-0.20971971006761866,-0.3070168268789435
920,-0.060365809413685106,2.1682911166564374,9.26610466728373,0.08696766596732372,-0.22928458193666607,-0.2974180378278918
940,-0.0807349417803948,2.1677390505729726,9.151696339134691,0.06309628038568982,-0.241050680142236,-0.28172114737820275
960,-0.06289188794425737,2.185856604775043,9.055484781112119,0.027823726650121006,-0.24504001584591376,-0.26605716303826055
980,-0.018976834542865372,2.210768710849462,9.018106402659122,-0.012265440746911882,-0.2537930066898511,-0.2569643322539366
1000,0.019380522249198853,2.230482372204992,9.046203729676277,-0.04946284306282967,-0.2728840455409482,-0.25422716332874634
1020,0.0472291046665039,2.2415677181792373,9.113937177241839,-0.08024159622336616,-0.2942340466688274,-0.2529717787233073
1040,0.08050392347763538,2.247834798634608,9.193916515106366,-0.10550831570800194,-0.30772077863208847,-0.2518799223075241
1060,0.11423202413315427,2.255067190278995,9.27631660873066,-0.12550234265979252,-0.31202827751672735,-0.2533266601372229
1080,0.13275405542108784,2.2629383457008374,9.349430076526792,-0.14146080020333776,-0.31525567595512094,-0.2583265227966764
1100,0.1349564494367763,2.2670632061480687,9.433004241181788,-0.15529533217313635,-0.32326859327508073,-0.2653285263406388
1120,0.12386709864723025,2.2617901940527676,9.54435542219387,-0.16737213914556776,-0.3278604142687352,-0.27222707671681784
1140,0.11054879630496825,2.250746518325831,9.631196124530804,-0.1730241079373893,-0.3241137146700555,-0.2750158160368898
1160,0.09354105018367641,2.2353850688052725,9.721119141291874,-0.1744066538224893,-0.31471645601423043,-0.2753222988193629
1180,0.08308648450085472,2.2206316578198115,9.777416330122163,-0.17149727050609764,-0.30666891945412944,-0.2733680896016428
1200,0.07643700412357686,2.2062639739017498,9.814994088852936,-0.16625508357891397,-0.300454051554795,-0.2706642096356945
1220,0.07426946443056621,2.191838961213352,9.838812226615104,-0.1609550419688388,-0.29295608276673835,-0.26739398154070176
1240,0.0772088594351183,2.1777068299551803,9.852937020332206,-0.15555182694932262,-0.283336185708222,-0.2638764825448686
1260,0.08393203067812623,2.1618381252073644,9.854326782827211,-0.14990934878713577,-0.27333170020257025,-0.2603864006079647
1280,0.09254064550269182,2.1437702427260548,9.84675441387715,-0.1441529492870639,-0.2652041150594286,-0.25678476998617894
1300,0.10126806896577557,2.124920628616091,9.832905603984322,-0.13916748934704462,-0.25889002143933826,-0.25370199810225197
1320,0.10540295909657195,2.1035430997857527,9.819041404172063,-0.13595363166702162,-0.2519289783560379,-0.25086058616445733
1340,0.10389595263214274,2.0827308531376447,9.806534180045128,-0.13419099596127954,-0.24470365881962194,-0.24708208484744484
1360,0.10471677163545849,2.0615977746349543,9.801174417004816,-0.1328512296778873,-0.2377131507204669,-0.2414604318503137
1380,0.11223645018646904,2.045443926131389,9.800276731740441,-0.1306920368397876,-0.23235075538477004,-0.23580859275288368
1400,0.12277079003498606,2.031780549559904,9.798137789861016,-0.12804917786523456,-0.22823248107836622,-0.2308225701911294
1420,0.12938035824407998,2.019925878972684,9.794595067997944,-0.1256277679345302,-0.22394949353721766,-0.22637811272147895
1440,0.13248794818810752,2.00899191537333,9.791038841412556,-0.1238153593399201,-0.21943097509949605,-0.22170700194304668
1460,0.13479282538280613,1.9989617603375438,9.788897064422725,-0.12249863111994731,-0.21485264358057862,-0.2168939013705777
1480,0.13730919897967497,1.9883437278562361,9.788666208896055,-0.12172467346572435,-0.21022212885886346,-0.2119312628434704
1500,0.14241994078293807,1.9786055594076954,9.793344333937497,-0.12113713647250268,-0.20557437788702668,-0.20668461885818137
1520,0.15408472295097086,1.9712818480346406,9.80126225914848,-0.11959346844257868,-0.2014349923378685,-0.2020061784790138
1540,0.16607620354989772,1.9656279181645335,9.80693738457707,-0.11671135810749213,-0.1981830556250418,-0.19908309296856852
1560,0.1723289720303086,1.9583876953928123,9.805930020337186,-0.11376971397013294,-0.19496253215057807,-0.19707007335749613
1580,0.17472538206196597,1.9495830045900722,9.803781520316184,-0.11140051816926241,-0.19122233652362924,-0.19486480404822937
1600,0.17625300044892356,1.9379250307385696,9.803768266128694,-0.10896551575552155,-0.1871205116796063,-0.19186905265584156
1620,0.1773504831769268,1.927720288925591,9.802083156778512,-0.10665951013380623,-0.1835914122965327,-0.18882833967190124
1640,0.17917740710184998,1.9178832573483564,9.799867924347165,-0.10476825315899554,-0.18054660587672733,-0.18533373327573782
1660,0.18220464146066018,1.9109227735439644,9.799768759792341,-0.1025298550397993,-0.17803557877298717,-0.1817341483424089
1680,0.1863659470989152,1.9042251145705407,9.796124627986966,-0.09999358570653279,-0.1759622932786019,-0.1783405943119866
1700,0.18992574587223474,1.8981803867259417,9.790348186446675,-0.09798856208053412,-0.17452516689550013,-0.1752699414092844
1720,0.19265279446236408,1.892483964149671,9.78639723144641,-0.09642328526470836,-0.17267280720294698,-0.17234700379049173
1740,0.1963680640341756,1.8864311652174324,9.782683070330473,-0.09546247130836062,-0.1700032788987423,-0.16965881598592747
1760,0.20069599306185004,1.881075037115564,9.781356650466721,-0.09544549825384618,-0.1660999608287562,-0.1673854538194266
1780,0.20290553751324847,1.8736324185137074,9.783582828079279,-0.09538719487766055,-0.16140739132162787,-0.16503694560442755
1800,0.205444524321533,1.8681934182025979,9.78667175822446,-0.09452035530486445,-0.15770334841110287,-0.16246159687073922
1820,0.21045591242946884,1.8638467765563438,9.788628735088853,-0.09295124260003626,-0.15520579443577306,-0.16025949312156187
1840,0.21467073094891323,1.8587865113202795,9.788279854325184,-0.09105608051611545,-0.15266690958398896,-0.15835609953296415
1860,0.21786181256052659,1.854368347307464,9.787378349261905,-0.08968652208002514,-0.1501535098720097,-0.15690776346552426
1880,0.2192828902243231,1.8493506986798018,9.786629519823778,-0.08835446319937336,-0.14742782000925814,-0.1555574395317192
1900,0.2204651022641566,1.8441312166657227,9.78561253026799,-0.08691890390871208,-0.14501806150161767,-0.15424588946997161
1920,0.22102217514210257,1.83927745220198,9.786938065214521,-0.08520320280756101,-0.14345060009049596,-0.15313748485841758
1940,0.21999750357158812,1.8336155597322525,9.787771746196784,-0.08301903977178327,-0.14215253488073173,-0.15203868233790202
1960,0.2182876510992088,1.827504636726799,9.785712359289402,-0.08101149729199268,-0.14064101329696518,-0.15062469418350138
1980,0.2166560222685443,1.8223612665927453,9.783895010890713,-0.07962435318468765,-0.13919757207500436,-0.14885417524349906
