0,-0.8936084376441108,3.0124024550120034,6.2270510461595325,-0.8688048521677653,0.16719827718204922,0.10572695525156127
20,-0.6725778684896582,3.042801997240852,6.843557245591107,-0.9844278167275822,0.06456735760302228,0.0214875126736896
40,-0.7529941725730896,2.9981813716888426,7.602941856384278,-1.021684503555298,-0.039725792203098534,-0.07360676669050008
60,-1.1027251066583577,2.9496481129617402,8.173258434642445,-0.9970239581483783,-0.12300558508176243,-0.12517718762286345
80,-1.5432104584647388,2.923209079881994,8.49414148563292,-0.9665796785819821,-0.1911549545120357,-0.12653534001068825
100,-2.001470021009445,2.984769263267517,8.70944091796875,-0.9749620091915131,-0.23870654095895588,-0.06611795753473416
120,-2.150810232450222,3.1023762966024466,9.029223951800116,-1.0104085011728878,-0.2653572537920213,0.02300978554533152
140,-1.9909870915368877,3.2448887174779717,9.620213205164129,-1.0202499555818962,-0.29740228970309324,0.09380729834965403
160,-1.746940278234212,3.4169162479606836,10.31884493698945,-0.9563532796864574,-0.3475451871463274,0.11422988299022403
180,-1.6159372825016518,3.603511484657846,10.839741962711985,-0.8450031222593857,-0.40657870865018086,0.10753054894001518
200,-1.4731499756065507,3.7690689934624566,11.2523344039917,-0.7288113491609692,-0.4533656146222105,0.10043022900483467
220,-1.2714132889820149,3.903833111938165,11.621417259683414,-0.6113659438620113,-0.47804581079803105,0.08253752990335948
240,-1.0993140197605036,4.003026759849404,11.924847899742847,-0.48262471609028446,-0.4843131100873129,0.043372141468593466
260,-1.0256986781840391,4.041364515036867,12.104975415949236,-0.34382571229351716,-0.4828046021304959,-0.010489652922842652
280,-1.056203665463712,4.00447280875972,12.171607525622258,-0.20867414725181022,-0.48868010762972053,-0.06313788876429842
300,-1.143971924748845,3.9220104419268096,12.171121274507962,-0.08234739648894622,-0.5027397430466058,-0.10229625504983303
320,-1.2490895236437412,3.816238153671873,12.120465403017791,0.03541559087571459,-0.5197584045598742,-0.12415450517901395
340,-1.3440459238137215,3.6848435937141883,11.994681896806574,0.15602308976761745,-0.532166032529227,-0.1329654252265903
360,-1.399525869403395,3.562923902849997,11.804294604639853,0.24497960708554714,-0.5301571488049963,-0.13404657795739872
380,-1.439715370198746,3.4453900101726043,11.561332781622015,0.31152241013121384,-0.51854894430508,-0.13078015355430428
400,-1.45880506691463,3.336864593433358,11.312448027538277,0.3594825401880413,-0.5065286645464251,-0.12347731666097538
420,-1.4439426275365597,3.2340257727234056,11.081126953636467,0.3979276040641789,-0.49757349921140676,-0.11405994015545506
440,-1.4070164084205414,3.1363486398987592,10.847953227752033,0.43159928693769767,-0.4893047989415812,-0.10556510884506519
460,-1.3640312408264248,3.051230437327654,10.6003568649292,0.4581870147719597,-0.47998008702475675,-0.0996547194227624
480,-1.3310174214805068,2.9773043458684914,10.335819278444562,0.47467917951713934,-0.4694985649456715,-0.09521246668561523
500,-1.2981006487082885,2.9154312814016476,10.065234565056896,0.47739506091798933,-0.45663372717877204,-0.09119794288566292
520,-1.2620769286205031,2.8635685775922313,9.8094535810218,0.46535147481585204,-0.4405571733044299,-0.08759832315542417
540,-1.2202361333942953,2.818885344240634,9.581281290180357,0.4430677015744642,-0.42341519410553746,-0.08451756402913743
560,-1.171489355915968,2.7767816933534912,9.361847564325494,0.41256777190808525,-0.4065882713983814,-0.08300421223137133
580,-1.1371631810296572,2.751700866417807,9.185744413586914,0.38411949605482526,-0.39623806051161814,-0.08391236825645748
600,-1.115584945383792,2.7317099627994357,9.017305918156154,0.3538145574903677,-0.39059047447887085,-0.08599933118897579
620,-1.1057437245554935,2.712801883770869,8.860135608453017,0.319497146572058,-0.3875705079354632,-0.08782675621914678
640,-1.0982416212009682,2.6867830615435073,8.717281622673148,0.2795033815747766,-0.3840392107915467,-0.08862688681831819
660,-1.0973702334306217,2.65925276927326,8.59543040006057,0.2335008923234283,-0.37702858714940213,-0.08806449109038837
680,-1.0978297796789032,2.636376885461136,8.504124369419797,0.18265574756012837,-0.36620063238619815,-0.08499439925071783
700,-1.0851407503128716,2.6124250721441555,8.447808368565285,0.1306383777664949,-0.3548168179049629,-0.08091052585841182
720,-1.0660871112253516,2.584816947778066,8.41692923863729,0.07980802302559217,-0.34561495619205135,-0.07802272689179518
740,-1.060449379983104,2.5572744298290897,8.412708613779637,0.030708582031649428,-0.3419286382003603,-0.07584178624614202
760,-1.0669660934076137,2.528898191602924,8.435486500776268,-0.016002572742821294,-0.3435766238312508,-0.07129352175795674
780,-1.0653697881347466,2.5007996595936057,8.478384265193233,-0.06075387195120623,-0.34372945219266837,-0.06276306992017285
800,-1.0519907372998052,2.486015943877668,8.532935533178858,-0.10352174053529659,-0.3366089892399733,-0.05227906906876309
820,-1.0260797946009228,2.4849908904246223,8.603598807214642,-0.1488550526917505,-0.32547381737397824,-0.04242034981032708
840,-1.0198873451085484,2.485778999050574,8.620911553719301,-0.15832549624644632,-0.3235152185346073,-0.04079204093143561
860,-0.9800527726693982,2.497582818947586,8.761048888625885,-0.2190663787413712,-0.3182806633478057,-0.033049787076435334
880,-0.9545957751674194,2.5061616597110277,8.869682884216308,-0.2507109040675098,-0.3183914388249284,-0.03041056528534383
900,-0.9320800045203048,2.517390361100675,9.002962258162512,-0.2781606493542725,-0.3159856659200432,-0.02878988604373411
920,-0.9114904160271557,2.532220934319684,9.152444937097744,-0.2985218062097319,-0.30990776170309137,-0.027192531327113235
940,-0.8930037000748043,2.549125901837582,9.300963308633447,-0.31084741935478694,-0.3018247191830129,-0.02577178557774478
960,-0.879871096188714,2.575231280074612,9.441179450873463,-0.31628067048280606,-0.29359250004293036,-0.023402066898980278
980,-0.8585761041909364,2.6076145778467628,9.573088612968538,-0.31606774109381214,-0.2867363022249422,-0.02041447527108737
1000,-0.828096889661846,2.641758840828773,9.703877255067987,-0.3105664010143886,-0.2815669321899864,-0.01825323191496203
1020,-0.7898331064710973,2.670145374012673,9.829615669975372,-0.2995594115640234,-0.27713677627028954,-0.01806933530457008
1040,-0.7539744642920532,2.688704732406971,9.952041774572328,-0.2815894508864297,-0.271236936173261,-0.020420762362380968
1060,-0.7326791612718458,2.69609218699747,10.043454666660256,-0.2616633474231447,-0.26548924632758525,-0.022680302310817912
1080,-0.7073362959797322,2.6962873219374583,10.121771816715532,-0.23846808912006995,-0.2594784143114057,-0.023740971388635665
1100,-0.6735597109403625,2.6943232272690087,10.185417093369404,-0.21218470639101997,-0.25307991325015217,-0.024597665822976535
1120,-0.6348357281569005,2.690571272011959,10.229242886299694,-0.18337482466358385,-0.24725578769409498,-0.026848502435723474
1140,-0.5965942992482017,2.6834717172257445,10.25277328491211,-0.1534831716104391,-0.24196990820841785,-0.03091525899399904
1160,-0.5601039055927762,2.6724711297446215,10.257818968226221,-0.12438258859932921,-0.2369668197764033,-0.0364003290047686
1180,-0.5249035462359573,2.6581169712690658,10.251955444430127,-0.0976253318151942,-0.23144018484989504,-0.04282159466605917
1200,-0.4898057607434283,2.642327223470819,10.241850561458572,-0.073559026192376,-0.22503914588026377,-0.04995890397098677
1220,-0.4569812007090708,2.6254758611618283,10.231342560741531,-0.05107039326720266,-0.2181078979860995,-0.05816635721992976
1240,-0.42838918283198246,2.606100693403506,10.213378062902713,-0.028656482645401767,-0.2112896633254565,-0.06697479972465183
1260,-0.4004805127942938,2.5822649410924012,10.178694986883615,-0.004179161817179939,-0.2045703129836148,-0.07704757020009326
1280,-0.3824108767353296,2.563372207685115,10.14156036503868,0.013745221397892604,-0.20027529283009732,-0.08505970880830972
1300,-0.3620195325002701,2.5372793197631838,10.083140081779979,0.034693463766407744,-0.1959442692985062,-0.09536017676201762
1320,-0.3455532602339805,2.5123711816733274,10.02099148783675,0.050778716356659905,-0.19267133787264928,-0.10417304047607194
1340,-0.3309213011474864,2.4862650971447273,9.952188938369336,0.06430212095271653,-0.19035861105636986,-0.11328776103225512
1360,-0.32149818499550914,2.455833420530628,9.876983834507215,0.0753002998907259,-0.18993960916666958,-0.12279047251429928
1380,-0.3200371422931368,2.4208790840518644,9.797902810300258,0.08361899153028847,-0.1924238632931218,-0.13160794233140327
1400,-0.3267306645894828,2.3852646114191285,9.716548821407816,0.08890409774754358,-0.19764850907938797,-0.1381810643967322
1420,-0.33539313025210266,2.3557708869156255,9.635891103826298,0.09059072814332274,-0.20319296658541497,-0.14187865484067388
1440,-0.339882062155558,2.3340540210103424,9.557011765271879,0.08833113461953482,-0.20681097862675515,-0.14444061761620328
1460,-0.3425797733364748,2.316235879675574,9.477488513382927,0.08113191236208546,-0.2076202819929637,-0.14780289816179581
1480,-0.3509118089412494,2.3010969826279597,9.409041763726727,0.06916643085519751,-0.20697444541049168,-0.1528209881967124
1500,-0.375983036227706,2.2847942066871054,9.358903325088624,0.05552028866287896,-0.20834602973995564,-0.15924839644742053
1520,-0.4308041582355658,2.263055584226281,9.314615157934336,0.040539566455826834,-0.2147831550363872,-0.16423471822035468
1540,-0.48800041062957783,2.243625589328099,9.28038274185567,0.0256945899484349,-0.2215863559035882,-0.1632233320665767
1560,-0.5362972885224735,2.2314697278197855,9.259190797805786,0.0072750983104924675,-0.22438868632252706,-0.15798366287617682
1580,-0.5705395090583436,2.2297632763691153,9.259545059851659,-0.013703730251973517,-0.21993704204520148,-0.15229388398968435
1600,-0.5992076269595135,2.2293105590179927,9.274143969140402,-0.03526131506219915,-0.2116089760797544,-0.1487426869924359
1620,-0.6399030782231859,2.228118503623339,9.306829864720264,-0.055911195808067825,-0.20666534732904493,-0.14602146262470606
1640,-0.6926525096669571,2.2293712343754515,9.362060453210558,-0.07192011290213227,-0.20704209954090488,-0.14003528524422326
1660,-0.7372856634367696,2.2340038702330167,9.421993137808407,-0.08250409239382647,-0.2089358217892689,-0.12928425961786963
1680,-0.7625074150815043,2.2450802620327055,9.478742733944294,-0.09068740451259019,-0.2064299966916943,-0.11552398221490791
1700,-0.7690352999482133,2.265592219115331,9.532384592911292,-0.09831526187842647,-0.19758559828881714,-0.10193539593464443
1720,-0.762913971798534,2.294265741955304,9.593667281942164,-0.10581753750245833,-0.1845834573653216,-0.08941068559049477
1740,-0.7551601049575176,2.3151878832015216,9.651996288861332,-0.10926448692388696,-0.17566167841306893,-0.0808719615051967
1760,-0.7482493113863299,2.328955622842011,9.70797456087914,-0.10832217387046443,-0.17011890502665294,-0.07306717588949235
1780,-0.7370484027671736,2.337604867373638,9.753314988930367,-0.10420694117037009,-0.16503679790308595,-0.06411051041518807
1800,-0.7131439068416586,2.3466252862921886,9.788428980750986,-0.09853400340243122,-0.15801905486950704,-0.05425923086783067
1820,-0.6756977274426378,2.355355534737542,9.810752667676683,-0.09153371220954612,-0.14934751348548111,-0.04602795945927376
1840,-0.6356693812884677,2.3622399870538775,9.817850219301018,-0.08366783020354976,-0.14091398636362135,-0.04127772833770425
1860,-0.6017384545867785,2.3642777763356047,9.810082233845012,-0.07597852657572336,-0.13458182880212521,-0.03949770538069665
1880,-0.5757452790069506,2.3610346453320066,9.796340386796215,-0.06928521251034656,-0.13093445260306005,-0.03951676788128869
1900,-0.556322681657644,2.3535922647212923,9.782117077742765,-0.06333844971326462,-0.12922468234888582,-0.04056916944397927
1920,-0.5428792530101291,2.342408525222426,9.768745049397657,-0.057968854977138294,-0.1280783220839384,-0.042079829063509724
1940,-0.5335548027309331,2.328569162575925,9.754990459841407,-0.05339538750108355,-0.12641842916950202,-0.04347269202704092
1960,-0.525941527543936,2.3144022541471783,9.738945166269938,-0.04995327125409253,-0.12371379403980536,-0.04421799060160157
1980,-0.517844640262379,2.301566556905523,9.719391785727607,-0.0472363866193013,-0.12030916198337864,-0.044377420239731166
