0,-0.3326416148079766,3.509502092997233,10.690835316975912,0.17453238036897448,-0.22550843407710394,-0.024160088557336066
20,-0.18427562809494488,3.3789500488954434,11.454392657560462,0.24801821919048533,-0.22193318210980473,-0.07228149331229575
40,-0.09196875385940075,3.2171819686889647,11.528858070373536,0.375864999294281,-0.15785940632224083,-0.12117963753640652
60,-0.045928023591199345,3.1193017328486725,11.261100544649011,0.4867001298595877,-0.08949574806234416,-0.16228067847516606
80,-0.01881801137434585,3.0566152845110213,10.88981210617792,0.5546584853104183,-0.04586764904005187,-0.19387531967922336
100,-0.020884571196511388,3.0195449447631835,10.44400999069214,0.596843466758728,-0.029740052747074516,-0.22457421462982893
120,-0.0350994256822842,2.970154680054763,9.966585126416437,0.6106132988272042,-0.050001014925234406,-0.2594498723167284
140,-0.06379461466955642,2.8711930694002095,9.586828108989831,0.601829876502355,-0.09584745719753714,-0.2977097863895875
160,-0.10225403306928153,2.7565345300568476,9.388410415914324,0.5986038206352128,-0.13314852491182844,-0.3270428924459136
180,-0.25071766607395213,2.5343980832797723,9.013393512586267,0.6053575335479364,-0.18957596399577153,-0.36203802129390034
200,-0.38272413808541994,2.3572315365076064,8.644317732916939,0.5932878543933232,-0.22939664556049846,-0.3650269686140948
220,-0.4593549881520092,2.1980903574398587,8.295468189278427,0.5596387816631064,-0.2608843880660395,-0.34842381898161706
240,-0.46910752298503694,2.0639194581868514,7.96461517630883,0.5095072589234783,-0.2786851120455946,-0.32603080688431013
260,-0.4292127274573176,1.9386633409742724,7.6451127445488645,0.44500833340479357,-0.278905587500623,-0.31099968140520023
280,-0.4019738628672875,1.8082203445577525,7.336782405046913,0.3675887761408555,-0.26564163626190734,-0.31377474620144385
300,-0.4839767899278921,1.675636172493678,7.139352403524268,0.27691072233390945,-0.25404107223801625,-0.32864095758333917
320,-0.6825289022204258,1.5506287491310844,6.994387755291068,0.2001110869225302,-0.2656529748941296,-0.3263213793552822
340,-0.8583356631179787,1.4771365560336065,6.903824530235709,0.13090073946888928,-0.2791445824287334,-0.30014472773094497
360,-0.9390331152225694,1.4241868315444839,6.851146797980031,0.02687342981056821,-0.2737726171478449,-0.2492346917609534
380,-0.9020848778230738,1.4142664356694266,6.930599076616252,-0.078717623323065,-0.2515621475391147,-0.21652020506583658
400,-0.894672888047906,1.4402611590486172,7.13923137926916,-0.17473717838286135,-0.2393757264767719,-0.2041944013772347
420,-0.9691667696461082,1.4909331665566847,7.412037171465059,-0.24624856917822327,-0.2525327020424272,-0.19530321510154858
440,-1.0465595409682489,1.5565578351245526,7.710400692281876,-0.2991344497892707,-0.28163666150533906,-0.17382563549258254
460,-1.0473727899340866,1.6516792273101135,8.058884878647634,-0.3414915166843014,-0.30239804902812467,-0.14124246975407004
480,-0.9574624516005342,1.7583001037819845,8.419323967234924,-0.3666976017019905,-0.3066651395854591,-0.11742478670174311
500,-0.7966902282009546,1.915629775620891,8.900505914507319,-0.3769102757090429,-0.29562298391787867,-0.11161948227372144
520,-0.6957314310299063,2.053468056175519,9.335329323465174,-0.3688025040890683,-0.2718585765129484,-0.12792128882243892
540,-0.6634204388032422,2.1345087216774883,9.685921617767267,-0.3476462391319505,-0.24764188774172094,-0.14613023258770177
560,-0.6482993401310769,2.1756926613496774,9.979701784707732,-0.30884884105269184,-0.22496770438861488,-0.16032189423399898
580,-0.6251590184325383,2.187457803835268,10.176065447877665,-0.25816862294297727,-0.20358170693874794,-0.17133236617483505
600,-0.5902582913940211,2.177814157250973,10.286343229195428,-0.20479651561213863,-0.18107850154578162,-0.18201364377801793
620,-0.551001901885208,2.1513908620207354,10.333146413472983,-0.15408607569451516,-0.15887231015568923,-0.19363550855240858
640,-0.5019889668137558,2.099717282245297,10.342248862359062,-0.10797319691906225,-0.13989781034843643,-0.20609385455409482
660,-0.45498431038340903,2.03606172217785,10.328695735205775,-0.06571651225828606,-0.12386240661452166,-0.21908050507435278
680,-0.42778086666555576,1.973546772132772,10.281836162990247,-0.02635811445054034,-0.10899859753172536,-0.23395553894150792
700,-0.43466325588077814,1.9100445572108233,10.19886303356249,0.008607332964670169,-0.09581385902228784,-0.24964988080319017
720,-0.4744853239661703,1.8465441658968726,10.087391599814097,0.04190503053367138,-0.08607891353254672,-0.26106638681609184
740,-0.5328104848427921,1.793954960447299,9.906901835623682,0.07594875738169383,-0.08164029299680138,-0.2632884639918105
760,-0.5572311618168506,1.7637015198495485,9.71022557121722,0.0907787141222683,-0.08345118955997691,-0.25845678381427933
780,-0.5523578517167614,1.7393590541069324,9.546135587325463,0.08719682917571984,-0.08535648764415572,-0.25551167262718083
800,-0.5563206273430327,1.7197247839367784,9.450373483849717,0.07729610750810748,-0.0857891841542259,-0.25825572511355155
820,-0.5906357221507476,1.7008853462958966,9.391693742044511,0.06853662885157419,-0.0842754539531448,-0.2635907993482595
840,-0.6458592491630027,1.6871918206740928,9.317175383212573,0.06367347645106322,-0.08673897466537567,-0.26238030971649684
860,-0.6871089943572462,1.6859328078121698,9.244104919981222,0.05364973414741477,-0.09370225646904166,-0.2537462724521443
880,-0.6968785354459327,1.6875111438640176,9.200930531710794,0.03819767801626904,-0.10342767675270084,-0.2433091102231753
900,-0.6848215128322589,1.6999631007139548,9.209486180591838,0.02260878236200311,-0.1120776272394155,-0.23853745141338767
920,-0.6814176604625942,1.7127973434962624,9.248610340391243,0.013585219091278675,-0.11571882152639627,-0.2424561393427665
940,-0.7117210280432684,1.7155975041322047,9.278219871778415,0.01064662062167968,-0.11371688071682039,-0.249017840060992
960,-0.7665146014316185,1.7154839580232775,9.290798682363787,0.008197880527893803,-0.10932999678981613,-0.24914851600898608
980,-0.7972111922294232,1.7246854888834977,9.303613048762523,0.005146074907055923,-0.10627703140894057,-0.24212422778054596
1000,-0.8033150413010611,1.7427528096713882,9.317621414500158,0.003357243904133062,-0.10467878180926617,-0.23468567782018676
1020,-0.8025245427913187,1.7646073291510767,9.328181503225842,0.002144887094425647,-0.10385803720112162,-0.23104680281284737
1040,-0.8138722321430091,1.7835544083700623,9.337568881068119,7.311439661439075E-4,-0.1025872242245769,-0.23116770429417577
1060,-0.8406190846442803,1.7970849337507055,9.347980361278744,-0.0015113795788524902,-0.09949983691051921,-0.23047916061557472
1080,-0.8675878086803906,1.8088519992181538,9.362443217514876,-0.004176229919252642,-0.09588189954927395,-0.22649412928827758
1100,-0.8860201059824209,1.8244246656017682,9.378358804444385,-0.0061171571744630514,-0.09265426312260933,-0.22000984237929355
1120,-0.8934667411147419,1.842786164188282,9.393308481870791,-0.007347557165567235,-0.09004682801385185,-0.21397839047194123
1140,-0.9011286861183954,1.8611035085104881,9.405558047649707,-0.008149629534083477,-0.08796332848463902,-0.20988501926854333
1160,-0.9145567869888346,1.8754005808087073,9.417447687941117,-0.00859502344840366,-0.0867741466001812,-0.20633203885664142
1180,-0.9290212178277043,1.885944901854413,9.42829539967172,-0.008545727596461099,-0.08664773307525583,-0.20151184279511877
1200,-0.9371445724552478,1.8964491195750959,9.44038357132613,-0.007220582187062863,-0.08728083568810946,-0.19452883439618304
1220,-0.935657512368801,1.9050071843220273,9.44667165582744,-0.0050356927453716165,-0.08789610921506627,-0.18816064497609633
1240,-0.9278990363979206,1.9128379669558044,9.447588483181486,-0.0021072371439997345,-0.08836495320332272,-0.18267145214389113
1260,-0.9197152285766653,1.921470256841711,9.438813908940794,6.724413231316674E-4,-0.08845399262243164,-0.17878620337868945
1280,-0.9142339853428488,1.928931539549547,9.426115585459252,0.0017819587358642913,-0.08769741552151594,-0.17649047356849956
1300,-0.9141006534988775,1.9331076378577223,9.418452761329224,0.001287278144785734,-0.08663990336076452,-0.17472634317100955
1320,-0.9164412522818859,1.9351229322439618,9.418919734752858,0.0010062977997500374,-0.08705548431694723,-0.17215982492040657
1340,-0.9177054551441878,1.9396964060091928,9.422702705578882,0.0026358727031064555,-0.08845949540801681,-0.1686702356196284
1360,-0.9155230339373294,1.9459041783016355,9.419907847329414,0.005193545932886532,-0.09010154072872958,-0.1647564175031406
1380,-0.9090852487842163,1.952536585206918,9.413474716416953,0.007152049076239163,-0.09071465124401988,-0.1609211030849001
1400,-0.9004857307494335,1.9592010317159736,9.405546166171199,0.00801950617166965,-0.09044552132517666,-0.15752320558683056
1420,-0.8920482743234337,1.9662248460035994,9.39853358493661,0.007951377871834496,-0.08990878208632634,-0.15499329864124145
1440,-0.8857277019151097,1.9732692364206168,9.391767588363686,0.0072425106199940446,-0.09031394876052377,-0.15312219477477665
1460,-0.8813512594082082,1.9811841890712578,9.385179825822512,0.00574202970135957,-0.09254072065804697,-0.1514195044292137
1480,-0.8778062100647827,1.9853846126383072,9.381071315980272,0.004114905144026699,-0.09512331695202049,-0.1500121737955947
1500,-0.8743454639379589,1.9896547830627336,9.38188288834962,0.0020899301706268996,-0.0970646967666712,-0.14848575791398474
1520,-0.8719176453827785,1.994153221209462,9.388315765712505,6.384134265737465E-4,-0.09740790849555662,-0.14707786360164532
1540,-0.8716431432300471,1.997810173779726,9.39199370919149,-1.14779661503868E-4,-0.09653558107886885,-0.14557751075215813
1560,-0.8719368363337707,2.002505852421746,9.394180111028254,-0.0014866370722302236,-0.0960454208633564,-0.14345803106334643
1580,-0.8694586562133613,2.0070560204302086,9.400814279545973,-0.002934764566210409,-0.09613451806360922,-0.14099141002566565
1600,-0.8650767114538722,2.0109548690024672,9.408279696070567,-0.0038652798833847955,-0.0965673282557762,-0.13868400707582534
1620,-0.8602088147238548,2.0157192192792173,9.416640094425304,-0.004081111710591534,-0.09703543224308503,-0.1367594842523398
1640,-0.8567683786400483,2.0197927623188923,9.423026556947402,-0.0032550740794422815,-0.09744959008362673,-0.13515026994753584
1660,-0.8557757368927602,2.024242417032228,9.423845777266166,-0.002117927318356712,-0.09784773676681867,-0.13339328151059282
1680,-0.854068179643269,2.029208232973551,9.422188264859278,-0.001523600404589372,-0.09804772565892267,-0.13126142142573372
1700,-0.8516992210040412,2.0359934762954026,9.420158578641445,-0.0017307998582959934,-0.09767078455172444,-0.12872613641905092
1720,-0.8485571555278085,2.0407809414339404,9.419703949765957,-0.002519642272617351,-0.09690393240658356,-0.12660420507271875
1740,-0.8451967190958947,2.0443256079816217,9.423297128536925,-0.0035589664228630174,-0.09626858427539026,-0.12456649514555221
1760,-0.8413527925432907,2.0468150036262243,9.431055835645838,-0.0041179458927020855,-0.09556829013166453,-0.1223804547377809
1780,-0.8359374159957258,2.0486912522541645,9.438250011377374,-0.0036066988352443435,-0.09418414915719904,-0.12027819433590635
1800,-0.8326284140613804,2.0502862912101047,9.44093342503505,-0.0025970450173772803,-0.09231477005183229,-0.11842320740521156
1820,-0.8312293384761719,2.0512555530007255,9.439289965565573,-0.001896481978982037,-0.09041261455792646,-0.11634353036123435
1840,-0.8295991787301057,2.052732205604652,9.43701349137472,-0.0018346847363056276,-0.08881896117646161,-0.11373933610366596
1860,-0.8260331455478628,2.0553170981059408,9.43762994862104,-0.0020296508649794895,-0.08755838066306144,-0.1108854734247034
1880,-0.8203113548450356,2.0582780045480193,9.43931741258723,-0.001973983835563989,-0.086222212159354,-0.10828008241006822
1900,-0.8158602024964327,2.061800582797064,9.43971867558272,-0.0016377232851193285,-0.08472230401754012,-0.10606012280378371
1920,-0.8122712142881641,2.065939060414717,9.43723664347452,-0.0012434708293256025,-0.08310808097129349,-0.10361668442757492
1940,-0.8072302076902231,2.069761488352074,9.435146670047223,-0.001328287926802801,-0.08209092678532699,-0.10131951154887639
1960,-0.8005218749779957,2.0737585089078867,9.435475495242121,-0.0015920562651635442,-0.08142945058312862,-0.09914786312752345
1980,-0.792024123209908,2.077783020447802,9.437518691575086,-0.0018631082157500917,-0.08076525888158537,-0.09730581226241257
