0,-1.0069727069801755,8.309653706020779,2.3000171979268393,-0.5863311919901106,0.10047580922643344,0.1635744629634751
20,-1.388125214506598,8.138699419358197,2.5812676373650048,-0.8257128263221067,0.17792331975172548,0.30751048948834925
40,-1.3179314088821412,8.06728837966919,3.4723952770233155,-0.9592092645168304,0.18351909056305885,0.4663865312933922
60,-0.7918805888091976,8.172315062898578,4.084524552027385,-0.940289523565408,0.1393848614992969,0.5868233900630113
80,-0.06116063652060381,8.29996977782831,4.627937334339793,-0.8365947291618441,0.05659932572758052,0.6214043285425116
100,0.5317432277132662,8.440929033318344,4.8051914438909415,-0.7181812256422578,-0.017133254006657064,0.573570828656761
120,0.8529210994183495,8.5448418416475,4.728062884849415,-0.626960757041448,-0.050162555470147675,0.47833206801136074
140,0.9804841742206079,8.61588051869319,4.5443471028254585,-0.6036157945314279,-0.04832342820098767,0.37914301176340537
160,1.0149961811273474,8.69293707364226,4.528850891818739,-0.6360751551971452,-0.026384705167314778,0.30693278754487224
180,1.0272268604395198,8.844245775246327,4.737940202524633,-0.6676661105665528,-0.036167374777573126,0.2797606170671866
200,1.1914818865571464,9.04851879698507,5.067484799395786,-0.6565927684181527,-0.09787949488571521,0.29625374538656535
220,1.6440832142965223,9.281336565406955,5.4535574499441655,-0.5901592642601047,-0.23080573462862142,0.31295605938482496
240,2.0565988311262906,9.468439043692822,5.740568320706205,-0.5060578251152106,-0.38537635165705997,0.2769246276265959
260,2.190287459527322,9.653567862092403,5.939018414731612,-0.42442501620634604,-0.5141319554429828,0.20476935626203685
280,2.1785451830441103,9.74187981886942,6.115388164754774,-0.3636268935181567,-0.5884553629172141,0.125958399255531
300,2.1028456506390985,9.746237677794236,6.314487697527959,-0.32416415165823237,-0.5983973148063971,0.0511480849988472
320,1.9814969218754466,9.699430393136065,6.527261559514032,-0.28682591979378375,-0.5652012633416208,-0.016038393152985667
340,1.786635423321532,9.604750571185596,6.691520819925282,-0.23186566555642918,-0.5398896007211751,-0.07091870573221719
360,1.5412106761321813,9.466641748106325,6.7425245944555705,-0.16056666811081496,-0.5488820458496255,-0.10548782693040738
380,1.3025654215526619,9.29780630417812,6.691551798655663,-0.08994426171260851,-0.5778214713777013,-0.11712601565594935
400,1.1186713975689866,9.111316888472613,6.585078306759105,-0.031476715623455886,-0.6036580768852111,-0.1153149111826411
420,0.9764414248527603,8.914263122537163,6.443746506498101,0.01288405071232426,-0.6138983806961457,-0.11113510327152071
440,0.8560134896367628,8.713725292554466,6.277938779964242,0.043357506334300966,-0.6064340649523161,-0.10873806500877504
460,0.7310459607400192,8.486095017653245,6.077159668237735,0.06443066621820132,-0.582998775674078,-0.10659572900726627
480,0.6416410912158601,8.287322483626493,5.8966091301640855,0.07487705300373984,-0.558239241715594,-0.10327691266432477
500,0.5811952083896827,8.091874666123594,5.722564569581741,0.07813466109017625,-0.5338097977346048,-0.09830137166543312
520,0.5526152317663102,7.914916563251792,5.553766193455213,0.07464837461505851,-0.5078355940377773,-0.09153449054824435
540,0.5484700408940602,7.765634906449507,5.387876264061696,0.06509131559125653,-0.4792574801244301,-0.08518591028379711
560,0.568119034729898,7.642161173516132,5.227339281173463,0.051219004376771606,-0.4543997953804408,-0.08448483652653212
580,0.5894113689423405,7.54183801309562,5.061622669943321,0.02875381633026119,-0.43041166487828264,-0.09322003254076704
600,0.5669230880972695,7.4691025374895075,4.90752881950888,-0.004977618807934195,-0.3963047766712943,-0.10396819464135099
620,0.5319902629242728,7.411235710828921,4.786072229973713,-0.04446256277241302,-0.3598772436614116,-0.10699448665841321
640,0.5027650373329625,7.379001500014972,4.702846149038663,-0.07771013488054723,-0.33581495259300265,-0.10152020489208792
660,0.47635633631524715,7.38017900727012,4.615847314663909,-0.12025152532891793,-0.31547014921395616,-0.0855386017567732
680,0.5033010994199361,7.396184568270356,4.592581325371885,-0.16046757518244717,-0.29686887980382826,-0.06688778907021133
700,0.5702115187121631,7.431393263274676,4.626210083049556,-0.20477073426575285,-0.2841841747154233,-0.04824535251748174
720,0.6301296603710701,7.5029498855272925,4.711793975196779,-0.24100264053791762,-0.28823149867472236,-0.03241289644502103
740,0.7181093054188584,7.602499964175286,4.837768588130447,-0.27416086410982654,-0.2918541357658241,-0.0191841103142587
760,0.8323905841488675,7.723892866056176,5.012056075472715,-0.30402375268455173,-0.2891512220571425,-0.015413567886534559
780,0.9257711801292766,7.86743254058155,5.225578027892352,-0.32201245078748025,-0.29222374186487465,-0.0236819359721087
800,0.9681578267797694,8.018554612096533,5.429632148974721,-0.3261152163080602,-0.30746931849848425,-0.03901028479673866
820,0.9847686715013183,8.157056507643532,5.626971836092279,-0.3228296757730491,-0.32706999434808764,-0.05688202143646777
840,0.9946833078230293,8.268812187101648,5.8354859867336595,-0.313136777594343,-0.3398324777649839,-0.07620340884641755
860,0.9975391286503775,8.353983232814274,6.025734849996195,-0.29424425819365496,-0.34176071597298535,-0.0965041744998876
880,0.9853992420427787,8.41692805486721,6.167333471384104,-0.26675722258840945,-0.339732369900218,-0.11583650856442586
900,0.9642271751842101,8.459486207013489,6.253795436122806,-0.233980656891901,-0.3398058170321903,-0.13213092961188366
920,0.9374081667193659,8.48224178011336,6.301497815602173,-0.19468853380188855,-0.3465811055837434,-0.14646643031818737
940,0.9047140455667102,8.485634614385493,6.309485287901139,-0.15943581978658783,-0.35987559269370323,-0.15597886574193645
960,0.8660801195249815,8.470786289844465,6.299734167970473,-0.12594062219413762,-0.37723879919707615,-0.1622810864408198
980,0.825613530434921,8.437476770966141,6.2816693289504375,-0.09554281700172543,-0.3924246815444304,-0.1659039491419623
1000,0.7850503187945685,8.393842140063823,6.252520609250152,-0.06908511648238716,-0.40076607864515823,-0.1674674353866723
1020,0.7454313693469669,8.342934285093657,6.210729648949768,-0.046564309391018334,-0.4027607119750041,-0.1676392887526517
1040,0.7062293182323646,8.287683523062503,6.156696654257033,-0.028176074626145662,-0.4013721772883682,-0.16633347577539148
1060,0.6700629159180529,8.229632749164677,6.098470834192545,-0.013907967310066355,-0.3974919851783565,-0.1633447228283014
1080,0.6416338304073413,8.169519621066833,6.042473078954421,-0.003370208636428533,-0.39075180803284343,-0.15982068121496043
1100,0.6192896877580978,8.11202138780758,6.000565730027081,0.005423210363909109,-0.38010386414245123,-0.15650694163117318
1120,0.6133484201149211,8.057791596638149,5.966736834997275,0.01589522979458604,-0.3642761686505192,-0.15440351698939525
1140,0.6182725285403311,8.006111472908621,5.914335022197921,0.025686326994697677,-0.3433304971611715,-0.15484762555862
1160,0.6245879794054116,7.963761635046585,5.84783458744861,0.029693150451598177,-0.3186767186148998,-0.1574933464732607
1180,0.6149927449250716,7.934813399864322,5.782395451011542,0.030278284938185795,-0.29399095762807514,-0.16187369727161655
1200,0.5858713523054998,7.923929754667301,5.733672148655745,0.03149553978509642,-0.28389690812317275,-0.16363783375951357
1220,0.5392276945508149,7.919232617811378,5.66847712927279,0.033722038280619565,-0.2831777194002365,-0.15962826357542192
1240,0.5133654114475255,7.923790975177989,5.618589268573651,0.03447150977364942,-0.28724737750690466,-0.15098873634786145
1260,0.49905643387361426,7.9421856472390955,5.578476959307279,0.03457985483613368,-0.2881549170074902,-0.14076110894043847
1280,0.4958783399040134,7.971413067085208,5.5391977686406655,0.03340800451024032,-0.28187469385290775,-0.13134380405283613
1300,0.4979936491261142,8.006236691153452,5.499507773772217,0.030333242490203104,-0.2701979834341779,-0.12317119366559112
1320,0.5065333931891564,8.04362042143776,5.464502428819827,0.026166057966222532,-0.25865763712505124,-0.11563194497158524
1340,0.522366843290881,8.079664060852744,5.436346205452627,0.02191770040461878,-0.25220989987825637,-0.10911387352188202
1360,0.5412572659280879,8.11227058637954,5.419453005723682,0.018564335323722474,-0.25195299727757925,-0.10371814741032018
1380,0.5611835640880638,8.138860667552207,5.412562421776434,0.016779443587554132,-0.2540597370996423,-0.10008790432936232
1400,0.5782077201160238,8.160839890604434,5.407287897111281,0.01589306143588265,-0.2534347859338817,-0.0987029131963525
1420,0.5865908350606208,8.174694984282269,5.402071544769544,0.01543298066187551,-0.24843961326864678,-0.0992187906805854
1440,0.5886520562459464,8.186756615307932,5.392721039068124,0.015022306341670812,-0.2411670570524548,-0.10004695040739556
1460,0.5890028974867717,8.19750447384702,5.380937396466284,0.014625269228818738,-0.233567686797157,-0.10030612958756856
1480,0.5891985011082204,8.209310554004777,5.366635317937202,0.014680949139007547,-0.2281903504665183,-0.10000829512554127
1500,0.5884777403092087,8.221004201144707,5.351392931357874,0.015061688356052297,-0.2255831627731734,-0.09929123730209422
1520,0.5897437885734753,8.233827620409848,5.337829853980585,0.015419825145666059,-0.22412871654566982,-0.09884822438956861
1540,0.5920518872497098,8.247035658680694,5.3297385376731965,0.015289427396245803,-0.22087605902427002,-0.09947242405746728
1560,0.5945758026363605,8.258766068725706,5.324994455183476,0.01547903999792272,-0.2140005923756974,-0.10147634065594868
1580,0.5952197531295056,8.269243939398246,5.314319063818667,0.01549190771109259,-0.20339384797396975,-0.10481291070617908
1600,0.5905643042628405,8.279027083083873,5.30152039498887,0.01496451026751155,-0.19168737751684145,-0.10873315708342059
1620,0.5817152261449555,8.287544597507782,5.2891064532393335,0.01484027665505624,-0.18256988242949143,-0.1121458666628089
1640,0.5684928348273388,8.294890326048646,5.275308738933832,0.01583807262302019,-0.17777723609972218,-0.11415520182691537
1660,0.5576873633075807,8.300014503212536,5.2607662906377195,0.01742988950735547,-0.17673846338002477,-0.11430838953717337
1680,0.5500225223987336,8.304243221185928,5.242217584475225,0.018845335990823345,-0.1757222998254123,-0.11368074328543856
1700,0.5447258782762386,8.309527500264947,5.2192605111116395,0.01856529830054088,-0.1725775397398734,-0.11326114057052088
1720,0.5404885689968069,8.314324265515262,5.1983118704784745,0.016069549999966428,-0.1658098719278562,-0.11345406843743562
1740,0.5365415800390948,8.318814776251825,5.182671119390956,0.012815976009447142,-0.15856365600255518,-0.11399725031204459
1760,0.5310157674494096,8.325361013743613,5.171672342619341,0.010487654987809947,-0.1541453271302291,-0.11447361868922598
1780,0.5225419599414486,8.332779944925518,5.165221726895402,0.010059354287187778,-0.1532232929865451,-0.11433445308984329
1800,0.5115970177955561,8.339484397807848,5.157466520823578,0.011646419513256304,-0.1543396608119466,-0.1136345621179435
1820,0.5001438356991056,8.345062839408074,5.144228550440241,0.013709077644346517,-0.15446769867983637,-0.11238630647302895
1840,0.488405650597997,8.350707313164751,5.128743455829495,0.015180343130657305,-0.15288887244768123,-0.1106794324927676
1860,0.4805039631864546,8.355388395723544,5.111829065399147,0.015439732955679861,-0.14994442430079769,-0.10878773069462593
1880,0.47417339734595043,8.362735836651607,5.096016264768857,0.01463749371334288,-0.1465703453553746,-0.10666401597146812
1900,0.4693745277873558,8.370032622547223,5.0871419167743,0.014087223961689849,-0.14522919588526914,-0.10486669899377986
1920,0.46589081078044076,8.376842025283036,5.078506417245053,0.014162223613939609,-0.14515231009157506,-0.10330278378063042
1940,0.46232648366401347,8.382550572205071,5.069718292025342,0.014114799727174228,-0.14483159392862816,-0.10216463576811789
1960,0.4578793133328786,8.390426534838443,5.05888246662552,0.01342000817771322,-0.14248694066067555,-0.10114641714266753
1980,0.45436097858692387,8.3972792881823,5.049429665744415,0.01175927324637849,-0.13778139020480926,-0.10119445286449437
