0,-1.5865674416224163,5.042846891615126,7.565866947174072,-0.23195322189066145,-0.023923405549592443,0.02899605284134547
20,-1.5828085988759995,4.979994237422943,7.617808967828751,-0.3082527881488204,-0.07183811406139284,0.04356576316058636
40,-1.6129978227615356,4.938817882537842,8.17468095779419,-0.3652817219495773,-0.143154908195138,0.051572556495666506
60,-1.601252064560399,4.898686062205922,8.292574001081062,-0.37269725266731146,-0.15650041248988023,0.04746063584179589
80,-1.6408805236583803,4.8563404315855445,8.225840929077894,-0.3888458911238647,-0.12556089610769983,0.046434344587529576
100,-1.6563510173975036,4.839833403742591,8.240092865256376,-0.39366284463294715,-0.11461127051260582,0.048129522783118626
120,-1.7157584449701142,4.799619373522307,8.231976601115445,-0.4508744130531947,-0.03547311825841142,0.07997923455478852
140,-1.5875351298035998,4.790692488352458,8.33267247315609,-0.491538800750718,-0.013407957627240456,0.09546209685504436
160,-1.4420283704593375,4.800363772624248,8.489276557355314,-0.4930221887456404,-0.006365738985304897,0.08780392733830455
180,-1.3483668414921295,4.813346920943841,8.574958888495841,-0.47084527190138653,-0.006446142634092943,0.07307894588107379
200,-1.2891858413815498,4.847333484225803,8.62406651708815,-0.4378451688422097,-0.022497137696740943,0.06710884602636927
220,-1.1890050489835593,4.938188358229034,8.622339496807177,-0.40782512253036307,-0.05229241535785057,0.0702388151881418
240,-1.0183804187712804,5.08686355374894,8.628510128776982,-0.39189363538094285,-0.0827055722288348,0.07258982139744989
260,-0.7908186730193464,5.253538604368243,8.725350651824684,-0.38178640525592,-0.11048549072093967,0.052749579882641374
280,-0.6416885765483145,5.393427176553695,8.914361230662612,-0.3593265434543862,-0.1434716946115244,0.005740686957190027
300,-0.6135487573507886,5.501875961743869,9.139265951743493,-0.3187804690490548,-0.18626288472083755,-0.04113659221464051
320,-0.6048465855824559,5.580534599829411,9.389587696047796,-0.2616146609214121,-0.23395033049704236,-0.07627600954130184
340,-0.5790370040356296,5.633348657660289,9.601617306879122,-0.19383353409548737,-0.27256294165033057,-0.10732010460126992
360,-0.5537594401067303,5.658148913229666,9.761281084245251,-0.11732732871126744,-0.30124152762920503,-0.14275436482181952
380,-0.5513540875692309,5.641417333684816,9.839769190805821,-0.05119810227099006,-0.3194438889958364,-0.17360135057278298
400,-0.5632357841346696,5.589583675763761,9.877747259641948,0.016122575337339563,-0.3372077173192588,-0.2024279850622236
420,-0.5950887862530501,5.5051867961883545,9.873341333932716,0.0888669410377075,-0.35777867721672063,-0.22875827853958117
440,-0.6453489237290653,5.397003859759652,9.78115772818499,0.16274150228874887,-0.3770937041378266,-0.2502722418568232
460,-0.6961032427274264,5.278684700452365,9.586551233438344,0.21949493024402705,-0.3824040177439411,-0.2664236405267356
480,-0.7505024049082413,5.1528316671625145,9.338370325530104,0.24772014607459747,-0.36547098193131844,-0.2771537881183984
500,-0.8049990142126219,5.020596812686649,9.09132427174898,0.25305259880119874,-0.33788191860760186,-0.28088568245674267
520,-0.8562031124280468,4.879967349305001,8.860763373440259,0.2476444031498884,-0.3161147474795027,-0.2779363157954832
540,-0.8922555945518258,4.73091289479827,8.634689379368584,0.23998709040640603,-0.307986890880231,-0.2705583526375437
560,-0.9154478433284353,4.5699216904277185,8.393697919744126,0.2293380203914452,-0.30951476533788236,-0.2621845490457688
580,-0.9420181512832642,4.378567056161672,8.097355257017446,0.2058813855181769,-0.30896969529615,-0.24981800641017188
600,-0.9618284787450518,4.2125354199411555,7.818018876104837,0.16782531188431357,-0.29915688541996854,-0.2329892598643219
620,-0.9674773922333351,4.061833560993322,7.5424971619191075,0.11145526215505715,-0.28605767703713636,-0.21026781278913123
640,-0.9617344326714972,3.9429351344197268,7.292486258879749,0.03764414563844564,-0.2770078517596494,-0.18576868754332024
660,-0.9325043654366247,3.8536473464429974,7.107619936098817,-0.050954756971475654,-0.27744863026706246,-0.16396734666625928
680,-0.8838971754877081,3.782469698591945,7.021944574952703,-0.15236033898988136,-0.2856665128332884,-0.1463668628441642
700,-0.8017656307361306,3.7158893770697743,7.108057386299263,-0.25802483584106684,-0.29148233177623556,-0.13190691987186517
720,-0.7191525457551082,3.671165939504281,7.326772217794011,-0.35062900504407785,-0.28890971825419304,-0.12273311995125065
740,-0.6651855991887194,3.6828792439017737,7.636426787914152,-0.4179940467621744,-0.28750834223026617,-0.11589663531540519
760,-0.5981258374839267,3.740209705028329,7.978469786805961,-0.4551109520783294,-0.29272626430832166,-0.11186382647226506
780,-0.515091846961482,3.818977085468187,8.292895921994644,-0.4729232718265489,-0.3011930069428391,-0.11609691656252116
800,-0.44697414628084164,3.909436724572274,8.595177200942649,-0.4844930890178959,-0.302595415082129,-0.12799355844372368
820,-0.39625283824471086,4.004241058496414,8.960168781206885,-0.4887616133666939,-0.29386902453556735,-0.14467434020292375
840,-0.3722848720784515,4.069481490620206,9.288476303214457,-0.4749739223632182,-0.2838102916791304,-0.15930597939899452
860,-0.3584143534636631,4.114147289405663,9.566614090931974,-0.44179987312354546,-0.2764030215705429,-0.17164666302689985
880,-0.3385639132089811,4.145687128366163,9.760348039166363,-0.3963220652422472,-0.26969402591882863,-0.18290499733531312
900,-0.31194328193130827,4.15941069811213,9.879956814338112,-0.34756582837312133,-0.2609266634582949,-0.1955367594298185
920,-0.29246270017126413,4.151298223466679,9.948924118486719,-0.2990774623927443,-0.2506807463514323,-0.21063113954710208
940,-0.28851674900301627,4.121717971160644,9.983519271011332,-0.2513224113813977,-0.2414039489295415,-0.227503570069614
960,-0.3014406710581605,4.071050758576795,9.987611923202572,-0.2033708603555332,-0.23495086729356443,-0.24445805628256173
980,-0.3269763605186233,4.002267048855162,9.955895538126796,-0.1576740403763122,-0.2301007420402365,-0.2595709445207943
1000,-0.3573972408278658,3.926637593769529,9.895461432324591,-0.11872566848334835,-0.22270700170688973,-0.2703454167498659
1020,-0.37930625748783,3.8538084617260657,9.817947775085685,-0.0885005592392877,-0.21037041441279722,-0.2770503008220513
1040,-0.3968307480198659,3.787508617635026,9.734046460339899,-0.06533245056094754,-0.19520253881986854,-0.2817756166043398
1060,-0.42000332951851904,3.7160315406019695,9.636667694705093,-0.043996062637923376,-0.1815180982737887,-0.28619941299330426
1080,-0.4503710919515033,3.6605136445201434,9.547455775927368,-0.028419637407339073,-0.17559899539491497,-0.2884631132782174
1100,-0.4836198792665672,3.6134357608542964,9.462532644258557,-0.016801476657045965,-0.17254930992619985,-0.28736207925505314
1120,-0.5160075000434856,3.5789213891330607,9.384308993586568,-0.010128037832693492,-0.1680015801883996,-0.28223987314164706
1140,-0.5437611823465596,3.5580156933674787,9.312198121524712,-0.00849020229999293,-0.15885804063625672,-0.27360441164965643
1160,-0.5630701191832456,3.5499752668827522,9.24545720035296,-0.010903045754766708,-0.14782986047538388,-0.2630851309937444
1180,-0.5721534364339378,3.554169716037534,9.193341986168896,-0.015288074414146136,-0.14079782562526785,-0.25290339657990835
1200,-0.5714158091301981,3.5670811573669376,9.164445651231356,-0.017995716982732265,-0.14044874966420753,-0.24571998720717153
1220,-0.5738696059456978,3.5821239999254266,9.140101012031723,-0.017917824307998338,-0.14310818221498897,-0.2419666296884091
1240,-0.5855165556438413,3.5957040303989367,9.111481191623298,-0.019077873266502923,-0.1426460891297799,-0.2385942075602418
1260,-0.5977515898227806,3.612101112431253,9.085691912319065,-0.023430787810775303,-0.1377058556965466,-0.23267513076850288
1280,-0.5987321426277491,3.634374000606598,9.067362190677498,-0.029089198883325427,-0.1339669834351886,-0.22584450964996514
1300,-0.5912922963582711,3.663668253147435,9.060771116833681,-0.03408283658813093,-0.13636987187843075,-0.2204752829778835
1320,-0.5843406840176948,3.686671811456125,9.06501256829234,-0.035638517616093705,-0.14233549952641658,-0.218397400263889
1340,-0.5849933259965795,3.7066384490018205,9.06827456204934,-0.035020428988575505,-0.14772479758853982,-0.21756691956797955
1360,-0.5895561482303331,3.7222718248786886,9.061935946875133,-0.03510035258021842,-0.1479584330041878,-0.21644101108545988
1380,-0.5953081081185253,3.7354956542517876,9.054969409178463,-0.038320269200452346,-0.1417854343981579,-0.21396973346256548
1400,-0.6025911053606188,3.748230725468501,9.05681879626344,-0.042786337170932116,-0.13366664563042477,-0.21062330487143735
1420,-0.610384926811343,3.7615529361083517,9.065100004110569,-0.04530902069645469,-0.1283762749736988,-0.2065053590066974
1440,-0.6145798692274083,3.776001740120944,9.072342464385173,-0.04487944350039347,-0.12807418985545238,-0.2026430955156684
1460,-0.6173952787299057,3.7891169870971937,9.074769360814026,-0.04290523668426557,-0.1297275270228484,-0.1994779848187341
1480,-0.6188541345610521,3.8029005644287563,9.074338759014864,-0.04120243902103761,-0.1294191056439389,-0.1970649458355956
1500,-0.6214822822693372,3.8162437627894605,9.069958812455699,-0.04073998257602997,-0.12538595227240698,-0.19514771941822112
1520,-0.6279910637546379,3.828606119789004,9.064061354693283,-0.04120419677401135,-0.12067324732543144,-0.19296596588321735
1540,-0.6326451948766532,3.8418350856267858,9.064440647278666,-0.04131133574089831,-0.11771106825868122,-0.18992647360435605
1560,-0.6331084720073704,3.853444393997779,9.064090254923212,-0.03934591648558126,-0.11662416556137031,-0.187809681824001
1580,-0.6365134286687761,3.864157210431855,9.055731846982567,-0.03679940224906148,-0.11701486527813415,-0.18630902337077085
1600,-0.6441763104489726,3.8756565585130507,9.046310429185878,-0.03451635905171648,-0.11934550223721578,-0.18472317540478642
1620,-0.6494759422855266,3.8857173742782547,9.036513670400929,-0.03275518430974082,-0.12185581332754276,-0.1827969225488199
1640,-0.6521011201780528,3.895453110597806,9.025642172231095,-0.03224229084835748,-0.12206644636864353,-0.18085708729562439
1660,-0.6547948464076719,3.904773099539692,9.016879092964947,-0.03330568105396678,-0.11966222537927987,-0.17916419887778295
1680,-0.6588740792585033,3.9128633345054937,9.01474597705474,-0.034778653271259403,-0.11600246456002297,-0.17727300830437195
1700,-0.6614349128383389,3.918565270110922,9.013109245538262,-0.035424172627537553,-0.11294645869745819,-0.17513066205335245
1720,-0.663757238810583,3.925382755945479,9.013479479353093,-0.03555265205217107,-0.11177948202715594,-0.17265190632315353
1740,-0.6636491769678194,3.932689523674924,9.016337327761157,-0.03463542220896251,-0.11089307640409725,-0.17048170367318594
1760,-0.6645199559127134,3.9413619103393263,9.01380088162478,-0.03312035373766647,-0.10925266886744829,-0.16839799760025764
1780,-0.6658286003607347,3.9515261482421833,9.011647393201338,-0.032162798511596404,-0.1079178318187763,-0.16655669636406076
1800,-0.6663029120468599,3.960569558581754,9.009105195848617,-0.03096296753670535,-0.10587915257434519,-0.16505529090832904
1820,-0.668519098425109,3.969354453097854,9.002364427468821,-0.029941902441385157,-0.10401938119246906,-0.1636869373062513
1840,-0.6711048579810046,3.978906876136701,8.995843224967045,-0.029615220174553297,-0.1031575819466926,-0.16228046098780902
1860,-0.672773919126714,3.987241913152078,8.991885622620641,-0.02933740105009399,-0.10207103290787865,-0.16101904109404294
1880,-0.67471969935538,3.9941047998133112,8.989144025157328,-0.029217740823454207,-0.10091081534991324,-0.1599528682484777
1900,-0.6778028862993742,4.000280783055026,8.990416677778963,-0.028604929344255136,-0.10006514032526563,-0.15889973858637468
1920,-0.6830077332471183,4.0061722344606165,8.98841714678439,-0.027256209128476965,-0.09918784909365568,-0.1577059095203402
1940,-0.6876907768218296,4.012594158903309,8.983431716300407,-0.026362553554056225,-0.09825773349074085,-0.15610428568220042
1960,-0.6907463874583587,4.018705414098858,8.979691055399853,-0.0258524762436029,-0.09658481880438778,-0.15450007646006256
1980,-0.6949583183872147,4.0239882506706435,8.974378355959493,-0.025455853194821448,-0.09461579846945788,-0.15296380558225
