0,-1.3944336440828111,3.3120460510253906,9.709941864013672,-0.2560141616397434,-0.40233946839968365,0.11914325671063529
20,-1.0569080727941849,3.5846399840186622,10.701229488148408,-0.18285208222839763,-0.33240450874847527,0.13594031772192786
40,-0.8804092168807983,3.897559175491333,10.97704559326172,-0.05339613277465105,-0.2504067185521126,0.09971756648272276
60,-1.0061900159891914,4.192974967115066,10.932982865501852,0.06298902310321436,-0.27488022889284525,0.03049480287796434
80,-1.2760892737479437,4.327686417670477,10.80496004649571,0.1351323435304775,-0.36957836168862523,-0.00656640398803921
100,-1.4670932364463807,4.395531620979309,10.77519338607788,0.17571029564365745,-0.48361441388726234,-0.010494693631771952
120,-1.4817738800213254,4.370167534926842,10.874710576287631,0.223984405574999,-0.5431880417825847,-0.0075079125777721915
140,-1.489702222925244,4.286577094684947,10.876147082357695,0.2888497707264667,-0.5545862038252931,-0.015453984075451664
160,-1.514623369719531,4.1538055297490715,10.720237396858835,0.3496878426396162,-0.5436469575239194,-0.02713066970337988
180,-1.5217137016901157,3.9602525786655707,10.418978022366035,0.38793097521610015,-0.5285545403092373,-0.04021843019929692
200,-1.5067334691683452,3.698868315087424,10.072441392474705,0.40022424172817006,-0.5093393631279468,-0.05389711862274756
220,-1.521326251175939,3.4150047233822396,9.72651692312591,0.40030347368660935,-0.48816330677696634,-0.06394575100287567
240,-1.571584775762738,3.1651766015181564,9.345185896135726,0.3940746307214898,-0.4665255592257347,-0.063915294242522
260,-1.6099994297613178,2.955580275963273,8.93098623501627,0.37562847108857933,-0.44327116443922643,-0.05424099337011412
280,-1.5986658722404543,2.7250260733431433,8.447175872035142,0.33148928208473494,-0.41642896185924366,-0.04264991784873381
300,-1.5670741468895482,2.5250088623404956,8.05351865200596,0.26930125402499927,-0.39040019408575766,-0.03689178431900716
320,-1.544839357300628,2.337745922155303,7.698385732637035,0.1941771487229698,-0.3670839838802533,-0.03285405818262412
340,-1.5197219803725204,2.183700157431503,7.426726256331352,0.12142426809551168,-0.3548521003199499,-0.028571764223296707
360,-1.5253339248318827,2.007644518032189,7.113610086133403,0.020675463571904168,-0.3472969562498732,-0.01665439291992375
380,-1.5012512041564368,1.8983542693270359,6.909411268000222,-0.08439915994627893,-0.35237364769996105,0.0076827237423955025
400,-1.3847975528292489,1.8304112582271428,6.866927488505492,-0.2012340906321218,-0.3676996121029179,0.03141533584559979
420,-1.259673289704922,1.8117587587109367,7.04922518517052,-0.3149158936878406,-0.3845717448854361,0.0419871239050151
440,-1.1929759316265902,1.8380430861037562,7.400252078306229,-0.40274668080025017,-0.4028770564800069,0.046866380804427524
460,-1.1317266129530392,1.8989680773865145,7.8337285127395235,-0.4601262186343471,-0.43923209429634974,0.05664156443284204
480,-1.0243133252183791,2.0072624126169374,8.330232240883587,-0.4952856721172999,-0.4816032869556662,0.07056854655243584
500,-0.8294032499970982,2.140875131097044,8.86495518458398,-0.5112093496864653,-0.5000140846136436,0.08022094186962586
520,-0.5603692801161246,2.3020928703185,9.43494034355337,-0.5089156944517336,-0.49476518578663653,0.07404527578930281
540,-0.35492510636124697,2.4320584008114805,9.87861561879777,-0.48203102535090264,-0.4836459153780117,0.044986691330498284
560,-0.21630275135828278,2.525142267151041,10.219325507091263,-0.4374144524010293,-0.47436023886873924,0.00305090384149403
580,-0.1608982077631794,2.5631028976173096,10.453907330505183,-0.3840209262466562,-0.45909322683888365,-0.04657153058062369
600,-0.1850437820844707,2.5456397571796847,10.619897215139298,-0.3278182174646414,-0.4400758354953261,-0.09385285094437662
620,-0.27166892344561905,2.482916854001367,10.730867045659286,-0.2683916515733402,-0.4223065914599619,-0.13101967738968176
640,-0.3802361787199529,2.3867443042908056,10.770975231234708,-0.20893953470843357,-0.4069834390890597,-0.15382039263008732
660,-0.4814336581452601,2.2747306399590648,10.754037311975507,-0.15332760173149165,-0.3932375336024553,-0.1637068566274863
680,-0.5486618923416859,2.156057393803051,10.692430214982638,-0.10209779522601437,-0.37955336840815096,-0.1623818170649006
700,-0.5727541821000919,2.039621686200892,10.578194757846937,-0.055145312431555446,-0.3629325487063273,-0.15451890554507136
720,-0.5627338136360049,1.9351279635432486,10.409138522942861,-0.016476022575516253,-0.3426921042439062,-0.14656224693132874
740,-0.5513210785091407,1.8414590563095936,10.204665432115654,0.011044988022397527,-0.3179485181164353,-0.14291509152533693
760,-0.5563094192698645,1.742924540125903,9.950951472065801,0.027476672330659695,-0.28897796845179613,-0.139204932499768
780,-0.5646056138380215,1.6614066966866645,9.726756898439847,0.03015318285817137,-0.2706628640923792,-0.13203570310850268
800,-0.5589817602791496,1.5867688340112545,9.521907599838647,0.02165017301474024,-0.2649392759096711,-0.12006376276468136
820,-0.5265110032114029,1.5263228354568639,9.360101943491491,0.003933759989309783,-0.2670801097149565,-0.10372865951621407
840,-0.46096922334998763,1.4794633320377963,9.238654410258405,-0.018879757656376905,-0.2682528801987556,-0.08558610329280386
860,-0.359105354613241,1.4361396446284063,9.145298604203873,-0.04249848680132452,-0.263376865859133,-0.0718089601736521
880,-0.2525991152563732,1.4014080092540546,9.049302806919568,-0.06705626208615834,-0.2554312452874848,-0.06545197990219019
900,-0.14941583946846607,1.371299633298109,8.955190294549547,-0.09543998863163526,-0.24890171584389834,-0.06586636953404168
920,-0.05852397284384944,1.340858971316299,8.883624417575325,-0.12765191084878846,-0.2476959136578076,-0.07231663166468333
940,0.01216595949830157,1.322666524307309,8.844394988143351,-0.16092138953990565,-0.2519550299326408,-0.0801980688034947
960,0.08173230491691182,1.3283490759287715,8.85418849417785,-0.19420643394897394,-0.26272521755143163,-0.08867284155395633
980,0.16083887122387502,1.3470773158238534,8.920992776199624,-0.22469566435104718,-0.27800432564776945,-0.10361866468052024
1000,0.18770243002074785,1.3850502682757533,9.050975880473132,-0.2541978377230231,-0.2997649264843023,-0.1274839459965118
1020,0.14396224369987917,1.4459562163206339,9.214185364720946,-0.27497577052938604,-0.3219417609355492,-0.14449598130817476
1040,0.08847090918570757,1.5277551781288674,9.421806719414024,-0.29209320857189597,-0.3404233900935736,-0.15436450980230082
1060,0.06406403919384224,1.5967453764443238,9.684311098431888,-0.30232023519302237,-0.3491800084822284,-0.16276714983943757
1080,0.048147410668031784,1.646291393067295,9.969918993289161,-0.2989398045350501,-0.3489964734655888,-0.17406294914980464
1100,0.02102763732148556,1.6733063204687844,10.215381233965248,-0.2797077533918215,-0.3409038348436778,-0.185368931527908
1120,-0.004375319093369044,1.682029550208698,10.377651175637267,-0.24982504199210603,-0.3258490458156539,-0.19284316022488293
1140,-0.013829966448247433,1.6783889968334598,10.460232958134185,-0.2163041819372472,-0.30825942389127065,-0.19713007049174344
1160,-0.008457728279715552,1.6649795731979669,10.490005611126392,-0.18263840769752704,-0.2928787586042973,-0.20023385010572992
1180,0.005893914768694605,1.6431116009190478,10.48348387793749,-0.150854712843688,-0.282384969130946,-0.20361135890031878
1200,0.01859776197220029,1.6166188634002603,10.454386749972215,-0.12392483519763509,-0.27460094944546604,-0.20738083916704023
1220,0.027203986231994583,1.59262126650331,10.417133121613963,-0.1025207092052333,-0.2650045244247222,-0.21031292675566707
1240,0.03711108532014308,1.569229990815281,10.379124569799568,-0.08088877704632405,-0.2503426106381932,-0.21217033683268605
1260,0.05052153003511516,1.5455583189021946,10.34102102626036,-0.06073109786293554,-0.2382088886313266,-0.2136815378300196
1280,0.06205236649872343,1.5226962241216915,10.285850364976408,-0.03987960837714275,-0.2285053549523057,-0.21619797280951591
1300,0.06654125405736616,1.504099193188388,10.21090431413918,-0.021416867956971734,-0.22157996053672527,-0.2197103877140592
1320,0.06202350857000434,1.49010800146352,10.125984216702358,-0.007133388779474282,-0.21630546640459805,-0.22329096473443868
1340,0.0485871660940606,1.479965656347566,10.038279251913842,0.0025467670796449193,-0.21184629893345341,-0.22539007146492052
1360,0.031799346538450506,1.4761461471090815,9.952870402011973,0.007454398192285372,-0.20766245287677276,-0.22422186881016393
1380,0.023662961148895073,1.4793280209086153,9.880811892068786,0.008666085009504195,-0.20391324276619507,-0.22027598651486566
1400,0.027990488536331966,1.4867782084328,9.822796065911003,0.009121528163390315,-0.20037303229854644,-0.21654087122104576
1420,0.030210932013842295,1.4984442420426827,9.767925299052308,0.009199029677763173,-0.1982994755064289,-0.2151456841754473
1440,0.022061735798184035,1.5095675049606527,9.71618534526244,0.0072872010158144835,-0.19856579520470935,-0.2148255947352877
1460,0.008236626704193914,1.5177787227411514,9.674247980316812,0.002610335841336488,-0.20127297534264518,-0.21338298984353146
1480,-0.0029750343080751193,1.5242899292489265,9.644392893184744,-0.0043238626990185,-0.20551020311459414,-0.20964606075806166
1500,-0.006449030100451252,1.5308809758694009,9.630775056040385,-0.012356842797234412,-0.20955318539021006,-0.2039442432020238
1520,0.0037153494180156253,1.540166507308664,9.628378088466633,-0.022038236902564023,-0.21254799168169625,-0.19695223886008487
1540,0.014142380755766636,1.5552217542376847,9.639836353469764,-0.02878752541831634,-0.21064964146408652,-0.19198167285304105
1560,0.02510460181357062,1.572871989255016,9.658923022064245,-0.03353769228143649,-0.20561673170985312,-0.18699106020420783
1580,0.03863817040325591,1.590766129809012,9.67494052262218,-0.036889037068855636,-0.19980713669343617,-0.1821669968968634
1600,0.049341059740604334,1.6058917476482804,9.686059059077547,-0.03909892398643641,-0.1957538476144497,-0.17853433921104936
1620,0.0632732436145061,1.6271417156676762,9.701366071061916,-0.04157219429714998,-0.19049386847893993,-0.17436387933175646
1640,0.0750795875182597,1.6452359310136497,9.715625231996889,-0.042940839501776885,-0.1854709105157651,-0.17110576028460942
1660,0.08559377395876629,1.6635313319377876,9.728513389299897,-0.04283134144052918,-0.18031235623793157,-0.16825876458024142
1680,0.0957590106002943,1.680684144890916,9.737446632322877,-0.04138816424224493,-0.17538370113555196,-0.16594557967060652
1700,0.1038185943041168,1.6952540879198028,9.743965314551332,-0.03917232771362606,-0.17097700592254197,-0.16445161289272525
1720,0.10855834631365724,1.707063855223003,9.749356063760139,-0.03652400319970572,-0.167637557464461,-0.16359363576303904
1740,0.1102650883068655,1.7166034151921625,9.752015369494309,-0.03215580800936683,-0.1638596036912562,-0.16228853658955475
1760,0.11075635140296072,1.7254519814838811,9.748581460946136,-0.02817896458663098,-0.1599098265120928,-0.1602362268622124
1780,0.11074991790055819,1.7344942768776002,9.738452486775733,-0.024788501201988104,-0.15425361369005378,-0.1572537498034033
1800,0.10894735953795885,1.7443748056166046,9.723812243050855,-0.022492139691641332,-0.14767536071003237,-0.15369926631098244
1820,0.10693247510766189,1.7549313250334522,9.708244263324687,-0.02142497128587947,-0.14141468779369812,-0.1499269869576286
1840,0.10482743210165427,1.767378183752719,9.687704915069489,-0.022882753275990347,-0.13655018262768592,-0.1455819864352611
1860,0.10461924041764573,1.7777151288801214,9.666110396385193,-0.028724549514756743,-0.1352581098682153,-0.14157606388332686
1880,0.10558641731729355,1.7873449156209777,9.648204216721464,-0.03907156769357021,-0.13574180865653648,-0.13787026896328583
1900,0.10509111800445592,1.7952043848691155,9.637756266495742,-0.050994649104901216,-0.1370675209935181,-0.1347752309027164
1920,0.1052649257467336,1.800444571190413,9.635978585595538,-0.0678124510158138,-0.1393231141174829,-0.13053532422321498
1940,0.11047292246000576,1.802347413190813,9.642506083353771,-0.08157065405315411,-0.14051485078806858,-0.12664670777324502
1960,0.11903935211237412,1.8018321764385665,9.657370980312761,-0.09149384539319753,-0.13976570547104333,-0.12356589160805519
1980,0.12695676311090753,1.799917946603582,9.678970038522454,-0.09530454649122568,-0.13686002768781635,-0.12175809024393959
