0,-1.52695808145735,3.029433700773451,7.867905722724067,-0.7500010331471761,-0.0075997027775479686,-0.1748095883263482
20,-1.4527907371520996,2.8700787880841423,8.627706078922047,-0.7152963105370017,-0.0543391680728425,-0.12533152673174353
40,-1.4287729167938232,2.7782227611541748,8.913496742248535,-0.6062470412254334,-0.07395636813715101,-0.08248570866882801
60,-1.4185773965084192,2.7724166494427305,8.766497669797955,-0.5236967783985715,-0.08963062649479869,-0.03886622692825216
80,-1.3617397404852367,2.840151133991423,8.539043381100608,-0.5052056695733752,-0.11949493781486083,-0.001519844335104738
100,-1.269839415550232,2.9783506107330324,8.402207908630372,-0.5440568733215332,-0.15043174811638893,0.01578454028815031
120,-1.1877645690893304,3.172079612468851,8.43203828252595,-0.6199712814955876,-0.1836430266708264,0.024954208494003476
140,-1.0640419086610728,3.406080795056892,8.88407132842324,-0.6844306254025662,-0.23068136163761443,0.027841624041849918
160,-0.9954219482134323,3.695321102400084,9.54615990535633,-0.6795806610906446,-0.2823333885784991,0.02627553975184423
180,-0.9331814344608929,3.9452983053719124,10.21335680310319,-0.609325345628327,-0.35360446286660324,0.02673634433005823
200,-0.8472515047269149,4.11262125439114,10.770350069469876,-0.5031317591046294,-0.4273496317004578,0.024434312526136637
220,-0.7534047510256344,4.210444499035271,11.178680804311012,-0.3859866060202523,-0.4723366462882152,0.019111233487801284
240,-0.6497281597760277,4.243568078526911,11.424334008738679,-0.2719919225552453,-0.4879666466028693,0.011632011509236862
260,-0.5614430265738057,4.216242972173188,11.54311224033958,-0.1634513081721308,-0.4958523752764194,-0.005272595857253723
280,-0.5124173742431269,4.113008095966122,11.557936362134733,-0.04322387964078566,-0.5047767603641179,-0.032881738050136625
300,-0.5297929720974435,3.9608505509281886,11.464794439213877,0.0598427226041792,-0.5167724090088016,-0.0574093746192014
320,-0.5833509730731251,3.7597672865330742,11.284677759348916,0.15392712341527715,-0.5319740322297908,-0.07538142850582334
340,-0.633067234758237,3.52944429842185,11.025432152002036,0.22991200170295983,-0.5367163192943296,-0.08569056664270405
360,-0.6715326054592526,3.278179251426651,10.695014253739387,0.2795004960389868,-0.5176157327819495,-0.08882572849791857
380,-0.7113061411209131,3.047375955144686,10.321006510155332,0.3008574770614962,-0.4780096937730863,-0.08190564780590336
400,-0.7319236062385404,2.858673017668097,9.945774221977992,0.2997705420882207,-0.42874695660481066,-0.06380613267146683
420,-0.6894980584656268,2.6987990997107336,9.602423131132925,0.28307852727574345,-0.3841048108970528,-0.04311397876889658
440,-0.6060552401542862,2.556933199697956,9.302947865450445,0.25870299231719207,-0.35419984961944545,-0.035175323916504526
460,-0.5603854704863177,2.430465917289257,9.022026675786728,0.22902361112527359,-0.34064623272667327,-0.04079140294044732
480,-0.5849982978422837,2.338034677131129,8.757631151546986,0.1886956608427569,-0.3377010328511666,-0.043587668830404984
500,-0.6198447058308357,2.2782879597838455,8.516735220407423,0.13246808843731314,-0.3360898679263572,-0.028213858868710483
520,-0.5796383001354777,2.2556948026811536,8.314332431012934,0.04695578044788404,-0.33354883473789826,0.010084409622835334
540,-0.43320443230607597,2.2955422750755883,8.25891007247724,-0.03922881483378118,-0.3289095991609716,0.04729406092889819
560,-0.20300836379095216,2.400560647154511,8.341609819460723,-0.11545377171014325,-0.3267605548006309,0.0639098938401607
580,0.02002393126632774,2.5466518513552967,8.516572020092948,-0.17291925001706257,-0.3278718225115941,0.04946032069579576
600,0.16863979330278991,2.6941309650798164,8.767482581592741,-0.21322163995651025,-0.3383033477427763,0.014195942224302729
620,0.22492918809696746,2.824612453723183,9.094663317386921,-0.23682465218007565,-0.36195366092097875,-0.023628503993565503
640,0.23640988413209735,2.930860586492206,9.471391106719402,-0.23794577024536512,-0.39024573816473024,-0.05093698892281947
660,0.25597206019101315,3.0191999236796647,9.826609360998955,-0.21479414758252222,-0.4100699673804954,-0.068970084399157
680,0.2849398692069628,3.1017022144679034,10.111351239849144,-0.17619705691927073,-0.4129446589774911,-0.08644859471094375
700,0.2997219415735581,3.1626398231936235,10.318466367786877,-0.13218323650214922,-0.39781135730509176,-0.10664308152108913
720,0.290962950194565,3.1915712224692108,10.459258310000102,-0.0843116544544076,-0.37665504407448075,-0.12571791866755425
740,0.2688312636655198,3.189980122963009,10.544860650034783,-0.024160901981203978,-0.3629410670750735,-0.14239434516290955
760,0.25131839918478005,3.1657777418520547,10.550945454967511,0.03263036546088779,-0.36118296430408015,-0.1542092777890732
780,0.23618578067622506,3.125183734091429,10.49714260688195,0.08511799676057238,-0.36152230576826977,-0.16516230600921866
800,0.2254339183635965,3.070559007291858,10.402325454058948,0.12805231386661395,-0.3540909853358348,-0.17573941487213457
820,0.21514199784432145,3.018063848334087,10.310849184131904,0.15359337079671148,-0.34206855456429947,-0.18313331237704297
840,0.18973496334659293,2.9316275492964317,10.131001673318595,0.1859246773450478,-0.31666808740841623,-0.1916646909520409
860,0.1744808684082321,2.870763105965097,9.970352683748517,0.20506260100705156,-0.29804037282822515,-0.19486453711265223
880,0.16715268362441088,2.8160575162479016,9.801785170868651,0.21902320214662038,-0.28476607457619824,-0.19716967539702326
900,0.1601645283977783,2.7603853294193925,9.62647641855654,0.22638891770282196,-0.277474611780379,-0.19924741655297268
920,0.1477997399844581,2.705353824232321,9.451891548677379,0.22515386396657255,-0.27605053577376554,-0.19962462868383815
940,0.1311411760917417,2.6533000218504825,9.284438292594066,0.21531604723478154,-0.27536143548547226,-0.19523782038834941
960,0.1251925610988788,2.6076635868307343,9.127679230884581,0.19778192665320013,-0.2739313461604324,-0.18436789522926916
980,0.14550628990113845,2.5654435612713193,8.966481580229228,0.17136562346673473,-0.27258631864360766,-0.16769703307843956
1000,0.18244958596848454,2.532796891974195,8.83179109338401,0.14336896006463337,-0.2716455377732822,-0.1528575704992605
1020,0.22476861865912956,2.504986215948891,8.709301606738737,0.11091940838433095,-0.27129074470559356,-0.14045014330356986
1040,0.25167757366177473,2.4842146140035934,8.606308107043422,0.07432370884885449,-0.27352932301934724,-0.13282242471888273
1060,0.24574651121646676,2.4598382636405036,8.529747591715426,0.03551638676555292,-0.28519203059894105,-0.12805259761003965
1080,0.21926780537735555,2.423641722951076,8.481516317401766,-0.004284841539922918,-0.3110323784718365,-0.12030227895749883
1100,0.1960750864685353,2.392128722833486,8.465529237024585,-0.04653968784387843,-0.3411511118310434,-0.10725827153237734
1120,0.19325008957638723,2.3746256723010193,8.495653039965278,-0.09358670902075608,-0.3592455552112779,-0.09354770724592101
1140,0.18958363816379867,2.3568623784226066,8.587317412964842,-0.14291921011568542,-0.36146580521611776,-0.08395864924668592
1160,0.1562274300832317,2.334973779854766,8.730918807464663,-0.1871639349932342,-0.3577193536008533,-0.07484433640191082
1180,0.09771876711421311,2.3206707431774136,8.934475660813662,-0.22581680496251957,-0.35254503428186357,-0.056889456025328584
1200,0.0666928282101648,2.320014387114218,9.132040516053788,-0.25083484066499756,-0.34187389364974063,-0.033885249096401636
1220,0.07046023830697384,2.3296732081787264,9.33850056608439,-0.26877243755474156,-0.3242801815886088,-0.0075539801911789755
1240,0.09942846553155937,2.349668924517222,9.540680229313919,-0.276444265820312,-0.30349120287381387,0.018153996507768427
1260,0.1407846975712705,2.3696111933784003,9.705828601454954,-0.2729806347789605,-0.28333285507999056,0.040402168375960335
1280,0.18684788612716,2.3815039022352043,9.819816820083126,-0.26360857168891144,-0.2651731888153917,0.059596726186865095
1300,0.25166060263378043,2.393381167280653,9.905362490181611,-0.2536128132029602,-0.24639876228278484,0.0783227723407359
1320,0.3452180392017955,2.4073519951931472,9.979477830574218,-0.24185855166890538,-0.2262059189413518,0.09344249492460556
1340,0.45458428685075036,2.4224819418071633,10.03937462410347,-0.22698205237795757,-0.20686527069475494,0.10128594965385797
1360,0.57109436010592,2.4295181950199383,10.085689032013812,-0.20879054393649288,-0.18930449409740235,0.10123080819739405
1380,0.6795604206536234,2.426192901267241,10.113445607442705,-0.18773434174738207,-0.1737310060610374,0.09442115415604638
1400,0.7719710589135471,2.414904540454078,10.121836140674093,-0.16503718525414235,-0.16051945908885934,0.08286556945729029
1420,0.8566624316712204,2.394125598483585,10.109828988983207,-0.13937802780148484,-0.1489630810986592,0.06569891828227922
1440,0.9096049502674749,2.3723905441404813,10.088154999334396,-0.12053639053677519,-0.1427001371166579,0.0499050954781085
1460,0.9620873680369307,2.340780418528399,10.048767910003662,-0.09890724146350598,-0.13794213860916596,0.026934189071762375
1480,0.9936337685365672,2.3099176493530025,10.01248987489625,-0.08309172450696535,-0.1361962712100266,0.003967818334020099
1500,1.0065614314683313,2.276333965434445,9.981936388975614,-0.06916643799110256,-0.13571319608138754,-0.020461649989048564
1520,0.9966198669370407,2.2402107808507608,9.954638110521513,-0.055771478991328664,-0.13590574727799648,-0.044067636446972105
1540,0.9698010496470982,2.203213421628616,9.925491903401628,-0.04267602153579245,-0.13634709969068629,-0.06424177195593167
1560,0.9327179413434351,2.169131856528838,9.892426516115666,-0.030820915419462837,-0.13736997167579829,-0.08002749991555902
1580,0.8885005385195262,2.139565653386842,9.858100397351347,-0.02110136975462399,-0.13884268227366753,-0.0916440692300158
1600,0.8426964192270733,2.113590219541504,9.822866347504824,-0.01378351653480289,-0.13956009489824858,-0.09920178883458436
1620,0.7981907887053283,2.0919991492255905,9.786302709435843,-0.009329222672175706,-0.13868879494313374,-0.10363588547625113
1640,0.7534475142186109,2.076546171265017,9.751657456159592,-0.007514949513105897,-0.13697429807888556,-0.10576333751236061
1660,0.7029540864518254,2.066842152886831,9.720136188025341,-0.007359237754074707,-0.1358143736081124,-0.10526907645838086
1680,0.6655929867307965,2.0638047526225565,9.69969742460763,-0.0078042024869542075,-0.1355067483025788,-0.10218119167628818
1700,0.6412604913954627,2.066520524531245,9.685871739298575,-0.008426176478292585,-0.1353116412837475,-0.09813178603759856
1720,0.6283104676436236,2.074793615604995,9.675974439391007,-0.008993992902312084,-0.13407458545514614,-0.09513830837929053
1740,0.6168200052140848,2.084594183041731,9.666715764397491,-0.009850120263991858,-0.13224674899328295,-0.09426932549936799
1760,0.5993461870457899,2.093207295684999,9.659237087186266,-0.011478440529290954,-0.13130754940747832,-0.0941805297432302
1780,0.5789048256702588,2.101105712758523,9.658204138197199,-0.013372043835635415,-0.13183634931033808,-0.09314385859569757
1800,0.5623129113239907,2.1080072374421763,9.661470204227815,-0.014461363192516273,-0.13224887719985698,-0.09081075995357447
1820,0.5495557376927377,2.115872859180399,9.664138902113741,-0.014592142906289973,-0.13123552923515788,-0.08756259570551424
1840,0.5418151432245099,2.12542884206711,9.664848870331864,-0.014092019705317054,-0.12854678795059493,-0.08405948463709256
1860,0.5377180983438481,2.136779235502761,9.661798744727998,-0.013458929837861254,-0.12524056317910073,-0.08108846802872076
1880,0.534852418774843,2.1489399287356754,9.657771850283341,-0.012974767612053567,-0.12315289377203388,-0.0793096387278354
1900,0.5282772976431067,2.1602584523774904,9.652286220025895,-0.012426839755359645,-0.12293074582553777,-0.07839571125610853
1920,0.5197923886672648,2.1678157585510704,9.647358472717324,-0.012192021723026197,-0.12400181925086584,-0.07753050162171964
1940,0.5126367568974418,2.1737970367727346,9.643169503368119,-0.012512009121097569,-0.12493995295500884,-0.07612393266548959
1960,0.5092850954851317,2.1790915892843827,9.641680109233333,-0.01296242349664971,-0.12421896980124342,-0.07431639696833123
1980,0.507909741786734,2.1850739839871953,9.639202992121378,-0.012908790108279245,-0.12181635357606237,-0.07266950410730377
