0,-2.7606592973073325,3.544895145628187,8.909472889370388,-0.22518382635381487,-0.17130667053990895,-0.28292615214983624
20,-3.2899116908802704,3.4693972503437713,9.628965097315172,-0.22024392468087814,-0.17714473692809835,-0.2502824103131014
40,-3.782310791015625,3.3972874450683594,9.962898483276367,-0.1337131179496646,-0.0995646608620882,-0.16724316596984865
60,-4.115911666084738,3.3304156766218296,9.835077692480649,-0.04854835709556937,0.01601277373950271,-0.04075429237940732
80,-4.1284435873939875,3.309803077152797,9.495283422015962,-0.02341766378265761,0.09979045315689984,0.0727791775550161
100,-3.956476616859436,3.327304968833923,9.247074995040894,-0.02067790487781167,0.16540922041982412,0.15434951812028885
120,-3.7295823631615472,3.343860334363477,8.997593246657273,-0.03920946548018476,0.25335120534973926,0.19481230321629295
140,-3.531565294121251,3.336008324767604,8.769654693025531,-0.07586118755297679,0.3553213404604431,0.21183538504622199
160,-3.3617984185347685,3.3146748027286015,8.596016742087699,-0.11968185849538124,0.44134035623456175,0.22429247905273694
180,-3.154007178254244,3.2827248951283896,8.489147081607726,-0.16164903012217907,0.4964409310416114,0.24151595100397016
200,-2.8645765212105796,3.2745240635342068,8.402473979526096,-0.20374833872127865,0.5297675390831298,0.2502919688820839
220,-2.555632567551101,3.2916856566253974,8.382055477220185,-0.2498823823692391,0.5614086693456891,0.23538961963804098
240,-2.3023594730524874,3.3058501212102063,8.416211955952194,-0.2914848164303826,0.5916002201408429,0.19954708038460253
260,-2.107848362462072,3.3171021980151796,8.506647544994689,-0.32330963692807574,0.5948941291783724,0.16335268438744702
280,-1.92461420719695,3.361488588520738,8.652734787737737,-0.3373785881004983,0.5668852112454469,0.13589110423154274
300,-1.7222586068002363,3.4309577501737154,8.822294323260968,-0.3347449135106917,0.5165769222264106,0.10123051533188958
320,-1.558089488718605,3.5307069407950205,9.035564793099603,-0.3193971463244596,0.43748940650722107,0.04557934930722276
340,-1.4887898136722242,3.6332936741056896,9.279902743644454,-0.2947593669780866,0.35844861351105634,-0.005249634568839251
360,-1.4580570403756874,3.743879247480823,9.548402466312531,-0.25632162419778687,0.2846700401556107,-0.05329904564085507
380,-1.4726431982426054,3.847474153787812,9.818889904607293,-0.2033350162230935,0.21520895922293692,-0.09845531688991682
400,-1.5481770971152735,3.950591893223991,10.068214355156435,-0.1338358428982789,0.1394577579278695,-0.13484505017707396
420,-1.6662914152049029,4.052119004659812,10.263502078349363,-0.049472718421557094,0.05577220284905514,-0.1576031796769473
440,-1.787786090928304,4.142858859689478,10.396754621821929,0.03997397854087506,-0.02715891802852804,-0.17002869248489805
460,-1.8869438463416046,4.206563357817821,10.49044392414582,0.1287024857237553,-0.09769143060995983,-0.17742491126156007
480,-1.9950867426040322,4.24334948873285,10.541826398501842,0.21524704545919826,-0.15013868919587486,-0.18310469365564033
500,-2.120716097100386,4.247765956896742,10.543296411704112,0.2990533349444092,-0.18696167722556264,-0.1852993503151135
520,-2.2572567820927496,4.220626080961532,10.490689064269741,0.37785069624889117,-0.21203479085746965,-0.180484843185197
540,-2.3937590853004767,4.163762638443394,10.360613339825681,0.45514169845958813,-0.2287632013556727,-0.1642978988187551
560,-2.4854316104112697,4.103368868262081,10.204650949623625,0.5097418062594103,-0.23545800701920258,-0.14267636413717547
580,-2.557576669908709,4.036874300632321,10.021832058664229,0.5515212860095818,-0.23446870073065407,-0.11792779757763397
600,-2.6289617162704144,3.9548807120512404,9.801722400718266,0.5779854039188533,-0.22482775263710036,-0.08883243285873461
620,-2.69241657613311,3.8574094080007995,9.550776396347926,0.5843509121654699,-0.20987197297911805,-0.05228228598761444
640,-2.72880313991145,3.763424823310838,9.333007242697388,0.5714796192695581,-0.1953420287046804,-0.007971107358557742
660,-2.7195708137359875,3.6776914875144544,9.17772392043169,0.5529474630467661,-0.18450861402274366,0.03876762992729419
680,-2.664838822173204,3.593204102150991,9.03154314529728,0.5365884022132992,-0.17296708033839897,0.07936045206414247
700,-2.594651069378876,3.502970478204015,8.850713039914222,0.5145134272234042,-0.15228269907186598,0.11056948416509142
720,-2.5224905498341346,3.410028952633341,8.655944247245788,0.47661949014679217,-0.12203996315288047,0.13680993888837595
740,-2.440828260229356,3.3209513296001263,8.494691410622039,0.4228526200568485,-0.09027797268860817,0.16035221433932229
760,-2.3472253376090473,3.238650139571533,8.37756646584861,0.3613408869581851,-0.05929321102220329,0.1809815345125721
780,-2.2227919176464472,3.162774495261793,8.274225403712347,0.28904280567183516,-0.02502072714555722,0.19760171371297194
800,-2.1080559940949954,3.1105335459599757,8.192973789868054,0.22159863069622746,0.0041404710635095385,0.19990096248227646
820,-2.0237213449670093,3.0727048356419218,8.137419850245948,0.14762539576938447,0.03118521748848063,0.18973713512109083
840,-1.9790616719689977,3.0330487447937573,8.143025582704299,0.07044586663956308,0.052107881896069706,0.17217035495267813
860,-1.9873698383207101,3.002891716427308,8.211475763668199,-0.00216610445014882,0.06330067366205093,0.15619952740612067
880,-2.031731232328417,2.9987351851180604,8.33237829208374,-0.06682036628449106,0.06626725176680986,0.1504125633851102
900,-2.0767131648550743,3.0285055364978977,8.507417946015222,-0.12242818856674269,0.06532817260342233,0.15459829872229383
920,-2.0997470180244915,3.0816610744223,8.716079913412178,-0.16510963990607266,0.06890068351159122,0.16148810397364258
940,-2.1186788006284822,3.1369819004429487,8.888115382686104,-0.19367434579060538,0.08170233629751932,0.16617082358702787
960,-2.1505948996713258,3.2207644894902105,9.111125240998545,-0.22318837162217486,0.10919374431441221,0.17540872314480374
980,-2.1634655773835143,3.2980070869932754,9.325774752063516,-0.23690964118922475,0.138570874205641,0.18637807479381194
1000,-2.153389398559937,3.3651359655012625,9.505832922660698,-0.2345846493544675,0.17170935026121936,0.19728228088793037
1020,-2.137492584198122,3.423737321638224,9.62808675562601,-0.2212349577995582,0.20734141909426865,0.20912238736350036
1040,-2.100710700141526,3.45870912151931,9.706680381020835,-0.20527908543157283,0.23343850271397293,0.2220993466826892
1060,-2.0307087040937946,3.4813688249820545,9.768000079072229,-0.18755505986893187,0.25305333761956533,0.23234562217566937
1080,-1.9753073017979061,3.4852185143771712,9.792029653122947,-0.1699732433490531,0.2674556481625683,0.23685583734409738
1100,-1.8615474666803173,3.4765345353842405,9.811023830842341,-0.13682398466867218,0.2863092831554433,0.23536072132107905
1120,-1.7864409904469418,3.452944388836864,9.812037729081654,-0.11290335027224815,0.29262984251589375,0.22977771232654523
1140,-1.7149257743622157,3.4175809098744487,9.799773164505654,-0.08887229540553737,0.2926076972208164,0.22045915034857202
1160,-1.6506545391551386,3.3746377792751034,9.770828308919484,-0.06609245814591506,0.2876956595666122,0.20735524996928092
1180,-1.5936637981938497,3.3278847089087122,9.731230873139307,-0.04567581505003029,0.2782711038378416,0.19119872536065646
1200,-1.5424847532872503,3.278941869560388,9.686201165079588,-0.0284035412556028,0.2618458937058934,0.17311689013290985
1220,-1.4935809920042886,3.232847119445924,9.647673421646969,-0.01509508090715232,0.23582630708444477,0.15538006590538292
1240,-1.4358869109844057,3.2060501472587077,9.629174084112835,-0.0035125858541359346,0.19737316507694846,0.13691288999731993
1260,-1.3821616703384199,3.208767932710491,9.63700062139875,0.007154653375063932,0.16045137430246928,0.1164039973750969
1280,-1.3486959925902198,3.218656432673519,9.652247239787846,0.020309761723687262,0.12174583363622442,0.08763584542659021
1300,-1.3447134793513713,3.2227960430362255,9.661329117932715,0.02873790047623399,0.09718235923875389,0.06648870952483407
1320,-1.3793945706168165,3.225010820492951,9.696093632151848,0.04615942490866844,0.048128980519352944,0.019350323091993454
1340,-1.4355252103486222,3.220623325284388,9.732786023681696,0.059625218835779335,0.019217779329587483,-0.011494230796767233
1360,-1.5091879831265478,3.211121502395699,9.76940504510842,0.07460839053980793,-0.004925002138611856,-0.03688902028024943
1380,-1.5852326538021195,3.200848699645903,9.79758601802577,0.09123446782385665,-0.024251325840682344,-0.055079797299240424
1400,-1.6496478643244052,3.192602823485175,9.808084400840428,0.10855487633537016,-0.037471783057098154,-0.06775857959104621
1420,-1.700484473610498,3.1834904959227246,9.798037641044342,0.12452013656939499,-0.04351756937672443,-0.07712201038008079
1440,-1.7433392431361636,3.1764849559301527,9.770869603616937,0.13774329773623137,-0.043967912160726846,-0.08419965358857576
1460,-1.7814827704303067,3.17225348370271,9.73250413617626,0.1485467456294401,-0.04278254224872139,-0.08870696033878199
1480,-1.8126865845960696,3.169692087389185,9.68600389631419,0.15719813998839227,-0.04316313557988079,-0.09069378715763375
1500,-1.8375408388378962,3.166901358918143,9.641593539230223,0.1635432942781779,-0.04548074952553867,-0.08999434327933846
1520,-1.8533038010422247,3.1677934435503676,9.595987756282856,0.16815324280041766,-0.04798335710541909,-0.08724218010184853
1540,-1.8591264058737071,3.174647788061831,9.55677256478539,0.17085744668560138,-0.047911569984155244,-0.08285176825910053
1560,-1.857065984959596,3.1834308615869644,9.523906138394734,0.17151881872635505,-0.04605390812512283,-0.07930726758517756
1580,-1.8479757068547948,3.1995909975447843,9.48462517173202,0.1703235452558506,-0.04339356014589825,-0.07606017680401787
1600,-1.837096883904717,3.2163762824379885,9.458607954949867,0.16810313254232226,-0.0410408187696696,-0.07462891028582595
1620,-1.8274937560788849,3.2336480218779675,9.438501850668207,0.16463745081641554,-0.03641648790399342,-0.073283406490662
1640,-1.8185754682365638,3.2517024750330683,9.419123945491654,0.16170928192947204,-0.032643953161910065,-0.0723012798885715
1660,-1.8108813839478364,3.271635562864899,9.39675738881616,0.1584043232645319,-0.030137457907788785,-0.0711589740061968
1680,-1.8009503253005976,3.291122496457023,9.377295560615007,0.1542657946461817,-0.029188055578594874,-0.06966001686821476
1700,-1.7920562301758387,3.312422270387486,9.3639899505966,0.14996756767705566,-0.028927034144115838,-0.0680034341974366
1720,-1.7811438232138488,3.336945186421962,9.348675472854723,0.145639260084507,-0.028619406185631396,-0.06623524240554965
1740,-1.770547651110392,3.3593962914643476,9.336068691745881,0.14117799722589552,-0.02850620101327155,-0.06509135546669531
1760,-1.7595588021431166,3.382053399366816,9.329588046847698,0.1371415208294683,-0.027701091541131716,-0.06461408012385135
1780,-1.7505885091692015,3.403510165296045,9.31984273036648,0.1340455558430148,-0.026627974600588012,-0.06466237696166187
1800,-1.7420144384907585,3.4236756920488487,9.308294173982121,0.13093369231013433,-0.026649923402398416,-0.06499147955378773
1820,-1.7352833413943998,3.444305060517618,9.30007984046168,0.12762484692768414,-0.02812344919532325,-0.06586830968399776
1840,-1.731964963732552,3.462797629389699,9.295532386774719,0.12471381059642461,-0.030067173940897023,-0.06681987835566797
1860,-1.7319988852443906,3.47975266495115,9.290063997762433,0.12199836161933623,-0.030950261724108655,-0.06720271014269447
1880,-1.7328449747057677,3.495772526369361,9.2842795895352,0.11931793943261886,-0.030223312790890713,-0.06614175528501039
1900,-1.729746672379373,3.5126831334988027,9.276743280688155,0.11687642610404146,-0.0290136613795879,-0.06426222665065197
1920,-1.7238985162352918,3.529938586942472,9.270004335026831,0.11450910256244243,-0.028647629744788503,-0.06286136142577335
1940,-1.7187482341566132,3.5459126436843302,9.264355741864044,0.11248642040157049,-0.028892812338037577,-0.06225781995699768
1960,-1.7170110725875516,3.5616331002210497,9.257637808150484,0.11059983579837891,-0.029429029075439296,-0.06172962392972982
1980,-1.7155909980250592,3.573410689668661,9.251056051254272,0.10910141764950283,-0.02988557994587025,-0.06036939068214485
