0,-0.3700305297970772,5.384902238845825,9.185199618339539,-0.16382015217095613,-0.196961784735322,-0.13199889287352562
20,-0.432450732216239,5.404361754655838,9.941427111625671,-0.16382015217095613,-0.1662022741511464,-0.18156698159873486
40,-0.6072372657557329,5.3418916662534075,10.667716781298319,-0.0415810594179978,-0.1447416367009282,-0.21422399704655012
60,-0.8408696154753367,5.383858926368482,10.596582932905717,0.12030080147087574,-0.11639712971042503,-0.20126126074429715
80,-0.8855146947430401,5.5060332577403,10.468572407234007,0.2118820497629846,-0.11073382875723083,-0.17967922222323535
100,-0.8623536989396933,5.611091059081408,10.403867526930206,0.2798747146996308,-0.11419182837161483,-0.185493105528306
120,-0.9291835798506152,5.702247577801085,10.333879454094067,0.3404061820750174,-0.10757769222714399,-0.20479430127562137
140,-1.0725634817893688,5.769270647489107,10.26206959944505,0.3964362176851584,-0.09615089813820445,-0.21888554967366733
160,-1.2464928843387186,5.776524857298969,10.19802640888789,0.4523778668260329,-0.08855653935022754,-0.22240956617544774
180,-1.4211336848912415,5.74157166775362,10.108934331823278,0.5067909400634192,-0.08454679990371253,-0.21424947458284874
200,-1.6277522227067627,5.6680964941389105,9.977732497654603,0.5542945142081949,-0.07866656682924943,-0.19644888904824687
220,-1.8668560726740926,5.5492357716117935,9.81335835112739,0.5887898713849562,-0.07292162886215854,-0.16448534122600997
240,-2.0903959402016232,5.410987997055054,9.65051488422212,0.6120531641479049,-0.07178053573838301,-0.11669079040487608
260,-2.26265770065046,5.262642320278472,9.486651538747601,0.6285250785768823,-0.07043335567005968,-0.05856752847280122
280,-2.371188190604044,5.113347104758271,9.295229509842297,0.637175628730704,-0.06263502473434941,0.0029364378183833824
300,-2.4225623509058587,4.949602825825031,9.04792356124291,0.6328675714966197,-0.04388328849588736,0.06905543136482055
320,-2.4283589930206104,4.817477843035823,8.820024231205815,0.6161010568907511,-0.02256719218870706,0.1202043948992007
340,-2.4159350405408913,4.684067832280512,8.594478714955995,0.5878233298888966,-0.005611838353478847,0.1648177106239616
360,-2.397274680145375,4.54360105852028,8.394574896081702,0.5479468388918352,0.004871237767533725,0.20839633161274643
380,-2.3513622646346506,4.403746236253668,8.242120009881479,0.5029211398559036,0.015604499024683955,0.2560121746112903
400,-2.269915074285339,4.294918248933905,8.089066079083612,0.4539086852989653,0.0354757809340406,0.30391828573363666
420,-2.1475118420850694,4.2155036410588895,7.9349960316432995,0.39535166801403415,0.06326196760101391,0.3461836561183916
440,-1.9957080504666733,4.155178779555905,7.811858692476826,0.3282697389142648,0.09091733563165631,0.3761680457660908
460,-1.8365109282132892,4.111841297026762,7.734617120211887,0.25976866630587686,0.11285994001112148,0.3934139702853161
480,-1.6789798992178817,4.077971461385784,7.680614528089467,0.19298608963479205,0.12715282703238068,0.39842501915253625
500,-1.5255134555910315,4.05955826611746,7.663709259033203,0.12718029612054427,0.1341781985092287,0.3936571194125073
520,-1.3452869223413664,4.075411537918476,7.706997377063156,0.06731597184622233,0.1360164199167555,0.3765292818734952
540,-1.1810943929033468,4.10347402570522,7.757595741643315,0.01576470241642895,0.13715416106366576,0.34257995597688495
560,-1.0516174490464494,4.139225794913921,7.821889499907798,-0.042524206186545656,0.1453972042785918,0.2965983605448236
580,-0.964345290490384,4.203880380210562,7.943324065502779,-0.09281265324004638,0.15963986650044137,0.25817558393188955
600,-0.8972163377589438,4.30883114793861,8.113295969260166,-0.13451396640523733,0.17300009501047908,0.22180524661365258
620,-0.8641489746775406,4.431877476368172,8.324718339102608,-0.16218651634817188,0.17114774205876535,0.18556764862827352
640,-0.8796180522676265,4.556349919976366,8.571533056680629,-0.1717809522908167,0.15150835224660986,0.1532969813277659
660,-0.9199488141590899,4.676375979943709,8.816224014975807,-0.1620142802934755,0.12385228001766584,0.1275290644439784
680,-0.9620446885274493,4.77410349449926,9.025627237326686,-0.13933906112484923,0.10204720935971862,0.10345137069271647
700,-1.020344206992908,4.840951947002476,9.196060567377359,-0.1085629841677614,0.09259703462700203,0.08095195502862078
720,-1.0942676510151015,4.8842059852287525,9.317755772517277,-0.07041822962562576,0.0917720788417004,0.06489911907193653
740,-1.1586044009665712,4.904493114070706,9.382524496569307,-0.026971179961624285,0.09255505005862406,0.05655681817558767
760,-1.2065576701173706,4.906657707501972,9.401143930828761,0.01833225909088339,0.08993336826947237,0.05338121646394332
780,-1.2468886173295755,4.895309243305229,9.38228980405831,0.06810091734277429,0.08067768583516878,0.05367604301765239
800,-1.269937519230936,4.874716188175133,9.348035733383822,0.10973223132159875,0.0669414309619264,0.05479137795971684
820,-1.281842684767702,4.838855395948186,9.292126706067254,0.14852714735247632,0.05287561750943389,0.054527345706489594
840,-1.2907572912972891,4.790342079839487,9.210199384853757,0.18079979927011433,0.043758891492107904,0.05345507677719425
860,-1.2935057024816783,4.733440103490701,9.114509566446369,0.20497755776944288,0.04113079553922597,0.05209137185926685
880,-1.2966531024079073,4.673328112442415,9.010550738690974,0.22065326476797134,0.04271246480389631,0.04992427756232056
900,-1.3004055260530403,4.608558580119123,8.906749647150757,0.22868184708759828,0.04510666674155722,0.04774014245698689
920,-1.3029663126915694,4.536835264845898,8.805119490623474,0.2304924043728725,0.045069093154865854,0.04656325737994752
940,-1.3048968180130744,4.465088182657035,8.706766703079657,0.2274263730373464,0.04226832333340108,0.04684335894441021
960,-1.3009553110847871,4.3929377488716685,8.602807687990593,0.21920901055523015,0.03849527619442799,0.04789360622508508
980,-1.2886272716234521,4.322453176326091,8.498525589409441,0.20419642794185713,0.03477145852763114,0.04920417238672328
1000,-1.2729006168947925,4.255781302463661,8.397880547254989,0.1824418726643927,0.032089455863031406,0.05001394955658363
1020,-1.2521742910252898,4.186113159758461,8.292411286021071,0.15013002677026455,0.029717499505830244,0.05067846241391611
1040,-1.2286171580389107,4.134211426987236,8.221130977977406,0.11519673911502937,0.02542209376511544,0.05034476994061387
1060,-1.2049963083501811,4.091016884390222,8.177539673768138,0.0772619130840052,0.018792651965042036,0.04716633859962157
1080,-1.1952385846818432,4.0503011193168295,8.163986829693398,0.03795486119565334,0.00911361489371721,0.04072326484942034
1100,-1.2088187502051557,4.012551387545815,8.177432359185966,-0.0011408267805875006,-0.0014569600031528187,0.03417383712895264
1120,-1.241051376835643,3.985265907005219,8.210839035712716,-0.0404867538253003,-0.007159281921534599,0.03186437156689788
1140,-1.2706779216779576,3.972964780798345,8.2692163524343,-0.07999402494120128,-0.006821742109052821,0.033359847974770866
1160,-1.2946210845336474,3.9748338252243505,8.356424327666405,-0.11553192657049534,-0.0035152403892562637,0.034782829083330476
1180,-1.3283124563005781,3.9911249080884086,8.457836518828401,-0.1456605448531582,-0.0010591114443947666,0.03432046165785839
1200,-1.3930464093752855,4.020290637717528,8.587554210097988,-0.1717657382159851,0.003465120604594236,0.03495457034716742
1220,-1.4824215412258863,4.057139349911741,8.744054133782607,-0.19033520991268926,0.016271298979418335,0.04294129127186692
1240,-1.5529964739785476,4.106134359392465,8.897540191575592,-0.19950258836844095,0.03856608866321325,0.06283014285944256
1260,-1.5670641184888752,4.156251409224102,8.994408373667007,-0.2004846254324102,0.06248562744302625,0.08363541325690893
1280,-1.5490039891843106,4.206178093931068,9.05962163323232,-0.19684359705174773,0.08743040120723115,0.10034368879129905
1300,-1.5237482665141535,4.244257341051816,9.105447526281692,-0.1897448227280395,0.11093454636513057,0.11062655665594318
1320,-1.5047439940847676,4.262065577660979,9.142227399833088,-0.17941904751707652,0.12962529556851532,0.11715162348180899
1340,-1.4928854089755226,4.264685171192343,9.172633431174539,-0.16555289584635333,0.14093912611080503,0.12409503934735601
1360,-1.4685805406267871,4.2549927319036165,9.194042568138423,-0.14952999622290652,0.14626718041575498,0.13281716366956098
1380,-1.4250874578814572,4.242726495219625,9.204458208050408,-0.13331918751939395,0.15127805305945988,0.14046460546079245
1400,-1.3730221945721046,4.22742661563777,9.203526368955286,-0.11853828768404882,0.15745855975719267,0.14258647469303956
1420,-1.330030119753862,4.204547491987137,9.198562602406925,-0.10496268405249387,0.16163605911284365,0.1394820139708183
1440,-1.2953889905869709,4.175960284269462,9.195117686966718,-0.09161891464175562,0.16157553039137984,0.13445218380982593
1460,-1.266488783781021,4.1449058768541915,9.191500611129811,-0.07749832156628221,0.15623750539278894,0.12879717303907193
1480,-1.2410936487142052,4.108993528014942,9.176511802233424,-0.06378570662983524,0.14570442755968255,0.12294692842431194
1500,-1.225977003076857,4.0884701369833865,9.161242645027583,-0.05279603951643995,0.1321181769397281,0.11816085390867938
1520,-1.2061211218875063,4.07889911250165,9.149444004505824,-0.04422301889346296,0.11793431993418559,0.11381387656668375
1540,-1.1917997844221573,4.0779314940884,9.143211741674515,-0.03695835373438303,0.10502968978456458,0.10745437886743318
1560,-1.1848750562700028,4.077792654481479,9.14589782649176,-0.029649444185313952,0.0900015303893678,0.09811010675764233
1580,-1.1935822798408442,4.078233503208279,9.159635980125557,-0.021490547413055366,0.073249452165238,0.09025301699061666
1600,-1.208270949858973,4.083025808825748,9.177568970017761,-0.011583388549851551,0.05277970173113574,0.08421990647343279
1620,-1.2241620856139186,4.08969289424013,9.199068112610691,-8.878100756134383E-4,0.03252919073693165,0.07796284258590384
1640,-1.2405808481318292,4.0920983687265595,9.219195540983286,0.008595088998606401,0.018672378998642453,0.07167609292847008
1660,-1.2689794588652994,4.091878693567285,9.239043957706052,0.021079225755064844,0.008156134814949123,0.06382640413885088
1680,-1.2984422874383443,4.089229325106397,9.244294685741352,0.03276291236503719,0.0028725945285868492,0.05796415770895443
1700,-1.3267340471901052,4.084201130678328,9.23451682577888,0.044120143500002595,-6.278041528249762E-4,0.05357113247938294
1720,-1.3531009198390318,4.078238064923972,9.216042358539521,0.054442290588948415,-0.003480293128853412,0.050852500008231036
1740,-1.374801901704861,4.072004966008177,9.189821701344894,0.06346239380763763,-0.007019969614326781,0.05011357115804311
1760,-1.3888981996028993,4.068265620043944,9.162865443090404,0.0712646587773826,-0.01176838040724591,0.05071933279707717
1780,-1.3958917925451564,4.068046119432528,9.132219727222736,0.07896430162677112,-0.01699062891918232,0.051203180373144835
1800,-1.3960881831337009,4.069011443578031,9.104992541282073,0.08434521814469127,-0.019399864018851076,0.050077380864936655
1820,-1.398227912969687,4.069308965677215,9.075260539208688,0.08768248784991722,-0.019076228960994906,0.04831859266062478
1840,-1.401675685333643,4.070278535101642,9.04882049623956,0.08904983306011344,-0.017530600845543146,0.04740396500230727
1860,-1.4031411596475856,4.073477750938189,9.027307995996978,0.08950604478411965,-0.015643268027633894,0.04753250802291165
1880,-1.4022060319596978,4.081752748151,9.006561761721969,0.08948669890742167,-0.014436077809705239,0.048089056169677256
1900,-1.396660636961652,4.092113259757302,8.988017945559983,0.08898865744908407,-0.014275114156936473,0.04839320909099884
1920,-1.3890197406741505,4.103343757059501,8.973332074223732,0.08830376051464926,-0.014879018039135524,0.04770741569013715
1940,-1.3853023670538411,4.113359925945851,8.962305771264656,0.08741181554401108,-0.015106266938363627,0.04651320171889799
1960,-1.3823060628152295,4.129438431447514,8.949207632729177,0.08564598347320827,-0.013747276344639453,0.045376781616638995
1980,-1.3768876093694173,4.1433721221569,8.939640213738855,0.08405340810672453,-0.012317817302968131,0.04482035718660235
