0,-5.198257128397624,5.387197441524929,5.828945530785455,-0.4150419566366408,-0.7741956313451132,-0.5955792135662503
20,-5.475860203013701,5.163380538716035,6.42118849473841,-0.545818847768447,-0.9804426642025218,-0.5828064820345711
40,-5.633086166381836,4.830275564193726,6.952646141052246,-0.5805627608299255,-1.1160508298873901,-0.600110137462616
60,-5.956050945050789,4.521216435865923,7.293778246099299,-0.5435515958251376,-1.2089903101776585,-0.6184662616614139
80,-6.315894864854359,4.175317548570179,7.599967525118873,-0.46300484633027783,-1.2956310307107322,-0.6022349537872687
100,-6.4844677448272705,3.8530117750167845,7.794639282226562,-0.3536370748806061,-1.4065484441056544,-0.5399426981350597
120,-6.3683571897704025,3.634566171415921,7.85781164827018,-0.2332490702673536,-1.4875544617915977,-0.4347120349231208
140,-6.131177674640309,3.516324278080102,7.792668118621364,-0.1713546439581974,-1.446633054451509,-0.32992485395604465
160,-5.824687735454456,3.454524529946817,7.587551651774226,-0.17509113919191263,-1.2826394733242892,-0.21495110565494444
180,-5.484653365321275,3.3805410018781337,7.337814412465909,-0.23291421502192572,-1.0129657042916955,-0.08910225844010711
200,-5.137157436211904,3.4752267016304863,6.9672185513708325,-0.32012098085963064,-0.7489488565673431,0.05282358954557114
220,-4.6076756185871,3.6940000714087975,6.822384492475159,-0.404932821150489,-0.6838045526980138,0.18332838978884475
240,-3.84143072528378,3.9846348245188876,6.865527129398202,-0.4616925074139012,-0.6537783076318929,0.24853399646345456
260,-3.3002098792817742,4.274664956911475,7.028089737470171,-0.4831151913653697,-0.6227211971330432,0.26347015518695116
280,-2.719211064828712,4.729103684425354,7.289850824191922,-0.4848779069992607,-0.5819944579261126,0.2561986786618707
300,-2.2221360669113124,5.219153097959665,7.600576381499951,-0.48771348516814983,-0.5278035953569298,0.22060729308913535
320,-1.8700106585090108,5.725647660468122,8.111328436316347,-0.48662696272620687,-0.45972518049909367,0.1339918504388112
340,-1.9051973908936897,6.053794998700927,8.667299071947733,-0.43412976320452834,-0.4291030806837743,0.021263256345932582
360,-2.026870904804824,6.202229937949738,9.161385544708796,-0.33131148326271154,-0.44913163294338365,-0.0432003953421561
380,-2.1734435872797584,6.199515671817803,9.619926934593295,-0.14879446416133385,-0.5063215488385112,-0.1209603299563922
400,-2.411742757635507,6.130886112737377,9.873951629588479,0.009659052951729785,-0.5649552555885493,-0.18605355702188106
420,-2.6998159905385704,6.036172002387446,10.06007257053972,0.16239387597160299,-0.6117718860496606,-0.23166444383082943
440,-2.9113705049861562,5.901610148781761,10.122838649520261,0.31715362436352246,-0.6397688039553596,-0.2591882571329009
460,-3.050739171566107,5.757823716677152,10.022088619990226,0.4577920531710753,-0.6464440081125269,-0.27559289169521667
480,-3.124733751630548,5.611802361868873,9.797966332858419,0.5706923944701262,-0.6401588804973978,-0.28396137331708754
500,-3.1681910041384223,5.461757146351711,9.502620649563758,0.6540847375582886,-0.6277568176238669,-0.289743976442417
520,-3.211404186949882,5.3139252085663955,9.174040686594298,0.7077832867106483,-0.6098181805169406,-0.29105464176415174
540,-3.2389528136946555,5.149608737506005,8.84825760247555,0.7389515436250339,-0.5891714896575962,-0.28609016788343894
560,-3.256085252254567,4.972916854283911,8.522172884262623,0.7551420041934607,-0.57135617204922,-0.27536222870322935
580,-3.2748163611185355,4.7494024613292005,8.145932926536828,0.758501849709781,-0.5474301167958431,-0.2572980816762314
600,-3.296787470460413,4.559392199424871,7.830683676874733,0.7465143671029236,-0.5204309147218635,-0.2356309037547989
620,-3.300981874190844,4.319786376993243,7.422350078391341,0.704208935245585,-0.48956888403134563,-0.19330143898976251
640,-3.283589795899035,4.135323119113472,7.109758770315727,0.6461046289360679,-0.4693961022473844,-0.14878000757385934
660,-3.259812634492266,3.9727822078688853,6.8351257063610396,0.5774758639745414,-0.45649101017414173,-0.1015575918406113
680,-3.225484264148793,3.834662564702227,6.596019001939977,0.5006130044086193,-0.4504007268877385,-0.04945809881261904
700,-3.1692179378173124,3.7298657841699785,6.3949156771222615,0.4133983303614165,-0.444514647781632,0.008188356130307361
720,-3.066056240002314,3.663901038033267,6.242953978255391,0.3133665434705714,-0.4357147415773943,0.07050125505309551
740,-2.894770034334876,3.6496055697683585,6.171125784201862,0.2020109706292195,-0.41978715205347383,0.12932464040894448
760,-2.6651414727108387,3.680644954177492,6.171344102820075,0.08420661433092967,-0.3940588883772681,0.1711661165441634
780,-2.436710720076973,3.750245930109587,6.237104216360567,-0.03785916020587823,-0.36745254465459304,0.1946138666531669
800,-2.1600487915961235,3.861188802510142,6.485324780034411,-0.17054427062180844,-0.3349025808834099,0.20355159501396902
820,-1.8898460833557889,4.004472827511536,6.824752422262671,-0.2678492635412038,-0.28478342355870784,0.18174622066542942
840,-1.7192535267176805,4.1944960207707735,7.2263712793118975,-0.3375810183061655,-0.24922321630070748,0.13358092684442854
860,-1.6217436079217606,4.383932492865317,7.685772311349376,-0.3687458635889599,-0.24901100597670434,0.07549832148362651
880,-1.5597549008996519,4.527663228170921,8.147305622390688,-0.3600374564171246,-0.2668752754898104,0.009100483221397416
900,-1.568988283102378,4.605706231413913,8.538161531430307,-0.3259420499814819,-0.28586102359935683,-0.06258289711100447
920,-1.6122065286623837,4.619320259837732,8.84475094805474,-0.28280197379724403,-0.29339263121795467,-0.1305737360820585
940,-1.6782130430474074,4.594965229198758,9.08688921845281,-0.23817478011632792,-0.28646478549143956,-0.19278036689404926
960,-1.7727126986614103,4.551611145334295,9.291723021238067,-0.19049880721650886,-0.27524382861270114,-0.24728240503786456
980,-1.900060741548185,4.494582552867539,9.470297952842564,-0.13385772935494228,-0.27068941747125835,-0.28861039214089146
1000,-2.0382371013736034,4.428211535049769,9.625102600141386,-0.06330820487374687,-0.27405718487933206,-0.313971702752468
1020,-2.17193579348136,4.366171996173341,9.729286565828069,0.01810364150431122,-0.27920735299458943,-0.3276127749498748
1040,-2.283285555167076,4.301488763012322,9.77192576217415,0.09999775168831115,-0.28308403498378076,-0.3357974445015314
1060,-2.3770077801458367,4.231398207590528,9.75227936808037,0.1783230049348517,-0.2726788051164875,-0.3421229841176965
1080,-2.4550132715381316,4.177419025175307,9.701623110944247,0.23046581952878578,-0.24805766315775768,-0.34767892314726695
1100,-2.533255530480246,4.118885135245284,9.639605863947043,0.27104869817633853,-0.21613522955536482,-0.3513355396866454
1120,-2.603407084296792,4.054861556375762,9.570809510282494,0.3076459133707277,-0.18295021411696716,-0.34961044326630214
1140,-2.6596438312784154,3.9794627116537318,9.48160756945293,0.34442970604893375,-0.15079517439106835,-0.3426528823195382
1160,-2.710130067674685,3.8952940075666054,9.363584804905882,0.3794596370223863,-0.12239855850625893,-0.32911542098614616
1180,-2.7491671525156547,3.8147044855576207,9.220658048094393,0.4083267279053605,-0.09268353503952455,-0.30685491022968153
1200,-2.771541937280763,3.7477790873011325,9.060301106615437,0.42735073951861036,-0.058835354638342496,-0.27764073934364564
1220,-2.7751789122701167,3.6925382222442247,8.893433095831647,0.4361226720572171,-0.024241045400299935,-0.24547436266517883
1240,-2.764960947106866,3.633517162680772,8.714114583616016,0.4363928492564489,0.007235594604200884,-0.2117991346071529
1260,-2.752404655153687,3.5761526981943996,8.541990112293957,0.4295042478695195,0.029194217864747615,-0.17532664989157218
1280,-2.746010449059322,3.5185338000235,8.37587903360474,0.4193975049701339,0.044599615475658626,-0.13230017125128482
1300,-2.708377741544429,3.484570027226321,8.231400460530525,0.4074070754643773,0.06316678759285084,-0.07792983559334529
1320,-2.626582311993743,3.468694147641872,8.06362091959497,0.38933485199424606,0.08433309566438829,-0.033213401725258454
1340,-2.524194220127453,3.46735381727832,7.90120020851885,0.3585566733549679,0.10081994891785315,0.004735162896619681
1360,-2.4126373875997826,3.494723535760944,7.786410209421262,0.32153131871955715,0.1138058582142542,0.038044438458319375
1380,-2.293541772342804,3.5534826072895442,7.71290096330146,0.28640467518976703,0.12545587504742506,0.06531290157995395
1400,-2.164489628649114,3.631982715382524,7.662363414864825,0.2555142507523946,0.13100057333626824,0.08682511047095708
1420,-2.0158013499031995,3.7360087945405556,7.642544633627423,0.22853217108293372,0.13085482272640586,0.1017609869168295
1440,-1.8633414899257474,3.86964659999848,7.656128067753314,0.20687869208031248,0.1273622114877902,0.10624819945988392
1460,-1.7261094476845744,4.0141568668932965,7.697769040154769,0.19146693232181625,0.12330577144934135,0.09885763001234857
1480,-1.619743497507521,4.150675559892048,7.7545922145192225,0.18248182473032193,0.11987397075236408,0.08144972217998037
1500,-1.551980515904876,4.277325927865942,7.8138158248661735,0.1780781408620438,0.11877457057088008,0.05838112466385573
1520,-1.5233246079363967,4.400625963952058,7.882017303064155,0.17866616386573952,0.12033180305988002,0.02861778307870293
1540,-1.5396641457882192,4.47905809662741,7.937087495961592,0.18604432353808817,0.12097206476949085,0.002257989966340033
1560,-1.5803611944364093,4.525711431301898,7.966763381005149,0.19894135599897708,0.11928935665127938,-0.020080565813259454
1580,-1.6371141976531722,4.5539893868011365,7.966411890896083,0.21400145051230526,0.11205227051668996,-0.03662424871516931
1600,-1.7012087385583294,4.568317405283224,7.959782045876903,0.23174630547021857,0.09848562895573063,-0.04656527024514905
1620,-1.7553834774165347,4.576940233398409,7.940391836483144,0.25402732144940243,0.08357500181188358,-0.048881289785509055
1640,-1.7767909398860953,4.582064603006335,7.883264160135739,0.27693742128654514,0.07283420873586909,-0.04766816739824468
1660,-1.7826624278574907,4.586617572118035,7.789773193240056,0.292567529274589,0.06484089550247196,-0.04640682737123879
1680,-1.7816787827265892,4.597323735737307,7.691320111929049,0.29815309053709255,0.05952321923795416,-0.04416761944492802
1700,-1.7768843417991242,4.612849110111209,7.6082272231411565,0.29758446358262036,0.05614991100229344,-0.041966112584796274
1720,-1.7671706852528255,4.631580144119322,7.532887885499804,0.2952659288288983,0.05562008152959275,-0.041181023250498
1740,-1.757453302731816,4.655030129283793,7.45767403986721,0.29081360921538385,0.05734489901838929,-0.04198229796543529
1760,-1.7545428908424874,4.6899002103829925,7.3799158487509,0.2831594974077701,0.06014941859830186,-0.042777984168628505
1780,-1.752188484604114,4.727282528641579,7.317090528721401,0.27516136688483045,0.06306730275935352,-0.04266555702303561
1800,-1.7459465706792978,4.772900417624004,7.263551861234135,0.26635255094483656,0.06543835231041083,-0.042679875572888104
1820,-1.7391507456710424,4.822720839308213,7.221855414218125,0.2576771520034429,0.0670113649919329,-0.043807767110958
1840,-1.7380463517305613,4.872322347806705,7.187966013714983,0.25047558462024627,0.06680239225362995,-0.04546554543876929
1860,-1.7420195818048965,4.920799159458331,7.157980398248646,0.24492043976423558,0.0647360500469608,-0.04598330972598726
1880,-1.7446519023985863,4.970142254705198,7.1316708396721795,0.24081834448351294,0.062336602691507696,-0.04539179060879431
1900,-1.7456333380200908,5.017433591747952,7.105866060969198,0.23729770594220154,0.06035262093000699,-0.04496394720604521
1920,-1.7480165268152146,5.060295114049296,7.07914717674291,0.23352992482495252,0.058863680376700915,-0.044956681186890904
1940,-1.7504905602767884,5.100546165149833,7.052780133989741,0.2293015022921842,0.0579911471012167,-0.044367226170702434
1960,-1.74982347656053,5.13812143640702,7.0298580498883405,0.22524265737590216,0.0568547650053167,-0.04325358853204531
1980,-1.7453069925992348,5.177955573829419,7.006313567750593,0.2218613920532121,0.055874743071143276,-0.04194147402742578
