0,-1.8172211647033691,3.3754807710647583,9.085506916046143,-0.05769317992962897,-0.14662804268300533,-0.019746649777516723
20,-1.6500188559293747,3.400329113006592,9.339678406715393,-0.06072252558078617,-0.13441079296171665,-0.03675759106408805
40,-1.5311161031325657,3.423480967680613,9.572095135847727,-0.03645446981924275,-0.10062193699801962,-0.05740818683989346
60,-1.4760057032108307,3.4132771864533424,9.350905105471611,-0.011920097575057298,-0.07820144932338735,-0.09155213268240914
80,-1.519085020553775,3.391464617194199,9.319488699843244,-0.009264244175538785,-0.07192962404862954,-0.12181717370886629
100,-1.5624326126916068,3.3420299364596,9.24902817667747,-0.011040303742094916,-0.06557011727376708,-0.1370670524406798
120,-1.613654989945261,3.2936141825558845,9.154983545604505,-0.015083769989902513,-0.057248620662568625,-0.14397143869938558
140,-1.6689233779907227,3.245693753315852,9.070749950408935,-0.022155343196713008,-0.05468752948531451,-0.14743908319908838
160,-1.759781687227014,3.1857041920701117,9.011146525814109,-0.0311135550425069,-0.062370005355548264,-0.14707494004029933
180,-1.881539253540981,3.1487411775706726,9.000483789561708,-0.044476831837752716,-0.07065890805169159,-0.1360643246544548
200,-1.9909071627627597,3.1408395097496804,9.037620046165552,-0.05786748219993007,-0.07322653677979003,-0.12113828333408645
220,-2.0893213036134073,3.1473520932738315,9.116160761449756,-0.06679803346158918,-0.0699948975132279,-0.10440222961232834
240,-2.143861911410377,3.152940709250314,9.215328457241966,-0.06455716058789264,-0.06584041850707893,-0.08713731010045324
260,-2.15303787509952,3.1447879529632297,9.250689164727135,-0.05516730107993415,-0.05750877572845799,-0.07353779314234193
280,-2.1495400233702227,3.1373371683861597,9.228921176973452,-0.050575826694219075,-0.04251385188742333,-0.062388043358059954
300,-2.112722942995471,3.1297151155250016,9.189653222875078,-0.051058502268594826,-0.02445294723445333,-0.05136601277446562
320,-2.0349100793365142,3.143541941677567,9.139587245718406,-0.055112149097351695,-0.009729898741203667,-0.04305028336217804
340,-1.9064848445713112,3.1766654644926935,9.09018221620011,-0.06006175171813532,1.7415305156235212E-4,-0.04213179756045239
360,-1.7889085965739056,3.2180043737609667,9.058850743553855,-0.06558668588638886,0.003978905658836344,-0.05100939612436507
380,-1.7066436848936626,3.2723508101922496,9.068490519935702,-0.07208164776158002,0.0042581169335688986,-0.06533273692058836
400,-1.6830366528428653,3.3509705922182866,9.133421457515043,-0.07395177866496584,-0.0021499864133896636,-0.07859624646987547
420,-1.684344652768099,3.446863824062133,9.247749374153909,-0.0660125661871574,-0.02106149317081913,-0.0895843121270241
440,-1.692918343669785,3.53982614573612,9.385051827276907,-0.04847592244585676,-0.047870585417640346,-0.10143410795748795
460,-1.7316362348759604,3.615714234175141,9.535721284827007,-0.02333359743862115,-0.07079659208724967,-0.11305338486827449
480,-1.8027146825437794,3.673165735631886,9.67215635988972,0.009291254343594065,-0.08513539164882651,-0.1191247508810409
500,-1.8787560480868533,3.7123716774440947,9.775694604147048,0.04755938648290577,-0.09389491895756995,-0.11681760693013313
520,-1.9409766498816396,3.736175702252519,9.832830002548498,0.09046348381719184,-0.09992010835312529,-0.10885993244100807
540,-2.0018125208902413,3.7453868146491263,9.832827278998046,0.13490699059371136,-0.10435684340381665,-0.09886846193359687
560,-2.081802028877304,3.7354051153710546,9.77777465252166,0.18128785604333625,-0.11060170796253976,-0.08213715093368862
580,-2.1417290630439916,3.703942220397447,9.70154445357774,0.21708505265721323,-0.1204216628524172,-0.060996058391246166
600,-2.1640099743715084,3.656278962633049,9.612349261325669,0.24654089192678016,-0.12966657348535585,-0.03654260401877452
620,-2.148915186883975,3.598789796866045,9.510169837465618,0.2698152387392452,-0.13444536813835048,-0.01370055619519362
640,-2.115232905045096,3.5271014653788075,9.384296878000324,0.28487238700219086,-0.13558839411040496,0.004626758454179161
660,-2.0796347421543167,3.4487498942288486,9.252370163310658,0.28895864930342546,-0.13458668287716466,0.019420216870917516
680,-2.041936194372788,3.3658065714810848,9.12459318208189,0.28415626039327035,-0.131910080243603,0.0325209439712389
700,-1.9994792634704472,3.287242639617822,8.992418067971455,0.2714435713384877,-0.12855881699192884,0.04407769782289453
720,-1.9530704283220912,3.2141003324634654,8.862718075015474,0.25037778821153983,-0.12628826322259823,0.05254882078362398
740,-1.90244133135225,3.1444891531032537,8.748062742649537,0.2224499068923707,-0.12474327994524183,0.05810093115378135
760,-1.8543002354838545,3.0845876079703136,8.64613491088625,0.1889470409010611,-0.12345769785174597,0.06042717991041995
780,-1.8138380917856014,3.0309900367407607,8.559688932755414,0.14963866333728051,-0.12377762788908135,0.05922308405745924
800,-1.7859993272584425,2.973085038722998,8.49758014477879,0.09882289442200079,-0.125797632892675,0.05587589418296758
820,-1.7721595598384738,2.9282918911646396,8.493119991526884,0.05179330059601103,-0.1297044392363579,0.053684533514794616
840,-1.7741589719943445,2.906824321839316,8.527962912088153,0.006488248379365809,-0.13271532378101925,0.05243113721538892
860,-1.7860977007364722,2.9006386416898646,8.5854302392879,-0.03141920883995546,-0.133034670281119,0.050334246021131394
880,-1.8247549326599135,2.903527047198552,8.693901515269017,-0.07797928545931047,-0.129409683911465,0.04771765836279143
900,-1.8768455484601598,2.9246408864855766,8.830675589141025,-0.1140369226384948,-0.12291302454065761,0.0515659308982312
920,-1.9157755748322112,2.965034307700663,8.963781195768895,-0.1368141729325685,-0.11411077706333701,0.05996829618289477
940,-1.947731200788055,3.031255365877422,9.105784384245725,-0.15623081481737114,-0.09527433681098946,0.07116598229778488
960,-1.9760000653696632,3.089514848183502,9.21479568818603,-0.16782362260996844,-0.07253970907774114,0.08047832414093944
980,-2.01053875572887,3.1432641803035075,9.301352910309216,-0.17253736554929253,-0.05183933266911138,0.0907104346744032
1000,-2.0482184680685114,3.2117329560292576,9.393952941431582,-0.17102295560174557,-0.028431522996488108,0.10866554878037242
1020,-2.0678200371829525,3.265860177434626,9.466611612410773,-0.1638854501347634,-0.012258883407949249,0.12735115205425593
1040,-2.0762973624742895,3.315014944107176,9.53776837286548,-0.15167724485857256,2.4031386215666258E-4,0.1482863718748232
1060,-2.0651591176623203,3.3701653057023098,9.61366908119254,-0.1329133016690271,0.012053698691586352,0.17472139676900694
1080,-2.0260412969699737,3.4190439172675102,9.68299439676692,-0.11164058418630549,0.02299317501385937,0.19657863633853667
1100,-1.9770887101860304,3.4572108426848343,9.737153658824685,-0.08905542541534302,0.03416288602686141,0.2107970806959588
1120,-1.919158847958108,3.498043070840215,9.788834875938432,-0.05666675237805427,0.04813048655471266,0.2231440429137353
1140,-1.8740288194006822,3.5261021282500042,9.83005422823973,-0.026005097656949624,0.05665348389018168,0.23287093373281614
1160,-1.8265664960556436,3.5497103189147494,9.876895264759504,0.007273867833711191,0.06245299284829635,0.24190306801747227
1180,-1.7793613212087105,3.5754235820057465,9.913154153725536,0.04256949512115152,0.06936036100846321,0.24642889137888693
1200,-1.7453329107430375,3.5988400627464117,9.938073235641387,0.0777038598289566,0.07626611524630852,0.2472771177140138
1220,-1.7188735644676036,3.612980339282049,9.958400800556479,0.11377653141809022,0.07962476729648653,0.2469256136068208
1240,-1.695029271222662,3.618695866323876,9.960797249919539,0.15101219946244085,0.07806217767026509,0.2461027550220138
1260,-1.6691113784706981,3.6221204293625697,9.939234378255012,0.1919511914609223,0.06970598151647525,0.24387031245588336
1280,-1.6396459248567623,3.6205138463824422,9.903551883117327,0.2263154923586536,0.05702682102905558,0.23944575937656054
1300,-1.6072510341230313,3.612644927499446,9.849818735086963,0.2575076545121267,0.0420304863582442,0.23073811642476794
1320,-1.5782074697356072,3.5963252507342625,9.779669389513586,0.2843571961926111,0.02635753492896043,0.21766384542881892
1340,-1.5561052226321772,3.5718582568927246,9.693210546753622,0.30584986677054654,0.01065147061218423,0.20255660856650634
1360,-1.5436502463133392,3.5412683074085516,9.60168950361163,0.32139516508166666,-0.005628459689859968,0.18831496007780554
1380,-1.5353683837580037,3.5090338218654424,9.511092654807829,0.3328205878984565,-0.023574003614296037,0.17760958638726718
1400,-1.5234369419962135,3.481119315331406,9.412898648491305,0.33991794263333963,-0.04305891513533222,0.16867246276630862
1420,-1.5076154795970569,3.4572766863091293,9.31298034338607,0.34048533530368175,-0.061897422772907426,0.15772421005473206
1440,-1.5003052502219423,3.432753228080475,9.225465427818945,0.33417721865382993,-0.07634767377295262,0.14398810618825383
1460,-1.51284339005886,3.4085174513401397,9.153664907882844,0.3228558502751823,-0.08406513483348431,0.1305126406059267
1480,-1.5394680339565636,3.387664374099313,9.096237137766167,0.30867539660808424,-0.0874997150929408,0.12061336634391703
1500,-1.5680825466495645,3.3773248468917045,9.043812569267198,0.29404903569559077,-0.09083265024908524,0.11498761480728753
1520,-1.5884755954151626,3.3815559464539744,8.99043778821203,0.27764869172132045,-0.09460220715930158,0.11100085892106655
1540,-1.6054462895370163,3.4015931649340523,8.948903419857933,0.2595098178996335,-0.09745171748948032,0.10590805423460782
1560,-1.6237857738684214,3.4305690655420564,8.924669020601948,0.2398080126510869,-0.09913110842823918,0.0991396999080026
1580,-1.6558372369911896,3.4690042757674266,8.928369962024984,0.22002114466140651,-0.09944639357268932,0.09241778002446373
1600,-1.6935348395041354,3.525099593946952,8.953457296531619,0.20116862918442216,-0.09667364710831716,0.0893518787503015
1620,-1.712728031517286,3.582179931628758,8.971125824239278,0.1887019512596151,-0.09065265530319308,0.08879945796618005
1640,-1.721547966818471,3.643106840539796,8.977786419466248,0.17822410519222345,-0.08285902852928835,0.0877561538303951
1660,-1.728442285553825,3.702665083669949,8.981704571461291,0.1691572631480219,-0.07592445064836013,0.08518817252308042
1680,-1.739980022013228,3.7575348007887213,8.987361726108423,0.16212199322385862,-0.07149433817872385,0.08305059282415515
1700,-1.7473890957090896,3.8074643709247917,8.99484945750065,0.15790878200782932,-0.06990831198770446,0.08278083695071957
1720,-1.7480645305957316,3.8510076010634178,8.996381927859224,0.15573560737390044,-0.06918498591515256,0.08318698860818831
1740,-1.7430791216774721,3.888093736227052,8.991826678462505,0.15411625116501584,-0.06713025032692627,0.08345365160604633
1760,-1.7377916042973391,3.920284056157827,8.985284234950207,0.152698868977279,-0.06474269230954313,0.08321212089823893
1780,-1.733559356501167,3.9467057431990376,8.978898957474195,0.15180355243921598,-0.06342898615385487,0.08224692504835075
1800,-1.7328064682088038,3.968560547729873,8.970897480197575,0.151340368083291,-0.062285442282186326,0.08094544462674884
1820,-1.7345157118939158,3.9852482853958042,8.959977692173373,0.1511695316891932,-0.060693848690222096,0.08016985655394232
1840,-1.7359369841705825,4.00164466315603,8.944732694549764,0.15095487483770914,-0.058782683301344264,0.07986194951561319
1860,-1.7359322906211385,4.01818116005314,8.926291747469651,0.15026606889043345,-0.05722432400476751,0.07941124753744684
1880,-1.7371345600777204,4.033459422294982,8.91007179270188,0.14906383556656996,-0.0567949038891129,0.07846712481295981
1900,-1.7398830006152906,4.047138739914931,8.895587479945311,0.1478630535712,-0.05657887956034212,0.07743951127943631
1920,-1.7429480451448436,4.061430910830291,8.881013850168307,0.14639736236368867,-0.05570487049326588,0.07703140132338265
1940,-1.7435833657371478,4.076891925411694,8.867783970905073,0.14479382473603833,-0.05470527238319828,0.076648348902418
1960,-1.7434816026252655,4.0940991815333065,8.853382933898812,0.14292955143346955,-0.054177453563320155,0.07557855821511104
1980,-1.7439388820776454,4.106990333056391,8.842433236613132,0.14152775673855023,-0.05412604352368542,0.07464131650383501
