0,-4.699028539657593,5.578000688552857,5.908513450622559,-0.16934194825589657,-0.5927858948707581,-0.3341287225484848
20,-4.850979195700751,5.578799062305027,6.3563821580674915,-0.39755710442033076,-0.7966479162375132,-0.36377858287758297
40,-4.981456591532781,5.4438796043396,7.24051281122061,-0.519605002580927,-0.9170319002408248,-0.424901538170301
60,-5.2784823810353,5.220297476824592,7.962454094606287,-0.5398534614154521,-1.0077251914669485,-0.4816365049165838
80,-5.617347478866577,5.01882064910162,8.409370104471842,-0.5231188130343244,-1.1211773511909304,-0.49026604067711604
100,-5.852565784454345,4.825389733314514,8.700627346038818,-0.4876536216586828,-1.1548300695419311,-0.4308760280907154
120,-5.863173238162337,4.597281460104318,8.757348011279928,-0.4465623302064065,-1.0498798482826557,-0.32596474564794836
140,-5.600985776132612,4.382242469645258,8.558513306859714,-0.41739036693279424,-0.7955486426102136,-0.20295410981374
160,-5.290374841690063,4.252022034327189,8.28517125447591,-0.4256623295446237,-0.5424912030249834,-0.11144937505324681
180,-4.979159257498132,4.240685224533081,7.826173919511128,-0.4637842511825533,-0.32520172599119596,-0.012139688683561531
200,-4.67176215170504,4.3740427651248135,7.507518026199969,-0.5079456184182193,-0.3144521869432468,0.10150885000661179
220,-4.140384152983174,4.551601739844891,7.384014873191564,-0.5269248614633324,-0.36840353279628535,0.19533193419979075
240,-3.6202400613610988,4.852264994772796,7.5300312682846995,-0.5299394400529215,-0.3998067595377982,0.26004742691728555
260,-3.1893331126026485,5.199733396198439,7.839711489366448,-0.5322428088797175,-0.4025806029691644,0.2887568894287814
280,-2.862145830218385,5.622688279888494,8.259702265262604,-0.5370742671070544,-0.36773967805008095,0.28703954982442587
300,-2.6409205132313356,6.0362904763403735,8.90398826444422,-0.5260156612302965,-0.3524581614369882,0.2574772869897935
320,-2.546727028010147,6.349299698216575,9.755393955963,-0.41447451548384767,-0.39708539520257286,0.2096165057670857
340,-2.578012087004813,6.500730593462248,10.285347063396427,-0.230214612785022,-0.4703574931324535,0.1766979826136014
360,-2.6531597688698616,6.551514804363251,10.541463957001001,-0.01855854735447046,-0.5686562880515479,0.1548140137695158
380,-2.7167700797591996,6.505954011184413,10.60768798611513,0.1849942242999266,-0.666085188856303,0.1388974201456621
400,-2.7822887404973424,6.401414050612339,10.538086382109066,0.36306543745706943,-0.7417111155620322,0.11942311054702069
420,-2.8677965090920527,6.252491482098898,10.376715282267995,0.5162089724714557,-0.7947748423967924,0.0995789122974707
440,-2.9385107355786766,6.070228223470932,10.135213506665636,0.6500180876675121,-0.8178978164165103,0.08349461511688981
460,-2.9850253869912455,5.8575826142059295,9.749269559827386,0.7537727312812087,-0.7915631648514192,0.06694335177806872
480,-3.0213407470534244,5.611366640922486,9.24202855384233,0.8108574677368298,-0.7450957447564339,0.05717581624676492
500,-3.0446348150594615,5.396747451750034,8.777430630658033,0.8287414874143477,-0.7163656251065714,0.06081556809082065
520,-3.021600313044407,5.210648263957013,8.405408492548899,0.8388412637636066,-0.7116887845522301,0.06883177417753772
540,-2.9593198706902433,5.0139736060151145,8.005016979026166,0.8401540289878061,-0.700233708323682,0.07373908376974757
560,-2.897044041457307,4.774133106842951,7.547545623804447,0.8116607483130592,-0.680873833793188,0.07990294430043375
580,-2.8601638537633125,4.598810694760597,7.241577434368798,0.7724889035061857,-0.6639123874502715,0.09154703039828627
600,-2.7975154601243646,4.395438486423064,6.875504975851346,0.7104319317023391,-0.6415383392768238,0.1170519366492278
620,-2.7102629432447567,4.248599659565879,6.555031088234364,0.6385563928919391,-0.6183966392993756,0.14442524872720242
640,-2.591037296866617,4.122496549040079,6.272618740132307,0.5486745233387863,-0.5898398412876247,0.1689308999127061
660,-2.4790095972831927,4.017909149683017,6.051151117155268,0.44430968322075015,-0.5586926268332971,0.18891372038757542
680,-2.3794393978359407,3.954622807693586,5.912505131018789,0.33192184447850054,-0.5314114746719337,0.2075149234907146
700,-2.2924179705082355,3.924660640632028,5.866637371099036,0.21779081373516815,-0.5062872318283944,0.2224099322733924
720,-2.230121335511303,3.9031977149165944,5.904145105732636,0.10597866016789727,-0.4803874333639725,0.2320256201469918
740,-2.2161294910469027,3.901293213180836,5.993873788700906,-0.004151510810147983,-0.45364820797141026,0.23907838177695437
760,-2.222578216986055,3.9264722549788393,6.197766831620634,-0.11036799894498914,-0.441665133984307,0.25357982572109355
780,-2.212998138386756,3.966108301843588,6.54339997621683,-0.19382604071154044,-0.4509823763829011,0.2736966621818451
800,-2.2200033913461588,4.051366307948892,6.9370988507170575,-0.24967991826390182,-0.4597303820354445,0.2926293930972929
820,-2.2745823579532645,4.179463330993962,7.359923347046501,-0.2918189550036488,-0.4542723603503049,0.3221968814066192
840,-2.290979978863948,4.289671767322081,7.71758809873036,-0.311728503230427,-0.44938859552145005,0.36179158014378376
860,-2.265956171352531,4.414957787290049,8.0745879295152,-0.31433632257576594,-0.4479099658198197,0.4085747257405736
880,-2.179166851144111,4.547121459882849,8.403966847338964,-0.2982185716318384,-0.43787344598053585,0.4566234670162119
900,-2.049586078058679,4.655751669679813,8.630229119629783,-0.27133590879944713,-0.41923006189698203,0.4932656751069076
920,-1.9337087557541393,4.741950781762366,8.790211094299536,-0.24081620687609098,-0.3994726652562306,0.5190409104344654
940,-1.8217870357673234,4.807553610635492,8.915577268294799,-0.2058726476218838,-0.3804575420342959,0.540785519964993
960,-1.6913171293712386,4.862780460956783,9.011110936876518,-0.16526510132635808,-0.36354244084813486,0.5573025756847844
980,-1.548775428618199,4.907442414894553,9.074717602412688,-0.12204664979093327,-0.34998596767927037,0.5664596458474918
1000,-1.414380578023881,4.949568392762887,9.12583472388954,-0.07778642665378857,-0.3432781023990165,0.570518018466371
1020,-1.2710403220880317,4.990471754214281,9.166977388316422,-0.0324767850983835,-0.34176718874644685,0.5713415825916057
1040,-1.09487405453599,5.044222525448437,9.200776344385611,0.018231587138744353,-0.3421634938719136,0.5631724750999093
1060,-0.9594263139749392,5.086072414680671,9.221654858024355,0.06201211136929131,-0.344003631376952,0.546674017660778
1080,-0.8385354837817317,5.118237319583661,9.25273776721101,0.10463663871906348,-0.3463891786304396,0.5252455601372842
1100,-0.7294124383162093,5.142628260145148,9.284527863250984,0.14859051071926133,-0.34659896175489646,0.4996820678177116
1120,-0.6240603836227135,5.147523097460587,9.277768102886867,0.19394286401312372,-0.3447054911014618,0.469782613048865
1140,-0.5226532861149441,5.139712127317099,9.239090806865894,0.2349534591189299,-0.34439281730333265,0.434500478674715
1160,-0.44597365462662564,5.117771947721412,9.19090535869678,0.2734355109866265,-0.3458897502556257,0.39656169657325196
1180,-0.3820621859582497,5.083461132543104,9.116743065493308,0.3120532015900776,-0.3506339171603016,0.36041949445370286
1200,-0.3086527111526165,5.040650244591513,9.010596100970952,0.34768594006321046,-0.3598742398367536,0.32573605213652956
1220,-0.2225130357961013,4.982697878314356,8.890189094524498,0.37854469601235263,-0.36869992022671055,0.28767560920853974
1240,-0.16611406061007347,4.91852667447318,8.758882089020455,0.4031380078702465,-0.37592132579272797,0.24678660375877137
1260,-0.1470698934157876,4.85203289087711,8.628937339219974,0.4211377950209356,-0.3848340923634137,0.21052737804650112
1280,-0.13153556485706236,4.782699977675678,8.485364061117059,0.4373930046638248,-0.4003601278562917,0.18058328176001934
1300,-0.09818686633596697,4.734301435059186,8.348752482210411,0.45095385874816174,-0.41915587180314945,0.15927019340695062
1320,-0.06806434252426055,4.697293887332575,8.202308280982406,0.46195400393609065,-0.4390074666606618,0.13718580085482887
1340,-0.05463421387695775,4.658235083111441,8.05458988080584,0.4649082766407156,-0.45699645848978526,0.11451706012872898
1360,-0.06628216648740427,4.617153058393991,7.9190297859454795,0.45956038718577474,-0.472558758622368,0.09434213918367666
1380,-0.1102636665840384,4.576831915304327,7.8016162372495925,0.4497335555563143,-0.4864673825443237,0.0781798188863191
1400,-0.18467430682438943,4.5466952877339075,7.689759403182608,0.43746659612709965,-0.4964609674918595,0.06866939783018704
1420,-0.2760588191449642,4.522945360248679,7.568549127126597,0.41885775029467903,-0.4992246158334924,0.06458533965433909
1440,-0.38801745139062405,4.514733373193775,7.468585542963214,0.3921055699906287,-0.4989957898568891,0.06678821588237141
1460,-0.5005032157401244,4.531640593887617,7.4091529155087965,0.3634320273778091,-0.49647742085314045,0.07642026969542105
1480,-0.600787521143885,4.5749286812007135,7.385657563051944,0.3375472160528022,-0.4922127984111859,0.08816065196879208
1500,-0.6920129261523872,4.6512991924189615,7.386963732861128,0.3142197022559242,-0.4847801443878803,0.1030322587020792
1520,-0.7441881614208221,4.769637522011996,7.418138391143083,0.28967213828861715,-0.4673389515936375,0.12361716603040696
1540,-0.7603525178974838,4.879740876873946,7.4551702110982525,0.2719188477361419,-0.4358880558532279,0.13422417733671163
1560,-0.7785385516937822,4.974074061849388,7.487460079818265,0.25650807458732744,-0.4055834424740169,0.13903057704446836
1580,-0.7934120643212358,5.083198517130455,7.541470310198737,0.24332491218044963,-0.37184820879245023,0.14555956493311192
1600,-0.783532311405584,5.170019876177861,7.583091492006269,0.24107070292716157,-0.3505938389768067,0.15142844917884882
1620,-0.7493710285066661,5.245712452975655,7.591138996066231,0.24549618695575492,-0.3372828583128022,0.1546988504161512
1640,-0.7047905752111508,5.311299445088205,7.569963125055337,0.2543727198967165,-0.32804762626850054,0.1525256068267227
1660,-0.6692620339241322,5.363226190958823,7.526305250511689,0.2627513110692368,-0.3235727823168455,0.1462252716836075
1680,-0.6395919030783658,5.400153999475029,7.470778846975378,0.2690583660019932,-0.32007540126110823,0.13905931937850266
1700,-0.6152142238625495,5.425932435326844,7.408101560080282,0.272100499452999,-0.3166613611319187,0.13213122639286637
1720,-0.5965874986657014,5.443828661797951,7.349781909590283,0.273153849025356,-0.3165946357771226,0.12578571696653434
1740,-0.5850364490403033,5.459186920344955,7.306106498525027,0.2757844459343843,-0.3229979384627825,0.12060229896161533
1760,-0.579196133189699,5.475147747200876,7.262264249089397,0.280921574692331,-0.3323182686982514,0.1160584142981885
1780,-0.5814648333324554,5.493315449709149,7.20283455296024,0.2851454807113703,-0.34174537219056117,0.11155635710448435
1800,-0.5868966384641927,5.5124784348466935,7.150009846324884,0.28459862837704214,-0.34647766217276416,0.10854317266039731
1820,-0.5937786588729946,5.5360076158050315,7.10498306996641,0.2799002627708547,-0.34524593093300154,0.10602800258442799
1840,-0.6018296795445112,5.565326811370269,7.067887184182948,0.2731682426618555,-0.3401268325716415,0.10410943318069456
1860,-0.6090956077497853,5.59780835032248,7.037535761935231,0.26737512775643035,-0.33541019661278704,0.10287072677978039
1880,-0.6149726106603811,5.633758021547616,7.007018753175031,0.2631176691109242,-0.3318042616287319,0.10220284309365193
1900,-0.6183398869175915,5.670889307019375,6.976575225998665,0.2595940460959703,-0.32900639440610546,0.10145079453145381
1920,-0.6221992841971512,5.7082763791093765,6.945508197390738,0.25621940280813205,-0.326267514179956,0.10005402458777163
1940,-0.6283276675489522,5.745712420112578,6.9164849117595315,0.2527806105682162,-0.32348789802637484,0.09871357565063055
1960,-0.6331153748199306,5.781422099479453,6.889211276843401,0.24966212793513481,-0.3207544377340733,0.09780897289088362
1980,-0.6347244980753056,5.8187932149999755,6.8580014126745095,0.24661100488075693,-0.31741923389154797,0.0968284714592646
