0,-0.8813672289252281,2.7848090827465057,9.330397844314575,-0.036587627488188446,-0.09216640098020434,-0.0636222311295569
20,-0.8669971078634262,2.7833121865987778,9.495654165744781,-0.053864885529037565,-0.1102093153167516,-0.05619866866618395
40,-0.8650012612342834,2.753474215666453,9.56570851802826,-0.04537605979324629,-0.07620962555908288,-0.0446250137174502
60,-0.8906479272991419,2.718871183693409,9.543404877185822,-0.037453155797265936,-0.029432309805997647,-0.026504421228310093
80,-0.9299262538552284,2.6957742035388947,9.582772994041443,-0.03569546945509501,-7.13445816654712E-4,-0.007070002215914428
100,-0.9617001799245676,2.681523844599724,9.431836863358816,-0.04008302735261774,0.009865961299510673,0.013143390514111767
120,-1.0006049924663134,2.662363690989358,9.324837923049927,-0.04949444830500787,0.013684743873974574,0.03405871623129185
140,-1.0664838231526887,2.6341162791618933,9.27543205848107,-0.06600326694046649,0.022601504502101587,0.06476159744824354
160,-1.0959675483507654,2.625138364426077,9.285195847080178,-0.07991142268930498,0.034642024188978625,0.09621395115829902
180,-1.1025173537433148,2.641886276006699,9.3229731798172,-0.08286005262343679,0.04438718798919581,0.12110128296772019
200,-1.099529297164317,2.691383123397827,9.368294212255584,-0.08221894891126856,0.051050327043310646,0.1493371497902475
220,-1.0507716582607978,2.776593166528289,9.453685681844496,-0.08567078568319761,0.058380452162326915,0.16748181297491813
240,-0.9818211945039885,2.9059343360719225,9.57852746872675,-0.0929287039386552,0.08137405769722093,0.17380682716944387
260,-0.9169322098646544,3.051127840987349,9.760340842525515,-0.09896569648980105,0.11690235348517257,0.1740654893301889
280,-0.8595745285957559,3.1916704631048787,9.993466826509838,-0.08984094647467444,0.148736330592035,0.17215941924109193
300,-0.8083655440479575,3.3262923835783966,10.210655633793321,-0.060365115821202714,0.17229065737622076,0.16695126634841972
320,-0.7750773052616983,3.4513981133481884,10.357271138768997,-0.020518270166536425,0.191251285533917,0.1586229394047256
340,-0.7494759738605855,3.54885751296734,10.469704443832924,0.022645665562294165,0.19822376740068712,0.14950550381929195
360,-0.7299018025160858,3.6223184937745136,10.571945377424651,0.07354278902498872,0.19570129734518774,0.14273054682607061
380,-0.6987839402590683,3.6738862034715254,10.630900789190221,0.14267435348966379,0.18815432042515848,0.13640007558623674
400,-0.6665762310025884,3.7020100299049825,10.614684755661909,0.20915791998096905,0.1806932531995699,0.12895800042623545
420,-0.6317873439709708,3.706077607829919,10.5345207760843,0.27310061397088503,0.17004574848250015,0.11497638676723654
440,-0.5989609332805279,3.6828577518463135,10.405111300048008,0.32820675138419153,0.15543742354093018,0.0945086887041207
460,-0.5724714214087838,3.631516427108922,10.244215014054603,0.3727910408891795,0.13799249331260427,0.06892563211347562
480,-0.5746387221186542,3.557552685241888,10.059876855057064,0.4057489457335047,0.12051865551044408,0.04338872470284379
500,-0.6031229696147853,3.4676805042085195,9.873571091606504,0.42809215309430976,0.10272246106372525,0.023837882499875767
520,-0.6432495402949734,3.371187893895928,9.6784281577539,0.4416709231338763,0.08397727401888665,0.012946705485548857
540,-0.6748020824382857,3.2744051444846973,9.470278552148194,0.44502386299839686,0.06436737478747799,0.009651819316142824
560,-0.694350993153281,3.1869625627485094,9.255512442344275,0.43686438863599497,0.045818349906705066,0.009796227549369901
580,-0.7087773622844892,3.112723890414908,9.047226259531069,0.416800158220528,0.02648182795479247,0.00993108812696493
600,-0.7300977875031531,3.0456602532863615,8.859091409683227,0.3858334126612172,0.003947081836871803,0.006867915781214833
620,-0.7667391835298375,2.964146582776515,8.679782336282914,0.3387427843350227,-0.019293986660928165,0.002064535432067272
640,-0.8088169697330295,2.891506311933646,8.558499510368604,0.2855446622297098,-0.033255185273542216,0.0010000720239952486
660,-0.850153589360416,2.830094550848007,8.492504479668357,0.22454114286652344,-0.04367701863446696,0.00303063947876746
680,-0.8828820981144536,2.785830986899959,8.484327440127046,0.16205173858454577,-0.05148073585700678,0.007545574418476424
700,-0.9028976281173527,2.760846499430722,8.50827421895389,0.11009838109563008,-0.053872901481447806,0.012688814435989178
720,-0.923748661944624,2.753503614943163,8.560873528388033,0.045985964440700154,-0.05137773044563107,0.01926019745271491
740,-0.9309371128368892,2.768837735882023,8.643945721150997,-0.008396714623161996,-0.04518676621548176,0.024952816481152943
760,-0.9246220425037401,2.8114793381047627,8.764380475452969,-0.056772266672037185,-0.033777652108775716,0.0320370371601293
780,-0.8948994591664926,2.8837815996478584,8.920380399692169,-0.09677547215334148,-0.015059643504339568,0.037754542708985116
800,-0.8590233587938448,2.9762568917699452,9.108020896998056,-0.127175727449048,0.008274597685581518,0.036525701835267585
820,-0.8419871702982569,3.069892364001907,9.314309077276944,-0.14530311871091986,0.02857495811809085,0.031170789653759527
840,-0.8354970960069619,3.172471912170964,9.548674873236951,-0.14720676052611556,0.04320789186749607,0.029377957550412708
860,-0.8187054182415907,3.2447321190800467,9.712499510402411,-0.1340356851659033,0.050028770557329266,0.030728879215484353
880,-0.785763834037685,3.324767570983578,9.866474195496066,-0.104069487376594,0.056320924909304376,0.031112409906799567
900,-0.7519975379885485,3.377666571848495,9.968741295799132,-0.07239997608309251,0.06135624453240145,0.026689715186504506
920,-0.7286280016537363,3.4113588180196914,10.053239879482671,-0.03697587750717311,0.06746347443029088,0.017192795072486135
940,-0.7210181938825156,3.422612681600851,10.108896404812016,0.0018058327337506122,0.07411918103978153,0.004923280812175849
960,-0.7241789439312097,3.4153040434525472,10.136327897057388,0.04284587174106032,0.07712590745579677,-0.006820905103461083
980,-0.7288270040512048,3.399718511591453,10.148196167875044,0.08532847097952675,0.07364965527258481,-0.017159957859416188
1000,-0.725185206645955,3.37671608984181,10.134990638320886,0.12957165776288534,0.06558581696737341,-0.027527995060595854
1020,-0.7117257055870834,3.3470399366248222,10.095036274478549,0.17411027411386992,0.05718620932284033,-0.03887956257399526
1040,-0.7002634528119152,3.318489959654964,10.029592388701216,0.2161090351966488,0.04492541578506929,-0.05106119576201853
1060,-0.6853546455006944,3.282253556910458,9.936865054686136,0.25185715935968395,0.03199554311748116,-0.06377188179219022
1080,-0.6784068838468255,3.2458246769404573,9.842876529047775,0.2761333212335268,0.022483283474107964,-0.07558526574375432
1100,-0.6852293940832547,3.1932484830583694,9.697725287073233,0.29729312344939424,0.009215671380994139,-0.09187892995153864
1120,-0.7006861149876857,3.150100226192826,9.582473558355566,0.30478370722146897,5.390427677352749E-4,-0.10281301657982381
1140,-0.7178596985671964,3.117320629016235,9.493924502387037,0.3062972233922877,-0.0048269806080747085,-0.10884222332128908
1160,-0.7524177638239831,3.0655498152883798,9.33551540139836,0.30069838363073953,-0.013290215946491846,-0.11270046735229264
1180,-0.7781591646450082,3.029946745240811,9.21048503438222,0.2878372921344354,-0.021533057046574107,-0.11086849516795315
1200,-0.7929710035654289,3.007027634231719,9.122351751308091,0.27351362401166224,-0.02855183859308328,-0.10849120877891809
1220,-0.8199285199780189,2.970106393693688,8.983594356658692,0.24059828029092245,-0.04117537512836193,-0.10509751144027014
1240,-0.8476440325701401,2.935541215896138,8.897130924966808,0.20497129358715344,-0.05383807600682605,-0.10220628313277437
1260,-0.8712988432171276,2.906721391492677,8.858973004979994,0.1740862612761738,-0.06444445019407036,-0.09831042290728503
1280,-0.906549147651309,2.8659306748140425,8.848584799085344,0.1210808974393599,-0.08174330079750645,-0.08664018717106609
1300,-0.9164657230448767,2.845710204141896,8.86477649413175,0.08195876786144586,-0.09231055703968173,-0.07297190107793092
1320,-0.9092854244326948,2.838595932124939,8.883878768927977,0.05496360001098952,-0.09606751753881242,-0.06130085944531551
1340,-0.8603999184546145,2.850234482884407,8.948764423890548,0.007155518331564963,-0.09882963547567752,-0.04261303767138584
1360,-0.8034346615394918,2.8802042558094936,9.024953330289506,-0.024297476012182948,-0.09793611144424604,-0.03615325177505639
1380,-0.7675761430198409,2.9047802061530668,9.081008342824228,-0.04125100065586794,-0.09703649065676881,-0.03546734411868252
1400,-0.694196859205901,2.964287427607729,9.21801331898892,-0.0682602242152093,-0.09734193957643988,-0.041001832841989626
1420,-0.6473631083619656,3.0074039328446505,9.316663411884374,-0.07978346215159379,-0.09988179414033413,-0.05086079381543925
1440,-0.6196176485811062,3.036616067851887,9.387059501239232,-0.08486603031633422,-0.10178820763825087,-0.06049482928205687
1460,-0.5887222604072313,3.0759901995941945,9.492864572882253,-0.086377609006042,-0.10552362833835144,-0.07797279613432054
1480,-0.5748126174910332,3.099487390799491,9.565408048063222,-0.08090641024551683,-0.10894915471673734,-0.09235602723843366
1500,-0.568154047840921,3.117098551571175,9.62340732273139,-0.07085869669594198,-0.11246238236612464,-0.10691443258814562
1520,-0.5644429802259736,3.1264786535808127,9.669171721988935,-0.05785738158906687,-0.11505203639294494,-0.12087398871309289
1540,-0.5646810030594231,3.1272607727183237,9.702114287633744,-0.04326962745445411,-0.11653686587112985,-0.1335371875418498
1560,-0.5709681771053322,3.1241304317144762,9.72646378648692,-0.0271258929873551,-0.1173090672259676,-0.14397435407241846
1580,-0.5788569677759527,3.1161800670457698,9.739525298216025,-0.00918056686292042,-0.11827404142259014,-0.15328645704663
1600,-0.5906762958700777,3.1051099974354472,9.739314381864823,0.008929217243866158,-0.11989137817689342,-0.16176806839926322
1620,-0.6023763818356836,3.0911490952770517,9.731699198034235,0.026224758491142346,-0.12106653048825348,-0.16850391470016826
1640,-0.6132608640049376,3.0755019071831633,9.713145112991333,0.04246334351647867,-0.12124216188737469,-0.17365828733265734
1660,-0.625375658400071,3.059150101468626,9.683445888986277,0.05670589400190244,-0.12082523931974097,-0.17765953884855637
1680,-0.6387300912247368,3.040788150346314,9.647254298796806,0.06804238522999564,-0.12090796929756628,-0.180829856541339
1700,-0.654920535097677,3.0221006546910285,9.610351032070193,0.07623869247609744,-0.12058970155803318,-0.18207438275827262
1720,-0.6681627820631434,3.0014774442821275,9.571384240689014,0.08226039105195652,-0.11816366815468916,-0.18011365502352056
1740,-0.67464098786482,2.988489331198141,9.538312223893177,0.08538197019037891,-0.11440642169176021,-0.17661545881490667
1760,-0.6767665021962027,2.9817494102092175,9.510199336288368,0.08662586059767628,-0.11114569277654034,-0.17337915185102182
1780,-0.6771316791037828,2.977856063244267,9.476278979971779,0.08629931052288417,-0.10828365746299778,-0.16936062776484875
1800,-0.6751641813538918,2.977393911444411,9.45060084336469,0.08438927655292003,-0.10687411905315444,-0.16581397565449177
1820,-0.6728812498598288,2.9778539474607317,9.429224534118159,0.08146371182385195,-0.1052382956916237,-0.16252506565437985
1840,-0.6724073432842282,2.9798126298085985,9.408533261396913,0.07758131141485411,-0.10298837737337477,-0.1591381379831012
1860,-0.6717540972739733,2.9839010026222477,9.390079956280855,0.07238847102076601,-0.10093185324361426,-0.15507383515005527
1880,-0.6674797940353293,2.989299883704142,9.380186511764625,0.06643730007971708,-0.09982655120209391,-0.15066098780255896
1900,-0.6603888074308634,2.9971430216681574,9.37720955448766,0.06088802259175047,-0.09947188447612608,-0.14666157274476943
1920,-0.6512159325187196,3.0062543381752485,9.37705550370393,0.056008581061387196,-0.09943261631313381,-0.14354045013510558
1940,-0.6424768852298389,3.014796819269431,9.378987720431631,0.050881728797199675,-0.09920964026510157,-0.1411134037936834
1960,-0.6351921385520837,3.0241643471643327,9.38800694167614,0.04489178767777048,-0.09763653689115018,-0.1381854180432856
1980,-0.6284822005505378,3.031985182979024,9.396512729696708,0.040435738883460734,-0.09425738085996957,-0.1349488071138316
