0,-1.8531464785337448,5.267845690250397,10.431208610534668,0.3291975371539593,0.22661399096250534,0.19956466741859913
20,-2.1011806651949883,5.535938203334808,10.367441296577454,0.3566946778446436,0.22221977729350328,0.16401146724820137
40,-2.3606910159190497,5.722200850645701,10.442185839017233,0.36827942977348965,0.2425485731412967,0.14874267702301344
60,-2.5166417248547077,5.749169766902924,10.397154450416565,0.4002040745690465,0.2867681463249028,0.15915119787678123
80,-2.6566755324602127,5.73134183883667,10.493658781051636,0.4602383844554424,0.326282798871398,0.1884992327541113
100,-2.7491403964101053,5.66783838855977,10.308115667226364,0.5453320893706107,0.36089437865481083,0.22807951393176099
120,-2.850283461704589,5.587370705186275,9.965592668767561,0.5945278181318652,0.3877983106332913,0.2610159430064653
140,-2.990532055267921,5.458470821380615,9.622267730419452,0.6078912070164314,0.4058426795097498,0.29660411408314336
160,-3.1225478632809365,5.291451382310423,9.336573940433867,0.5999826568446748,0.42147164495840467,0.3415458135000647
180,-3.176446536440908,5.0963947979020485,9.093919112358565,0.5856665328696922,0.43793910392272617,0.3959169076916612
200,-3.1211949694022705,4.888315798191542,8.855733099948154,0.5674187993065695,0.45256524826033734,0.44747354994329175
220,-2.9744168575277032,4.705225937145272,8.62560147845868,0.5463659754118968,0.4677879301850329,0.4874784686823481
240,-2.795170390322095,4.545291069575718,8.356520026070731,0.5161590611828225,0.48109677873906637,0.5044699854794003
260,-2.6087486427606996,4.404377519556906,8.101715577387177,0.46346564098071735,0.5035037826911538,0.4997630247236353
280,-2.4134078423746606,4.283027467648845,7.919498601235634,0.39426451054794237,0.5381961288777265,0.48380649594728614
300,-2.21221836721308,4.199917569640995,7.8200547307036645,0.32355535557392495,0.5652782710254655,0.4640320509441139
320,-2.016379266229533,4.176179998982562,7.770055562040231,0.26059878673268494,0.5659522206461343,0.43848812706550977
340,-1.8184924741237336,4.20284934729746,7.77346273317729,0.1995709086959697,0.5303766920983995,0.40300281637998886
360,-1.6662960287739899,4.265078951786091,7.847048555101667,0.15445958383913552,0.4787859401556772,0.3674527657907698
380,-1.5415795190765718,4.380668317830121,7.982866558027856,0.12095149152302816,0.4286772200009889,0.32784848132481176
400,-1.4490432307233705,4.532983214714948,8.146476145351635,0.09822940840659773,0.39002398003769273,0.28121248813455596
420,-1.4258843565861998,4.731845674889811,8.357878497477328,0.08696957070804254,0.3551893048093058,0.23036607108968363
440,-1.4703102784071078,4.938684998020049,8.603695997627833,0.09537199396084273,0.3160203074916236,0.1851306203252045
460,-1.5508122474204786,5.11436689637371,8.819054878864092,0.12530647418053686,0.27601012692201077,0.14497123686500737
480,-1.649326712123607,5.252372912841268,8.961511361716997,0.16669461573819896,0.24203790013337195,0.11051620569744028
500,-1.7938240873760412,5.345740848495847,9.046194444383893,0.21267283246741586,0.21586114860893715,0.0837666162156633
520,-1.996853111474134,5.398000720444076,9.080530179749935,0.262293564618155,0.18814595984380453,0.07278231557014339
540,-2.1918774605275386,5.412437045468693,9.069875772020458,0.3154622369118249,0.1506702857487629,0.08176927919606719
560,-2.3368124681103053,5.409448659318125,9.00660439230438,0.36791354010347277,0.10893753856324996,0.10231262348337561
580,-2.457388701699214,5.38382672380518,8.893476672623875,0.4173788725112952,0.06876798100585554,0.12693324873660816
600,-2.5429955843865755,5.339214401891032,8.78301409231239,0.451241421985414,0.04459115943734152,0.1467677628346886
620,-2.595886875253214,5.268728786453777,8.66001186039457,0.47488480829453983,0.03634859649032987,0.16429320614943174
640,-2.6258295568592205,5.1822125161631725,8.530817739079508,0.4886311377487616,0.042484315609287344,0.18020189013541416
660,-2.637674311243675,5.085279866131869,8.387759375138716,0.4940569129865617,0.05762962657111612,0.1943230824443427
680,-2.6409026704030936,4.981886260922301,8.227764122898924,0.4895170313107054,0.07613831749449192,0.20707374688751284
700,-2.6342582231086658,4.871618077517375,8.069849929449076,0.47294693857613834,0.09393135615851718,0.22061141950311938
720,-2.6045478023775543,4.758928039400873,7.926209337336562,0.4464434452088593,0.10927055682831235,0.23497803019590202
740,-2.5555483563484604,4.653866405401634,7.792332898522044,0.4116991623418545,0.1244730746649594,0.24889777521891004
760,-2.4903338082548645,4.5588628456706095,7.668206588805668,0.36924388948014925,0.14116243778151416,0.260162573804458
780,-2.408598800253031,4.464708371846764,7.553093581287949,0.31282897909922114,0.15784852750697115,0.2667157820506412
800,-2.3393498519379423,4.38822422347155,7.4830873522413786,0.25720557256346477,0.17068117687686246,0.2660811273156699
820,-2.2825311938136377,4.316339602014597,7.431365536942201,0.19737107832710643,0.18355849482913447,0.26192963478319786
840,-2.2269415574672835,4.257374510169029,7.411168023772623,0.13290574024872984,0.19335354343404587,0.25763076340415697
860,-2.1558742295647186,4.211991858114017,7.436266858256265,0.06768410468769646,0.2015084466187995,0.2503996257646679
880,-2.0815549869612266,4.177907778175323,7.485298300182427,0.004274332343861665,0.21228265788042816,0.23539003760395263
900,-2.0273712407346935,4.161262916140659,7.560059741620095,-0.058976800771184786,0.22078508997000554,0.21740498303520864
920,-1.9633236447594276,4.155705711872954,7.674336199383987,-0.12008474555393485,0.22174740023053202,0.20033418032169145
940,-1.8896087609452301,4.162753997543423,7.8373745980950975,-0.17195309736926742,0.219894299908906,0.17987374759629637
960,-1.8362905811471395,4.196419139251565,8.022910555805822,-0.21106504302676485,0.21526057166023876,0.15687069671129752
980,-1.786192598111817,4.248966394232051,8.221634066340947,-0.23740448832159197,0.2047378227384392,0.13406804202027656
1000,-1.7302272883424699,4.309047245429557,8.416639614452436,-0.24986547369055576,0.19145637228112958,0.10836044762134371
1020,-1.6945847347023941,4.37226230998834,8.578920404683975,-0.25154658967484944,0.18161796826447937,0.07799009309882032
1040,-1.6852564007599593,4.440076098992274,8.735976463153367,-0.245334462398915,0.17162901251783078,0.04245585243007068
1060,-1.6956026514894085,4.490283656311253,8.86700938058936,-0.23151610057653957,0.1602936483060758,0.012236877200694529
1080,-1.728520650977499,4.530338413929671,8.984488270255957,-0.2084527945161661,0.14514548502381094,-0.015180378031571594
1100,-1.794023025805587,4.5630463976207425,9.076088142710805,-0.17817344990965991,0.12535771120763148,-0.03683321182996396
1120,-1.8718455147135542,4.5865769015217035,9.1578485107215,-0.1433321578815022,0.10058493280395413,-0.04951282167290044
1140,-1.9363401768876036,4.598984113507179,9.230329055521787,-0.10371036798125312,0.0745256167463164,-0.056678848624078515
1160,-1.9941425487492819,4.602735682478491,9.278391405721381,-0.06117107007658378,0.05231845821009898,-0.06222100185808302
1180,-2.062037827212786,4.59195880361439,9.30300191063242,-0.018523992205845174,0.033648737851223076,-0.06720802761019044
1200,-2.1393840737625744,4.56792913597931,9.311948060022164,0.023339699788026618,0.017620384860330435,-0.06921338502404566
1220,-2.2070416599036213,4.53576085108245,9.3058989704726,0.06343266660182137,0.007601402998305188,-0.06700633383707372
1240,-2.2694998971664133,4.498599732671599,9.281416281735734,0.10096881877537633,0.0076678649719972855,-0.06454112728387995
1260,-2.342352360227583,4.453717366985011,9.234778768089338,0.13449470610249736,0.016316199647280705,-0.06320408479593391
1280,-2.434054806573536,4.39183310920748,9.162420793631231,0.16295755544842042,0.029260070127799766,-0.056319044174329015
1300,-2.492506796417388,4.334595342421353,9.108044372962208,0.17950295085612378,0.0385913130930147,-0.040226062307176125
1320,-2.5083897851984878,4.287420982529317,9.071097081437761,0.1927306806102457,0.048657327207368956,-0.018729541080443675
1340,-2.4901411015608095,4.250537149851972,9.031523225524209,0.2045209287585352,0.06295788610946726,0.0010908885969018395
1360,-2.4506072639537755,4.217586658494447,8.975894044804317,0.21234204212252025,0.08216994336312203,0.015052940949336976
1380,-2.4074771181933663,4.187878019554876,8.911148692609565,0.2136182325958791,0.10771324691303442,0.02336268032104593
1400,-2.3679942963093206,4.1630531742078505,8.846856195752213,0.20731848478479512,0.13898716319615237,0.028656997227106722
1420,-2.3310577924078477,4.148128743587491,8.793853656942492,0.19463194676441273,0.1731480449938961,0.033200834777775856
1440,-2.2899878718464053,4.142973975963511,8.753480118007984,0.17773499418271044,0.2086692369377272,0.03624653624197058
1460,-2.2486230547985304,4.147649348928378,8.72437565422377,0.1584978228244918,0.24270917856863336,0.038689694126731525
1480,-2.209773161955694,4.167389497652699,8.717934688325762,0.14087425885574506,0.2689498883061935,0.0423155493362693
1500,-2.170664021399491,4.201722591775637,8.726772812756343,0.12991241659477645,0.28409011218263025,0.04498638035441333
1520,-2.129665317295353,4.239573655931513,8.724582898655122,0.125100068845322,0.290345306544927,0.043103950507669346
1540,-2.105686052723063,4.273243453152596,8.707211715077596,0.12045643906892528,0.2915786222369957,0.037155378499763116
1560,-2.10627711537443,4.300141381759628,8.69889148537268,0.11502679444551701,0.28825363449914365,0.03138186721507822
1580,-2.121098977969916,4.327574674782834,8.698929699347966,0.11118837564728774,0.2792793262769343,0.027780277717144586
1600,-2.129623581117638,4.345563237325703,8.697555965157783,0.11009197840060622,0.27177698908774484,0.026531176235823455
1620,-2.143513627001436,4.371355829777314,8.689550887782048,0.10884952400297523,0.260968353190977,0.024108611719030042
1640,-2.163485576579375,4.390810944562528,8.682696836030305,0.10769408658709821,0.25159880039316895,0.021805021163326367
1660,-2.1847001154696573,4.405895100870724,8.675344818980163,0.10679526757648383,0.24387790886389485,0.020653934851481388
1680,-2.212168423965942,4.426048578783935,8.665676060375342,0.10554279250247348,0.23464900924040621,0.021342784091776028
1700,-2.2265928910683384,4.443133597879958,8.656672670172274,0.10518737537618861,0.22787217695848921,0.022942862762875264
1720,-2.2366042432943583,4.460351018232438,8.645560938467511,0.10548632804358678,0.2204919265895144,0.02431938322565676
1740,-2.2461511402085694,4.477305621663226,8.633089106797167,0.10633365937139258,0.21235332979346494,0.025292609008775734
1760,-2.253490293546164,4.493686400260647,8.619569055891501,0.10716065332735208,0.20494995769521324,0.025454489081600612
1780,-2.2593040486702893,4.50693279262914,8.605127634667628,0.1073225219115907,0.20087454330267068,0.02477099844273769
1800,-2.2651639484933446,4.51847988517106,8.58990571774593,0.10655328959613075,0.19986116512944654,0.023706716830607783
1820,-2.273312019377265,4.530471359054943,8.577316357662669,0.10543860430098459,0.19939435613191214,0.022962136800158996
1840,-2.2812450377248257,4.542124438500118,8.565495903418956,0.10501164638030731,0.19823104462328955,0.022686856039718928
1860,-2.2882175129397133,4.555021661951353,8.552265300562507,0.10466709778593836,0.19451832477425438,0.022346732456958576
1880,-2.2935088454493475,4.5650914126308635,8.53987284656614,0.10380603597362399,0.1922668281646717,0.021728614957586007
1900,-2.299725009982964,4.574891812523308,8.526646419591511,0.10283504347635784,0.19155418423054985,0.021495873314865147
1920,-2.3038439222193343,4.585485038822707,8.515547282537636,0.10092115720671041,0.1897434633259652,0.02142772139097583
1940,-2.3047769846996724,4.59629669345238,8.505476758034542,0.09955975271360432,0.1875112405607731,0.021019216322321257
1960,-2.306025743848623,4.604551298688528,8.497559660060663,0.0985444314357122,0.18575447859921793,0.02050646123847455
1980,-2.3100689660541356,4.619391896484514,8.484521346274944,0.09687892653798398,0.18283925598803077,0.019716913527163614
