0,-3.302732070287069,5.702541669209798,6.187134000990126,-0.1430400994916757,-0.37477217780219185,0.13412488169140285
20,-3.2296135285321403,5.58405870549819,6.610254119424259,-0.23688085223822034,-0.3742813205017763,0.08793905382866368
40,-3.237395944595337,5.430850715637207,6.774265098571777,-0.2697473962604999,-0.3154511511325836,0.02976684186607599
60,-3.3197149435679116,5.228327852306944,6.938807299642852,-0.29114952649582515,-0.20069828234387166,0.001542499034919522
80,-3.3627828156075825,5.050395418957966,6.850982828838069,-0.32003567395050353,-0.06362835345108335,0.0035592580963743894
100,-3.26538931593603,4.919810226985386,6.752928908990354,-0.36761041418934354,0.06955541541077653,0.007124102750450981
120,-3.097600742390281,4.9164710881417255,6.644582781875343,-0.44949675109564213,0.19990061060117,-0.006262644684236301
140,-2.966545011447026,5.098996800642747,6.738148227104774,-0.557303234992119,0.28292755089127103,-0.022885083536115975
160,-2.7357920891529806,5.414233169040164,7.304389135257618,-0.6309224188428473,0.3126304900223339,-0.04064166914621318
180,-2.56489078155378,5.751464390173191,7.935342596798408,-0.6049874082843705,0.31800912879407406,-0.07147693203580452
200,-2.585822864373525,6.106767823961046,8.420862393909031,-0.5199484157479471,0.31011000586052734,-0.10450027523976234
220,-2.7517553653035844,6.433364877895433,8.787107063799489,-0.41241673315514105,0.27443403368625713,-0.11560414736254179
240,-2.9200260065636545,6.684115688755827,9.09642011264585,-0.28773628101455717,0.1985528083729013,-0.10206345476666992
260,-3.0390908226632236,6.849588084639165,9.320365943406758,-0.14527963660657406,0.09983116360544636,-0.08244307137404878
280,-3.1625645209531315,6.913950533163352,9.427994763264891,0.0025455638094515095,-0.007549912485553593,-0.061383647699153325
300,-3.289043607161595,6.884041786193848,9.465707100354708,0.14736920128074976,-0.12195078250593865,-0.03419737329419989
320,-3.3703306351882825,6.770147793534873,9.446339223695839,0.2866525856535072,-0.22368216883067205,-0.0054620726344486075
340,-3.3967119920743656,6.591471338925296,9.330307486939104,0.4105990716090349,-0.2915076525779824,0.016100227060944657
360,-3.404022743949642,6.3773929701223,9.123049661710665,0.5073941496333906,-0.32347231465936094,0.03049716880157977
380,-3.406767588338734,6.138213568263584,8.869082927703857,0.5762073838462433,-0.3330000015435579,0.041588250817846
400,-3.3979306046725712,5.842909514729739,8.537810784334328,0.6265075617409938,-0.3356096917186041,0.05544170697508325
420,-3.354659847707056,5.602004450959201,8.207999861107192,0.6427498096235971,-0.3363135513750701,0.06912854026128959
440,-3.2648984496606226,5.374206336464155,7.885006568329857,0.630062125902125,-0.32977377361354027,0.07784467444999173
460,-3.163206828863193,5.1532470725381225,7.593587818206885,0.5922973834646817,-0.3160023569559249,0.07671167894672506
480,-3.079440737299144,4.9398636796736515,7.324677906306507,0.5338844410396122,-0.29999201237155226,0.07029968050762718
500,-3.010437521606825,4.747462408217685,7.098497649222189,0.4571744342074151,-0.2886414237649255,0.06658268279188546
520,-2.9232034838362915,4.578304227294834,6.925456250911434,0.36811010506361314,-0.28332725048307583,0.06662489329868732
540,-2.81819955622244,4.439691159240327,6.802805308465915,0.2726200385847937,-0.2792276546763182,0.0642778423598389
560,-2.70988827834421,4.327504928384293,6.725123387448331,0.17407350769226856,-0.27546384337833746,0.053257961585087346
580,-2.62509921495132,4.229752518824942,6.69198051916719,0.0734694124325926,-0.27742103499613335,0.028876314665968895
600,-2.5978138662459127,4.143717938037849,6.715224729828625,-0.0305785522443721,-0.2863241055047147,-0.0038377115617977435
620,-2.621883262765522,4.072500600556556,6.826008584178411,-0.14771316394639702,-0.29509312943286764,-0.03144817193432783
640,-2.644334898194235,4.0579526329025875,6.972189164117035,-0.23276038450443567,-0.2915159769762614,-0.04034375933902373
660,-2.6463131345128708,4.090003001705886,7.165251881754311,-0.30862567002076086,-0.28070945748600457,-0.0470003153547563
680,-2.65057834832024,4.209381939926919,7.491596087813377,-0.3980423822723539,-0.257674359353292,-0.07143073273383238
700,-2.711875809139687,4.335977998758309,7.768451220572811,-0.45244755952504195,-0.23644406383311733,-0.0958729309415802
720,-2.8061487036570907,4.47667490666577,8.068086662491163,-0.48881726800774533,-0.21733852152169372,-0.11087647573556751
740,-2.9013252286966162,4.627527862646641,8.374442744758221,-0.5031976916512789,-0.20088562731368031,-0.11579165667107982
760,-2.9935547458243708,4.77909494375757,8.664082044476196,-0.4954840244454202,-0.18501127354839014,-0.11074585719417215
780,-3.0666452305575396,4.911889591569047,8.918912652282067,-0.46706956364559354,-0.17057840925437273,-0.09493821240346419
800,-3.0979904550102364,5.010482376304897,9.10004712609726,-0.4275111402708508,-0.1587080123934197,-0.07582751562076077
820,-3.105238895885403,5.083333233568972,9.218252883997444,-0.386559815690452,-0.14787190431073993,-0.05889116981113744
840,-3.0914541782340272,5.177750279381604,9.369984366599171,-0.30468073347583413,-0.12409831175979377,-0.033362446391644575
860,-3.081830304577737,5.207420356050921,9.433631502238798,-0.24988847615748225,-0.1066056075578057,-0.02270238623678894
880,-3.0733941801300606,5.215197905656971,9.489533657080507,-0.17045892392833756,-0.08481497931268628,-0.010664178549682032
900,-3.0607773022121942,5.199831624017234,9.515682675723417,-0.10645779045972843,-0.07470555738645827,-7.403924943874253E-4
920,-3.041958553981232,5.171994479906157,9.5215518099697,-0.05039404157647177,-0.07146943142012643,0.007475059463544504
940,-3.008858854300642,5.1249048803755795,9.496985509187214,0.01982925639303454,-0.07628498949495965,0.01798534334294862
960,-2.95941777284297,5.075499065167573,9.45647259037801,0.07920182654422987,-0.08893203319716607,0.026401838164551356
980,-2.89454128889201,5.025664146181592,9.408686418492016,0.12808139580255834,-0.10347165024463585,0.029598295784297186
1000,-2.8026484948905415,4.951155081394717,9.335374793042282,0.18534748695033082,-0.121184216474564,0.026327969925816354
1020,-2.7222726120748457,4.875088065830579,9.257086526328198,0.2285610279046229,-0.13566543672492642,0.01872052791176669
1040,-2.6604695073024276,4.807403161324274,9.174766225374748,0.2590082925831394,-0.14478125559899382,0.011784428930797867
1060,-2.5871802240490775,4.722321047972956,9.061455390682482,0.2884609091140381,-0.1535022928889892,0.002926173187297869
1080,-2.5269287029762615,4.651424143993913,8.9533906975489,0.3061608821028069,-0.16167101703552803,-0.00799882019336304
1100,-2.4774315198842385,4.577605247927321,8.821748846821848,0.3173974928556888,-0.1720958453595909,-0.024567325956430203
1120,-2.4554964706979017,4.519427970280565,8.699825872461517,0.31907636096934866,-0.1827294447613493,-0.040498557246544144
1140,-2.4531472688501186,4.46934613969395,8.578032891927881,0.31239581301095004,-0.1930781111205393,-0.054898112845864704
1160,-2.461068061651919,4.4232705713407565,8.464149697430463,0.2972529648012135,-0.20120390842105632,-0.06759552373141674
1180,-2.486616814133439,4.386054649676001,8.36458142782435,0.2746958801553512,-0.20655136580776362,-0.08034288401067748
1200,-2.5430551188647263,4.365597185247997,8.282743908977702,0.2475344420708565,-0.2103164146926729,-0.09293829932477068
1220,-2.620108541309002,4.355553126343864,8.215623441801602,0.21829968099797745,-0.21654398588740092,-0.10318423382403603
1240,-2.7028125300565184,4.353737132604618,8.16713904528057,0.18738890070760367,-0.2251944354721619,-0.10962781884944907
1260,-2.784982464531559,4.365972839183494,8.146996802229678,0.15588023950450094,-0.23059782797954329,-0.11140977993291087
1280,-2.864584633195242,4.391614548524686,8.151289955631409,0.12640743271692056,-0.22961640276568995,-0.10958631774906366
1300,-2.9391824480718216,4.424148440726402,8.166187212596672,0.09931685641226586,-0.2223406226242533,-0.10609890438776728
1320,-3.012263032824241,4.461333871247742,8.187909296407911,0.07367950834237671,-0.20930765924598968,-0.1016717785367969
1340,-3.094191498892169,4.514138223392933,8.223954085970531,0.046282340763998765,-0.1906344910949205,-0.09255003476660772
1360,-3.142390007662965,4.564029105796524,8.265264165955921,0.02510598352202256,-0.1723220745882116,-0.07965872615862352
1380,-3.1640786006521084,4.617209243529839,8.311263026699187,0.007977563050136995,-0.15420420111134003,-0.06395512736998696
1400,-3.162267296042131,4.671554521402425,8.3572189956126,-0.0036109932382469593,-0.13784471053832575,-0.04785759212368208
1420,-3.140380142215083,4.726002275153809,8.398754610103358,-0.008943985505460874,-0.1225316928157273,-0.03298480179173613
1440,-3.098344907290641,4.768735344163197,8.432094152304526,-0.008700831632512777,-0.107598993562039,-0.022208837503898265
1460,-3.054441707585013,4.799459411153952,8.442816050800936,-0.004926036457175106,-0.09316564430342754,-0.018267909122416392
1480,-3.0257028749049986,4.8186058942405,8.433132429590335,-0.0015762879066721612,-0.0803350797218395,-0.01892883838898513
1500,-3.0147066228031143,4.828569876592667,8.415744601129516,-0.0010989640226087918,-0.06838047735249185,-0.018616432973706142
1520,-3.003350775204539,4.831288963725961,8.404123888256844,-0.002302756163786445,-0.058258976428926496,-0.015418908908592469
1540,-2.989781576484772,4.833172394552382,8.396126572095838,-0.0024597180889928258,-0.051076697596317826,-0.011984234216745512
1560,-2.97786637165118,4.836678533188388,8.384031918179243,-0.0014938365846319356,-0.04764334309766127,-0.008933386094577144
1580,-2.9672556125133496,4.838386879224233,8.373613259950538,-8.486773891311231E-4,-0.04700527349120454,-0.00610945919200916
1600,-2.9569657186227962,4.841904587069067,8.363759046193303,-6.260354357215054E-4,-0.04689428838084895,-0.0035760680301591937
1620,-2.9484747654747174,4.847371855348837,8.353273004921803,-8.387144736339709E-4,-0.046155482208347844,-0.0023109686535682126
1640,-2.944334493794789,4.852263447719798,8.34356054193562,-0.0015440872174665508,-0.04555474299585122,-0.0029037435132999063
1660,-2.9456910009988966,4.8539088080274215,8.334974740094998,-0.002177249877165784,-0.045315133048793275,-0.004464024019783692
1680,-2.952108858564739,4.854495932826594,8.326090806012237,-0.0024411158059550408,-0.044882906697535495,-0.005785959273939519
1700,-2.9611355175274885,4.855282909506477,8.314307211716285,-0.0024065803522351145,-0.043973900941678926,-0.005869899364589746
1720,-2.968820750988512,4.857793832982927,8.299413222057575,-0.002487073353139832,-0.04377782498621938,-0.005034200362305538
1740,-2.9744831965922303,4.863144554388108,8.28520039988033,-0.0030265741538795317,-0.04456838291858485,-0.004271142746536375
1760,-2.9802460063869756,4.8687289714211754,8.274160809897714,-0.003702779191533207,-0.045508560189854406,-0.0042307796959196115
1780,-2.9868888598917933,4.874388045602565,8.264699532681114,-0.004451919116455918,-0.046997288286277854,-0.004543953098658636
1800,-2.9938200363836263,4.881976176090563,8.256945546883255,-0.005376078587422195,-0.04811204493054021,-0.004979658679179898
1820,-2.9992621901251324,4.888071119007123,8.249874981857786,-0.006210981034079954,-0.047903771560807905,-0.005694455727809827
1840,-3.0058895872923164,4.89328274524809,8.24060416277028,-0.007234688471955746,-0.047091605297443155,-0.006525631048463057
1860,-3.014294289042696,4.897358808448017,8.231245014185035,-0.008516136967759389,-0.0466884649351041,-0.006892087852824651
1880,-3.024311820246153,4.902063275443363,8.224425784245579,-0.009633090036711686,-0.04698218634005113,-0.006500109481553805
1900,-3.0333216478197116,4.906917458433092,8.218899790921574,-0.010357559153671104,-0.047304819834099766,-0.005571231566024333
1920,-3.040396573076582,4.912508671699317,8.213266758022794,-0.011097795079361386,-0.0474716046349009,-0.004590720843500012
1940,-3.044592448114447,4.91824983252203,8.20928768274312,-0.011941309069068385,-0.04712321374211272,-0.0037381319366724315
1960,-3.049712153353941,4.924040765148679,8.20607878913296,-0.012630992274575596,-0.04641206470738454,-0.0030521893078524075
1980,-3.054452319319817,4.929717166997994,8.20328565544192,-0.01287184380039766,-0.04558527888974799,-0.0023863967335397292
