0,-4.039440107345581,4.763215017318726,6.682583808898926,-0.214714727550745,0.027040404547005892,-0.5092999339103699
20,-3.895428980098051,4.579841052784639,6.951192266800824,-0.2936414204099599,-0.056996428079026586,-0.5826997897204231
40,-3.87624714924739,4.401309160085825,7.316232222777146,-0.32916509675291866,-0.11631141384490408,-0.6796725942538335
60,-3.857813091839061,4.243270383161657,7.491621340022368,-0.3208996550563504,-0.12684957866611726,-0.7529697803890004
80,-3.822679434503828,4.016676028569539,7.486603225980486,-0.30443281769042924,-0.12123679873045712,-0.8006269349938347
100,-3.806452603340149,3.774167742729187,7.482232894897461,-0.29570678010582924,-0.13547634026035665,-0.80431427359581
120,-3.8087535071791265,3.6093366104259825,7.540025995488753,-0.28485491362057236,-0.16288690208539106,-0.7843970028977645
140,-3.8670857964139995,3.5136389551740703,7.678795828963771,-0.2522314025060923,-0.18537978120994839,-0.7512973501826777
160,-3.9323633297069653,3.508315379555161,7.773392239132443,-0.21048389839612552,-0.1705258422203966,-0.7332170823135892
180,-3.959025883093113,3.553099248467422,7.842988316605731,-0.16806783528271607,-0.12961322632504674,-0.7283364926896444
200,-3.9387960804833306,3.6098800394270154,7.8450730747646755,-0.13479030249226426,-0.0627436305085818,-0.7466112640168932
220,-4.045285930438918,3.6938045754724618,7.824480256255792,-0.1197290089960229,0.007029742762750509,-0.7743649044815375
240,-4.2122068989951655,3.784582925292681,7.838447363871448,-0.11405125602570204,0.05951288693918372,-0.7998689041947419
260,-4.467215835002431,3.8975373192837366,7.896631826434219,-0.11134763167795252,0.11175042717603215,-0.8313060183274118
280,-4.873650771815602,3.993763408040613,8.015371314878386,-0.09400164387832449,0.15481671703055622,-0.8557893241324076
300,-5.31357958480602,4.055371579323106,8.14990444765746,-0.04887622785718955,0.15089732636022204,-0.8477576284008171
320,-5.725061817992505,4.077908620559912,8.310752601074658,0.034094645310086096,0.11040540178902715,-0.813263950909642
340,-6.138549366775824,4.046996656729251,8.454126053115948,0.15385554469551663,0.04706230820441733,-0.7714263713050659
360,-6.6143952554272065,3.969304678517003,8.572965062049127,0.2942463016528035,-0.037466511034196424,-0.7230933569491871
380,-7.071537898362049,3.8144875380204866,8.64014353488852,0.4388809060775018,-0.1180080961596015,-0.6613134999011009
400,-7.398257648735716,3.6100089022159927,8.612966810750683,0.5667710822941572,-0.17339938530447888,-0.5790345757132211
420,-7.5875292223925035,3.411631888038786,8.50165070368591,0.6627962938249735,-0.19701446950768625,-0.4806833005296951
440,-7.666547482026452,3.2344804283649844,8.337050542474431,0.7274943337735924,-0.17889515544103587,-0.3749789182335776
460,-7.663964557647705,3.083950110906974,8.102633916414701,0.7573049682240265,-0.1406813888070293,-0.26260791171628695
480,-7.56911149283348,2.9479506283154335,7.863238801509876,0.7603961037898556,-0.08433168545236876,-0.14712918666306093
500,-7.389804688675143,2.8302321671133077,7.644925378510172,0.7482861279889553,-0.007832117330159339,-0.037610191684127985
520,-7.152595485340465,2.690673929165033,7.3817771112376995,0.7243352782446891,0.10619923168877986,0.07743560093539682
540,-6.959338792060551,2.5893943927888023,7.061526315776925,0.6831784791582706,0.19880307891830934,0.18179549476981424
560,-6.655840736450785,2.485401187265702,6.8076403472193725,0.6224323902081824,0.2113546220925084,0.277597348734547
580,-6.302690465064322,2.394057706792335,6.607918069285692,0.5607231564201476,0.22015363608151065,0.35550398432237446
600,-5.995551476521151,2.3497613732895206,6.42445009216548,0.504185346572379,0.22320081809136486,0.43281611106136725
620,-5.615805176702829,2.361857830847685,6.246966562391473,0.4434261525587107,0.22378245398330573,0.509094895916776
640,-5.200517019340351,2.4477815648624257,6.1204548051386185,0.36856646831286377,0.2269408535038524,0.56625382238721
660,-4.815065475585668,2.5816923296214016,6.083592847664503,0.2861703217022823,0.2261858016785666,0.6055251374314337
680,-4.431309167872852,2.758910829175106,6.138452193293143,0.205276681251273,0.2230558128155191,0.6312355429891654
700,-4.00865589602761,3.0047161826634246,6.311450892140808,0.13022376062055055,0.22603107237078454,0.6435875916432539
720,-3.5786702586213748,3.2847055707871915,6.574137299085657,0.07463242427445949,0.2333412918789933,0.629048727285117
740,-3.2178177261700878,3.54929469027496,6.85635022918222,0.047101009355906345,0.2339822031019328,0.5837793005086095
760,-2.898986142610526,3.7790538913538025,7.125931384083036,0.045982555321737985,0.22260346574700005,0.5133846546302928
780,-2.6941900901772358,3.8906650530795255,7.269638578855881,0.060062366195689935,0.20760700224688922,0.44992398289549684
800,-2.480751246750892,3.947495824447623,7.360362831201102,0.0809635148263416,0.18728464849323997,0.356842722917149
820,-2.353482528253734,3.919446129472025,7.3763092962746395,0.09592499469524342,0.16748880578240494,0.2688724284396231
840,-2.2877858695293907,3.8324157255341467,7.336034350566844,0.10609059455540341,0.15238998115881958,0.1814402354918527
860,-2.2821652162141826,3.7064035876708874,7.2230706128294395,0.10849890686018544,0.14257952448499783,0.09747450586397942
880,-2.332329156382443,3.562857463547628,7.084979888531443,0.10367605152909887,0.1238393809155191,0.01837293116299257
900,-2.4302450256277344,3.3902819325633087,6.966181074026922,0.09695524909600975,0.09496343609921874,-0.05862357506863074
920,-2.6166312244776977,3.1998468192778233,6.855137088186941,0.08781438070078065,0.05980553302676796,-0.13064753826893377
940,-2.9113587616801566,3.02641823815043,6.752194503911204,0.0734383627571223,0.023032104703633635,-0.18472280575005592
960,-3.2522435987776412,2.866470509534819,6.681453235822751,0.052026566066392124,-0.01123157201126049,-0.21228802029127888
980,-3.614509342412643,2.703493452094165,6.623196732252836,0.010581109007554395,-0.03527179761649812,-0.2134327509720337
1000,-3.9232156997285603,2.6058392207619647,6.635291976071354,-0.04308517056332838,-0.04350686632377964,-0.18916536989995247
1020,-4.198707769902962,2.540321283536782,6.722820106858467,-0.09747200811025797,-0.04444237804024864,-0.1471519715978071
1040,-4.435609761573548,2.509189671195697,6.848152044224878,-0.1461921927757388,-0.04487485917945674,-0.09197891728822576
1060,-4.59530993853802,2.4986835285961697,7.025828369148926,-0.1890880443946752,-0.042394898127505055,-0.023337284451750314
1080,-4.653308332300507,2.4871366083363045,7.222101150623485,-0.22306819536176098,-0.027469133057698374,0.05009569956048187
1100,-4.634225815994099,2.4715969662842574,7.406698448558867,-0.2516730490965268,-0.002847306275974122,0.11806170557038899
1120,-4.571978416697029,2.460680505208413,7.590532615603435,-0.2752982811695892,0.02064973553612393,0.1829914027478272
1140,-4.452586081465508,2.449432450203978,7.764745378510115,-0.2913548205959353,0.04510569799780608,0.24698791174178428
1160,-4.296795480701465,2.4450645290167077,7.902151837025352,-0.3000622273434468,0.06951525619411335,0.30658360679778096
1180,-4.133153374578972,2.45511196650672,7.967550263008095,-0.30472824200144644,0.09635426305519962,0.35896112129030894
1200,-3.958531100529167,2.4629722643485255,8.000645516870113,-0.3120399889864239,0.11927051992138644,0.3996601956575988
1220,-3.7789790964802026,2.470736545123619,8.031353143778876,-0.3152995017610831,0.13548262490498394,0.42166670297770564
1240,-3.673885113834868,2.4861991175007505,8.035932986951504,-0.30907848495224566,0.1401141546944561,0.42613760214262514
1260,-3.5900282798072967,2.5027447640788174,8.013615718481054,-0.29880051002236574,0.13596789627730746,0.42622398003677414
1280,-3.5128529967856816,2.5127618971547605,7.9900854507167836,-0.2867606497162942,0.12199427150552156,0.42205779517044717
1300,-3.451371009294466,2.522237713359923,7.974555866754501,-0.2753785365130578,0.10429198234864276,0.4105454173565746
1320,-3.4184472371204917,2.537512283782521,7.967626061462017,-0.26789446036857906,0.09215120567672613,0.39264226305207606
1340,-3.4050050514366497,2.5465796143526447,7.971590311268172,-0.2647041325134558,0.08739449291915959,0.3730868870754153
1360,-3.4017419172317616,2.5475039864275506,7.98793461498986,-0.2628209316913098,0.08450522224338848,0.3563637362896383
1380,-3.4031497024778257,2.549863785285194,8.01311054685181,-0.25995003184668286,0.07876377869307062,0.34278316719283397
1400,-3.4094666341287287,2.5552152146884928,8.043608885239,-0.2568922386545202,0.07202234835606879,0.3306883670422046
1420,-3.421936667517888,2.5597953483954354,8.07960490543734,-0.25384162141866407,0.06720909146443457,0.3203205759149831
1440,-3.434587822469068,2.5617227326801233,8.113208040582448,-0.24949469719658876,0.06468370864317514,0.3129416925520612
1460,-3.439104480862928,2.5636849068012086,8.137941421680152,-0.2440556481333139,0.0645891957935722,0.30658162727641564
1480,-3.438775481087903,2.5652157231387194,8.15196142464533,-0.23995902898834748,0.06606552161247237,0.30068225877690374
1500,-3.4392326301184495,2.5656725650489958,8.16468414781591,-0.23540764944038245,0.06738331316034431,0.2947934512623477
1520,-3.438680132727127,2.5655649963867826,8.172505546086587,-0.2294203148869714,0.06809627195075453,0.2897939831107998
1540,-3.4339958139992897,2.5656723684153837,8.171268877361111,-0.22307973761550634,0.06849452522708563,0.2854705714131411
1560,-3.426562063508027,2.5670943165576317,8.165265601139982,-0.21839819974047714,0.0694870268653176,0.28093982686696106
1580,-3.4210194228978734,2.568547683218954,8.163794032596972,-0.215730990590039,0.07067777432198061,0.2755855583545556
1600,-3.420328989007408,2.569257318465289,8.168769417023968,-0.21321733671711848,0.07164704955996457,0.2702725684787033
1620,-3.4204198665291363,2.5716090545602457,8.173899038021554,-0.21051718847453033,0.07221033987035155,0.2656162238191723
1640,-3.420408787933411,2.576028950725837,8.17989732042354,-0.2082110541905422,0.07227355753621807,0.26119518386188983
1660,-3.420250042501892,2.5796756532618446,8.189727382811116,-0.20577902686653782,0.07157237038824378,0.2565139420083998
1680,-3.421436745923483,2.583256363557822,8.199608694151022,-0.20242297105061657,0.070221953577239,0.2509974337903396
1700,-3.4234486136924867,2.5862775911393987,8.205756490518322,-0.19962227237759922,0.06934286140431911,0.24637853252398148
1720,-3.425482765935256,2.5898893067520774,8.212926601528698,-0.19727422162528804,0.06896422252336398,0.24231473933244851
1740,-3.4274712713372595,2.5933729474044824,8.221655657726535,-0.19472860707419756,0.06893323196312426,0.2387582348139766
1760,-3.42780789697411,2.596427170017246,8.228357368643588,-0.1915184721072468,0.06892287512677986,0.23565815073720872
1780,-3.4256336974511523,2.6003933929453704,8.231120698910273,-0.18844893363673962,0.0689120149637211,0.23232800821391725
1800,-3.4225837881240886,2.6034935858717323,8.23381754114031,-0.18599456541874893,0.06879009428816965,0.22830048307847217
1820,-3.4207824231156665,2.6045918927421705,8.23892542116794,-0.18359219352878792,0.06852065410352494,0.22383540221958753
1840,-3.419846299571909,2.6049862061843654,8.245031629752116,-0.1805766692873156,0.06863961376776674,0.21977996629518104
1860,-3.415965195335252,2.606933240853397,8.248863062949829,-0.17726969157944344,0.06916552019438924,0.2159105829635094
1880,-3.4108692270574026,2.6081545838458835,8.246167848271806,-0.1743722933845477,0.0680368742711784,0.21098787215706663
1900,-3.4087139968862195,2.609443248346678,8.247307148382086,-0.17236058400145898,0.06268549272958357,0.2056530916097273
1920,-3.4067661129187026,2.6108151721595085,8.257284220857853,-0.16982235897602882,0.056306305435621214,0.20018065919146966
1940,-3.405826501432168,2.6119287829559945,8.26642536277172,-0.1670462797257037,0.0535469711247963,0.19593099376388476
1960,-3.404965361246974,2.6128887796049884,8.272744240020948,-0.1646875344337158,0.05336571552940503,0.19183717158267696
1980,-3.4059130610656685,2.6139894813966054,8.27846521154782,-0.16292642586602957,0.054150723724304066,0.18758748960393815
