0,-4.0129884878794355,2.709831635157267,9.043594254387749,0.015329217357147071,0.042574756778776646,-0.11609390377998352
20,-4.03405834646786,2.6643888810101677,9.021757238051471,0.001895049134926761,-0.0018774063381202081,-0.08811156462658853
40,-4.044996547698974,2.643335247039795,9.009968070983886,0.010118891429156065,0.015100402496755124,-0.04731569487601519
60,-4.009045138503566,2.585459954810865,8.914771123365922,0.038130181855663206,0.05238272269453966,-0.020763493763903778
80,-3.995768971559478,2.5126092375778573,8.793519043340915,0.04974101373653223,0.07633700183161148,-0.0027673741711712464
100,-3.9722622559995067,2.4416003081263327,8.590593289355843,0.03837492297954705,0.08736055342442527,0.016678872214136074
120,-3.934218908611097,2.36039688294394,8.424166436780963,0.02163047614719784,0.08515107316340793,0.03643203309426705
140,-3.8681018497004653,2.2369120409994414,8.221231496695315,-7.763046771287919E-4,0.07461099284701049,0.05183092635124922
160,-3.812741788657936,2.1329268039883793,8.028526570345905,-0.043947311697175376,0.06520842835134072,0.06656856093606031
180,-3.7390053417624496,2.054459520956365,7.874094375749913,-0.09407618607780556,0.0572401869356371,0.07630902423137208
200,-3.6337237808439466,2.0274639513757493,7.7631368160247805,-0.15293522446105878,0.04770578124832051,0.07827543317236835
220,-3.4963376327436797,2.067781743954639,7.737282013406559,-0.22011476179242742,0.04522825629338717,0.07182804700367305
240,-3.3377987697439373,2.186630326621937,7.841045766506555,-0.28746996990422596,0.048606789302419136,0.05815834945665216
260,-3.1599342749829877,2.3700610012338874,8.067791746373763,-0.3362937091375914,0.044175768690285874,0.028666815344701734
280,-3.096367753920008,2.6320284126234834,8.359403805654557,-0.3636871212482697,0.02676120741897812,-0.016542125798639704
300,-3.115478381743798,2.9100409626960753,8.76958549939669,-0.36935371127552713,-0.005316619465324598,-0.058706650252525625
320,-3.1935330646625464,3.2008743225664333,9.350503776384437,-0.3294253550145937,-0.03956125050815214,-0.10036710066639859
340,-3.3730078560032255,3.497368434520617,9.883327386150622,-0.25071855175168545,-0.08303322041309949,-0.11920295176032471
360,-3.577957150223967,3.7221404461117533,10.352519016761285,-0.14342016349365186,-0.11606049421961516,-0.11919323908914993
380,-3.8136206170532603,3.904087708040249,10.763262315761823,0.0026858249690635072,-0.14311855995243392,-0.0972495425743925
400,-3.942371374018052,3.9720696175799652,10.981798996644862,0.12796909265658435,-0.1539376442960929,-0.07153730315758902
420,-4.062287794145126,3.9776191678127097,11.107766556340223,0.29214091956948435,-0.1590392732789204,-0.034728793063143776
440,-4.147623273778089,3.9178550810737405,11.107268562928878,0.4319457142429556,-0.16174967770612883,-3.297863836913185E-4
460,-4.210948078448956,3.81056220806562,11.020946903717823,0.5620493242373833,-0.16198151451983275,0.03484132265051206
480,-4.244529301309821,3.6753758894178667,10.853273321255088,0.6769289772205165,-0.15870804303260336,0.07129934949460875
500,-4.236426503737391,3.5323247826918607,10.620924543995429,0.7729319250696643,-0.15412781368450026,0.10680272714433511
520,-4.1917546122041465,3.3923101800761812,10.333820729495184,0.8463165391253554,-0.15010596711702057,0.13567494670754154
540,-4.131303359758486,3.2575643220136867,10.018229957194055,0.8936081915962538,-0.1413556935451822,0.1552453267383943
560,-4.068435139351703,3.1176531071358538,9.70712667272446,0.9152301069269789,-0.1215172725231783,0.17128473093852084
580,-4.002659313963274,2.9801929051002847,9.416123168703951,0.9145987096392079,-0.09150828605823395,0.19091268311496135
600,-3.9104468366539336,2.8566954475475024,9.15357419242897,0.893519256649858,-0.05846150137045313,0.21393035421986503
620,-3.7992963954863863,2.7555486871123773,8.931037451999988,0.854830480579819,-0.02623671529842469,0.23478574623645043
640,-3.6770727456676378,2.676510684206133,8.751742597153124,0.807346671610401,0.0024112234668621324,0.24871794565507535
660,-3.5426332074608924,2.6013037137336275,8.570265356397282,0.7513799780871773,0.026489000976890446,0.2517317497184959
680,-3.440597500103611,2.5410061978512037,8.403533563857348,0.6963480569448479,0.03978572559602801,0.2457311296405953
700,-3.350788307110683,2.486465090184077,8.24579832508956,0.6312966866367687,0.04914347719650696,0.2366592199876522
720,-3.2732629195084626,2.444810407852947,8.13110766861351,0.5668753151436116,0.0580666107516876,0.22756749627189743
740,-3.1738053678720886,2.404871872142441,8.015874096518987,0.4791421527526789,0.0692764973910843,0.21064791515282077
760,-3.1004741817670047,2.3874707731618723,7.93451055865499,0.39850714398382964,0.07302206332071041,0.18677475281159947
780,-3.0595185737760437,2.380091668320646,7.88698559684783,0.335023404012278,0.06874559487173514,0.16358304529462403
800,-3.00626182731687,2.36617840165609,7.882377516972014,0.22228284136403398,0.048337804451788195,0.12065167407679137
820,-2.977354568554609,2.363567388090579,7.972823116533896,0.13518154070000438,0.025128610175520674,0.08912024240639499
840,-2.9613656342679615,2.3825253813575973,8.075826221980112,0.07861253783925076,0.007053280675365196,0.06913827528848684
860,-2.9177779523226635,2.45042039302676,8.276691400871224,-0.006064620578572864,-0.01909769382194097,0.03435804051182726
880,-2.877061626156282,2.5205842763083437,8.44043632027221,-0.05909939325631482,-0.03331601733440687,0.004538459209597682
900,-2.856748431965563,2.5839227692116142,8.57988991586346,-0.09438650811096086,-0.04466846110747946,-0.02002804277394459
920,-2.8439758072339556,2.6954217257755477,8.853846969410503,-0.13846964526950845,-0.06406166937780931,-0.06259768351477392
940,-2.8664567756740698,2.788400065345369,9.08591640286703,-0.15577506857198736,-0.07939726864523435,-0.09491078048863072
960,-2.893317111349912,2.854311634043727,9.250505637066274,-0.1577557543787775,-0.08883678203351394,-0.11529008567781199
980,-2.9253715978400714,2.9594873181371777,9.472148887169213,-0.14361746896196295,-0.09360550091426567,-0.13927984468431936
1000,-2.951650029922707,3.0538182016416986,9.590951796161061,-0.12376877957770091,-0.09214351584130817,-0.15321938721372882
1020,-2.9717849459991457,3.1177210899109915,9.669717418976786,-0.10500006626642405,-0.09263261940109661,-0.16282387147935415
1040,-3.011220781227556,3.20143222811443,9.78591064097998,-0.0639005715683068,-0.09939263709742112,-0.1755421990669812
1060,-3.0447714709004416,3.247756228046982,9.858903748629022,-0.024322178291510663,-0.10587132646203003,-0.18111837185488788
1080,-3.0842147905876587,3.2780822036222794,9.915192896730444,0.01792546259553245,-0.10986086800629064,-0.1843994318340183
1100,-3.1457105799888914,3.290350766458635,9.963360791820786,0.060428134949002045,-0.10966948915011338,-0.1865804694977406
1120,-3.225676723731202,3.2826750758648306,9.998455273769634,0.1086209210288989,-0.10595892937549035,-0.1838757739839793
1140,-3.315012918986836,3.256345125485925,10.017327573578408,0.15397965885857318,-0.10350863953118529,-0.17183128496572533
1160,-3.3901552987868495,3.215915113087416,10.006847971278754,0.20130116498744638,-0.10409993084990732,-0.15057583548670253
1180,-3.4558408479603897,3.174677367831883,9.956993502476578,0.245766059637315,-0.10663241220562941,-0.12527249369735796
1200,-3.5190159216073535,3.136060035565061,9.892008009347839,0.2832693182806737,-0.10915403130409111,-0.09827648087683688
1220,-3.567491475659222,3.093826243742944,9.824389605051968,0.31357930550181057,-0.10685251904519338,-0.07018862150709676
1240,-3.593224475287613,3.0527295891195534,9.757540080243466,0.33685907572507856,-0.09523217422903661,-0.04080233471194172
1260,-3.591373552085965,3.0100958100717845,9.69274153684097,0.35474639443472084,-0.07240297345201391,-0.010739203264692288
1280,-3.576110360601708,2.9684674667810644,9.61902718500946,0.36733946467647083,-0.04376927371340018,0.017453557727575134
1300,-3.553792025352835,2.9322395761626376,9.535882783404897,0.37330227055018317,-0.013476975420328583,0.043533847437934314
1320,-3.5126028366924587,2.8944319459655996,9.449485995383114,0.37269729952127234,0.02086271324572728,0.0713167841251233
1340,-3.4602469948290286,2.8658604944723165,9.382947975948804,0.3679399995015809,0.05300076512297439,0.0937900461853159
1360,-3.396733381275224,2.8414144422625705,9.315675207988521,0.35991059086612076,0.08642188933678388,0.11304551829902158
1380,-3.328384550825021,2.8231579006914003,9.243766230986022,0.34651559286642447,0.11664726324529326,0.1298920045232292
1400,-3.2545026265356043,2.814631234711927,9.180680882516114,0.32702856001849084,0.14158155874926193,0.14582601306636048
1420,-3.168919081582031,2.8163048156168102,9.138869073440034,0.3043963299831775,0.1651472601466285,0.15868423076979113
1440,-3.0765141614121045,2.8257260204004453,9.109981960955812,0.28202623502247337,0.18839311053436297,0.1646603586699013
1460,-2.9928189319366423,2.844575611143707,9.084073554394838,0.2592248643996452,0.2081654758239437,0.1646339082896075
1480,-2.9165341709084545,2.874382612775686,9.068755638167335,0.23523971806832664,0.2246166096323805,0.16149835511075433
1500,-2.8407152606534005,2.91291633838924,9.07242392844301,0.2118889680741794,0.24040157793333936,0.15394255227326015
1520,-2.7781381972838957,2.9625162640541647,9.089360910376614,0.19130349810007977,0.2530333523031804,0.14099542769479353
1540,-2.735602050790528,3.0219150714033094,9.115327047375983,0.174543000346274,0.2571097088439158,0.1253698847386484
1560,-2.7055588514731355,3.087251517548574,9.151924721045487,0.1631017197670447,0.2510465053607001,0.10809091749456777
1580,-2.6893442235322067,3.15420753827212,9.19975162519738,0.15770848249905733,0.23835885122181255,0.08913424251013806
1600,-2.6878873561627343,3.1702716169112546,9.21183594909765,0.15727591825590306,0.23470133270263652,0.08414699873443583
1620,-2.7149444048894855,3.275375381173906,9.284461573507992,0.16173692047490623,0.20677624310679005,0.049608813009476276
1640,-2.7526260016529704,3.3326983258871006,9.318611520830364,0.17033918270559903,0.19071599648660117,0.031614313382306136
1660,-2.783323213343875,3.371157672025801,9.331194007958509,0.18014248777544387,0.18013985872459673,0.020367850384240167
1680,-2.821183439426403,3.413627045656836,9.32554154453236,0.19524440444297927,0.16644434581504292,0.008482082154693862
1700,-2.849198061952421,3.4391241278097353,9.307607993547865,0.20761522867167437,0.15464866189662996,8.083540256128465E-4
1720,-2.882062525738134,3.463698479129975,9.272811791859567,0.22296010819164538,0.14043953467006015,-0.007402294534337919
1740,-2.9058618490238217,3.4773666730119186,9.229958271461257,0.23464484745015265,0.1320971959010401,-0.01328698990100032
1760,-2.927482395532166,3.4846471139488533,9.179005872954924,0.2431256530796721,0.12935829602299945,-0.017315037762616864
1780,-2.946798600825407,3.490764137024858,9.124554340410363,0.24792796019164098,0.1300282974073895,-0.018685777182307014
1800,-2.959710594910417,3.5011574903290477,9.074423493007602,0.24995040555349196,0.13062511507901628,-0.018576452995108884
1820,-2.9659034672242672,3.5148844499771874,9.029117774979401,0.2504409940162879,0.13039225196600104,-0.018638433108071204
1840,-2.9681045183118684,3.530698442588897,8.986792028346594,0.24976521930465365,0.12986473773738946,-0.019961262915030795
1860,-2.9715922485801123,3.5452498635522236,8.947434084431121,0.24737612084197616,0.12926563090119375,-0.021673238650577045
1880,-2.97648549467552,3.5604773435770767,8.915741238510236,0.24389756705661728,0.12830809358244208,-0.022820224507676616
1900,-2.9812747625614273,3.5773290916845277,8.891309762507984,0.2388964744405365,0.12696782726036582,-0.023407125596518714
1920,-2.9861196331119246,3.6001355364396694,8.86593248198746,0.23336207715432591,0.1257607485305601,-0.02339094182725545
1940,-2.9875227266985425,3.6220247272312793,8.847247815598156,0.22786543623210737,0.12463556455397182,-0.023148646998051248
1960,-2.9857761944686594,3.6458208711582993,8.8355204381151,0.22268206845374822,0.12314518501057165,-0.023185155155618538
1980,-2.983001406599688,3.6645491958135343,8.829060313205293,0.21957265555799754,0.12208325774515627,-0.023968768658063373
