0,-5.5921047528584795,4.486670176188151,6.966845989227295,-0.21381864448388418,-0.5852410329712762,-0.14127893249193826
20,-5.644920405219583,4.443184123319738,7.412726598627427,-0.21753314575728247,-0.6278829434338737,-0.11499892788774826
40,-5.648414306640625,4.377329521179199,7.742236194610595,-0.20393535912036895,-0.5641700983047485,-0.06742296483367681
60,-5.74790197430235,4.376208970040986,7.9842696767864805,-0.19071639532392676,-0.4751314182173122,-0.019526737629238403
80,-5.939999184957364,4.421673611896794,8.18068605516015,-0.18240922216962024,-0.40183366471674387,0.027605899246182383
100,-6.066488933563233,4.443719472885132,8.339554128646851,-0.16113303173333407,-0.34181744426488875,0.08199102522805334
120,-6.020914168193422,4.435328639786819,8.303945968891012,-0.14380301502212112,-0.29721555556973506,0.12411782506789112
140,-5.890732216112541,4.419682170405532,8.141832915219394,-0.15621635051811059,-0.2573736070401289,0.14095696176148273
160,-5.775816395476058,4.343853615425728,7.9921157424514355,-0.19005812668694635,-0.20918107704838385,0.14258125083319642
180,-5.639768576916353,4.215175452055754,7.8444284686335815,-0.2160280792468032,-0.15960869071200307,0.15173454528651487
200,-5.467191150453355,4.086914753913879,7.5967361291249595,-0.24471146732879182,-0.09312992979668909,0.1933451354607112
220,-5.2767170302721915,3.9990962792416007,7.3008996223916816,-0.26868311608001133,-0.06027688144953275,0.25348365125341377
240,-5.014448084921207,4.016222002371302,7.048768704792239,-0.28851884522229293,-0.10240382291728033,0.3184734914750564
260,-4.663859545661692,4.057667487546017,6.845596353212993,-0.29785211857718724,-0.15827420927388103,0.3529899387064864
280,-4.271615670841248,4.139811080010211,6.622582623215973,-0.3112964092975207,-0.18869910448728527,0.35441396264054004
300,-3.927242653645002,4.2163768016375025,6.423958484943096,-0.34388325767090117,-0.19986341044020195,0.3323498192243278
320,-3.5851203953619484,4.310483975376156,6.31778608637748,-0.4081605107041089,-0.21705601690002055,0.29041444455950166
340,-3.314348734560467,4.394779567004872,6.3982867837763155,-0.471140197367363,-0.22442216875956578,0.23567666989580102
360,-3.121684042436461,4.53462201241524,6.654384333087552,-0.5300516813242387,-0.23342994334957293,0.16613960433751346
380,-3.0241310488135538,4.699880736005818,7.100660145648418,-0.5683647716172222,-0.24774904483986412,0.07948595554527878
400,-3.1431901518974388,4.848416120685332,7.672214259878237,-0.5699421062123313,-0.2634164276069891,-0.004326889961304372
420,-3.385808483307255,4.965638359165724,8.309246294991263,-0.5212098505717374,-0.2974205203458417,-0.04668162276645779
440,-3.5340756013351964,5.046498480965109,8.89062023417835,-0.4268873865407379,-0.34540274626709877,-0.06578477982551179
460,-3.661923608527734,5.079529587427775,9.368481609148857,-0.3126319132530345,-0.3962711242433542,-0.08471080619268692
480,-3.8087655048578832,5.0821372757991545,9.715591794751548,-0.1927357230110672,-0.4318058337979569,-0.1025937960478546
500,-3.978820004840315,5.066908080430958,9.958514328816491,-0.07799576745275849,-0.45053500133915253,-0.11148717516141621
520,-4.12215537764132,5.0417340592904525,10.128254970637235,0.04623084562957625,-0.4541594912975349,-0.10805698837661608
540,-4.186809445257511,5.01653669277827,10.166690263831825,0.14914924801907323,-0.4447350179073973,-0.10101600767015234
560,-4.217568673919571,4.9842997142824075,10.109093708507086,0.24262106273583753,-0.43570574498498593,-0.09700044013670314
580,-4.230095442781439,4.942711952279826,10.015422418469289,0.3288743032436421,-0.43414256769827886,-0.09561883848633801
600,-4.222333725319203,4.882252292329096,9.900514971212562,0.4004117678498397,-0.4313663242985884,-0.09449491441709942
620,-4.203885834578138,4.779759104435261,9.68516461115617,0.48092153949412303,-0.4224897359068004,-0.09085725610269807
640,-4.178004499330227,4.671360680638855,9.447798367756516,0.5380336024551722,-0.41099323879982996,-0.08446438589616359
660,-4.145900460769949,4.556351299087207,9.199166266814522,0.5808348086126067,-0.3995244325580669,-0.07423123464821771
680,-4.117258001040195,4.424309647838834,8.95605784114188,0.6119561300852375,-0.3841012392806309,-0.05930829191052447
700,-4.093022925064784,4.275224874076778,8.695414042291677,0.6296123311653963,-0.3574131098240997,-0.03662084202419277
720,-4.010763733958204,4.12598015487194,8.401457425815364,0.6286097553884611,-0.32582602836036434,-0.008347063423910488
740,-3.869714081650237,3.9985785888774052,8.132242496585015,0.6091433744469368,-0.29624126326480227,0.012100945856549184
760,-3.745825854813845,3.8835394925709013,7.903776994859211,0.5813449399878825,-0.2724526007468164,0.01648529357633471
780,-3.6860239105299115,3.7681494379117164,7.69321700439639,0.5546611711500719,-0.26001130446739906,0.01686059167381537
800,-3.645550715012683,3.6510743734177886,7.4624496308734285,0.5250142100630691,-0.25541024569942206,0.03048028368516839
820,-3.586795480987605,3.583118430700372,7.2777320599402575,0.49705873730674605,-0.2524567900430959,0.04977932150598944
840,-3.4911265110318688,3.5359436690207873,7.062197134466093,0.4519139172297892,-0.24449224814360468,0.06912431856363091
860,-3.393427500016048,3.519793306620849,6.8710765108904415,0.3799816423711427,-0.2299092569915416,0.0839841273888497
880,-3.3184210838826553,3.528316676657494,6.776632582477919,0.3095263602250345,-0.21433298058476147,0.09532916218310289
900,-3.2409688107589454,3.554709970032242,6.7098176490425585,0.24313856100653555,-0.20065290799823868,0.10373572504894443
920,-3.156698729060688,3.595358211420027,6.673103015713413,0.1772320267666141,-0.1961141779781698,0.10826493642327138
940,-3.052018454829877,3.6418089755166774,6.695502103284806,0.1128272651958071,-0.1946525850158501,0.10745268853340575
960,-2.932107301996622,3.682924847045834,6.7398265493512906,0.05029501635182452,-0.18490622036384244,0.09605809742225901
980,-2.8382579249640307,3.7340544087283405,6.800377342868367,-0.01892678028800421,-0.1645687286822516,0.07676777637356685
1000,-2.7392082429864413,3.8099440075996993,6.9623799149738845,-0.10180146018029664,-0.13973461785736147,0.05390411921369659
1020,-2.635111829919202,3.8745969256024226,7.216296303178674,-0.16507746735962894,-0.1266439238174761,0.027487420252418383
1040,-2.561033474246776,3.9530968653947807,7.5380290883831504,-0.2037969239695041,-0.1274329290660315,-0.006705034991488034
1060,-2.525838003421551,4.031135185566395,7.862280766024641,-0.21234834285508247,-0.14088264976938566,-0.045044088574045564
1080,-2.5126226075043725,4.097803406551012,8.134625104368736,-0.20161049749029825,-0.15565675869584084,-0.08798732307808466
1100,-2.5364312908739377,4.146580836747974,8.371163337626843,-0.18378953477634438,-0.16486191984249632,-0.1347657527096594
1120,-2.601374929964349,4.1683087533751095,8.571536777202379,-0.16056193049606016,-0.17011324498496014,-0.18134796112983434
1140,-2.7014802215977554,4.163522508201447,8.752084552346075,-0.12841301490156415,-0.17951485563782935,-0.2217252240214061
1160,-2.8092878746203924,4.142291670470308,8.90688759998017,-0.08572482033515794,-0.19198030543564254,-0.2550056505335542
1180,-2.9291779959168087,4.111755902537839,9.005746893301115,-0.03747722953692109,-0.20243418546309197,-0.2828460753633767
1200,-3.0656736074204023,4.066491224655979,9.059476876420229,0.011013675621533502,-0.21267562789412645,-0.30438838009241787
1220,-3.2032576456027795,4.017831497013094,9.096065085121538,0.05664975502327886,-0.2170096825941863,-0.3161447672428474
1240,-3.3350413503380967,3.974333143380343,9.113199962229997,0.09716119749161105,-0.21193161100587424,-0.3177611367662857
1260,-3.470231154843849,3.935474106026293,9.124415646506355,0.1381710938335915,-0.1973215248758738,-0.30979098470725464
1280,-3.5749144557319172,3.8997736523737263,9.133741386807339,0.17502745398297284,-0.17898403175274155,-0.29588303746756317
1300,-3.659258713545365,3.855587657506221,9.126323023347933,0.21236353572719147,-0.15199186090971822,-0.2759387117884531
1320,-3.7197433539750278,3.802797172472402,9.089262689997204,0.24670632620312918,-0.11981052788005349,-0.2516745885634284
1340,-3.7573989379657484,3.7457933149498275,9.024347030417402,0.27606437411142376,-0.0870759827025681,-0.22466792311551498
1360,-3.783942491595828,3.6861622878908444,8.933697424435818,0.30002854532963713,-0.056919158697928,-0.19564055833317445
1380,-3.7997767806276546,3.624860098330892,8.825812072028295,0.31805215652857954,-0.030787508763911654,-0.16337133980129487
1400,-3.794644103963738,3.562231405712664,8.698786269329164,0.3296847178147215,-0.006725233553544335,-0.12836147403546974
1420,-3.7718560201647864,3.5032030184502436,8.563768576344996,0.33342789320952515,0.013245166453499328,-0.0914501008185467
1440,-3.7276069251741655,3.4469154936997395,8.432057670889622,0.3327690186475399,0.028136273206238415,-0.05411586515225672
1460,-3.662740699150825,3.4013277111755365,8.299010907027727,0.32997231679628036,0.03914039101271279,-0.01697325399837368
1480,-3.575586747212406,3.366939902709125,8.160490804249068,0.32388681845119627,0.04866019522854092,0.018499730526557102
1500,-3.460958881533475,3.341013504130246,8.004287794383558,0.30808014131541206,0.060407398371388775,0.053340703134452196
1520,-3.344092212151736,3.3337368275597092,7.886285324634698,0.28386128645238035,0.06966492541444798,0.07934385603211688
1540,-3.223901055010531,3.346888349979491,7.806073835455589,0.2547522614381418,0.07822118867542359,0.1008077336278526
1560,-3.0956227419083007,3.3786616774377762,7.753913472295972,0.22563027002979652,0.08683568703127094,0.11637207389030664
1580,-2.962373162228844,3.424841112018862,7.724293122763665,0.1963338657766638,0.09285789804625107,0.1253742324364412
1600,-2.8316798941686567,3.486790790255238,7.721331531392047,0.1679022167617648,0.09635667964566226,0.12996640695271752
1620,-2.71287449211062,3.5554951465425964,7.739106761277576,0.14608212428161843,0.09817091354799666,0.12966181586783093
1640,-2.562428646598987,3.658934218020433,7.7818607138747,0.12223071098629762,0.0980815759352741,0.11905114986369708
1660,-2.4473648931283285,3.7484100056141068,7.834651609449922,0.10569643736885423,0.09682966113665743,0.09962478485540487
1680,-2.3620672199203696,3.834530865912986,7.892856813171272,0.09255744698037784,0.09590104703598035,0.07419744926148776
1700,-2.3086062172299315,3.915189521931829,7.9610383679137575,0.08214642543508939,0.09604374387228076,0.04580071837749686
1720,-2.293273757355856,3.989110729720523,8.044806390181712,0.0760630756121208,0.09596913570066723,0.012915042397097176
1740,-2.3214290369338606,4.041268123492735,8.11609338048903,0.07641527771252256,0.09217157376918525,-0.013203390898459903
1760,-2.366485342724396,4.084794015569377,8.186117306232825,0.08203501306828137,0.08561043871245179,-0.034234423128030315
1780,-2.419186656520445,4.121030452492581,8.239629734103122,0.09222280860409672,0.07968721523519576,-0.051014070366847804
1800,-2.475663870603372,4.1491554137736335,8.266834342238093,0.10492630789986479,0.0774490049765101,-0.06463040834516438
1820,-2.5294493467115715,4.165810354132731,8.259924415999011,0.1167978953576378,0.08086043893857296,-0.07627777417702913
1840,-2.5823464219373062,4.1737081623100645,8.230578791478756,0.1258297558227037,0.08697784415562637,-0.0850258094823213
1860,-2.6275159222283127,4.177065309972971,8.183483095646258,0.1330297306142062,0.09227791884379387,-0.08947934056069266
1880,-2.6608512339476493,4.181922295167122,8.13397875198094,0.1390527311224437,0.09318934527371274,-0.09048857523875628
1900,-2.682588431509535,4.186543640337808,8.091621601505821,0.14625963683574528,0.09091637217463833,-0.0898859860343161
1920,-2.696651755159448,4.189825992379931,8.044953318068366,0.15370029556345502,0.08897741642980066,-0.08885532435990727
1940,-2.705888946591154,4.192244784837215,7.992316419270458,0.15847005996521923,0.08838666182292201,-0.08760903097047913
1960,-2.7108632140001108,4.196247822493454,7.941867157821537,0.15979514939631434,0.08816811538417824,-0.08611499909462685
1980,-2.713988932553265,4.20509859736388,7.900123051714934,0.15934072866127538,0.08775866169853992,-0.0840350813491063
