0,-1.833986297249794,2.631827175617218,9.299861192703247,-0.14085038378834724,-0.17033017426729202,-0.06968092126771808
20,-1.8392254039645195,2.60608072578907,9.445059359073639,-0.13455866696313024,-0.15285318018868566,-0.03565903764683753
40,-1.805645227432251,2.6273365318775177,9.52140055100123,-0.11404123033086459,-0.1347769759595394,-0.01879235034963737
60,-1.7918489128351212,2.6283843591809273,9.472377493977547,-0.09637559502152726,-0.1218440008815378,-0.01337170772603713
80,-1.8355430513620377,2.6206903576850893,9.558463490009308,-0.08698795204982161,-0.11408421583473682,-0.006737107422668487
100,-1.8724654499365359,2.6049015619316878,9.589511978382967,-0.08308696480734008,-0.09926725722545264,0.00796109619455374
120,-1.9130647012165614,2.5885885443006242,9.61484909909112,-0.0805963656332876,-0.07866036871980343,0.027391301991883665
140,-1.9510566894824688,2.5716983941885143,9.604065594306359,-0.0760905018219581,-0.0456655573959534,0.058009460332015386
160,-1.9802219181844634,2.560866542058448,9.551174248734565,-0.07543877093759302,-0.020182612875144775,0.08375911311922621
180,-2.00616897477044,2.5520560447080634,9.510031588283585,-0.08014346383236072,-0.004928144637817218,0.10750642160735564
200,-1.9987380678734084,2.542595898167471,9.526096392213628,-0.07901118622747448,0.004136798882417464,0.12696061207483825
220,-1.9971006973502563,2.524572910721769,9.51156120201976,-0.07042762027698156,0.014748538162597675,0.138675744534883
240,-2.041263825552804,2.502704275222052,9.467444170088996,-0.06981753797625147,0.026441920832509087,0.1517101993119078
260,-2.0637439035736356,2.4838896979272893,9.465435513352926,-0.07593995799409407,0.034551757527927385,0.1718548302851881
280,-2.036439664107709,2.4781921363073933,9.49484751441262,-0.07767404152719258,0.047126833595766505,0.19208690806961626
300,-1.9791588168735652,2.4738881902177203,9.495157459909601,-0.07657943090041305,0.07154885191441507,0.2061843783089299
320,-1.916277931554474,2.471922495069295,9.45565989069695,-0.07874624628444495,0.10195957920955916,0.21503918960241833
340,-1.8502930606233663,2.4712968826293946,9.407818817270213,-0.08360527868318404,0.12796039624974645,0.22256060560908297
360,-1.7580688236305466,2.4788608767769555,9.355630989198561,-0.08993212889740848,0.1465894527878467,0.22891650851755463
380,-1.666771036296807,2.4895489936993447,9.313388668460611,-0.09579693315763395,0.1533655479412388,0.22895972025695682
400,-1.571104699340375,2.506162637822768,9.28612509615281,-0.1031149597852217,0.151454879869433,0.22390126129886245
420,-1.4648236059426758,2.5322219695937767,9.288585815536841,-0.10964352454534952,0.14455421220935002,0.2156947470751455
440,-1.3578602408549638,2.57240560746962,9.309029279216643,-0.11246338007115428,0.13506281143680254,0.20078599960192717
460,-1.268471529467281,2.6248674491017137,9.350304802668463,-0.1147266979792549,0.11957550087353196,0.1782030957347723
480,-1.2014343261737193,2.6815683192545823,9.439697197168181,-0.114751407647238,0.09776049535283542,0.1527128080413262
500,-1.1518219631475708,2.747292803582691,9.567339318139213,-0.10623943730856159,0.07383350453317343,0.12859142375222984
520,-1.125461470929547,2.825178337753366,9.698478202207372,-0.08875504610825057,0.051547789588408256,0.10457655167583069
540,-1.1314030326696822,2.9129055316469312,9.83025211781527,-0.06665424669297429,0.03246128961415055,0.07884923001520533
560,-1.1693120400230281,2.9889128503636417,9.967068678293472,-0.03862141948054011,0.01701978976245269,0.05471943110689266
580,-1.239595138498509,3.0563111589769276,10.095027474218925,0.0040058520931076,0.0017330427606180004,0.0368219593984416
600,-1.2969556092377381,3.1032488802039766,10.166009118357502,0.05026697023378396,-0.01440793317297392,0.030715477140805872
620,-1.3374843790832347,3.1392049356777236,10.192547015701942,0.09895339484765234,-0.031149680031334052,0.028381502741235794
640,-1.3684442498815361,3.1619641155785834,10.18650289064043,0.1459551148059035,-0.04574710638471617,0.026410818242987667
660,-1.3992314321446149,3.167313302646984,10.156712173115123,0.19045654733326625,-0.05814524645070461,0.02342173777181994
680,-1.4272878296482425,3.1497131632410595,10.099662388171408,0.23106618823447386,-0.06725643648825218,0.020057726457267472
700,-1.4532090249436163,3.118126259226979,10.018531735410395,0.2659305522812025,-0.07261047243377469,0.01742412259040522
720,-1.4745070527721957,3.0752933148955024,9.919057921023672,0.2941818915355801,-0.07656642460625582,0.0156261851064188
740,-1.4923234692704939,3.0237317852166266,9.807269942876959,0.3146594784424279,-0.08024506998879392,0.014432028982582038
760,-1.5067714766939244,2.968592615733071,9.688690774402922,0.32722513167379746,-0.08233511083581972,0.014894734160412872
780,-1.5171967383226144,2.9137452892474713,9.567658541003247,0.33259041199313577,-0.08142924601076626,0.017512869357993545
800,-1.5151384720685386,2.853622604565448,9.427965932581799,0.33047619897588887,-0.07773720305791708,0.020735002249052906
820,-1.512574647462872,2.8031591506565317,9.30896231286666,0.32081643586416786,-0.07460050508311457,0.02174539919120862
840,-1.5157652538478503,2.7526896583965454,9.197673734577222,0.30556277033870227,-0.07261818761592088,0.02287464078526473
860,-1.5140426058526244,2.705753243371342,9.083905816747901,0.28475568437454385,-0.07082520565524922,0.02546275322576671
880,-1.5048224159726198,2.666012152701944,8.971940939898019,0.2560337926229145,-0.067715071438355,0.02890432756240633
900,-1.490094941317214,2.638609865179626,8.882947550665948,0.2196900931315907,-0.06382234988377995,0.03171535816934881
920,-1.468065098092254,2.622596915928941,8.823573768138885,0.17953351204908502,-0.059691254765034264,0.03249896361590608
940,-1.4411289893623596,2.6125281528406537,8.78841960983178,0.13675534143532656,-0.056403168323347776,0.030113490876866524
960,-1.4159827796869318,2.6078800241453477,8.791379213935198,0.09280838300132974,-0.05455261380444022,0.026391942940671185
980,-1.3994324970137475,2.6104943287549633,8.824396485739415,0.05123077438265952,-0.051004741912434516,0.02409662784187879
1000,-1.3909018368175416,2.6319696175531275,8.881064149361212,0.012308532771658947,-0.047720052699588955,0.025419786041240813
1020,-1.3650243307574697,2.6739994992812472,8.972673039776938,-0.021042369925306136,-0.04721604666791834,0.029292290739803797
1040,-1.3158394529714867,2.7357783218689056,9.079161292481645,-0.04683207990177341,-0.04528854377380089,0.02989268131667278
1060,-1.261068264979366,2.8233883464090885,9.21093311408019,-0.06894137137313747,-0.04002603374459425,0.024378942741289975
1080,-1.2257871928907345,2.9007401328408315,9.349785288800014,-0.08091070101010414,-0.03813983937660023,0.01723358543443211
1100,-1.1924818598667353,2.9759784293490528,9.497601040151736,-0.08132490641786974,-0.042437893523917906,0.01049345527173207
1120,-1.1580517368043677,3.048626198556573,9.633101465903756,-0.07061109322814145,-0.0496000170351891,0.0021940990737003
1140,-1.1363985146671882,3.1080052269293046,9.745212331763717,-0.052462956999668846,-0.055622890613837114,-0.00974020686572485
1160,-1.1325380039543882,3.1468047397191667,9.830240096186191,-0.02930356691243904,-0.05718491459009091,-0.022502492689595907
1180,-1.1423601668769705,3.1683196137860876,9.88944594048962,-0.002632863691422282,-0.05679111048115955,-0.03350613425034531
1200,-1.1597870409008848,3.177622652561621,9.926404206796303,0.0269460610900845,-0.05783188012681248,-0.041409549684949504
1220,-1.1751515177318346,3.1769481201371748,9.939427088834568,0.057875664459965274,-0.060635051943204676,-0.046464377064295036
1240,-1.1876991743309706,3.1686062612561674,9.937562272216107,0.08834681721918343,-0.06505892648851529,-0.05012238494620049
1260,-1.1999140993657755,3.15421305323016,9.921908522943463,0.11834680231880736,-0.06966217449310955,-0.05308716247539168
1280,-1.2117205678853613,3.130436356643307,9.873914658343384,0.14644231528531582,-0.07236491034993725,-0.05594535229284139
1300,-1.2234917407740284,3.10423696476422,9.808367856432882,0.17213489326399015,-0.07191091617610748,-0.05915345690188727
1320,-1.238057232178349,3.0745644665072325,9.735136168909248,0.18864653343841695,-0.06999091677635313,-0.06114750608932433
1340,-1.2546854658238589,3.0429987185651606,9.657219937497919,0.20036060814618725,-0.06888310963912359,-0.06176746070892973
1360,-1.2707296000696773,3.0101276244100275,9.574069523042247,0.20763332692290387,-0.06873201495852224,-0.06099224041506488
1380,-1.2839209382297214,2.975295645398723,9.483257960093738,0.20994534934977852,-0.06758768238526663,-0.058794428337720805
1400,-1.2930226969493728,2.941092446706021,9.386215463747961,0.2061242583813795,-0.06405334834701816,-0.05554621838331742
1420,-1.29721176600775,2.9096978220743,9.289824376401214,0.19560296818913245,-0.058347457623300444,-0.051397086217154546
1440,-1.2944999912737916,2.882787700224731,9.204904797117589,0.1795604075490639,-0.05363497310426576,-0.04671499492063866
1460,-1.2853846071259956,2.862384878273393,9.134332538847142,0.16027120464165262,-0.051611979056229926,-0.04212344002078309
1480,-1.2698149043196818,2.8454216431469805,9.073235467715625,0.13783317647694546,-0.05173249551040895,-0.03802402325208136
1500,-1.248597065946967,2.833780201716221,9.034556252172017,0.11175349404002427,-0.05462406984337375,-0.03492840513259367
1520,-1.2186920913444597,2.8251390112728405,9.023630511894655,0.08122904860133523,-0.05804694642192859,-0.03318813460823716
1540,-1.1930727660021319,2.8209725393546177,9.027929720901271,0.05454799169918047,-0.05773501934455235,-0.03307427482741476
1560,-1.1664195366521513,2.823079724080499,9.040580684590228,0.02770979994658748,-0.05462854023589585,-0.03355758016599642
1580,-1.1351874803122382,2.8324827337191314,9.069121271602153,0.001391237824392351,-0.05205907051117192,-0.035218506461294395
1600,-1.0987435932221417,2.8513056034350215,9.118062794663524,-0.021814802214005634,-0.05196669488489443,-0.038860423427842954
1620,-1.0582952346402708,2.874460654021388,9.174651924841005,-0.04054440343773574,-0.05379900534075037,-0.04537244782492316
1640,-1.025693033191746,2.8964068147002675,9.237915537218756,-0.05566176784782769,-0.0581174290751318,-0.054400291874027645
1660,-1.0038800604589317,2.9161286340019665,9.310351355613069,-0.06626460934297863,-0.06458856330027897,-0.0635848726627358
1680,-0.9835442683606624,2.9351331594208965,9.382902531991705,-0.07184930828337598,-0.07066476705144845,-0.07223069642601315
1700,-0.9639661083399927,2.95265601178725,9.44612284941639,-0.07370806345414611,-0.07486447559011322,-0.08191134698903389
1720,-0.9527374449680172,2.9658791995150264,9.5025725676698,-0.07252343825679299,-0.0785352211251986,-0.0926036187878162
1740,-0.9510246195550485,2.9740425334887557,9.555458945504736,-0.06774117509472942,-0.08270693512765413,-0.1027780980914412
1760,-0.9542423478495847,2.9754858993821673,9.590649888912838,-0.059045467215603116,-0.08809990233041592,-0.11250011582289719
1780,-0.9583203877785479,2.97201867712723,9.614661568468744,-0.049681740741636914,-0.09226590419560095,-0.11962690082337749
1800,-0.9640181788671053,2.9656102757738982,9.628353153233943,-0.03961407257599564,-0.09475864142041246,-0.12541914893992487
1820,-0.9712866897286687,2.9567676189766137,9.631426599076999,-0.029241019780109186,-0.09653556062512898,-0.13036878151388498
1840,-0.9810057721618424,2.9458199997848653,9.627080797515017,-0.019151707774615213,-0.09840003991562395,-0.1346733874537328
1860,-0.993536076896922,2.9312235556150736,9.617667740897128,-0.009518691760451092,-0.10011803970548117,-0.13821737496427408
1880,-1.009073537314786,2.9136006296612322,9.60041125677526,-0.0010247118192031242,-0.10171563700252288,-0.14037883538549067
1900,-1.025713451903976,2.8953225623393797,9.580763711757267,0.0056694688982949545,-0.10329264907438497,-0.14050934086169703
1920,-1.0381188147893765,2.8780009973109983,9.562198372519745,0.01106461823641142,-0.10472877671470217,-0.13870299423210875
1940,-1.0454835249075778,2.862610922467829,9.54402321155625,0.015147644555786474,-0.10560931212695332,-0.13592033122132316
1960,-1.0477013373433146,2.8494506525993346,9.528193432092667,0.017923956252343488,-0.10545690666906012,-0.13292167902051005
1980,-1.048055254887688,2.8381071518553367,9.51470161546575,0.019696046035485526,-0.10440573586883786,-0.12966533171273492
