0,-2.7728339433670044,4.670887053012848,8.446036636829376,-0.49451819434762,0.021550579578615725,-0.1283370479941368
20,-2.5518933832645416,5.036426901817322,9.213790148496628,-0.46985067054629326,-0.022757764847483486,-0.10609965119510889
40,-2.377056951324145,5.4116466244061785,9.910591185092926,-0.3713469946136077,-0.07068356650415808,-0.13244275438288847
60,-2.377955090254545,5.759273782372475,10.235939636826515,-0.2537517822929658,-0.13712388763087802,-0.17840447602793574
80,-2.546863856911659,6.03772474527359,10.410312044620515,-0.14966545742936432,-0.22099682257976383,-0.20973656736314297
100,-2.8291169181466103,6.271458705266316,10.76860703031222,-0.03243754404441764,-0.30605153628857806,-0.2141685113310814
120,-3.121950845633234,6.414760708808899,11.124866204602379,0.10859269352762826,-0.3676038513325953,-0.19885374951575482
140,-3.4292996461574847,6.437923292013315,11.341118056957539,0.27792146225961356,-0.40672466581544053,-0.1706782359486589
160,-3.6989929888346422,6.3742955220888735,11.388810490908687,0.4198873175486718,-0.42742009531094194,-0.12839632962307293
180,-3.9301385040636414,6.251622152917179,11.322115280010083,0.5562534230864711,-0.44487580481088823,-0.07071495296456563
200,-4.0719908475875854,6.079716950320126,11.134903741686532,0.6835446211854729,-0.4495102737119861,-0.006658262259253625
220,-4.119680678721556,5.871699247163596,10.830550365841265,0.7893561212173135,-0.43776922625940795,0.050983613136118835
240,-4.099406845229012,5.634705650238764,10.435146150134859,0.8621772767355045,-0.41123974749907144,0.09233945876892125
260,-4.048727705415371,5.392863575336152,10.007261006178053,0.8993945122918988,-0.37045614412301675,0.11819095381296578
280,-3.9907756925614413,5.149747450489643,9.580969231187805,0.9083426797777907,-0.3257949719636524,0.13504683761280184
300,-3.932473712189253,4.9056871408639955,9.172423900559892,0.8977081531788721,-0.2878623020640293,0.144844963677343
320,-3.8800541823797854,4.664711549334283,8.781155913415617,0.8699067562247498,-0.25743110796749374,0.15313721561709243
340,-3.823095516500802,4.430654171828566,8.419716285837108,0.8246869629441664,-0.23409728431624585,0.16324741438930404
360,-3.743089096112685,4.198484958959864,8.059629856766044,0.753504850127577,-0.21294076434130987,0.1753835100378212
380,-3.6540016252317544,4.02904394397765,7.78106395992232,0.6742873554819344,-0.19487401027301396,0.1836300864758223
400,-3.5442627647343805,3.889666847797001,7.541804108900182,0.5837707059019629,-0.17723247227532898,0.18679872592911123
420,-3.4255373829536224,3.77612518879135,7.335770210523284,0.4845616009316585,-0.1600455950077079,0.18388044354348873
440,-3.3045734106212534,3.686553277796315,7.170431244757868,0.3789471338693333,-0.14493279057424716,0.17151699871355566
460,-3.186302025754427,3.612640200970099,7.0663696195661405,0.2706519453354257,-0.1373207136801415,0.14410639568904088
480,-3.115363289666648,3.5515295545948615,7.025742660654654,0.15953573751456962,-0.14014944870550516,0.10398750515461042
500,-3.097410465280215,3.501119528072221,7.072698257082984,0.05075518422360931,-0.1485226981097921,0.06819600029405029
520,-3.0846644408932518,3.478370504231628,7.185915820095517,-0.04620310454842968,-0.15647441525772693,0.0444086547364233
540,-3.044462060901971,3.516026585107356,7.334090574652747,-0.13221986086594056,-0.16215215683749884,0.026059718713972026
560,-2.9829253094573307,3.6025189289934616,7.537505471808279,-0.2089886194986538,-0.16745988649921092,0.003502516595360178
580,-2.9285251036409505,3.7194160012420543,7.81028766474448,-0.2707994485058445,-0.1789403366375222,-0.02399010285696646
600,-2.8966856008744335,3.8843592435002803,8.167541747074203,-0.31627313201260043,-0.20249077197780233,-0.054217083110618756
620,-2.8808942178271453,4.0359964606614644,8.527231599373247,-0.33136409436960246,-0.22191633503617986,-0.07907036678060084
640,-2.8925916913073606,4.192459436503243,8.892707903286938,-0.32060877925084996,-0.2395294845079801,-0.10113964015478442
660,-2.917064240737395,4.336370285749435,9.216270703402433,-0.2884476220269095,-0.2525521378710189,-0.1173171299746768
680,-2.9354985515346796,4.442304413752505,9.468384301283335,-0.24211826727663038,-0.254210350220503,-0.1299243584693189
700,-2.964515797973089,4.518653084424763,9.649682258002947,-0.1865926965290226,-0.24561527903316563,-0.1408957750472493
720,-2.9942391282539305,4.557121598700616,9.76613712310791,-0.12536664558169636,-0.2318973038843942,-0.1488538549443626
740,-3.0261424128512218,4.567567680577113,9.828138606167771,-0.06169638500612605,-0.22243358726925685,-0.1530417717480577
760,-3.06214284792779,4.558649950651896,9.86831725287059,0.002811508265043062,-0.22222462641814397,-0.15176673707005287
780,-3.094157746424985,4.531013808844628,9.897466839651575,0.06997467409646363,-0.22978958510577494,-0.14634492359449944
800,-3.1188365329968604,4.486016482114792,9.895909997991925,0.1380831459959198,-0.23762609406720475,-0.1400764799547407
820,-3.137489847465251,4.430878161416996,9.857703002153245,0.201267608790315,-0.23999580864006087,-0.13436942257860726
840,-3.1442960176145895,4.360257118340882,9.77851417831991,0.2613160123181497,-0.23265733806839234,-0.1273551989900719
860,-3.1418621021877513,4.2935772569159445,9.685351764218192,0.30571085141887994,-0.2217935285769047,-0.1215886279268274
880,-3.1397917805300963,4.224840947641776,9.571834146321475,0.3431132870808162,-0.21175843544155973,-0.11621308034403598
900,-3.134874674341371,4.148328517793968,9.441997932490482,0.37344896883994183,-0.20411939848269467,-0.10968990902721842
920,-3.1263010599895527,4.067424022720048,9.29976670240101,0.3949467843545503,-0.19723792261762643,-0.10111603727441673
940,-3.105581216667731,3.983127518715433,9.147104667941319,0.40601326704274904,-0.18963535599885797,-0.09100405931756016
960,-3.0784953351725233,3.903543308393141,8.988424017573848,0.4055334238777633,-0.18213820917828177,-0.07992198941358977
980,-3.049986361645826,3.8316638566487895,8.83681028078098,0.3942788714925657,-0.1742537312410163,-0.0683717565221417
1000,-3.015876152923385,3.7648604096436773,8.69785678068411,0.3745074791051628,-0.1659863859684053,-0.05950144336906994
1020,-2.98052209764719,3.7032934017983887,8.564464761245818,0.34724870191753976,-0.15717416655250072,-0.05514133269565978
1040,-2.949903152326,3.64482257349545,8.440026810514592,0.3124221168767452,-0.1493024096430375,-0.052950298860799695
1060,-2.9199409187523595,3.5953199737123214,8.333564202993289,0.27057623516964735,-0.14503748135517325,-0.049873357838438395
1080,-2.8740827611992867,3.555839898560217,8.24447565641296,0.21785526364999874,-0.14272008366422373,-0.0457845887556421
1100,-2.8151473143111265,3.539082971314651,8.196957343198342,0.16856542047705278,-0.14143929317815612,-0.04585738988206711
1120,-2.7529425878974725,3.541200175927346,8.182633936017298,0.11837511862589778,-0.14223296563555193,-0.05206737718938844
1140,-2.7013574524540336,3.554939383332596,8.208350192000871,0.06773246715723007,-0.14415227341999823,-0.06356445509197711
1160,-2.6665355266204624,3.582151028545831,8.2774439280388,0.02022115672807711,-0.146191445768926,-0.07758582289578624
1180,-2.6368573567734015,3.6264794678547294,8.380178642518741,-0.019860521951671112,-0.15228602988933473,-0.09151802175035029
1200,-2.5945786917912748,3.6832001286159266,8.507075739438829,-0.049975565834911674,-0.1629224890336757,-0.10478090165318962
1220,-2.544672505358446,3.745327875714753,8.636684610220248,-0.06976154123334412,-0.17510739407370132,-0.11937333154073822
1240,-2.509212093593692,3.802791427862629,8.744791870276758,-0.08027921339284307,-0.18689210928323877,-0.1340549808925047
1260,-2.4819815438754165,3.8699070014166725,8.882604353893656,-0.08513830709712475,-0.2043120152437681,-0.1537999851004053
1280,-2.46568411586274,3.918274926186229,8.993339791297913,-0.08039004940894388,-0.22054725503460282,-0.17006967091755498
1300,-2.454782785750807,3.9560871360903014,9.081712254216479,-0.06950866193886267,-0.23464926986257925,-0.18643755605444312
1320,-2.4569940787827687,3.984689607348111,9.156434038248449,-0.05418956589565451,-0.24513847607521277,-0.20627210040343066
1340,-2.474673630193045,3.995776725639589,9.204495919184252,-0.03915735127404332,-0.24892055098136717,-0.22256816301748833
1360,-2.4997437966755496,3.998004554805519,9.237350373498854,-0.02275877242146801,-0.2500780167502074,-0.23451389400305153
1380,-2.521536755560677,3.9929589580315867,9.257440622830138,-0.004245290399427022,-0.2507858791704497,-0.24248008741898455
1400,-2.5402229132125873,3.981315405070311,9.258820454210355,0.01540849296350149,-0.2513737937464713,-0.2480408057224862
1420,-2.5589097562922913,3.9633912425276208,9.241738807089959,0.033982012569712304,-0.2520169293511134,-0.2518324517729753
1440,-2.5808122659930803,3.941025101492513,9.216409016665766,0.05029325412775753,-0.2525017923580767,-0.2535929643114934
1460,-2.597434958434451,3.9214870021252692,9.19362042274251,0.060917125735119385,-0.2524145268663239,-0.2530583356868088
1480,-2.62103281367229,3.885310717896411,9.148674640128322,0.07472063210814356,-0.25013975884378103,-0.24827839880981928
1500,-2.633269476268216,3.8604712949907225,9.112959995526056,0.08143160575454757,-0.2470916802900106,-0.2413572260513841
1520,-2.636712209113848,3.8428186427381177,9.087718810244267,0.0852309704237826,-0.24372921777092785,-0.23464445826700991
1540,-2.6332670606118405,3.8248653613958536,9.05832921455777,0.08866336656261295,-0.23839888876444468,-0.2258550340391045
1560,-2.623376119546855,3.8129350725765017,9.033931475261163,0.089983895475039,-0.23392797164366433,-0.21755357237815928
1580,-2.6095131338833895,3.807008098780228,9.015681950805723,0.08981073802091585,-0.22996558440567622,-0.2108559217729945
1600,-2.5894190536716537,3.803745278306462,8.995019919463983,0.08798600021829481,-0.22346961140363486,-0.2039201267523583
1620,-2.5730108334929076,3.8041920223990116,8.979420638336515,0.08498808207536213,-0.21682929607590778,-0.19785178933796274
1640,-2.551074821005033,3.809117864637719,8.969888305841987,0.08170401795920151,-0.21035709507700834,-0.19124628035699143
1660,-2.519990979728806,3.820200931482135,8.961828380867027,0.0788199995014822,-0.20420331537376524,-0.18554667177622444
1680,-2.4958963243669006,3.831968660230153,8.952938985095795,0.07597278713030413,-0.20009827466167812,-0.18286934277866973
1700,-2.4839087776830313,3.838631560485958,8.949631149541435,0.07370187042313332,-0.19764836401526542,-0.1817107227949878
1720,-2.459879352183215,3.851382353363935,8.949193570725779,0.06874985653234071,-0.19102593516476538,-0.17860061568863805
1740,-2.4434893043684274,3.8615194602359253,8.947837143004696,0.06596319647637051,-0.1869348025011738,-0.1759661846236706
1760,-2.4268011088944164,3.8727267608859335,8.946354339616853,0.06334609185531216,-0.18372510083512023,-0.1732249632640125
1780,-2.4122130390816463,3.8842013326279456,8.945464218335106,0.059972468456138114,-0.1803377317876377,-0.17002440307563507
1800,-2.398822336175739,3.8948656498660417,8.94473359000926,0.05760330001817269,-0.1780301582027024,-0.16780899109344194
1820,-2.3877377388402667,3.903362328280454,8.943558490019281,0.05563418795618246,-0.17609438085344914,-0.1658041718449805
1840,-2.373305211718655,3.9143156252013136,8.942334488509818,0.053005778840049464,-0.17343106316346824,-0.16291706198194816
1860,-2.3638938306616373,3.922084152197012,8.941878281298436,0.05108923488051483,-0.17140385476400535,-0.1604764969437383
1880,-2.3573621692404627,3.926415823894558,8.942381104507895,0.04976240832932469,-0.16988446588497902,-0.1585056917850103
1900,-2.347727253306393,3.9330512440085923,8.942568131482478,0.04787300920267541,-0.1671783153958422,-0.15515604136168437
1920,-2.339570650681782,3.9384264959368678,8.941995201214235,0.04664634007067248,-0.165057528918141,-0.15249028873252113
1940,-2.331321786640499,3.9431155704492773,8.941037699580193,0.04560854589811178,-0.16315982073064508,-0.14997388688774516
1960,-2.32334567565762,3.946893562794139,8.93958142414689,0.04465675505809486,-0.16130406144977313,-0.14753644208482
1980,-2.316120334230663,3.949840889827263,8.937329959308746,0.04365393654489429,-0.15889968180373118,-0.14537402773610233
