0,-1.5636817084418402,3.376179324256049,8.726919386121962,-0.05811484675440523,-0.3148806459373898,-0.052710664769013725
20,-1.68398057011997,3.2710332730237175,8.997525271247415,-0.08229217207168832,-0.2993055047357784,-0.06345382288974874
40,-1.8533620023727417,3.1581686878204347,9.265373001098633,-0.08726758398115635,-0.22841904886066913,-0.043693794123828414
60,-1.9356838970473318,3.1090257890296704,9.326279091112541,-0.07483627085545749,-0.15913683198618167,-0.011644182980737904
80,-1.986113841940717,3.0925544878331626,9.390404677972562,-0.05839631960886281,-0.11859340275206216,0.014757526197993174
100,-2.0484749516662286,3.077893485828322,9.394831092990174,-0.04596576003395781,-0.09127777419528182,0.039462488087616404
120,-2.081019951586138,3.0627679071928324,9.378938892431426,-0.036669392171397544,-0.06212640998133442,0.06613796101392884
140,-2.062775136874272,3.0577768289125884,9.33670768737793,-0.03095606704815649,-0.03130087634691825,0.09308943875993674
160,-1.992526869516115,3.0690881915994592,9.272577401754019,-0.03107776413860454,0.0047546718773004175,0.11707505252766046
180,-1.9086261907728708,3.0731022590544166,9.207302465671447,-0.03469218117368902,0.030107220105918837,0.13124472262728729
200,-1.800070141421424,3.074380252096388,9.140166632334392,-0.041567739815865125,0.0505997526148955,0.1450675152345664
220,-1.6730189661172277,3.0919703415461948,9.090688024248395,-0.04946047992550065,0.05309273688388722,0.15452191835193305
240,-1.5235488064903415,3.125116510211297,9.064855575561523,-0.05735777287946065,0.04469244749469788,0.15758470748990494
260,-1.375245480569439,3.1692202300356147,9.066598917308607,-0.06538481027778369,0.0320186745518361,0.1538400612853206
280,-1.2222648945896597,3.222518545682313,9.108770081254303,-0.07173044098060212,0.017130171649203805,0.1495299835872577
300,-1.0530164378336988,3.3053481688866246,9.196488505143385,-0.0698628026795072,-8.916712885435957E-4,0.1388548381698246
320,-0.9101421685241486,3.4036526403565337,9.280197779337565,-0.061275904142783715,-0.02084578445646912,0.11210298360716822
340,-0.8539557311785956,3.4978441440895813,9.375550413784916,-0.053600850255126516,-0.0427027395878574,0.07536833208334977
360,-0.8574792345768059,3.573275971722293,9.504246618840602,-0.04174620588763629,-0.06603802045256915,0.04305899022872765
380,-0.8804949630327799,3.6411099051251825,9.64580852602735,-0.020465640358362392,-0.0888341597330262,0.020019935012829525
400,-0.9087690659963032,3.700136263230268,9.766312453326057,0.00993466238518629,-0.10657723371952992,0.0016588989042622202
420,-0.9594261324730332,3.7464261774244254,9.855893822355643,0.0493677554992886,-0.11874072995770452,-0.015860518300125387
440,-1.015206554814934,3.763203406716413,9.88904888234674,0.08562369526483438,-0.12478157783420209,-0.026921519974774537
460,-1.079281819000458,3.7639023083906906,9.88358280475323,0.12052726777485356,-0.13059171676182021,-0.03240964041592983
480,-1.1363955200122202,3.75099007719256,9.853806871498747,0.1532964139862509,-0.1366024885815224,-0.03275284739532348
500,-1.1814938301829647,3.7242555222805076,9.800579265395612,0.1836059393032379,-0.14175862420937355,-0.030868819241645917
520,-1.2175558003762814,3.686996016872528,9.728646315396103,0.20989887574028446,-0.14410837730456602,-0.0287454598285598
540,-1.246359772996624,3.640556444680638,9.64517665434514,0.23202971058347907,-0.14325861702673137,-0.027539036499278923
560,-1.2753224721455827,3.5876578706376097,9.537080296049727,0.24828164806847083,-0.13996447476241342,-0.026494080824975636
580,-1.301895215540143,3.5242368870801886,9.411530267063974,0.25579622523847645,-0.1339391223193288,-0.02411511146229665
600,-1.3258198883043104,3.458665975536483,9.28162665196149,0.2539765098163732,-0.12400284537719006,-0.019343462759680838
620,-1.3444567503242189,3.39484322899557,9.155429536311322,0.24429206491778802,-0.11316475569015247,-0.012240443549489308
640,-1.3539010191669882,3.33031947799583,9.021806611943601,0.226264383691648,-0.10360407921548154,-0.002153887773113353
660,-1.3524658467107709,3.280326487361521,8.90768545606862,0.2036623081143446,-0.09738851001695392,0.007990751484665427
680,-1.341868777392091,3.2411615118174484,8.807271483918312,0.1745316523617514,-0.09275717014597702,0.018970460763765157
700,-1.315431720928021,3.209293496118833,8.728001094844243,0.1406129077005149,-0.08871340952424511,0.029478052211606442
720,-1.2712365003240604,3.184753402868907,8.67235013326009,0.1040503578314868,-0.08618493874615524,0.03695560069289058
740,-1.2253635802257854,3.163237729629913,8.638656973838806,0.06636430003132986,-0.08729488892210858,0.038427856129400625
760,-1.1951375309012453,3.1394235657740244,8.62927089914491,0.027127659106715524,-0.0928305032980979,0.03581734096095013
780,-1.1745945017060473,3.1102064973042336,8.646043051908046,-0.012181892353656161,-0.09776561252861198,0.03360698801137645
800,-1.1536347848161248,3.086487769003374,8.677956875548306,-0.04965636736211221,-0.09558840007405497,0.03407487336192729
820,-1.1257367101881435,3.0796148605206435,8.714109873771667,-0.08605506061370868,-0.08604582737744375,0.03587111988625325
840,-1.0854669407909285,3.0843654689432562,8.760445004222037,-0.1216618479557346,-0.07316459044221997,0.035435884855098854
860,-1.0395525661544973,3.10008791815333,8.839239255386909,-0.1575962204116994,-0.06215585456265617,0.03166354913655825
880,-1.002889861901329,3.1254218771033093,8.930391731000926,-0.18188349311240018,-0.061563028630398677,0.027959685748417493
900,-0.9571024941095718,3.159050154302459,9.03752632882576,-0.19847747604187888,-0.06770137201132623,0.023657877993178193
920,-0.9078255883391135,3.1984889967235053,9.157825889236971,-0.20788375552795005,-0.07481216376306968,0.016304582559070954
940,-0.8694783197308874,3.2371122257874987,9.283717946099133,-0.2098885560533927,-0.08146343425267608,0.00525694086328915
960,-0.8455324192819953,3.270082582154262,9.407311359040383,-0.2049916458019391,-0.08722009617757281,-0.007465251628778668
980,-0.8350043727797859,3.2933057458312422,9.523632957317211,-0.19348102268119008,-0.09014930008597281,-0.02006754495640412
1000,-0.8366331264475861,3.308937083433673,9.625444736665443,-0.17713514775923989,-0.08850793693861281,-0.03217258655576635
1020,-0.8493900121877638,3.3189283173327775,9.709864717198098,-0.15498727762733194,-0.08532346576060149,-0.042541032762105205
1040,-0.8717313158545114,3.319435795148214,9.763183099128705,-0.1263463968603214,-0.08632513606149621,-0.04993659302501099
1060,-0.8900265607522541,3.3132493285892757,9.78483902453285,-0.09555714071975505,-0.09151584336049834,-0.054655391402176026
1080,-0.9021097063808964,3.29915299442377,9.786970568239019,-0.06624596056193532,-0.0968083777772315,-0.05894239822277025
1100,-0.9175879370856062,3.2753159521959954,9.771342492838787,-0.03560741374624015,-0.09917567397756523,-0.06365713335487516
1120,-0.9320877241938339,3.2467394133150838,9.73810837175939,-0.01108525884569546,-0.09754978819058309,-0.06685347532051177
1140,-0.9415790340803722,3.210477951232423,9.687309181943853,0.009210252341259509,-0.0923924835640293,-0.06884400986749283
1160,-0.9482123196927761,3.1726394129846884,9.62683153451736,0.024767044159607128,-0.08574528258455096,-0.06957785030300866
1180,-0.9513155934305041,3.1348145818759385,9.557527909063017,0.03641970936207047,-0.08046657223014425,-0.06957845101918672
1200,-0.95118155916738,3.0966149345341965,9.485703137239463,0.044020444719848575,-0.07866891521264362,-0.06957256304088844
1220,-0.9485136487621413,3.054308419624173,9.415962450057862,0.047629279763051924,-0.07868348178766812,-0.07002734554935232
1240,-0.948718931025588,3.0102626035610833,9.342882376091152,0.04678028860248114,-0.07729499312334548,-0.07021094365867184
1260,-0.9518584752685487,2.967295237029381,9.270436722339351,0.04024457759232868,-0.07542292941683044,-0.06921666858782524
1280,-0.9480862764060893,2.9279615831465775,9.207612014088793,0.028871967768413456,-0.07414145542892092,-0.0670881374870133
1300,-0.9365917102186087,2.893959627169348,9.161142968059925,0.014258308471738595,-0.07483939317988986,-0.06528072178796325
1320,-0.9241594177811678,2.865274221804749,9.13325714449161,-0.0020328600658103824,-0.07851008138240477,-0.06469118033322709
1340,-0.9110550334518217,2.8368464179350545,9.118309198403749,-0.021623893460502235,-0.08317134192043547,-0.06318952741114905
1360,-0.889979009934716,2.816855851034359,9.12002912275693,-0.0399799347960945,-0.08584222423511663,-0.06040011535853494
1380,-0.8599134218539037,2.8062956109248773,9.136776043624474,-0.05839101862157424,-0.08718459594011721,-0.057646205135484796
1400,-0.8241616574156544,2.8074503408307616,9.170017865222434,-0.07629720449164186,-0.08768371902790892,-0.05623242169213684
1420,-0.7875424308181576,2.818256160509525,9.220862577546317,-0.09210767661857117,-0.08856473537940711,-0.05749136425065928
1440,-0.7553713585513245,2.834236242545236,9.285981485686326,-0.10472241109323746,-0.09123248925299404,-0.0603636886298896
1460,-0.7269704222075878,2.8556630725852634,9.363131351980423,-0.11333578854576935,-0.09457146822345071,-0.06329000253270758
1480,-0.700008601843206,2.8836312544404774,9.440824137095369,-0.11743825222089384,-0.09555589581423177,-0.0666893633071769
1500,-0.6780397911957367,2.9185358728819746,9.514778241878602,-0.11771335398316445,-0.09379612281218142,-0.07107161223752106
1520,-0.6622094706771222,2.9546853580405967,9.585675900093435,-0.11382805612005509,-0.09157114102969313,-0.07653311218686677
1540,-0.6561518736248585,2.989174279754778,9.65186840985354,-0.10552783014965664,-0.09247259839778108,-0.08283698061339427
1560,-0.6607630507166443,3.020843133400304,9.717003211169176,-0.09227748716312734,-0.09779925501401826,-0.08820447935147067
1580,-0.6721799979475039,3.0520459589214974,9.778451227111582,-0.07172655125391486,-0.10599921932742201,-0.09256931291648796
1600,-0.6880643110319109,3.0735987910955416,9.820690404351165,-0.05171080192348,-0.111875415249925,-0.09578639721688133
1620,-0.7120313986109188,3.0885509474270316,9.859347220644894,-0.03083615332416887,-0.11557093279906801,-0.09832514583130356
1640,-0.7369735941496274,3.094440318344247,9.886344810889481,-0.010764282299816364,-0.11674269278073647,-0.09911202836640168
1660,-0.7699811985086211,3.0927275923245094,9.899774929355173,0.01699831621851498,-0.11657113754310344,-0.09697049148586195
1680,-0.7985997997619602,3.0839741807864156,9.890553857697997,0.04156145033511864,-0.1159978201976628,-0.0929982919092994
1700,-0.8273209892347155,3.070022879403898,9.868138160513736,0.06446250875168694,-0.11530682032552532,-0.08731671238797128
1720,-0.8486500298313331,3.0536976581100714,9.836420495401729,0.085573548749711,-0.11390596488432823,-0.07895961814673766
1740,-0.8594117546898805,3.0394682844870546,9.796447717741634,0.1048202522624195,-0.11104192755263877,-0.06917821360801692
1760,-0.8644956397228978,3.02690897045864,9.748122441106373,0.12173657082247599,-0.10705125036903256,-0.059970001505765445
1780,-0.8675596711282096,3.013905205651299,9.694243344631824,0.13540430264873685,-0.10235884330169219,-0.05178287023727035
1800,-0.8676340435347248,3.0021099876839883,9.635384979532725,0.14713382312751236,-0.09694437008280637,-0.04216273535571214
1820,-0.8541218651396116,2.995359431737221,9.581541279658374,0.15539466346889083,-0.09146950847895866,-0.03367373299466184
1840,-0.8322550073577707,2.9931670382203333,9.521456229259293,0.16056712001659826,-0.08447205611657052,-0.02697715155500795
1860,-0.8099635362639808,2.9941805290173296,9.462250506204311,0.16141876183008425,-0.07760142758141397,-0.02203606008570372
1880,-0.7880081740729947,2.997580410212627,9.415734731019397,0.15880962206391067,-0.07171529576962606,-0.017900793312386316
1900,-0.7657219892010534,3.005586271350448,9.380089785294796,0.15447945440184455,-0.06496256842025336,-0.01442307118923335
1920,-0.743203574473596,3.0183166267765555,9.347990466986491,0.14877127957542183,-0.05750544237241351,-0.011328348234461941
1940,-0.7221754324254855,3.0358821862432426,9.323597012973222,0.141722772810385,-0.05193369200432316,-0.008373979551301891
1960,-0.6978985528983688,3.0589663164594794,9.313869572459684,0.13505444538921407,-0.049883147684834574,-0.005981998461718379
1980,-0.6712804819964913,3.0853092892208265,9.309524219911385,0.13012116467747123,-0.04980353837407152,-0.005343196330516057
