0,2.5914112197028265,7.925386110941569,3.15716814994812,-0.24507823451939556,0.31748602497908807,-0.1273312063680755
20,2.394456106073716,7.841294344733743,4.0529367643244125,-0.43911302544395714,0.5597292520105839,-0.15272001001764746
40,2.3335155296325683,7.784963436126709,4.686382856369018,-0.4868932719156146,0.5920117749273777,-0.17012643188238144
60,2.3739724881721265,7.727349425807144,4.948691216382113,-0.47356132539271406,0.4861851767354617,-0.19537901133298874
80,2.3633586488118987,7.64922540943797,5.121720308210792,-0.4479071894751453,0.33689029254700714,-0.2167268190078619
100,2.362857945111333,7.588399770308514,5.226128368961568,-0.4294776901868837,0.20107146058877817,-0.23032127031866384
120,2.416952978100693,7.561791294499447,5.297783454259236,-0.4238464349161899,0.10475084286085085,-0.24425800471452244
140,2.4609011026529166,7.542395833822397,5.393289467004629,-0.43316296962304757,0.04102258311871153,-0.25991020466272646
160,2.511883474376104,7.538209470984054,5.601196351116651,-0.44536254895621374,-0.024249840304510644,-0.2791143756819098
180,2.5643859645466747,7.558268011352162,5.892044005570589,-0.4481360564974171,-0.10174814494970588,-0.3045202032835395
200,2.5650391203633855,7.592158419362614,6.269999962174491,-0.4371669654410039,-0.17310616075260082,-0.33245047985502846
220,2.511116359651703,7.656359264531086,6.647586898705394,-0.41042485382868765,-0.22235961859930575,-0.35493906034329503
240,2.3983184352235973,7.747843324013476,7.032817028603464,-0.37016641455790344,-0.24976059880968676,-0.3727926012339457
260,2.195728790603186,7.803478178225066,7.41603125814806,-0.3230154153057619,-0.25947148420259747,-0.38157900533916655
280,1.8736513445123297,7.846908831205524,7.794179171812339,-0.25876950529083365,-0.26173551590181887,-0.381372049389804
300,1.4509028950562843,7.852237664736235,8.115026626220116,-0.18759083193368636,-0.25509635269140396,-0.37523737555513015
320,0.9251370743133019,7.750422360240549,8.458202774973882,-0.11100929971460415,-0.2527044954460006,-0.3582311464149667
340,0.3157488975214632,7.538767198993735,8.80740585555769,-0.018749665685814536,-0.24608751544920243,-0.31583681481903136
360,-0.24833553777886674,7.227422742874591,9.048073160183893,0.08759555262936787,-0.22319333155808802,-0.24225065483433472
380,-0.7184763158913012,6.832636186508117,9.14273613912088,0.19426115210179562,-0.17449518557304494,-0.13912145833680292
400,-1.105456523158971,6.3737107677933045,9.114543088744668,0.2967309264904436,-0.09539585391552571,-0.005935976993949974
420,-1.437980547212483,5.854100729098146,8.955166799298834,0.3788176579979685,-0.01763894528645159,0.13488934451114323
440,-1.659310804740075,5.311174921571247,8.724052177962436,0.471349477797987,0.07079986156645401,0.3493053917622855
460,-1.6600802223651836,4.697628339857627,8.400721751879423,0.5521932700028022,0.1542271773235347,0.5701374204972616
480,-1.5659417020423072,4.186163954656993,8.026288913461963,0.6058139337382733,0.23126661485941907,0.7475714053444821
500,-1.4766778651447523,3.7618459163322333,7.640272310872873,0.6300040046640095,0.29846049946555425,0.8897943160097513
520,-1.3354148272101738,3.2360542730585626,7.117320319901318,0.6197808695931549,0.39632482508826816,1.0537580620225298
540,-1.2359145349999356,2.744882390986193,6.714010247115522,0.5685169692294845,0.490585452152851,1.1885277440910953
560,-1.1066009836628081,2.246467245988389,6.431922055876002,0.4955895353584214,0.5692353299501887,1.3226346648516174
580,-0.81612018603111,1.7584963282378612,6.183526749289576,0.40735978557279817,0.6346404150362154,1.45319398671174
600,-0.31545557639750826,1.303482257601512,5.990430750323838,0.30128234892757055,0.7056631025732069,1.5686699749003963
620,0.34140587675755546,0.9042077346140354,5.860714771213104,0.18267574095846834,0.7901856834985833,1.6536443604940267
640,1.100596718071552,0.5650810861353124,5.743077687207568,0.05786283192144574,0.8748578498582966,1.697654773547464
660,1.8800294225324283,0.23974579602479934,5.570763420523567,-0.08496986036273566,0.9544874252124943,1.6929960587688468
680,2.644877501724052,-0.161933707020862,5.443744703923995,-0.27529836198787244,1.0418061186038088,1.6359844710481104
700,3.195103809390574,-0.5425703912616184,5.44866967283521,-0.45239320677411676,1.1097030933732677,1.5532056878142262
720,3.692337876111269,-0.9389435127625863,5.5313617173892755,-0.6260706138052047,1.1449539895992105,1.4471733078422646
740,4.17053786882913,-1.3205889598164078,5.726165360450599,-0.7871513025556969,1.1469379911311093,1.3221532091945893
760,4.622842614362134,-1.668237302428748,5.9851389180314785,-0.9333860798196608,1.1278263893158211,1.1806898389683589
780,5.034242542391574,-2.006952553182656,6.337680269912299,-1.0665256343724459,1.1062523542032405,1.0262386034541753
800,5.349002198237612,-2.361171966149326,6.80282244122733,-1.1745970736998301,1.089796197848922,0.8609416227260358
820,5.494541311921442,-2.715304208787925,7.345285730507663,-1.239817605951034,1.061021095247227,0.6953978090656593
840,5.508985596783887,-3.0182340305469846,7.805272656615995,-1.2662107926879036,1.0333562390624556,0.5459429341710933
860,5.433720952632387,-3.2508355040270627,8.152149013594169,-1.2719527569578521,1.0335199773544446,0.4188968359304362
880,5.30154700838234,-3.430247138755826,8.43339052895125,-1.259545004993145,1.046512369359434,0.3127249467063818
900,5.158872267722042,-3.5682830986196317,8.627543188556428,-1.227680029527795,1.0486899144128867,0.22208151005468862
920,5.0097885986594,-3.6793300072809583,8.720896769202266,-1.186527920514345,1.036424139383445,0.14290632206064305
940,4.834183951107196,-3.7829242766401454,8.74707963902283,-1.1389936295680338,1.0174669153033098,0.06940093882152078
960,4.681871229055472,-3.8590583365307345,8.720465581427781,-1.0995862824415379,1.0126840461770388,0.02350405369526343
980,4.5742154506621535,-3.9160049411433713,8.668114207119302,-1.063308678254669,1.0149827851246997,-0.007653095320235064
1000,4.508841903713368,-3.9506921695486685,8.6048126341978,-1.0281914649734196,1.012754727079427,-0.0319351040810058
1020,4.4656705296025425,-3.9659249592315837,8.527441818191893,-0.9928906811600343,0.9987112538028518,-0.05427456234367188
1040,4.417722557009239,-3.968385633280922,8.430982739779672,-0.9593670977787538,0.9779159639406263,-0.0738638676225375
1060,4.366093367986057,-3.958786596371462,8.322479495744581,-0.93021552469283,0.9598785143481989,-0.08647721139309199
1080,4.331874681356248,-3.9302110746502876,8.214734364631639,-0.9055592456895314,0.9488345088709271,-0.09003114115572378
1100,4.340166794576129,-3.8875979858288177,8.102811402573392,-0.8858549906882492,0.9451530050881058,-0.08863293376152977
1120,4.371861544225583,-3.8357304481551084,7.995344447990204,-0.8718536043592169,0.9425663322396173,-0.08931095392186672
1140,4.397439865701235,-3.787664826061807,7.9073947914667535,-0.8642717362808456,0.9341726081449785,-0.09368745459894985
1160,4.3942096428205275,-3.7384953771456764,7.862218146547519,-0.8574235910612108,0.9138530676709059,-0.09819564262159543
1180,4.387390124485081,-3.6929724364399665,7.846843247554828,-0.8512880772068606,0.8927958129364767,-0.09841177035257251
1200,4.386871146317194,-3.6493990483584433,7.85446205120232,-0.8450202762077634,0.8753284877882554,-0.09505312464780623
1220,4.406788398099848,-3.6059167536636036,7.883603125458131,-0.8376768991848328,0.8632105191338406,-0.08913412209566816
1240,4.436346506166692,-3.5585201739242263,7.92542053204322,-0.8270537518074408,0.8550361360587618,-0.08298515169333448
1260,4.4679877081720525,-3.5081489348072115,7.9556264260596805,-0.8127650191302188,0.8463625946912814,-0.07751247197889424
1280,4.4949782942014505,-3.4574976994624156,7.969596312530055,-0.7968644422942422,0.8349960695902601,-0.07237334204076333
1300,4.52735851813903,-3.404659448251693,7.972482163364884,-0.780546582224369,0.8226046210156199,-0.06759366599846395
1320,4.561177888507113,-3.3530893533351414,7.965861824609174,-0.7650936895788552,0.8137000785963145,-0.06348182340977349
1340,4.595433017150922,-3.299901599231261,7.9523535286330365,-0.7511536632552319,0.8087897819803435,-0.05932206102646887
1360,4.637281635355565,-3.2442129054565756,7.938648834026762,-0.7388552048560282,0.8054826348253499,-0.056448020390652144
1380,4.6859847288545895,-3.182917734930814,7.930167681749457,-0.7257615269957984,0.8007012901043788,-0.056663163212444995
1400,4.722912056575651,-3.129586735702241,7.930297384679966,-0.7134018509614322,0.7944864720865356,-0.05944953642056688
1420,4.750240022102514,-3.080184223258941,7.9342440569207815,-0.6990726949336761,0.7867100184084848,-0.06325028500220967
1440,4.775101786362741,-3.03332681411581,7.931591798814546,-0.6830865575192503,0.7786592281895868,-0.06681745718335717
1460,4.802306232174768,-2.988792583319158,7.915895754191558,-0.6684859888400736,0.772979799861544,-0.07052142774679998
1480,4.835548572549121,-2.944737799328336,7.897480583665325,-0.6573932409611388,0.7675808214456307,-0.07528516496385906
1500,4.865901013918039,-2.9028183186540333,7.8957994848762345,-0.648745595891269,0.7589377079314242,-0.08243223630664188
1520,4.874322417100972,-2.866857725038622,7.919895528793263,-0.6375337676155881,0.7462264424011285,-0.08885200872619668
1540,4.878461404406893,-2.8314597743309493,7.9412854114568034,-0.6218918892698383,0.7328887134557959,-0.09151478539989957
1560,4.891657049876983,-2.793582386292768,7.9401235192436985,-0.6055747384532206,0.7248061713452869,-0.09163860812512152
1580,4.9097013934364275,-2.7540060559430173,7.928188710900994,-0.5922452334052876,0.723357901596457,-0.09081018027968969
1600,4.932396884757753,-2.710534264711896,7.9176866521224065,-0.5818809134504875,0.7231151738214726,-0.09024025026552436
1620,4.947763760547472,-2.676093070882304,7.915189494197657,-0.5725981975356619,0.7202480807089209,-0.09073487813001552
1640,4.956785369154421,-2.6325827735355625,7.914705915822803,-0.5614261893652794,0.7121598133314928,-0.09236659740383316
1660,4.959254437005695,-2.595229188564425,7.91001726248959,-0.550708108518901,0.7024829040387618,-0.09272984975113478
1680,4.968927727557372,-2.5566347249990686,7.900717231426063,-0.5408098521715738,0.6947760290441206,-0.09247150796202964
1700,4.980801193557423,-2.518583378393936,7.888809274670657,-0.5323528699585134,0.6896293935972807,-0.09280301079129928
1720,4.985777679174631,-2.484308961263609,7.8773148384987675,-0.525134441858468,0.6848804183004673,-0.09380184881195998
1740,4.97745627099962,-2.4545251092581823,7.875329131493345,-0.5176405994606377,0.6781869290316127,-0.09453511533125963
1760,4.958555500064459,-2.4279178912731973,7.876387978264958,-0.5077388977867586,0.6692357219810623,-0.09219684937335033
1780,4.948636930742925,-2.3988753538841,7.868751477411753,-0.4961232927011484,0.660997049298053,-0.08586694395545727
1800,4.954638282910151,-2.365107922739496,7.847294854083726,-0.4855027016604293,0.6555666261306412,-0.07800510377084087
1820,4.974590971284816,-2.328029906042346,7.824194364011868,-0.47779156894810965,0.6514263521233368,-0.0710468523483473
1840,5.001093602928507,-2.284460694474078,7.811676198903565,-0.47272846726043505,0.6454681673113807,-0.06692884976547113
1860,5.014925297330085,-2.252957155012011,7.81500579746391,-0.46865290284879035,0.6379085682231418,-0.06514721239463574
1880,5.024850843496068,-2.213409251879213,7.831521115472881,-0.462384691648541,0.6295773943686938,-0.06377305771721956
1900,5.032777733496718,-2.1781547687512655,7.836855642893082,-0.45548311946025877,0.6241853100926695,-0.06286355497691891
1920,5.039225032849676,-2.1420018286895077,7.830664672975423,-0.44961038897192895,0.6204386016873014,-0.06260496340988643
1940,5.042316671897755,-2.106173623071967,7.823686516151997,-0.44568581167093363,0.6165579641540271,-0.06312118115580041
1960,5.0425060209300785,-2.072310922414497,7.822283634683408,-0.44261032110497966,0.6112653391279359,-0.0638790872888628
1980,5.042537679796755,-2.040846855558653,7.825177495060454,-0.43935205420082446,0.6057027688348373,-0.06435535863854626
