0,-0.014902340041266548,6.525097952948676,6.303159448835585,-0.2746977193488015,0.208266610900561,0.09005030741294225
20,-0.47280505299568176,6.313271803014419,6.448519903070786,-0.2911849504008013,0.1997897528550204,0.13668173595386393
40,-0.543382054567337,6.33338996887207,6.504106922149658,-0.3177651804685593,0.21857600390911103,0.16299251466989517
60,-0.929557920405359,6.264935941407175,6.596029238267378,-0.37461737475611945,0.3294216155102759,0.19409113557952823
80,-1.4679717937620675,6.062203628260915,6.815408090265786,-0.47228984316674677,0.4968464632586735,0.23609979614251997
100,-2.1235514885308793,5.68968686765554,7.243712473888786,-0.5524829398004376,0.6914751502324123,0.30776281913324277
120,-2.7590626133926985,5.217921927057463,7.455035456295671,-0.5908618859689811,0.8667306383622104,0.42628510694565447
140,-3.0767293071204964,4.874082695354115,7.240579829071507,-0.6134060876387538,0.9609135928930659,0.5391964590684934
160,-3.262081470441174,4.639476692354357,6.735701448208577,-0.6633289047592396,1.0283698679224864,0.6406144744439705
180,-3.3829944384534185,4.495276616840828,6.184992178911116,-0.7523634500983285,1.064379068227803,0.7437762417262648
200,-3.1607872414920064,4.463305372662014,5.76933619512452,-0.8616110783484247,1.0477659978800349,0.8544485544992818
220,-2.4158905216929862,4.5635877190804,5.403066548157711,-0.983056297867882,1.0017931949423284,0.9449703050967382
240,-1.204649694263935,4.749685444921817,5.111378609009509,-1.1347200922527403,0.9479866760238161,0.9850415983149465
260,0.36576568596718606,4.921513235359861,5.025927700494465,-1.3132916109865171,0.8857810161599334,0.9567550543630332
280,2.089595698308749,4.990592714215889,5.25683253124112,-1.4965861064733053,0.8067827125263141,0.8499389323787611
300,3.772008497325274,5.065871832920955,5.89193253333752,-1.6342050411380253,0.6814170037969374,0.6751044533573665
320,5.276679451374904,5.26314241644265,6.728582052217013,-1.7009530003735984,0.5437116794139687,0.4574352972533392
340,6.653758216700325,5.489089727401733,7.68519149577781,-1.7137479615742213,0.39983948764761224,0.19579724610260088
360,7.7829739562683296,5.558031865528652,8.942505652254278,-1.6707190763834234,0.21597784511478885,-0.1177500638288337
380,8.540493032957878,5.242095553984671,10.574614099198325,-1.5716106956881797,0.025101736147939428,-0.5043945061100041
400,8.71498619141983,4.654797692222205,12.315527108677646,-1.4286812365556147,-0.0878925031944238,-0.8269337141200116
420,8.60577380149391,3.8669264478057457,13.746208511917285,-1.2259676106294939,-0.11275756520911136,-1.1055563159661586
440,8.200009267040114,2.914060091749232,14.714180932325476,-1.0028641793956572,-0.07027759458272055,-1.3363967360181606
460,7.541486916251672,1.888773902410116,15.260426419820542,-0.7722326397418212,7.157436213814295E-4,-1.5139866936665314
480,6.621485968602115,0.8925282698253105,15.389570289057463,-0.5395100712317404,0.06899710891887618,-1.6254811590087825
500,5.7024168494329635,-0.005357580586067308,15.147511659640271,-0.3245987934082464,0.12518914337424447,-1.6551995704665567
520,4.982100121030524,-0.7244551594126715,14.661085342775742,-0.14185904554138173,0.18451621710454627,-1.6227003941525062
540,4.447393165351536,-1.2908206100243305,14.030447037800293,0.01510456300418545,0.25320035931838897,-1.5544661904320056
560,4.08325365154033,-1.7535212505371012,13.27193504705074,0.15342806987464427,0.3127136246043634,-1.468795015314158
580,3.7460855128945876,-2.1976464428618305,12.227281943757514,0.2766884861315494,0.351351586556001,-1.3652763252955724
600,3.495736272270936,-2.485133422679635,11.353728927048554,0.3369291629345412,0.3557578483522235,-1.276267387343949
620,3.2347005362331176,-2.7788700605221237,10.37415237690261,0.37419141240015225,0.3484987573964255,-1.1622633707195404
640,3.012344847030159,-3.063069237590726,9.299932734345767,0.3757845044149948,0.329935068487009,-1.020699245146295
660,2.8948844955775184,-3.278625665259534,8.423284059039492,0.34088879735276534,0.30594734942027624,-0.8926542499440088
680,2.810471176409202,-3.481211622730947,7.642490795013351,0.2766050125314841,0.2697214273027551,-0.7694918541500056
700,2.723695036499085,-3.708491041950167,6.968162002679828,0.18444933546451878,0.22853620317190476,-0.6474872675328834
720,2.642648666665579,-3.974311543206374,6.393600732535123,0.07329344111805161,0.179207356646657,-0.5203675590828061
740,2.616247878412946,-4.311237512374079,5.860768582962163,-0.06111139138289667,0.12411780430415234,-0.38784476407114177
760,2.6485430424402265,-4.7566151052147525,5.449897508125139,-0.22166163410071896,0.07332953006689306,-0.25038486670797006
780,2.755884013026608,-5.3058259670197225,5.230826381409978,-0.40169430222293295,0.02659132218931192,-0.11543561673412721
800,2.833106207529487,-5.932319363107882,5.235960194369755,-0.5822337894722909,-0.029896313638751764,0.02141986815371068
820,3.037842871130937,-6.6244129719979625,5.406630040135454,-0.7569608295829419,-0.0932363276315086,0.17290226686745883
840,3.6384259499636156,-7.478774770880839,5.914257375635527,-0.9723061722967464,-0.15372815081331997,0.3370781898776064
860,4.262115187309056,-8.099245261661812,7.0012126338331635,-1.1339493158641232,-0.18850816942814017,0.460894958405685
880,4.857086659756119,-8.476322234738364,8.293211519758994,-1.2064434221499178,-0.21427316969796403,0.5683017035971766
900,5.447687223166647,-8.6846622262979,9.404593601503256,-1.199040288025708,-0.23916858396725105,0.6619164947789892
920,5.986983299228482,-8.76587242521639,10.266235970645127,-1.1494297346936202,-0.22630184738263684,0.738867111181415
940,6.395170312281459,-8.770241728095591,10.893977705379685,-1.0754239078860126,-0.1620744539372106,0.8042414553923135
960,6.7259872950336685,-8.76601315798327,11.305819896554166,-0.9808253350923358,-0.09159548477426885,0.8628890548248586
980,7.0088563918814435,-8.783489077105934,11.511067560756649,-0.8694477844431444,-0.0386436034683828,0.9119509253328965
1000,7.25915950606408,-8.814449315426137,11.509803272801797,-0.7550907502352253,0.0026914167959811324,0.9508234084319982
1020,7.509347945073456,-8.838350613652386,11.39736938041208,-0.6491776801813881,0.036472570390004726,0.9802695541883732
1040,7.793505517451097,-8.846041295286659,11.236081094626503,-0.5540036352824568,0.060525092576350366,0.998825236989971
1060,8.113339987148699,-8.827647757407457,11.06888194013924,-0.4684169437753322,0.07382682253962523,1.0018414614351308
1080,8.51540099556512,-8.770433009405842,10.899175884110244,-0.3818040881097116,0.07861169983921029,0.9807119227762046
1100,8.861846938509789,-8.696886021069494,10.752319323235408,-0.3124991201791535,0.08059533841350006,0.9372000104710788
1120,9.131587753026016,-8.617736826146835,10.588464756322887,-0.25278947138312186,0.07601262764094067,0.8747958825957595
1140,9.360755861544625,-8.542250273519373,10.477996884793678,-0.20294445100379116,0.05831204944072252,0.7974583188190739
1160,9.553101976524852,-8.48274867548354,10.414076490662836,-0.15580529130792642,0.02986490938064319,0.7041275051021052
1180,9.680915740270688,-8.451127381420429,10.311387440580646,-0.11577341298154965,1.9746883523194387E-4,0.5972042779051104
1200,9.732651930568204,-8.449891067649189,10.201144951829303,-0.08978139371177567,-0.027768357204431705,0.4820812307071951
1220,9.71941903955767,-8.479457278116291,10.109225211657613,-0.07509856508206204,-0.054502254823200494,0.36198331147758844
1240,9.593847530738762,-8.545786953381464,10.037564863206125,-0.06588416175880268,-0.07964026846502927,0.24468921013176442
1260,9.393738590851498,-8.619287277683329,9.946627514041298,-0.0619166959544579,-0.10121629585990229,0.14061781141950128
1280,9.18262364180801,-8.696480203887356,9.84726438439051,-0.06773121395421006,-0.1210079724606509,0.05007410853279634
1300,8.964890363743033,-8.7848961312561,9.814629004940334,-0.08038749717078293,-0.14156016372911603,-0.032808381638555935
1320,8.660152793378256,-8.88708422894197,9.84460691789347,-0.09018113864431394,-0.1637894074375952,-0.11342235264225999
1340,8.33248627013586,-8.960094445359685,9.84871194174956,-0.09448046888649031,-0.18000656236875837,-0.16542374298733722
1360,8.035672170539888,-8.9907237553106,9.845998556141563,-0.10275962294041044,-0.19290391874561263,-0.19646661322770476
1380,7.796747741463546,-8.96926826937699,9.878269042734326,-0.112369228197127,-0.19768175333278415,-0.2132632064927087
1400,7.597343810338365,-8.891987308574759,9.925994347515314,-0.11852119990988919,-0.19397959771039694,-0.2216029327913471
1420,7.421134695802108,-8.775376583748269,9.963051626065788,-0.11967501450349188,-0.18927814986230884,-0.22491826426947095
1440,7.27341930415204,-8.632761138634734,9.976768356717985,-0.11912038647167876,-0.18367837333827958,-0.22413332729447513
1460,7.1570703416195185,-8.473459511137069,9.991038321080511,-0.11856101079997863,-0.1761145395427345,-0.22210313279635718
1480,7.045066633479611,-8.309329251566966,10.008483239635211,-0.11507330144889026,-0.1707700478155442,-0.22030984642846385
1500,6.931568449210164,-8.148604504933687,10.01373676383883,-0.10914914089338323,-0.16906784747280484,-0.21654267643343628
1520,6.820854697670513,-7.971216416022239,10.005079379663444,-0.10280558989735511,-0.16606082253229731,-0.20906839235864866
1540,6.751476960947819,-7.816457316361934,10.002200748559229,-0.09873918573448694,-0.16037320203584018,-0.20100062196968194
1560,6.6953372460862735,-7.665103159367573,10.00574837049935,-0.0931316041140235,-0.15597209897241554,-0.19373209260229488
1580,6.641759031079997,-7.517833567960302,9.995473992884342,-0.0860136228794646,-0.15351757506931912,-0.18768363867104512
1600,6.588713601329534,-7.375725824192802,9.979849660019504,-0.07920484483190926,-0.15154593803766525,-0.18258652793209454
1620,6.547485903899903,-7.241074941861611,9.963245603177382,-0.07226092931505922,-0.14985604016587184,-0.17896226936872733
1640,6.503903897840895,-7.114505608421972,9.947379028712888,-0.06527626742691998,-0.1487952852884995,-0.17713474963896997
1660,6.45638120744843,-6.9899915904573655,9.930702361135799,-0.057736113731858926,-0.14845112797064597,-0.17518339115742812
1680,6.41100107350652,-6.861216036288804,9.901797898481925,-0.050596597213243936,-0.14684765025104266,-0.17277884455722606
1700,6.364874778215067,-6.730989324539129,9.859063907794054,-0.04574408341365085,-0.14336172139590564,-0.17084665042090622
1720,6.309869723824456,-6.60361344628671,9.817192278992893,-0.04376337051111146,-0.13876340508035023,-0.16915054107729785
1740,6.251196329770976,-6.48020999810627,9.784072310255652,-0.043308364449862226,-0.13535986875714945,-0.16741175402535957
1760,6.188610968662478,-6.36175093707732,9.761354906215436,-0.04327699938124473,-0.13412698667962103,-0.16541791918732796
1780,6.119337572202608,-6.232958098896492,9.747145112670335,-0.04327066593002771,-0.13311253996778008,-0.16230720280419234
1800,6.062909322449611,-6.12188465582912,9.742374420347984,-0.04273743214881177,-0.131904305083983,-0.1590943889957164
1820,6.010341942676612,-6.01367890201759,9.737301121322101,-0.041695172170758396,-0.13035739814962616,-0.1558075866727596
1840,5.963649765237087,-5.907193464972821,9.733264368546912,-0.04072669481009537,-0.127959884096501,-0.15290114880047223
1860,5.91541523435098,-5.803494493444004,9.734555722085782,-0.039230554812384646,-0.12537619964685903,-0.15017128070851887
1880,5.874095527773726,-5.700701095570746,9.736330979996602,-0.03639898727837495,-0.12252004076127249,-0.14737283724108263
1900,5.835087731812615,-5.597959217331354,9.729445145876557,-0.03311503110522407,-0.11949031200425332,-0.1453421956783417
1920,5.79442811267225,-5.49441300978896,9.71574342586812,-0.030276618989119247,-0.11642191586304147,-0.14403077686697863
1940,5.75051763301074,-5.391675441207606,9.698621430752556,-0.02853320237976695,-0.11323407915929358,-0.14303799326388308
1960,5.70744240608243,-5.2905056731735876,9.68293580239855,-0.027346603419909604,-0.11009928023851896,-0.14202048828140523
1980,5.666196054491192,-5.191419682991593,9.667726181511973,-0.02629210570253252,-0.10861120875942094,-0.14131674605216807
