0,0.4873865060508251,6.001919209957123,6.9341806173324585,-0.12836106773465872,0.24448955245316029,0.15779018588364124
20,0.4346960661932826,5.876180678606033,7.153025507926941,-0.17539915395900607,0.3365683453157544,0.14683793671429157
40,0.34449962615966795,5.794606323242188,7.232001285552979,-0.19251395970582963,0.3654689699411392,0.15180339992046357
60,0.2649036886904276,5.759659377011386,7.264747749675404,-0.19252106208692898,0.33798062891671155,0.15154386244036935
80,0.16671673385653554,5.698744797125095,7.310885068846912,-0.17598781025991206,0.27165866509170794,0.15724456164895034
100,0.08876236098609408,5.643350572002177,7.2304176505731075,-0.161103005996164,0.2134379063333784,0.1700081159265674
120,-0.04537931832958732,5.56703407722607,7.101611388357062,-0.17272956780435747,0.20180772045594558,0.18606641287343545
140,-0.27001082865664594,5.4421478491563064,6.99471011528602,-0.20529057503892825,0.22244164837667577,0.21301185190677643
160,-0.5449489874841824,5.2410903695511495,6.92738102560174,-0.24325732157042582,0.24876063967710488,0.25242360834389516
180,-0.8605512466373635,4.972238175662947,6.770040423781784,-0.28448889344746686,0.2666389948378007,0.30832783473126685
200,-1.146541639429967,4.681482991475738,6.517951737628894,-0.3503976436227225,0.2888977596892065,0.3840870624512769
220,-1.2479286793926634,4.4105891530046755,6.245964286253624,-0.4472547135479057,0.3496013617661503,0.4657339713315374
240,-1.2428098968984116,4.181886764935085,6.009309539340792,-0.5721052208471866,0.44465971750517685,0.539469356338183
260,-1.068645037067807,4.043217046070943,5.887551706449121,-0.7057679790377089,0.5290112017233551,0.6058894233629767
280,-0.5863479148199569,4.0152700543403625,5.797832115751798,-0.8426481577277672,0.5697128285852368,0.6511080276037826
300,0.025092434238355894,4.088187985236829,5.711605976178096,-0.9607638170226263,0.552710508407416,0.6528390507285412
320,0.8397494064697969,4.2375533693078635,5.734579471574313,-1.083533697721103,0.5070338210021821,0.6215584570697198
340,1.9049592355317244,4.434067181528431,5.872260049597858,-1.2033232314996931,0.46256505705221646,0.5305962510477139
360,2.929482262859774,4.576571483890731,6.128917441739665,-1.3196838005845035,0.40219970702650265,0.36646095933936923
380,3.7602103796247164,4.633653364799641,6.7406496898627575,-1.413780959598996,0.29344157577581403,0.16564486322660046
400,4.516443466647145,4.682009801443885,7.639295495257658,-1.446128407230272,0.17865542083197986,-0.043654461733668166
420,5.094099093887829,4.6836627286471675,8.539294474580315,-1.4301628205255512,0.09977741168715122,-0.26546691534151273
440,5.4104780954038425,4.603665544140723,9.544591038457808,-1.3870289749716238,0.0270087947857426,-0.480162905351389
460,5.624518405098813,4.415897703393526,10.714428966807336,-1.3120186733677215,-0.025948389157888087,-0.6788903440267193
480,5.7158921811231735,4.098993114647594,11.899334913433188,-1.1897761726585945,-0.04746499379444406,-0.8653497839793747
500,5.634312041730607,3.5724839415948537,13.02806683965204,-0.9913696733554958,-0.06959690544059086,-1.0632416153286905
520,5.387197474579084,2.992462208043767,13.716441460396057,-0.7741013889851636,-0.08927645355932942,-1.2156926684068796
540,5.073263506212227,2.383097297589947,13.9671003335373,-0.549868124631533,-0.10128759184394787,-1.337643949144688
560,4.69114022528396,1.826268721419446,13.856910929781325,-0.36484986055404584,-0.08279406946954972,-1.4199099217977453
580,4.328953621019858,1.3220508459480211,13.64628961841756,-0.22765857980820378,-0.035074897496117884,-1.461986866693392
600,3.9430038213685332,0.8360049921974718,13.462643882667876,-0.10987157074816198,0.021222710384490095,-1.4718088554570905
620,3.5528405345041434,0.39224689603427204,13.256424404019095,0.009148797530925411,0.06460932991512364,-1.4533457134123964
640,3.1687275673077906,0.008091053070870232,12.94650734799185,0.13157978492059957,0.09907423669763593,-1.4074801862717707
660,2.826349587609822,-0.30375815150412644,12.493589417284186,0.2401143716140227,0.12828195074530827,-1.3380447664941577
680,2.5494010589108558,-0.5634473981105397,11.997609641021215,0.32414726660234766,0.156801976300957,-1.2506782823051374
700,2.3650777550459012,-0.7960683014947934,11.485147912477709,0.38797069338383955,0.18399732732542076,-1.1549094689904338
720,2.1791485124391814,-1.0091654620319606,10.905450449387233,0.44584184015790623,0.1981271176641652,-1.0481970556406304
740,1.9998413763226723,-1.1569188896856912,10.337246870452708,0.48661012429889144,0.19044943469351266,-0.9493861260185888
760,1.848530707250149,-1.2791981653463613,9.700072038400021,0.5024801146097576,0.16848951187743688,-0.8452762304819955
780,1.7785533911758389,-1.3860954283334224,9.10200599424633,0.4859109497801573,0.14964592315214917,-0.7417095009033442
800,1.7694145199149869,-1.4777415331722383,8.594109535576349,0.445140276048108,0.1451770696681728,-0.6461131500756279
820,1.7794573077836129,-1.5649058175218455,8.140573106443181,0.38934581708163024,0.15156176057199072,-0.5611062568626093
840,1.7684329310124312,-1.663409948498867,7.708370680439061,0.3191718727071909,0.16589033571386377,-0.48309638101377406
860,1.7273877139289582,-1.7982291707957394,7.289080780878495,0.229278551801788,0.1897188806994635,-0.4050406887146299
880,1.680777391061893,-1.9844448318971055,6.90317033968129,0.11743807472329545,0.20255413407729786,-0.3222538664960047
900,1.6610748670026358,-2.223634082924134,6.636496378849912,-0.009817766175875741,0.1866192802651009,-0.2366791354574924
920,1.6884888286567539,-2.5212623710499,6.474179243492452,-0.14375435608978335,0.15008792384913633,-0.14749318987351695
940,1.7875117802351579,-2.879949364599954,6.436430069358693,-0.2858748306261049,0.11339648062040425,-0.05251432262653888
960,1.972129310162578,-3.2524003610579353,6.5813204023723655,-0.4317624213061098,0.08064084712532349,0.045586174799627954
980,2.2693195285540027,-3.6558644060551386,6.975314308463791,-0.5800780195604872,0.046352342707909826,0.1538626394280589
1000,2.5704533564474787,-4.000865794393543,7.439812437168911,-0.6901397721765261,0.015139719853279143,0.24895974857840894
1020,2.9627814973823976,-4.282124432259529,8.05221529619994,-0.775987383243661,-0.010543381995764824,0.3423784073749712
1040,3.406164532906152,-4.455897730390926,8.7540479904705,-0.8180712252455853,-0.025876151568512487,0.42011948955725087
1060,3.7731917478598107,-4.547424317616756,9.298036196480082,-0.8217675488876942,-0.028493285257192393,0.4826734829939118
1080,4.103018457560768,-4.565660902204808,9.73382264127892,-0.8142007528647278,-0.008611055448117634,0.5364850183666339
1100,4.386015838469537,-4.534961737396307,10.127718536861686,-0.7894772059689162,0.02546264608539682,0.5792177202535699
1120,4.5940009250746,-4.50429938890347,10.42767650166975,-0.7422117408680166,0.04934059240912853,0.6150231190831875
1140,4.787404228241117,-4.480760006619287,10.602981714615181,-0.6827500529968535,0.06207269124229,0.6410724036584197
1160,4.940207492498645,-4.473906709572429,10.697292428658944,-0.6247993862682044,0.08011384279319755,0.6560653725617509
1180,5.043210117220302,-4.494686425208431,10.773874832244264,-0.5714203610939463,0.11235711573666327,0.6646202112087193
1200,5.115859088857241,-4.534544586515692,10.841685483530616,-0.5175211050039493,0.1525006635106522,0.6729935632620014
1220,5.221915688759933,-4.587884332658167,10.866919712063325,-0.4488649456223762,0.18927527399268929,0.6842066728838337
1240,5.378387573764057,-4.616968563125998,10.80757774541191,-0.3892425586268598,0.21311865342922473,0.6888970970039201
1260,5.558294976648828,-4.629924333794582,10.754951246744417,-0.33767034764254183,0.2405256898163523,0.6810316957387728
1280,5.724752586711191,-4.641766595848953,10.732938983877801,-0.28528926785709513,0.2692883136979226,0.6622648243270035
1300,5.851463522462955,-4.655819485347704,10.679240044415668,-0.22967000378902708,0.2908583915108302,0.6358313872627147
1320,5.968954534212306,-4.659576969929177,10.585279754002157,-0.1784786375315097,0.2985240611893372,0.6028393475825098
1340,6.098059637865729,-4.655813647711819,10.50828362448649,-0.13410957618870517,0.2949209059002301,0.5582233992108906
1360,6.173819797541646,-4.666794464673086,10.458260975270715,-0.09199878371130395,0.28244650013153155,0.502323131797181
1380,6.186022576610245,-4.690006987037065,10.420535768984484,-0.04931394098319982,0.2612342203845099,0.4441890227550792
1400,6.198728054756208,-4.707682290234528,10.35673248793813,-0.009234941178342192,0.23221545052882575,0.38712325781982926
1420,6.233396607263116,-4.718575489569673,10.274107480223236,0.022273481090607512,0.20930063593040518,0.32644550165855984
1440,6.248310384506835,-4.737243457582295,10.190836900230591,0.04630560115887429,0.19510332987011078,0.24983381777733893
1460,6.196511540027842,-4.770663186273412,10.159657285139835,0.0648184439512545,0.18143781857041857,0.17868014285962824
1480,6.093150896685354,-4.80661894549206,10.128344687686917,0.08619265029394058,0.16032468095859834,0.11309712247837095
1500,5.987876200052811,-4.830501456849459,10.062275816221547,0.10456759948434868,0.1349004509160295,0.05385379477714499
1520,5.8796540178772645,-4.842629733942389,9.97719046951871,0.11407505671223132,0.11686530084155626,-0.0022111459826545292
1540,5.744433707137712,-4.84992613286819,9.903766762671872,0.11505482811370064,0.10747699693739031,-0.05410774464006115
1560,5.581377734187465,-4.853996398198492,9.875059493317478,0.11398206337308438,0.09649247995957423,-0.09951360911751787
1580,5.410197573759301,-4.841826464042321,9.852333404780172,0.11629709111738207,0.08120489573387582,-0.1354992353152973
1600,5.243740076288041,-4.811919861611064,9.80268006493117,0.11639251236960235,0.06980286819899441,-0.16390116272551072
1620,5.07859035598839,-4.769434138649279,9.765697969615369,0.1109737309421445,0.06370106201564829,-0.1867958656399824
1640,4.912181688276232,-4.718402825651244,9.767868056071675,0.10525233931485536,0.05675251767835295,-0.2046986326510045
1660,4.742920765768983,-4.647803265437045,9.777132290820864,0.10170055325451198,0.04646767195201178,-0.21692499495179884
1680,4.6151192745817875,-4.573310865100127,9.77995823414693,0.09844637136983544,0.04024965243822175,-0.2209429895420028
1700,4.511377344492036,-4.490599860629902,9.790798961302672,0.09428132270849524,0.04014755668431044,-0.2205080729407451
1720,4.434603372552374,-4.401392887145366,9.806754886977036,0.09115514575155843,0.04294775179451707,-0.21780951826192244
1740,4.373918049001485,-4.305855089243962,9.822991373708074,0.0903284953198043,0.04383128165287682,-0.21611268861788938
1760,4.317588368436555,-4.207317673383901,9.827643720184764,0.09138590724335498,0.04294858764608055,-0.21490704347363337
1780,4.263865285528092,-4.109866839731215,9.827541955101948,0.09240910478247115,0.043686116747347035,-0.2131001508841419
1800,4.206780384664813,-4.015621373075587,9.827325251965743,0.09381315146353957,0.04678274695011762,-0.20970135236458862
1820,4.15751585834572,-3.923756792870981,9.818801460607398,0.09479755209081646,0.05068833296677293,-0.20469613665350592
1840,4.119000616756471,-3.8331269975850715,9.811497293769362,0.09549398359449987,0.05308645523628195,-0.2002082216182471
1860,4.081189076696204,-3.7446636092211856,9.803918316372132,0.09655910845869202,0.05381096415083831,-0.19681277361998678
1880,4.040472955181637,-3.6606565234736386,9.795948377383562,0.09804312933142967,0.053577176222309696,-0.19367670469273435
1900,3.993417455210499,-3.5807827347505494,9.786013174187584,0.09964343761260717,0.0547662733514858,-0.18990381487996855
1920,3.9490574387915443,-3.5028933881667954,9.775242073081282,0.10145498319760621,0.05746853505056328,-0.185051621713887
1940,3.9075047616485854,-3.4253256217567154,9.759069951382852,0.10355273933181605,0.05994336918038151,-0.1801414290655315
1960,3.8617404107098583,-3.3391955680633605,9.737749152601733,0.10582171819391369,0.06005352916886051,-0.17459301216749895
1980,3.8234401214297984,-3.2621765984464046,9.723282341204113,0.10775975963889346,0.058334608537971525,-0.16953840221529332
