0,0.5165258956452211,7.891589641571045,5.251080552736918,0.00972048519179225,0.01661775342654437,0.026633000777413447
20,0.3508703725179657,7.856861853599549,5.550937008857727,-0.028043138887733222,0.061536402371712026,-0.006576618459075689
40,0.2677289775539456,7.84420246737344,5.6291515316282,-0.022275492515681044,0.0724934090228219,-0.012991031897919518
60,0.23019559907593898,7.842936543055943,5.586828109196254,-0.013175090216100216,0.06503275373418416,-0.010852894007361362
80,0.2649762604427947,7.8581682660362935,5.450084935535084,-0.016741650898686865,0.05713008256332779,-0.010082306554646824
100,0.30628616257140845,7.881917494993943,5.383451461791992,-0.03201944341596503,0.043560066170847185,-0.017309157574065745
120,0.32125196514340737,7.913623873392741,5.353268074989319,-0.04862937595074376,0.026462572052453955,-0.027349275569819535
140,0.3101550409269026,7.946111608954037,5.333708749097936,-0.06382976047804251,0.008633491295554182,-0.03650741703869939
160,0.29691940669803635,7.95921748562863,5.320914293590345,-0.07916602386945956,-0.002884062313425698,-0.041656058062615464
180,0.30833026453010026,7.963155156090146,5.322417929058983,-0.09794731697599803,-0.006684907057899095,-0.044898239963610344
200,0.34316465943930263,7.982131833615511,5.353285426678865,-0.11543651162039327,-0.013558950366290368,-0.05343551842784307
220,0.34411641960032285,7.999700860977173,5.365322999954223,-0.13504363099113106,-0.023817910784855484,-0.06756300887209363
240,0.3092236448407035,8.000696120438752,5.4119903952987105,-0.15814251019791872,-0.03155094185947544,-0.08182670250297869
260,0.24654372927183524,8.002190455412252,5.527705322982919,-0.17603842221582547,-0.038492611784519806,-0.09273010866545364
280,0.18868922602385282,8.032282711029053,5.6534725952148435,-0.17938313420116903,-0.045453432388603686,-0.10062242500577122
300,0.10694125463311194,8.083771860960757,5.7304473645759355,-0.1788232571050299,-0.04893232795240527,-0.10765488111417543
320,-0.04243091668880789,8.144017953399226,5.854650984419153,-0.1851152543718299,-0.04763714899804364,-0.1141396182207787
340,-0.21690198089677415,8.143806143895091,6.1200306463561605,-0.18133183894366425,-0.05627451746430773,-0.11454581703143757
360,-0.4070313038589184,8.101542898044464,6.450626895685864,-0.15256441655645894,-0.07168187209921088,-0.11004907860358358
380,-0.6762664579137256,7.991498291131222,6.746146155848647,-0.10534583538432013,-0.07970071705340435,-0.10288298023427188
400,-1.045391464600544,7.784755196874541,7.013918827034835,-0.0528545692358489,-0.07355437062228519,-0.07893516762367843
420,-1.4207362405060486,7.511998922126728,7.258470888295885,0.0053137617329783865,-0.053944002862669815,-0.02637935369674281
440,-1.7399754411535997,7.207767228462866,7.396454235864064,0.06883561776251232,-0.015353567390727303,0.05452221638348111
460,-1.9563298552973092,6.8875901610755985,7.411941421818613,0.12723348807392235,0.0491080943655771,0.15414636970206924
480,-2.1096968639960014,6.557259991347063,7.325605665765157,0.17671368565046933,0.12865131017184112,0.2627949793749239
500,-2.206909872735111,6.190521394764291,7.108843560530761,0.21606819017868595,0.21360912222293355,0.39416789540653246
520,-2.2044537523216023,5.8699989240482315,6.874116310665199,0.2340906179795327,0.27495037596085453,0.5213319651718537
540,-2.068648534379574,5.6078181919605194,6.6469429644499805,0.23890934812563866,0.3268296963222097,0.6347623410706884
560,-1.8070725035431068,5.297904179580197,6.294413493617492,0.2217148319082413,0.40822962201552604,0.7666146853393797
580,-1.5862818658995494,5.025101673993759,5.95878938073671,0.18028838528562488,0.48271316192605024,0.8719798692845648
600,-1.3182037180018296,4.776008593475842,5.641214165308579,0.11682151031027746,0.5360938826847206,0.97572594439917
620,-0.9180603849218149,4.580063682660915,5.369103829511477,0.03721203850155682,0.5683816989834015,1.0671127550477226
640,-0.40752589465636346,4.436002134697305,5.156636944220022,-0.0556946394999546,0.5914117574657279,1.1373260284355773
660,0.19890724985170172,4.345254821716238,5.0414301823529835,-0.15853190361421635,0.601047817748308,1.1836854826634675
680,0.9139093466435227,4.349305402122803,5.069921602501528,-0.2572474523799142,0.5813882439641503,1.2046003619276502
700,1.7215955125098275,4.457815824697415,5.206854157479239,-0.33642343379443096,0.5303460583740174,1.19589930898502
720,2.5773266369803802,4.59667710671263,5.303525143679207,-0.41317892729286226,0.47327962864517226,1.1472744287592236
740,3.369245880043847,4.685089647171007,5.6526005940565724,-0.5111124916421399,0.41439368958072886,1.0482468498819073
760,3.919348308422419,4.7085184923673875,6.290192489503506,-0.5665149634855808,0.3406736698588444,0.9398697492426413
780,4.301734469188206,4.737187194655095,6.833813862360877,-0.5719335231261522,0.2605325339342028,0.836986342927461
800,4.705991979630024,4.778943522274494,7.359087476245503,-0.5635754400530636,0.16840904907865534,0.6974232418459159
820,4.943739508528469,4.747054586235879,7.813377999507825,-0.5474834894844937,0.10756443376970577,0.5612027847690714
840,4.971937966607299,4.618266535344457,8.20305825551266,-0.5156347202292997,0.06756037092791536,0.4252827745856335
860,4.811961395492191,4.428798242926099,8.48441377570619,-0.46653507654276266,0.03338663069489814,0.30639656283665695
880,4.553748090193183,4.226302533184637,8.62117011847142,-0.40944875009600273,-0.0023827399203315254,0.21097124964017827
900,4.225874850906432,4.029393791576227,8.63627476165692,-0.357252474866497,-0.02978553286070625,0.1422635174713408
920,3.9373247539381406,3.8495782016735163,8.567666858493038,-0.3100306073482715,-0.045831763624473824,0.09823480078448388
940,3.6910621732678215,3.6711056827546082,8.410818940747882,-0.26632264241441617,-0.04617961956416745,0.06828147135978646
960,3.3316639348841273,3.4352365223132075,8.081119587328285,-0.21877208627964137,-0.05097151118447073,0.047900974091317036
980,2.98390097915898,3.2156308331873777,7.67766984060918,-0.18998788290071603,-0.07366994610535638,0.05461182729449516
1000,2.696066713961325,3.0136255556538414,7.24930992255059,-0.1876722533494243,-0.09547999991180124,0.08092688775566505
1020,2.489042574911869,2.837231967800757,6.951162317877825,-0.2034262170135561,-0.1152625608381245,0.1163238927336128
1040,2.309308995525094,2.606612951994908,6.709969072895883,-0.2328848650563655,-0.1454010870991085,0.17217349184486214
1060,2.194796009224162,2.4072777664627543,6.547689759917557,-0.26202242476918564,-0.16718435452679511,0.22891700273903554
1080,2.10946701919186,2.2258606662674407,6.4132103792757595,-0.2947787021907321,-0.18168154813819065,0.2943519955835135
1100,2.0786459600173033,2.0596118258769835,6.305004750084328,-0.3352359760181954,-0.18722270863036738,0.36513943583964936
1120,2.07838153736144,1.8765185170100425,6.274600460788171,-0.38138080228587756,-0.19328794508855307,0.43716269891467224
1140,2.1300147867789176,1.6889455099195494,6.334319525019471,-0.42466367018000634,-0.2063618127692696,0.5096818719439552
1160,2.231010699766921,1.5216358008949706,6.4274144134639455,-0.46205851554453453,-0.21647432045332002,0.5832536166473195
1180,2.381709623041746,1.3580840965732932,6.567958548588709,-0.4989531217987428,-0.21378534626250048,0.6567259758773363
1200,2.575090358813008,1.1861527814950434,6.782666646830377,-0.5322983189896238,-0.20664285306702368,0.7258888767192407
1220,2.842599025101281,1.0198325518776874,7.096049554439465,-0.5544778556595233,-0.20103098517099377,0.7989088233687113
1240,3.130332699991385,0.9272600896148189,7.36711775923972,-0.5572384945094244,-0.1906423776130942,0.8568563169033174
1260,3.425990562748357,0.8583823850167461,7.586778642734846,-0.5509127670252828,-0.1723686333704604,0.9055479580119534
1280,3.723499466203829,0.8075879368726833,7.802611791048135,-0.5388600063516401,-0.1492457554908029,0.9466713146869505
1300,4.043640558056367,0.7962971914705285,7.980071639812081,-0.51700171312704,-0.1211324005051268,0.9757838400661359
1320,4.320272664847109,0.8028984649534072,8.089119508876166,-0.48856087836112244,-0.09573254853299042,0.99129565117022
1340,4.53330011221043,0.7934834237326658,8.162062357107404,-0.455297793989671,-0.08070216800892897,0.9975206235920081
1360,4.723559346001881,0.7669868867864265,8.197490503589844,-0.4185125085175761,-0.07146665985229526,1.00113086038001
1380,4.9580947414207515,0.7437945968014809,8.201313318956402,-0.38040177108227274,-0.05642966954986874,1.0005218641673295
1400,5.19041019626304,0.719352649463473,8.172662081439016,-0.34416110604957867,-0.03707225044924553,0.9891904112081926
1420,5.3807125405352725,0.6819623871937267,8.130301527831799,-0.3107198577712521,-0.020567815885361697,0.9684731508340512
1440,5.551994222983003,0.6222696402847064,8.070546872826036,-0.2788569900173512,-0.00278413752391809,0.9377813507230115
1460,5.670324381402201,0.552549323586877,8.021788074464794,-0.2540893260674997,0.014261980240149703,0.9066630601308593
1480,5.769201841900034,0.47002848505851674,7.967382270134375,-0.2317499482290453,0.031156117456094895,0.8732062323581901
1500,5.856768633168143,0.3822110233750062,7.910137552406313,-0.21081115503631181,0.04542803942696056,0.8351582753060244
1520,5.908169125214207,0.28923878675332654,7.85094324671946,-0.18942565745160805,0.05456276437841927,0.7935911513574514
1540,5.934949336742412,0.20335000491927288,7.752300811620071,-0.17050791811969201,0.055452273418974095,0.7524169109427893
1560,5.954063596382354,0.13239757537354377,7.637851932651807,-0.1600403470089485,0.05511248018665129,0.7120539422922716
1580,5.954225168593514,0.06662575668440415,7.538394325662118,-0.1567013949761167,0.05939282692180803,0.6716307311259712
1600,5.935077062130008,0.008087736693151455,7.462422577681241,-0.15675275264722563,0.06091078788560099,0.6323272556356313
1620,5.905032405622762,-0.039111466183363496,7.4002007291325045,-0.15856792054288704,0.05900774732743902,0.5946485936659522
1640,5.865523918444783,-0.0771025799336437,7.351715330432448,-0.1648491963178323,0.05916187339407068,0.5600383739283886
1660,5.831423321426122,-0.10601298461321337,7.329918978730342,-0.17360097483719517,0.05999340312323284,0.5279254907579298
1680,5.797396328271934,-0.13218013196644493,7.329307729930936,-0.18592470167602335,0.06045310288551769,0.49106521349566734
1700,5.736020645751579,-0.152924919658166,7.370424531101754,-0.1950354705646618,0.05960906315821413,0.4599397992047392
1720,5.662287143080151,-0.16597113799951876,7.412189439012863,-0.20128518131448292,0.06006635963910851,0.4332396707086214
1740,5.583899527463828,-0.17142981468484952,7.457300636870461,-0.2070017097638334,0.06256796807503341,0.4115023772549731
1760,5.516926087664484,-0.16888367035329588,7.5069058352506834,-0.210133372204775,0.061769063619125174,0.392149019655179
1780,5.454177246464699,-0.1610265767810772,7.540118126033025,-0.21183467041044948,0.05812046667175538,0.3743974677694416
1800,5.388696966346237,-0.15239325558945677,7.572190025229012,-0.21324326873552785,0.055833074277933534,0.3587434689004884
1820,5.333365679668684,-0.1412324197839701,7.611398066113512,-0.21330116766285515,0.0554086198502593,0.346283293506062
1840,5.29331697289098,-0.1260509971948649,7.647300884315115,-0.2115624104129977,0.057097586947308224,0.3365309337448538
1860,5.269357105776873,-0.10766602384700376,7.675162181521853,-0.20893027698944613,0.05933752083503379,0.3274863927439282
1880,5.25005079808146,-0.08852564525124937,7.69801559388135,-0.2055762627022522,0.060922340425752085,0.31814662835167556
1900,5.234246249762585,-0.06865313417721775,7.716691793206797,-0.20140432104538883,0.06277613133052783,0.3087942315938324
1920,5.221794067908036,-0.04761433307900362,7.735262189661608,-0.19668507636666743,0.06445755312273106,0.2989768418771886
1940,5.201459125436646,-0.023589141648169137,7.751041780062132,-0.19045666829962518,0.066671007670709,0.28818137025862495
1960,5.177007728922343,-0.003878505613228575,7.753369676431094,-0.18526511313248917,0.07027019302471336,0.27973924550695217
1980,5.1482775893298625,0.013172604382184925,7.753528041104452,-0.1811610931915396,0.0739217772504964,0.272621221981313
