0,3.5206788645850287,6.627285480499268,6.636865509880914,-0.10111164570682579,-0.07977981389396721,0.01681229927473598
20,2.9081173644346348,6.567707398358514,7.354964424582088,-0.11324730438782889,0.06007269890431095,-0.09642252610886798
40,2.386972362995148,6.497017650604248,7.704874019622803,-0.1024680813215673,0.07728987943381072,-0.11637179628014564
60,2.0974565780524053,6.489196835142193,7.979479717485832,-0.043522803098753546,-0.005437265432467966,-0.0847644315976085
80,2.07537212895184,6.608384911606952,7.989201394523063,0.01411445989705077,-0.09160597779129337,-0.0413283324096261
100,2.1443089652061462,7.116561336517334,7.955488872528076,0.029028162462636828,-0.16711374202743173,-0.005104924142360687
120,2.40270020427375,7.9062075779355805,8.623805046081543,0.03807372682535186,-0.29953346203948406,0.02603642950797903
140,3.1747799443476126,8.822018551103996,9.763116114067309,0.14056619419716299,-0.5362859822837918,0.04193747751979214
160,4.324369735008961,9.564478564906764,10.6965460390658,0.3070477944408619,-0.7766667091589723,-0.01614451823705757
180,5.374599277973175,9.951832329354636,11.241404324043089,0.44220138363335737,-0.8094058603434483,-0.15190148292245662
200,5.914687237474653,9.942790969212849,11.607116678025987,0.5428880761429253,-0.6814766933210195,-0.3267414074184166
220,6.055831555201083,9.600753920418876,11.725087418848155,0.6638877516830987,-0.6030058358719914,-0.4997220022071685
240,5.9804543762836815,8.945669476505158,11.248187088179138,0.8005057666406808,-0.5660412201991761,-0.6752841051773362
260,5.572076181309265,7.806797607752838,9.988786520665151,0.9300737153828602,-0.5016058546229544,-0.8301539364385239
280,4.700559737985252,6.348019188361579,7.939961221374449,0.9799688114273194,-0.48494849762436554,-0.9328074216628905
300,3.450707425291722,4.7010182406466745,6.047129784180568,0.9104484827723354,-0.5580371254267028,-0.9451565633169734
320,2.162945682371872,3.0319560185830663,4.615029271961986,0.7925642045531962,-0.6816349377707187,-0.8397709721483398
340,1.140681037083775,1.3031839471386404,3.1032937165020273,0.6297684988216021,-0.8158920543572429,-0.6043661162383905
360,0.7094202478085795,-0.05735684455402436,1.7845831894105482,0.4212035816733635,-0.9165943055804218,-0.35530099432554935
380,0.5763328044326759,-1.3137049800687772,0.8066073275782579,0.14463879499138774,-1.0172539344628804,-0.10953227020343023
400,0.5840486296349101,-2.552418617607906,0.2565051902804458,-0.1604985501317645,-1.1363228150311182,0.13120987936200804
420,0.6671266816764571,-3.848729632545117,0.09408813448591605,-0.48360205835314185,-1.2536427337395328,0.37483011122647275
440,0.7572872620773188,-5.264919141516647,0.3890177805155994,-0.814253963313419,-1.3403342192853118,0.6318566491080319
460,0.9333698426683744,-6.827746526514873,1.2199124430998778,-1.145450487563339,-1.3904293135524943,0.9058674724724812
480,1.5764892096516534,-8.402554707684248,2.818713932495399,-1.4203796299206544,-1.4717900202806873,1.2183667108177991
500,3.1673283063899285,-9.487773753561397,4.724113805316636,-1.5559188444454275,-1.57678839736905,1.5098981437366015
520,5.155460175415969,-9.89626483241581,6.552445640030517,-1.6201181112890681,-1.5535486350686514,1.6939948670242884
540,6.550536899938194,-9.985628130775979,8.842644592476312,-1.6124272478297188,-1.4338111889872716,1.7962558813934677
560,7.8093946016532305,-9.930403636966615,11.013910575369572,-1.4671473470635394,-1.3403763732337888,1.8863165153705694
580,9.428387384525822,-9.956253638613175,12.669359408196856,-1.1891718837069958,-1.2449290969172402,1.9445430439377784
600,10.811460745328713,-10.192785350664977,13.597286797468625,-0.8961036156083176,-1.1588203326895063,1.9387664466963284
620,11.852215217254482,-10.59429563796864,14.179179468292457,-0.5858510336498371,-1.07177877259584,1.895360461070847
640,12.607705038513489,-11.097841786443075,14.493318320877517,-0.25205099297888967,-1.0459376177090263,1.8261832117603451
660,13.129029011893747,-11.629035172768045,14.381416040702142,0.08812676754651888,-1.128869722229496,1.7221456630951792
680,13.53793278596246,-12.041838246830542,13.907760941961282,0.3698410796457377,-1.250240924017189,1.5646446576853559
700,13.74742908069022,-12.34855717550708,13.477562876397501,0.563033460918495,-1.3446377176402315,1.359340369171935
720,13.637640939230721,-12.62517034895718,13.252042795623032,0.710875043234167,-1.4484929390220593,1.1406212682339052
740,13.313338692287926,-12.865034577593981,13.133136807909151,0.8459557892449273,-1.6176894055044448,0.9286175009117208
760,12.939578614539549,-13.023207269585397,12.957738334435344,0.9576803454878752,-1.8566748887931197,0.7287117094567777
780,12.6582109676789,-13.083164347979574,12.798245710911472,1.0243314734220297,-2.118277508854567,0.5329569448303018
800,12.318614445402995,-13.058193653978565,12.741432523409426,1.0510637955501654,-2.347159495148022,0.3479436609770609
820,11.9467382996617,-12.967270270932246,12.600564586243811,1.0526276398765142,-2.4664829523658707,0.19123618346912896
840,11.15748373803317,-12.806492517598208,12.207586633413763,1.020358361761462,-2.463725672535769,0.07586077110238779
860,10.344136743422817,-12.64645504256507,11.592458562663278,0.9596404513065033,-2.4173553978126883,0.03435737502445527
880,9.548857968902752,-12.52617577892052,10.786512263153666,0.855833229104899,-2.353076917900104,0.026348142300362455
900,8.65834911173614,-12.525130798985268,10.024589045731046,0.7074767007272761,-2.2761479111877705,0.05255530861982871
920,8.15030836974933,-12.698544958190812,9.654996761943401,0.543543204047969,-2.226782844519228,0.11503144202563237
940,8.232809170142085,-12.930310803755237,9.806786536072694,0.4006089420742559,-2.235927771855921,0.1683504765656966
960,8.620116039641408,-13.072934146247974,10.49128395616797,0.2974982259863101,-2.264679860175876,0.20896861178129536
980,9.185048124911608,-12.935022038350136,11.353043545740023,0.2898869705501438,-2.229711058066675,0.21570079285697435
1000,9.2465386902485,-12.656315981169158,11.559083823262338,0.34170435384236114,-2.1502647950780776,0.19074304819954943
1020,9.098525972890883,-12.234488467829669,11.192683354810969,0.37898939406286897,-2.0781406761211234,0.17155660518540197
1040,8.871442337316829,-11.730661353243645,10.837441548751666,0.38352365449482445,-2.0133393565864237,0.1479443478333049
1060,8.575438867914214,-11.304175523709352,10.554304702210636,0.38047318587709034,-1.9589569588642584,0.13794787585752333
1080,8.335259010388846,-10.891077914964324,10.321073966020418,0.3707058598796916,-1.9107758083021593,0.13819835074204168
1100,8.136430320842807,-10.515560541761474,10.10756312971545,0.359025522543421,-1.8682287537845648,0.14588042505963456
1120,8.030158672578535,-10.163965659595027,9.95912407259094,0.3425063841806894,-1.8400986146633371,0.154506981403071
1140,7.958741954111672,-9.841105098784604,9.91766418070691,0.3288886482431058,-1.8120149563680938,0.1604180905710351
1160,7.905889649848185,-9.531997761326728,9.926524624956196,0.3243101380305622,-1.7821680611227424,0.16364869253834607
1180,7.844812875989166,-9.232987948267915,9.923344957281035,0.33020402775088575,-1.7492805431978278,0.16404511521804174
1200,7.76504149666501,-8.938921108766486,9.852664724817153,0.3410414245756351,-1.7085554867818846,0.1625483125082485
1220,7.672039852036066,-8.639265198023077,9.709476376251981,0.34878218027417995,-1.6682679526316766,0.16065995421527748
1240,7.57879072364931,-8.344398671374018,9.566065309907986,0.3510446275748751,-1.6355210462813357,0.15753372242153788
1260,7.478906528614318,-8.069375970519532,9.443368212937497,0.3505359862366526,-1.6025671540268671,0.1538737380160666
1280,7.377898948231691,-7.807081009371085,9.322126712744787,0.34780900163696404,-1.5676406169984802,0.15222473804061673
1300,7.29484407727917,-7.5521875989208285,9.221444515583771,0.34329751677713477,-1.5334962465973005,0.14990000840632267
1320,7.195009468188492,-7.282200538308032,9.13814226643167,0.3405192488869635,-1.4951959057148498,0.14608672913849957
1340,7.1033152614039,-7.051094275731898,9.055669197257432,0.3414872865785867,-1.461466123768299,0.14404270890424073
1360,7.023234396759747,-6.821427219762252,8.962214871570435,0.34197311638812794,-1.433760350810827,0.14215914657662668
1380,6.956252146400577,-6.5964247392888,8.87728599002552,0.3426368715869003,-1.4095568623454549,0.13873741493069253
1400,6.887784888187181,-6.374709206340106,8.782066312350494,0.34371104177897394,-1.388442696855282,0.134327105904079
1420,6.816685973639451,-6.155307260107115,8.68676495725468,0.34398647595522847,-1.3660634236248916,0.12961300780539806
1440,6.736586398733449,-5.946238026287652,8.609961841005655,0.34501419797249755,-1.3402146163566728,0.1242415539891965
1460,6.646231452034217,-5.745848011579955,8.536113856527457,0.34744252689580785,-1.3105995791423164,0.12061503174899765
1480,6.5696769433228,-5.5438036226239396,8.443150473088854,0.349390006582736,-1.2886156247448501,0.11807581262365352
1500,6.500932242124667,-5.343292686694522,8.3520993851996,0.3496144201667086,-1.275555078722385,0.11482761488182516
1520,6.435098666144627,-5.14975352222952,8.271006156024441,0.3482992947071695,-1.2626581115724391,0.11181758349405581
1540,6.369864046848165,-4.963604165982048,8.198657010225121,0.3467482458032585,-1.2460600833523658,0.10903328331703949
1560,6.304396304250906,-4.78185346157105,8.1209680973421,0.34533272447802,-1.226050038443782,0.10730894543055637
1580,6.242724165012355,-4.605322904792691,8.03435432367024,0.3433446618346886,-1.208649719723427,0.1053745168357673
1600,6.1785509764607855,-4.4357518660999435,7.950448662266562,0.33986418849383376,-1.1932024102679362,0.10299130229435804
1620,6.110739059209666,-4.272158706788294,7.8840506100151995,0.3360194297553761,-1.1783014138026913,0.1010648745475941
1640,6.043637508065641,-4.114229680429006,7.821969925731993,0.33321016410854265,-1.1631151442027383,0.09979718737009269
1660,5.972812660293215,-3.940539883767419,7.746324699061841,0.33061203616054946,-1.1444600401384593,0.09880117374619551
1680,5.911388843463799,-3.7891159992296854,7.6714706703293585,0.32800164119391917,-1.1303521868898696,0.09805021796975864
1700,5.856710804511269,-3.6410974160414833,7.602680117573627,0.3244648143032234,-1.1183662858969619,0.09707852464450935
1720,5.8018397973263,-3.4981779204575685,7.542291039766993,0.321035606709219,-1.104753776264922,0.09618111926978269
1740,5.748632411684401,-3.358066442882998,7.484456529105056,0.31822955763435745,-1.0908509467570164,0.09542058062300823
1760,5.696294729486625,-3.219811168551031,7.421068118509397,0.3165023049359055,-1.0788468283077237,0.09461480241362652
1780,5.648489304206713,-3.0839299218074143,7.349591477228467,0.31362263942111773,-1.066609754647988,0.09342140634304327
1800,5.599946387185533,-2.95085292462381,7.286970882389932,0.3092822182161794,-1.0519791616584964,0.09198619017858975
1820,5.54961458488708,-2.819414536709026,7.231755337164041,0.3052735352896214,-1.0369379948036024,0.09033628396445169
1840,5.496958604431711,-2.6894796534163996,7.178345193647398,0.302032224368304,-1.0229442640556954,0.08858761579269528
1860,5.444591822075706,-2.560950372632789,7.120519415874304,0.29900912959128617,-1.0107785582652709,0.08692201658804583
1880,5.388769251813988,-2.417879764906219,7.054332554027297,0.2944488063701689,-0.998283170610521,0.08575144854161684
1900,5.342693892716307,-2.2932390012086743,7.0028462917004575,0.28901508042739854,-0.9849231180913526,0.0850460675982231
1920,5.295129068748682,-2.1721211019500046,6.961037603378367,0.2837769196552646,-0.9721976979629724,0.08457083078916926
1940,5.249816584512404,-2.0545644163991432,6.9248081456939135,0.2801409218281808,-0.9622195754684673,0.08479296998957625
1960,5.215001257424814,-1.937352607229006,6.884871137942933,0.2776082397680427,-0.95345017418513,0.08497941889698395
1980,5.180199503412814,-1.822985916031232,6.843568762459841,0.27477800390454027,-0.9433537275591988,0.08491338623157496
