0,0.7418573386967182,7.8718308210372925,4.727169990539551,-0.08510648991380419,-0.11522770566599709,0.2743548836026873
20,0.9763227192794576,7.883277584524715,4.879641196307014,-0.1259669928866274,-0.018337873522849643,0.2111954426064211
40,0.7849916422367096,7.79281909942627,5.145268573760986,-0.13921888500452043,0.012722732350230217,0.18770322769880296
60,0.6240114851882963,7.736784342563514,5.384439598430287,-0.13444068937590628,0.049108937100479096,0.2043633178779573
80,0.6064189763739705,7.745852756500244,5.542195177078247,-0.12599430873225897,0.07363236690752017,0.22190914303064346
100,0.6900589272988086,7.777264176582803,5.626145499093192,-0.11202072527031509,0.09457504152491385,0.22828763099957486
120,0.7511958136108884,7.77448584740622,5.716281589708831,-0.10265265261394936,0.10040558139352422,0.21575332393771723
140,0.7490423965500668,7.746241942048073,5.713169634342194,-0.09389254586130846,0.1133642547938507,0.20606738899368793
160,0.6953540387459927,7.694931970702277,5.659963621033563,-0.09463046342393176,0.14042308158241212,0.2054339637979865
180,0.5690684959890298,7.589078008392711,5.632731361153685,-0.10189990751031372,0.17594833522575137,0.2172044790637346
200,0.4473035577684641,7.4373163534014415,5.591805725954892,-0.10867739273130558,0.20094466424976173,0.23792386548907568
220,0.2804395176431875,7.2280704753915055,5.4990638506781195,-0.11798849222778353,0.2148607227106377,0.25777347055599864
240,-0.057252367816510656,6.915311247961862,5.367489916937692,-0.13234321498132956,0.22283938224427402,0.2806711127408422
260,-0.6064441762701199,6.483822349916425,5.164712788765891,-0.1689887241329671,0.24307158992936215,0.3536817117087674
280,-1.0825488698500834,6.077381939703568,4.935350223642881,-0.22230793716630243,0.2618035614093552,0.45407522402581624
300,-1.397991379794593,5.675791209506301,4.717120141249437,-0.29803998296220713,0.2773573626549198,0.5796877612861303
320,-1.5383368403562447,5.340089605699708,4.56211032745612,-0.3618055810836856,0.28051188290940926,0.6766846661510713
340,-1.621165822158019,4.933543584143666,4.390169422920436,-0.4683108918483637,0.276106883491045,0.8338094500135885
360,-1.634367618020382,4.583258860321208,4.2062143598767845,-0.555707824773264,0.27125231165729174,0.963861111648284
380,-1.4985430864617229,4.218812289820225,3.93829933029634,-0.6654873056923626,0.28946807353906795,1.102840447821367
400,-1.3339255447136964,3.972720879302946,3.7557923533245474,-0.7574073312536418,0.31694074375499154,1.1905854397458944
420,-0.6851370741791102,3.42006111883799,3.5844563574770865,-1.0090862848126236,0.37111176867456586,1.3799774144054129
440,0.08088985515097456,3.0801755119595797,3.6372622438175704,-1.198528059132357,0.38990697712307015,1.4804260711115536
460,0.9163789645931923,2.7847905546311558,3.799192489499284,-1.387152399046865,0.4012327095800915,1.546653306937402
480,1.9315003399820168,2.5687652596337074,4.2284190271898074,-1.5413909338609273,0.397871408954411,1.5839935611952003
500,3.413640803750163,2.487074647416577,5.085478007016588,-1.6952052275160265,0.34889238678201395,1.5783141763501258
520,4.950013478163238,2.566586149286598,5.958655768401546,-1.7593872917850064,0.2838873904130366,1.4872306882314485
540,6.279382780891749,2.6057813560942984,7.024708657078281,-1.8025949169893951,0.2056738571530528,1.3204503109604777
560,7.174885219591869,2.514176972417368,8.318517299353058,-1.8014887658831196,0.12648531782556757,1.1753348821030667
580,8.15704266387402,2.256699851035704,10.149482104574702,-1.6891332308305695,-0.05054727134605249,0.9085772624047695
600,8.796172434211787,1.864966476595853,11.437831306421899,-1.5307094146389946,-0.18863977877000176,0.669614023213605
620,9.254189465130215,1.3781812149729278,12.449367513585274,-1.3533040950520676,-0.29061976385133836,0.4236614425957893
640,9.558145243065306,0.8789361944015985,13.1140830441189,-1.1837288255845302,-0.3624929613118669,0.20308522602781318
660,9.786572816676713,0.12722344183109024,13.656593542586673,-0.9569859052009203,-0.47158497397872534,-0.09067456957968799
680,9.797644530590821,-0.6367367109935401,13.882566274739407,-0.7671548753957077,-0.575761539980032,-0.3513398922111036
700,9.604766964587089,-1.4722973153071657,13.812422711198053,-0.6005262175530246,-0.6127593532166354,-0.6143490086016181
720,9.316257952918052,-2.062167980586705,13.652733320825076,-0.5179614074959501,-0.5800785001854869,-0.7640858858373741
740,8.714201220513818,-2.783043929109616,13.397304367370806,-0.39099682599318203,-0.5171070758362192,-0.9633429462404607
760,8.08162999084467,-3.4022466619440084,13.025102055478323,-0.28584802360863343,-0.5090884708304289,-1.072312331817384
780,7.458475556704618,-3.987678133031744,12.527209323083545,-0.1839453436600987,-0.5330571832629726,-1.1410805010639222
800,6.913936916859736,-4.424332079559204,11.932639024003755,-0.11914642058369336,-0.5481183547470154,-1.168204522290916
820,6.244224780510344,-4.928344614003949,11.072598409608883,-0.06497625763637617,-0.5333960499011857,-1.16702055096188
840,5.697916915423462,-5.3722768155215626,10.337606717757453,-0.0659788829654498,-0.5055416287244137,-1.1284906742344984
860,5.217187010230538,-5.777998339918473,9.686925997852944,-0.09299652644935368,-0.48608174977112517,-1.063994105089079
880,4.8434027069461205,-6.09079225364426,9.187440457053421,-0.1289899547715202,-0.4852632365494802,-0.9881214000099947
900,4.45435025556744,-6.478270586770308,8.616186134236795,-0.19267654497306594,-0.4927103451393064,-0.8685775753110647
920,4.155699440736422,-6.858100905847785,8.176937364237872,-0.2754307647897421,-0.48495803632724443,-0.7466284790909604
940,3.8255051702888236,-7.370799140319956,7.82374721256044,-0.4014995093349664,-0.4628234742434365,-0.5882449960455797
960,3.6345028040925924,-7.845975446872263,7.6734372641552575,-0.4960358572746568,-0.4513140023556314,-0.4695904708927191
980,3.541956126595629,-8.574241228153308,7.531609362216644,-0.669333369774675,-0.431214322982195,-0.25340850160077766
1000,3.6549391674879064,-9.37530142082393,7.507058551250878,-0.8388996598926388,-0.39990491667631606,-0.08048174988487443
1020,3.9115278928069457,-10.361184865156645,7.702724464786307,-1.034976509700567,-0.36939827786789514,0.08470521561111237
1040,4.346154868931327,-11.299422820864645,8.078669814375516,-1.210494399194771,-0.3633422737149086,0.23017888079249413
1060,5.23676254306824,-12.214008213172175,8.809298734711291,-1.4274761748928535,-0.33367614652236893,0.39179155307244384
1080,5.913255075170669,-12.726348529496555,9.828762319181742,-1.6008660703416118,-0.2248610103691227,0.4846104149235768
1100,6.440149678610199,-13.034225526753048,11.1098352216069,-1.7176693218552546,-0.14719457509485434,0.5533758961239924
1120,6.966383234101712,-13.069268068792704,12.378867272773515,-1.7376805091539964,-0.16344439987417148,0.5919267585905997
1140,7.595848218510066,-12.884500885322721,13.607827517078883,-1.6698050861503047,-0.19377608725161694,0.6176897652272476
1160,8.130801105893228,-12.631183207666338,14.450746822619038,-1.5664603806521635,-0.1465150245453648,0.6316360862590529
1180,8.589782319240532,-12.504584747462422,15.074036781741269,-1.435918480926289,-0.13877977440785233,0.6287715757235026
1200,8.942080341821676,-12.495317785428274,15.43906416425115,-1.3165510705410979,-0.16562667686673926,0.6092219455962683
1220,9.323248510621859,-12.611438644248473,15.656987645295986,-1.1061943533488983,-0.21867281867124408,0.5464869055162329
1240,9.59198793597775,-12.799398159871206,15.683894113524287,-0.9470074949621716,-0.24390097953671333,0.46696825088458316
1260,9.685810835476476,-13.079969711177425,15.57775331377753,-0.8012278454259585,-0.2760627769494724,0.3693644675070197
1280,9.643268849727248,-13.375993390847352,15.379277114689124,-0.692605867529554,-0.31970240165080344,0.28205459381498044
1300,9.53825992104259,-13.608008176988262,15.21329929771718,-0.5729145598841991,-0.3937609309909607,0.17954796320699462
1320,9.457349287227443,-13.772750389428872,14.992761075101463,-0.46781100616085847,-0.4788507964681985,0.09637333691546288
1340,9.444093718134205,-13.926873667788776,14.571090461384843,-0.38490490580316294,-0.5543319232152267,0.006461901796812361
1360,9.40116158169084,-14.057372073838538,14.124458476329218,-0.35786299177577563,-0.5852047123978018,-0.0812229633739275
1380,9.218159797951882,-14.1932840914969,13.702736724645241,-0.3666566678540051,-0.5997047721615634,-0.18349814612760665
1400,9.03190281144619,-14.31438142612239,13.439940606094638,-0.38211774148650546,-0.614205688374435,-0.25993970241916825
1420,8.72394327334836,-14.44119606163883,13.161746208132667,-0.400479159956897,-0.6474338966528813,-0.33113569039436086
1440,8.44666598185234,-14.507275289909566,12.969412923102283,-0.4147930034722481,-0.6843346900074206,-0.3644618545587733
1460,8.097797329901393,-14.561975255739162,12.73022109702018,-0.44649961464051063,-0.7498829510367673,-0.39447986808774965
1480,7.739922260910064,-14.612807853125908,12.568810542051173,-0.4844925826587262,-0.7902134040545494,-0.39556937192488445
1500,7.337460081931961,-14.657341009142195,12.484345573092986,-0.52765053372709,-0.8132670792440574,-0.3674370882018068
1520,7.000115758712504,-14.692126835431802,12.409108044585604,-0.5666807858090716,-0.8201409379301826,-0.3188960096107083
1540,6.790529750404133,-14.726964327410785,12.352926775461828,-0.6280686725683735,-0.8145999300652279,-0.2410096120939438
1560,6.631400867793796,-14.759325343404251,12.415129641927953,-0.6945222900474972,-0.8039910322299711,-0.16984503594094505
1580,6.464591135184527,-14.781113520938288,12.675769142383333,-0.7544976897333306,-0.7917584588071418,-0.08974157971901447
1600,6.355180976574881,-14.76922913165108,12.999097260999685,-0.7873332947734687,-0.7774684910428573,-0.005993714393757352
1620,6.399752592506395,-14.718981477745203,13.415859645086469,-0.8039193918231768,-0.7473821702094041,0.11477599460154007
1640,6.626880159752857,-14.621512754402511,13.780450434117244,-0.8075702716062059,-0.6964463961153498,0.21185514894654162
1660,6.952298248590737,-14.475963566852185,14.221598437036771,-0.7902509385624024,-0.64404224482115,0.29952048098065837
1680,7.235392696893838,-14.339808761688516,14.505354515983136,-0.7611246172884485,-0.625091222828117,0.3435827931552126
1700,7.600698076519077,-14.15359562469831,14.725792015894669,-0.6913445130774708,-0.5969505400880943,0.3960059935992434
1720,7.925364944140628,-13.992214988079054,14.787674537904836,-0.6304966961046872,-0.5593360521959932,0.41876276548348623
1740,8.176031945868438,-13.855847869955888,14.76639266877456,-0.5693083811941128,-0.5238999103271504,0.4257248968194668
1760,8.355085902815013,-13.73911660173714,14.656488999354446,-0.5162173714786664,-0.5019183729265873,0.423262192288696
1780,8.471362132362888,-13.638669580475115,14.471188976872037,-0.45177167895695214,-0.48493614089134746,0.4122717044045023
1800,8.536051764505986,-13.548268103008487,14.203058702792749,-0.4036165729744623,-0.476877870341053,0.39753977290567255
1820,8.562967813212014,-13.46169714382111,13.88999365350502,-0.3714136258180764,-0.474015675148093,0.37873115767324245
1840,8.5630084475299,-13.389869101284154,13.616123555029697,-0.3572951528676519,-0.47524883230365617,0.3586444700789079
1860,8.525715293449743,-13.311872061859743,13.281190641305262,-0.35502738585377014,-0.4791618437588975,0.330197070306167
1880,8.459340187047593,-13.25061896308513,12.966667469210622,-0.36774856659555893,-0.4846822839016543,0.3037052165416538
1900,8.415088001277867,-13.209510385844512,12.698591397998511,-0.3909914071013626,-0.49297596560581375,0.28303045947512223
1920,8.392490975776145,-13.188920990476618,12.4759139090192,-0.4167513096143669,-0.5016898392027037,0.2673191750210402
1940,8.370808086724432,-13.185135770347769,12.228879671832747,-0.4749792254415974,-0.5187178778237209,0.2399407740973622
1960,8.354653764519604,-13.202346883842678,12.054358096904913,-0.5313470810965708,-0.5338207982075325,0.21831400460155492
1980,8.36549868371927,-13.237797508362165,11.935990397032116,-0.5919751647355586,-0.5545610052614608,0.1973223493207702
