0,3.122041172451443,5.146631081899007,7.540586206648085,-0.08234814016355409,0.009659707649714418,-0.08296461693114704
20,2.91487979888916,5.1174525653614715,7.596438688390395,-0.10036712512373924,0.05481856453287251,-0.07915960427592783
40,2.7366452503204344,5.081656894683838,7.781322975158691,-0.10930406734347344,0.0997313678637147,-0.06091600961983204
60,2.629150968609434,5.051314151648319,8.002994392857406,-0.08259562703526833,0.12107668548935291,-0.031035664463133522
80,2.6932872155817544,5.06809521884453,8.062220224520056,-0.03822338695796888,0.10355021134473202,-0.010659430857475212
100,2.8084293628225523,5.088585804919807,8.026834964752197,-0.0068399748498839995,0.0796265669205055,-0.015622269267178312
120,2.7716679907681647,5.092147885707387,7.957599773741605,-0.0051974534677962465,0.07755630007503848,-0.031152894344638315
140,2.6128938523205845,5.076135245236483,7.888976913509947,-0.022303273118185727,0.091087876861407,-0.03608760035554455
160,2.440848665462958,5.072845768284154,7.866085941727097,-0.03899459808284568,0.09263757060005053,-0.01924948616746209
180,2.3756258218753628,5.0748129356198195,7.800170008729144,-0.0450891464005974,0.06644133471588536,0.009658541067548824
200,2.4686797983116575,5.096548546685113,7.731176561779446,-0.05085182269103825,0.018442222248348926,0.024633012373103863
220,2.639262758347453,5.159361065650473,7.758494995078262,-0.05699979951510168,-0.013105788914372727,0.01740636468665408
240,2.6898329927111573,5.28635059662585,7.889059071270925,-0.06364683255570817,-0.02005379923338176,0.008848562419309088
260,2.7960803775410903,5.489048849072373,8.092939381013837,-0.05924560816697123,-0.00866003604524099,0.021988851659555445
280,3.05168689811816,5.709726810455322,8.26234655302079,-0.03474498547033453,-0.0011835770841810058,0.03646627710139776
300,3.459182139084889,5.959361545856183,8.339753095920269,-0.0010871276904184084,-0.013494769659323188,0.024160928168119145
320,3.9054439875526703,6.298623955768088,8.37357867627904,0.02145853535393658,-0.053268086222553815,-0.017791786106249343
340,4.306639012816834,6.800215335741435,8.65829122556399,0.029151565605800036,-0.11328956607588861,-0.07044735065763434
360,4.9686393006281415,7.3785578182765414,9.26514897718058,0.07122671719664683,-0.16198391341846194,-0.13691073002644463
380,5.721657806744605,7.862511494408356,9.915733907851704,0.1665908028685882,-0.21276599205630414,-0.2769258889381094
400,6.1183367455214785,8.014351945174369,10.447243693279244,0.2679151718324998,-0.2563729669642771,-0.4397129556300304
420,6.242277468715966,7.899711342497245,10.960198543591206,0.37771975692215093,-0.288100668556172,-0.5931637759681456
440,6.094774222947697,7.5668019676272245,11.227852033421318,0.5529646857487247,-0.33062773592580846,-0.7785142542580192
460,5.7933436792630415,7.1094008361681915,11.082161147777851,0.6994867578483163,-0.3711259132800385,-0.9203298437647903
480,5.383980522748872,6.578281258274182,10.602999671486211,0.7873577657545655,-0.3850750103982835,-1.0466280773699541
500,4.782434214489155,5.979853229076377,10.052521688254524,0.81505749038734,-0.3660992980113703,-1.1481048047026152
520,4.024289152529686,5.36913094577724,9.502103686468786,0.810896358257117,-0.3360575323341814,-1.1996227963104606
540,3.269739898422216,4.740070919764724,8.93228374244358,0.7977109765387776,-0.32281465743286825,-1.1913626207436727
560,2.6239019917680864,4.028891820222773,8.22629112550553,0.7560016256816526,-0.2999953024505459,-1.14280628179735
580,1.9388620427851815,3.205837266557992,7.600530732928971,0.6590539869572584,-0.24192683471734694,-1.0632402444154851
600,1.1548193285902182,2.3378635964308128,7.288359616619657,0.5462998109146121,-0.198641238038417,-0.9358139568661521
620,0.46202613177446783,1.516019704374107,7.090848619413192,0.462186624195326,-0.1901027713578669,-0.7491397469728811
640,0.048132771542712824,0.6529645858638322,6.628931752336559,0.3687273780016034,-0.16784470514637598,-0.48880501634809675
660,-0.015255208896554035,-0.06711259689451991,6.169553211201793,0.23870119237529952,-0.10356336743132198,-0.2467314418307438
680,0.12535062768089938,-0.7558479366797797,5.86170934665371,0.0719551141931295,-0.028518692683756456,-0.02330330883736499
700,0.3867464763660953,-1.4484291263434985,5.608135315245145,-0.11555455889463527,0.03545142120637051,0.1685487310711473
720,0.7464637672901153,-2.1527873348196347,5.435528984591365,-0.32742915549936397,0.08326390387956054,0.3471273312112316
740,1.6222836673259735,-2.764645798543057,5.42014715087588,-0.5660951516754297,0.14106797748517438,0.5147049830661022
760,3.0988370840308033,-3.199488524300388,5.785276024897076,-0.8173261993959593,0.22797904552485135,0.5981993125530572
780,4.531983297180246,-3.5406225572949572,6.560032695646823,-1.025545795014082,0.28264487895648926,0.561113058659823
800,5.667207986116409,-3.8612910343042337,7.5171586617333706,-1.1640261562389647,0.2641601989547868,0.4592944253137874
820,6.550590014107087,-4.166869230042486,8.565844079786364,-1.242851896137547,0.22609230803517516,0.3329630836529438
840,7.355112139679982,-4.506301474690779,9.70269805289015,-1.291781859266916,0.22986936321439366,0.18167703119600273
860,7.907697355379911,-4.7824449558384945,10.76918903162249,-1.2916516098076432,0.2699880809497078,0.038351969779090805
880,8.364471543651737,-5.054147573284907,11.708771988892392,-1.2311061457335337,0.3072741507654627,-0.11588342625469174
900,8.705055204537215,-5.422773887181091,12.556246784133663,-1.1120179079737684,0.29564222689323505,-0.2908027256269697
920,8.910378221764653,-5.918954693348076,13.149072665652735,-0.948300890089196,0.23560286682768874,-0.4841160312224072
940,9.015087844473538,-6.474347582130015,13.388381392702192,-0.786317288715172,0.18598276656240723,-0.6798542043359371
960,8.996248743395961,-7.0082135325865424,13.333176854068897,-0.6638650680899207,0.19321687916124836,-0.8619171811410834
980,8.815682868558316,-7.482206904373051,13.242317836464924,-0.5737000950991555,0.23729427135491996,-1.0190778521372488
1000,8.50846670899026,-7.907229799263125,13.131852053935678,-0.4916658369670949,0.2817726684632749,-1.1461557338485544
1020,8.130699110100148,-8.235966199296671,12.98703662667096,-0.4141649834550652,0.3125631640280316,-1.2377403763127282
1040,7.779972832198396,-8.458718048039572,12.799487370242188,-0.3426895627821416,0.34515898498122544,-1.2969211699356409
1060,7.466586047463818,-8.616787375178982,12.546329529303843,-0.2822849518583248,0.3953363487136804,-1.3309210597077124
1080,7.092447881699611,-8.753345670654635,12.242846323152161,-0.230092480839251,0.4559156366346212,-1.3444304729095606
1100,6.758850900046035,-8.83052178462434,12.013334072272945,-0.18888739630424045,0.4923641756064123,-1.3332014967008423
1120,6.461451916427259,-8.868851006740616,11.789872944387264,-0.14431217918575648,0.5120729629436177,-1.304865240985205
1140,6.180995314132343,-8.879540375889615,11.532692175501204,-0.10157626207244207,0.5239010121802146,-1.262499460196519
1160,5.923234273161287,-8.860420216513976,11.2560912233828,-0.06930441362003964,0.5408778667779226,-1.2045465502644417
1180,5.704098987933478,-8.798898022790505,11.005105355424892,-0.04786760938917229,0.5635635571548554,-1.1336645691841458
1200,5.543685025494048,-8.694415775086233,10.806134653145726,-0.028548342490621544,0.5741707162171799,-1.0565832003278033
1220,5.458965373578002,-8.567366893019202,10.623553278852269,-0.0014001679554789428,0.5687048664266444,-0.9762800271164597
1240,5.453807204253241,-8.40484708390363,10.400781316324776,0.025773575732155756,0.5704579501074977,-0.8946737494529682
1260,5.496819719722545,-8.20129623428584,10.177492596410417,0.04370102401945064,0.5824095400159955,-0.817478048696963
1280,5.537658748397526,-7.977036332511503,9.98740489168992,0.05432398714118074,0.5997228736222541,-0.7444440882799955
1300,5.651277551818151,-7.719067538336742,9.786104038804211,0.06312950888006819,0.6127271887084141,-0.674192884384937
1320,5.850069646788864,-7.41283321430618,9.56587632902214,0.064972964082793,0.6166328853142287,-0.6196359650556658
1340,6.045490295066753,-7.055936474608301,9.38566900522257,0.05946656437370987,0.6117288184321795,-0.5820306348597493
1360,6.1651147191274465,-6.755737699266716,9.267020758023996,0.05440312195302709,0.60030379406658,-0.5624335827780738
1380,6.2564248793694395,-6.4746715695083115,9.170078202532654,0.048935840243056444,0.5916351197434038,-0.54958009181012
1400,6.332731803286335,-6.211364698466723,9.079165380107158,0.04186346844972476,0.5913129340843095,-0.5422086484884114
1420,6.3808252691749745,-5.967961671682295,9.002743231291575,0.032287314487860805,0.5962765782987252,-0.540917649056034
1440,6.373297182531072,-5.752294116470704,8.965997115208557,0.025629969624181587,0.5947737376366753,-0.5441173260421658
1460,6.325074918176326,-5.561363527944657,8.939572710229024,0.02752406926723026,0.5822742596559789,-0.5448822631199031
1480,6.277918577482663,-5.383104517250406,8.876353105369809,0.03309754498726405,0.5700691579329004,-0.5414528500931598
1500,6.236265054072549,-5.21319833892602,8.800439274991763,0.035097253981341676,0.5699713800573812,-0.535439103707762
1520,6.187531297407554,-5.051907554345076,8.744581887085157,0.03692249375370064,0.575756440822814,-0.5277416665707961
1540,6.1235755676264905,-4.902032047797957,8.697868681371821,0.04175627886180407,0.5811736561587115,-0.5174918380475908
1560,6.069084529759129,-4.739070248282223,8.628080677429534,0.05276679390080972,0.5815930867176575,-0.5014461288039456
1580,6.070066377146882,-4.580378944909396,8.517281174064,0.059207305937350074,0.579178170664818,-0.4909629413763199
1600,6.045511476508137,-4.419169009144975,8.414828457939864,0.058598991068897814,0.5757982994888685,-0.4875654753328801
1620,5.9726956306216135,-4.27347969475163,8.349521769369892,0.057365205797439735,0.5680053926720663,-0.4833418081882017
1640,5.9170955866963295,-4.134873085482035,8.289127306482571,0.05946674054541204,0.5588516755259272,-0.4728849005283943
1660,5.905435128460693,-3.9929274163304775,8.210831716395777,0.061414650681784706,0.5533010375930805,-0.46090303538230193
1680,5.9132338495827605,-3.848371845046004,8.13555446397283,0.061326857369939994,0.5490964869073481,-0.4524180630457501
1700,5.913358530473906,-3.7066507514649145,8.064430271673428,0.06015132899671604,0.5440955153241922,-0.4475695945432238
1720,5.900641166726762,-3.5723146603651745,7.99965814492779,0.058183897773770615,0.5393148799165911,-0.44377931307562074
1740,5.891297547036803,-3.439456741172517,7.939059515265889,0.0563788749489739,0.5355812616806851,-0.439531849232879
1760,5.882680484026464,-3.3059786502310695,7.87761873992147,0.05429216506401847,0.5343119227713841,-0.43589808990169937
1780,5.868278417976798,-3.174947241877697,7.818311298534065,0.05153870182446873,0.5342937796810004,-0.4330194949819757
1800,5.846142182392011,-3.033862680443177,7.757913795467264,0.04816049054981071,0.5340972806846801,-0.43063986033793417
1820,5.822475969426384,-2.9146842377735362,7.7152808799858414,0.0451246695133198,0.5315352689773282,-0.427768803499139
1840,5.802754074171839,-2.7987187966682106,7.674050022645731,0.043639431199500124,0.5281837930948292,-0.4245904431224443
1860,5.78410144864475,-2.685084518132078,7.633874874940796,0.04262986342093305,0.5256145914963603,-0.4217168774012765
1880,5.761532729905782,-2.5750790135716954,7.594597910022816,0.04226536028960178,0.523328798380862,-0.41896474381402543
1900,5.734786662389374,-2.468842952910144,7.554970757153001,0.04272136407057956,0.5209673701483155,-0.4157345935167742
1920,5.708018255266984,-2.363112478540724,7.512795213151391,0.04421908914635794,0.5184695175948262,-0.4113774558707218
1940,5.685655799852907,-2.2562595018482807,7.465242970863435,0.0457564487167435,0.5163941668300428,-0.40667769142566307
1960,5.664021098542117,-2.150159518857639,7.415967492948864,0.046482437525080286,0.5147359731411515,-0.4024554863118668
1980,5.638030158901502,-2.0468092351191767,7.3686731202805325,0.04637635586266256,0.5131112327602058,-0.39857026350791525
