0,2.0537293404340744,7.131170928478241,5.2899996638298035,-0.17603137157857418,0.21088288351893425,0.18857120722532272
20,2.242337144911289,7.172185629606247,5.623805493116379,-0.1265631567221135,0.281390069052577,0.18973634112626314
40,2.3359424819548926,7.202821910381317,5.756030559539795,-0.06928300091143076,0.3042044825851917,0.19793665843705335
60,2.4569907672703266,7.218589141964912,5.75178936123848,-0.03684791836712975,0.3154618851840496,0.20619800733402371
80,2.495490714907646,7.209248566627503,5.735952281951905,-0.02206010796362534,0.3147588737308979,0.20892890691757202
100,2.4511315360361214,7.167169551460111,5.684603535399145,-0.014849288522132806,0.3123414771897452,0.22367497244659734
120,2.4269532383533945,7.132620552129913,5.610060373942058,-0.008269581045105792,0.32196691318562154,0.25094749268732575
140,2.4490365450198834,7.07783569922814,5.363517497136042,-0.01472421224730519,0.3687033492785234,0.2782916921835679
160,2.4400328920312124,7.007893046287641,5.120420730277283,-0.04437465684437384,0.4148638236196074,0.30656686425209045
180,2.4801758998706016,6.950760923785928,4.972829518494783,-0.07209392043152525,0.41196533798435586,0.3373778157028151
200,2.562401917543304,6.902984785229973,4.791223311692141,-0.0939561897480672,0.39100564798612275,0.3722550530781907
220,2.688545346260071,6.8633361501792045,4.534685719873488,-0.12846583023801753,0.37888994997309655,0.40763365331384327
240,2.8654471181687855,6.811663927350725,4.326500315893264,-0.1842317991623921,0.38464000054768155,0.43888432951200573
260,3.080758273074057,6.772734004839331,4.215828005191499,-0.249584298378961,0.3841694323098765,0.462141966134046
280,3.339053245615368,6.772561293988188,4.2197078929459755,-0.3096097886585438,0.35172832260785764,0.4753603765294572
300,3.5755972206130506,6.797065708988397,4.301789444546367,-0.3526276499285659,0.28766584583348775,0.48263694680938424
320,3.8375207255356503,6.847448533468873,4.363900583155834,-0.3847275804014482,0.21237300958375643,0.4877962685414474
340,4.25995252638647,6.987584600709889,4.388135278061645,-0.4324841341354616,0.14954300083806865,0.47892939054394423
360,4.652403398767694,7.181917367043433,4.507209212749036,-0.49487508322692825,0.11737846091462227,0.44720225721936335
380,4.982113933121717,7.4212492159855215,4.928595582644145,-0.5497230649379622,0.05753416229430356,0.4104679426362301
400,5.498965078942916,7.758426584916957,5.695638436429641,-0.5520484774181729,-0.07623104872182011,0.37524530141450024
420,6.216179275110866,8.167904969011799,6.484609822208962,-0.4930258653403961,-0.2451343117648045,0.30615584023840975
440,6.68754919044307,8.37895654198902,6.866612891681859,-0.4535477368817588,-0.32896964502892373,0.23287624144122573
460,7.312982579481971,8.496393862458849,8.01988372974789,-0.38368952848238047,-0.43137593704189375,0.008967623796275597
480,7.326436201534649,8.288949520576118,9.049712109093619,-0.2655795997557332,-0.47952241500802706,-0.15535089706467226
500,7.189210269564674,7.905936988194783,9.683634616079784,-0.07888430489803709,-0.5501452198917313,-0.31234434623980806
520,6.891350393311693,7.404455867382365,9.738171797279918,0.10963798589671218,-0.6102437171785998,-0.4640798760885629
540,6.412490982710002,6.710612883126683,9.341969264498891,0.2595095144285275,-0.5901994408694986,-0.614060303787106
560,5.833595181906477,6.054650385836338,8.808413393193103,0.34147897003060007,-0.5225143364333409,-0.7116291092510553
580,5.167801864230584,5.427745263762925,8.184284739288284,0.40055111291484885,-0.45893954276011434,-0.7612414659985912
600,4.6029796366435125,4.841183896083756,7.39599237332781,0.4370818810919634,-0.42185366286180054,-0.7686308763134646
620,4.087734424354487,4.3279206798803855,6.490540187101106,0.4247105027419519,-0.4052670097093612,-0.7534009510270072
640,3.563268939542413,3.8696341050251593,5.750935482398401,0.36411821107076625,-0.3849903418393003,-0.7088134123382162
660,3.121276667659933,3.4678142322193493,5.186689341501756,0.2828271790136668,-0.37112869766286827,-0.631139510741288
680,2.7838083201288755,3.0929097269954613,4.708371623455425,0.1874466913475823,-0.36354269700407876,-0.529450644011685
700,2.5446137000400175,2.7178452268908524,4.321849950195587,0.07461779246017132,-0.3561065647066203,-0.4140866384281428
720,2.383645281245477,2.328439682223725,4.028134645227604,-0.05043079361263476,-0.3535841477125335,-0.29376946163541295
740,2.2537836767369064,1.8734358389913452,3.7931337847771784,-0.18504698946920348,-0.3573887286986852,-0.17174554723603136
760,2.090548963769327,1.232176951215237,3.6457807281396435,-0.3466176275455664,-0.3698448554783635,-0.022807557353914917
780,1.9700662636278587,0.5743759664488427,3.5914797682867006,-0.46891867910185975,-0.3890605612222578,0.11166164529835661
800,1.9319584488487207,-0.14864992664520998,3.518572385680963,-0.624865972659977,-0.4091558830717197,0.30642074707289596
820,2.0302299608531245,-0.9682219322989969,3.4755961260813124,-0.7823333261520876,-0.3966221403303173,0.48398587284609673
840,2.2365766938711547,-1.8645090440223957,3.607546485403831,-0.964584539493214,-0.3496196041092405,0.6419201842830355
860,2.437147756337366,-2.7944093647967563,4.087262466759159,-1.1451514810205992,-0.33271367939743685,0.7958429007204982
880,2.9841023431681504,-3.584554849090157,4.7674839650946,-1.2785363745770755,-0.35622904727818794,0.9554917616002098
900,3.8951517532890043,-4.138156151258817,5.517275392087877,-1.3710606263096754,-0.3774701468220922,1.0723342165020444
920,4.715907086539818,-4.526145948861775,6.342818734245865,-1.4244036340289503,-0.3762691074271539,1.140450790068625
940,5.530075633370308,-4.760644751725738,7.149763217637527,-1.4409121061308001,-0.3645596715703261,1.186509541029437
960,6.400194032954974,-4.852890416829273,7.953884396626793,-1.4152781970486177,-0.33180823089376166,1.2060663670141514
980,7.231240092850484,-4.884002316116106,8.570980895605713,-1.3438419095865257,-0.3123288727665117,1.1974009678348678
1000,8.205511236044671,-4.912051916699721,9.009101227791778,-1.2387846576593384,-0.3151640183299094,1.15014650221896
1020,8.988867082135341,-5.0164682021333595,9.338790274891037,-1.141291035997356,-0.3184546421120505,1.0635693752341804
1040,9.569348403927815,-5.239990347748869,9.751570883643376,-1.0335900742888433,-0.3288943961258361,0.9528955873688096
1060,10.008156787092613,-5.578236418403259,10.178866325069892,-0.9041575729086125,-0.3670095670989606,0.8249052617916287
1080,10.340424612424012,-6.00844228723076,10.481736152928868,-0.7709871954786894,-0.42498535780717484,0.6784030779882261
1100,10.572409715898187,-6.493527412414551,10.716396388398364,-0.6467262049571552,-0.4875507622393913,0.5171104892779956
1120,10.727599460259889,-7.018186856764258,10.857356530499045,-0.5314191394594625,-0.5543640134936914,0.34407011956307804
1140,10.810628388505945,-7.590537294904307,10.886737922901538,-0.43027937065845706,-0.6181086288359977,0.16295854720487588
1160,10.848505035909655,-8.21862289340741,10.780139021434874,-0.3479695338550838,-0.6614123854524528,-0.01897095388828521
1180,10.772906954041154,-8.876979821981843,10.542313474140217,-0.2891795771321301,-0.6826862297625732,-0.19884672710076742
1200,10.539990746912983,-9.49365383132718,10.207000427416565,-0.2554395647056431,-0.6832619050600799,-0.36132673467141074
1220,10.211082550542738,-10.052647971345516,9.824179316857856,-0.24380914066934925,-0.664795400814605,-0.4983617879149175
1240,9.765741961607471,-10.556409032030986,9.429469909233521,-0.24773531557977463,-0.6456829616324226,-0.6062543645541391
1260,9.15146249114863,-10.994786161253352,9.045582274816441,-0.2617034222004741,-0.6558724548074356,-0.6799180153667438
1280,8.61321002422715,-11.239125978810705,8.73526495097368,-0.27775550752740086,-0.691334597346773,-0.7057583593097675
1300,8.13943386319955,-11.403531708520896,8.439313637322924,-0.3070872926374737,-0.7228226798467952,-0.7048800846453659
1320,7.693731025321842,-11.533133131991454,8.214581506856033,-0.34927388027781187,-0.7493117971335472,-0.6839577220500588
1340,7.278978509652344,-11.641763733950528,8.03146754538471,-0.3992143689781766,-0.785238460469991,-0.638594800692729
1360,6.959412001120094,-11.7368667236793,7.880361425433321,-0.46192353496605054,-0.8198982432908563,-0.5715626067194861
1380,6.657858380758246,-11.84147642863513,7.866039992089617,-0.5460869076245468,-0.8358009384448111,-0.49516569801800403
1400,6.325013201171045,-11.953751662051635,8.169378587878747,-0.636394830350034,-0.8533723232375283,-0.4039106912349549
1420,6.118699053481631,-12.05342605925098,8.765310964095839,-0.6984935583381936,-0.8684637321789727,-0.2793810444634369
1440,6.321796414982212,-12.068755663855601,9.41353131459426,-0.7310091578614725,-0.8384625527297415,-0.1409477156334383
1460,6.725263204232457,-11.942705376341591,10.079844658066795,-0.7398843028929932,-0.7743125391927825,-0.024313535502361115
1480,7.306396054837368,-11.65313971283212,10.6443826605058,-0.7102362862880199,-0.7102800448098308,0.07237792651044724
1500,7.777909997777968,-11.345663692360002,10.894963797781525,-0.6699999112189119,-0.6521498509039118,0.11951901435518894
1520,8.113657620103124,-11.069357919319867,11.017090325825286,-0.6277601214471075,-0.5938856015699417,0.14417918122270373
1540,8.340096040845815,-10.833102754339363,11.043667072232477,-0.5848364876074017,-0.543826276969265,0.15471760574551136
1560,8.468946857788893,-10.63730546626873,11.018087313092185,-0.5399460352976195,-0.5094781503509818,0.15910902999615492
1580,8.542824050345368,-10.471699601393395,10.931624772076075,-0.4951012610613298,-0.4900320371745336,0.15954241536736166
1600,8.575355016701776,-10.32564270919516,10.807769266214535,-0.45616432444355987,-0.47703374301062057,0.15721422980809655
1620,8.589783089704598,-10.1859932622309,10.672409792527624,-0.427410582859395,-0.4660691412581555,0.15226059110145482
1640,8.569494487070957,-10.05232219906571,10.564242440313324,-0.40720495210832813,-0.4551524614065819,0.1449278125913478
1660,8.512739288059663,-9.924636898537623,10.487089057964587,-0.3891651236043423,-0.4492671020323512,0.13755837974785956
1680,8.430929307219893,-9.797729039686736,10.40950835693568,-0.3708965091863064,-0.44959019797174954,0.1316615346655808
1700,8.343049188885542,-9.664845044192651,10.312279121877907,-0.35667496480168304,-0.44972269160123607,0.1272898863850282
1720,8.247569915896747,-9.508724684615366,10.211275082134472,-0.3501589995662057,-0.4438885184618729,0.12203025875913392
1740,8.158183651632273,-9.370137616698996,10.151869298754198,-0.3492505529854876,-0.43771576029614784,0.11634362889604193
1760,8.063033199125332,-9.230971203123529,10.127480239058949,-0.3480257001996506,-0.43521848000172114,0.11045787122145864
1780,7.962321746133647,-9.08819813080705,10.109733186958993,-0.3440541288077289,-0.43323482175940997,0.10554139077462574
1800,7.864242230482531,-8.941727746642478,10.07996079233556,-0.33986639556520537,-0.42831487504451576,0.10247442426771158
1820,7.773860330884946,-8.794673092463004,10.044911934853962,-0.3388098793176894,-0.4207717093954524,0.10017356759041138
1840,7.695089814303929,-8.650830068684956,10.02743126456923,-0.34005086163697923,-0.4141695694725445,0.09767588956047474
1860,7.618362088139953,-8.509996410616134,10.029825413589807,-0.34166238896279155,-0.409475321647417,0.09459373810616518
1880,7.549681945695435,-8.36730674673648,10.050282019859878,-0.34217299769443343,-0.4044599775964646,0.09203491599419067
1900,7.48952270213865,-8.223040698307384,10.08076727487262,-0.3394443387259878,-0.3972919058671567,0.08868117164670412
1920,7.432735718322243,-8.08041137050153,10.09446399891749,-0.33294307249295285,-0.3874316809625289,0.08461594515882803
1940,7.377676556951065,-7.9402461294649225,10.083891486626758,-0.3250155991035622,-0.37636845795592916,0.07958439288683226
1960,7.3102756864338945,-7.789680301361763,10.054561533777976,-0.3163143163352168,-0.36527310819312764,0.07386125137560888
1980,7.243468975467545,-7.660818193287431,10.020714789048776,-0.3090240136689733,-0.3590318330509498,0.07073580137366482
