0,2.162702739238739,7.481562328338623,5.912345457077026,-0.1449877629056573,0.00949994488619268,-0.11293867491185665
20,2.276599215136634,7.561875343322754,6.169304450352986,-0.20516796296255457,0.12141072012794514,-0.16191585010124576
40,2.0902994458491984,7.556655388612014,6.381253444231474,-0.2311608147305938,0.18715084234897333,-0.18684070886900792
60,1.9000958730192745,7.488803723279168,6.696474860696232,-0.20569494318025297,0.17166768729358034,-0.1831329810049604
80,1.8942324348858424,7.457748980749221,6.762851124718075,-0.1476621837632376,0.08949271263554692,-0.17936664172226474
100,1.9908361220359803,7.461252565383911,6.6323841381073,-0.1173398759867996,0.018039563838392496,-0.19387106738984586
120,2.0534402810294052,7.470809525456922,6.578705976749289,-0.12408938360850102,-0.0018638208476376944,-0.21770844550739074
140,2.124890452081507,7.5319012945348565,6.631809342991222,-0.1353359872574043,-0.020202497344915613,-0.24141619439152154
160,2.2945582753903158,7.6965574251638875,6.721266553208634,-0.14073916805933254,-0.07206184612083677,-0.2640070803966877
180,2.637851268779941,7.965367997564921,6.820899062040375,-0.13818983251524225,-0.15890715301900013,-0.29976035413763874
200,2.939817786216736,8.171531726574075,6.8831212328768325,-0.13419361407707991,-0.21882616628989063,-0.339040055485635
220,3.623737283427306,8.718210186621155,6.881109112440938,-0.1396450477821583,-0.33100184688175266,-0.5120566958053545
240,3.828091943375418,8.992649626509051,6.8833311695918855,-0.17718296288730245,-0.36157508134389316,-0.664621774942797
260,3.8285326035126395,9.151765744582466,7.057852094069771,-0.2207900150274129,-0.37898811136736815,-0.8221566517391931
280,3.651022450952995,9.17810469914258,7.402752539006675,-0.23592534606398,-0.421347909667567,-0.9718437898389207
300,3.3769776835639513,9.107692929624601,7.815150162645879,-0.2014866134272675,-0.5027790632283756,-1.109148138892332
320,2.976406340628005,8.941797208442962,8.150923787261085,-0.11791743174289092,-0.6243678132715307,-1.2318278942123162
340,2.4523697642191333,8.715232073855239,8.157795296234339,-0.03376987634454759,-0.7330376451809694,-1.3230452574789524
360,1.875037700586742,8.421259888525933,8.012530440668906,-0.009341558570703191,-0.7421107929740702,-1.3636037192758053
380,1.2294238239663875,8.005801287256867,8.071774494428576,-0.02995763531388955,-0.6597491147316581,-1.3584722866264223
400,0.47844369480745835,7.492013596041858,8.402597215440538,-0.02129670515471296,-0.5906225757629812,-1.3082201930514552
420,-0.2342062979315718,6.860241031067239,8.59681650267707,0.04820341360496564,-0.5799571808789753,-1.2055166376961601
440,-0.7021484098575533,6.302519658223746,8.555010105701204,0.10294725880908602,-0.5708304245391503,-1.0828725974610511
460,-1.0122135028585184,5.774001327780437,8.58194185519705,0.13500674091973247,-0.5227458686520327,-0.9311461910909536
480,-1.1316467806441235,5.290387059616692,8.699650509684693,0.1753871641783774,-0.4496313482203393,-0.7681895564584171
500,-1.1743504328582928,4.856873885148539,8.713894805818233,0.2344825567945592,-0.3746458884934842,-0.6109665924648069
520,-1.2112397952048186,4.6096954055233486,8.633504945561633,0.2757415235201369,-0.3348578738975703,-0.5139944795089932
540,-1.2560827572127444,4.116786657260699,8.222333479084467,0.344114633181067,-0.2528822921061267,-0.296274018915076
560,-1.2105200546556862,3.7921279644183183,7.908801338919518,0.35984542505160544,-0.17875864770721203,-0.12470428721379426
580,-0.9601869322512238,3.5111969529238882,7.670011094099552,0.3638636669560076,-0.09767287795920475,0.05021869843123389
600,-0.5683609770670061,3.301895732503562,7.395573504490867,0.3642555586420857,-0.022716130739787503,0.20155031056631179
620,-0.1706912162928627,3.1532091691516912,7.087710546630507,0.3488676629835167,0.023352151446474286,0.3278954808528607
640,0.3016652301815686,3.0693070391304236,6.856011783551258,0.323962433056892,0.052483786644636474,0.43893672903971886
660,0.9231287638391183,3.0352075290244196,6.584713060812292,0.2919721635014814,0.09134029160969848,0.5461096823861022
680,1.6086968762179217,3.0626334676486358,6.275623707486349,0.25179151854918974,0.12188301423335807,0.6111228708635297
700,2.326504087832092,3.118871412268576,5.944814722171314,0.18966570764989832,0.1316358323841524,0.6292135933153459
720,2.9656708633954145,3.163160523789567,5.669560481036125,0.1120851169977696,0.10625798147221241,0.6030490601627138
740,3.5406141023974396,3.159379694538498,5.4141395148794045,0.023575190528564178,0.06940240134156542,0.5494496067413235
760,4.148899309019843,3.1104278722278513,5.205186062324969,-0.07658914254378962,0.03523875320218621,0.4664883359044508
780,4.715034615936188,2.9856093747684587,5.072003071801021,-0.1825421469586973,-0.011976418647055443,0.3427210691571236
800,5.097191551907195,2.7597818506976686,5.02204689028877,-0.28991106721815896,-0.08110417525476969,0.19128236839094678
820,5.2446294548727375,2.449789034994729,5.02255984200192,-0.401709257735655,-0.14611213417488897,0.04153393871011622
840,5.140576820793885,2.0784515709346723,5.121471543654928,-0.523265209154394,-0.19468357276577064,-0.09013190573044015
860,4.780767800557722,1.6818539077723895,5.393490285714384,-0.6364579738863856,-0.2644438367644821,-0.18629911823683426
880,4.3215603153642315,1.2807383984633505,5.795540675673991,-0.7294482822785129,-0.3668674989641733,-0.2390884493107665
900,3.7051466127738037,0.8643075198951092,6.375004339295833,-0.8049981948374247,-0.46200425720918065,-0.2282820562109909
920,3.284211435052932,0.5403716142791573,6.829793470019367,-0.8446940499301805,-0.5150780663484249,-0.15617687210284603
940,3.143972988278629,0.2695563991769002,7.200608096319513,-0.8700546644138507,-0.5529782614384133,-0.06667373652259509
960,3.0291462231792474,0.033109052986580526,7.5986631425312865,-0.8858027108207851,-0.5674259088788387,0.021331030688243893
980,2.9156237623053305,-0.1766651284610256,7.984086999119135,-0.885675348276089,-0.5599569208011619,0.11862194202289793
1000,2.836455314240198,-0.3594496224327508,8.30575452733263,-0.8757365216818247,-0.5348613630251392,0.22423996630570162
1020,2.8320709974659493,-0.5112515453567014,8.607938924062802,-0.8608847976125936,-0.49746838955747147,0.33720916553766805
1040,2.963831234459094,-0.6258353241740964,8.916903158078014,-0.8339499090202586,-0.4582214571232366,0.445682478661454
1060,3.1689937500470235,-0.7247832341366298,9.1825927571738,-0.7938428444173357,-0.4191945793498392,0.5435548510623577
1080,3.485602032906906,-0.8101717631996613,9.448685384610242,-0.7474609845194699,-0.37876129894195787,0.6330125467024844
1100,3.9640845752850438,-0.8577651911977235,9.795777996690196,-0.6828373950785067,-0.34628534995199955,0.6966196688688011
1120,4.494505233881637,-0.904996694043504,10.094837043981508,-0.5824997020114946,-0.3166561229255042,0.7286535626514684
1140,4.974247303164531,-0.9491905080364135,10.281570114108344,-0.48650877964593897,-0.29081414505886805,0.7270040209157957
1160,5.351463879756085,-1.0212083607056568,10.41141533648638,-0.38598049675369156,-0.26573195209287276,0.7007027823547979
1180,5.65102670465269,-1.1174954954435325,10.446780558690827,-0.2842620679032004,-0.24288906290499948,0.6632404120703987
1200,5.868407752714825,-1.2315142455802421,10.391433760576477,-0.1883687733917149,-0.22512198465716357,0.6133223556659438
1220,5.96302751843886,-1.3597140594294839,10.273777152587536,-0.1037026733135949,-0.20705069600424875,0.5616068104300537
1240,5.977303468022648,-1.4835810752370469,10.114360066087016,-0.030189877320372604,-0.19512589175596745,0.5174351605329728
1260,5.965647811773511,-1.5912067313716247,9.925201314503258,0.029196066039870988,-0.19199025324816762,0.4769723271961846
1280,5.909735946599712,-1.6856302570417325,9.749402321956387,0.07553512169811627,-0.19408713813793388,0.43641800979113443
1300,5.80248345988585,-1.7662978687088624,9.59216553908294,0.11060427533915249,-0.19719255035656078,0.39857188486885803
1320,5.6605208466141645,-1.8293539162786956,9.45534343180173,0.13804054420190978,-0.20150027440219404,0.3690937550165596
1340,5.526079662208414,-1.8685065027657632,9.321625044630222,0.1589265277046379,-0.21035963392557877,0.3471986340010664
1360,5.391505685604976,-1.8739745467967752,9.186217545767846,0.17488727969466708,-0.22985686062103403,0.32364037985514316
1380,5.255103172285115,-1.848584085971799,9.082707158640735,0.1839652900513537,-0.25502088832222974,0.30451675012550306
1400,5.1277370404730185,-1.793054722100755,8.985240471390878,0.185803109450919,-0.2720605041670044,0.29096306960046703
1420,5.0145313524902635,-1.7159413330524853,8.914902832764136,0.1806107241977708,-0.2673726811851949,0.2840911379013823
1440,4.920357469214454,-1.6209347129837182,8.86919462393554,0.17159362262778766,-0.2507202650697247,0.2822184179739624
1460,4.857107805556928,-1.5141154347422223,8.845126835055028,0.1637943573257265,-0.2373748112966617,0.2803885354567319
1480,4.803857905247959,-1.405923784814628,8.82987013885347,0.1584412456500822,-0.23364905521310375,0.27527084802032303
1500,4.739059568494679,-1.3017864740671372,8.812645806456226,0.15455529769480397,-0.23570609400835033,0.26924762758728743
1520,4.6752011512125575,-1.2010946604841126,8.796983868979181,0.14971823864601527,-0.2336473629111424,0.26539669539712263
1540,4.612125693316441,-1.1099324281610359,8.784325672428512,0.1444305714678102,-0.2270889550394414,0.2639599670637605
1560,4.549691567270202,-1.0318941997888031,8.78030662717938,0.14096953237531124,-0.22253874647140037,0.2655310783924506
1580,4.5156416139710345,-0.9467966422978186,8.763638844242886,0.13836817279420735,-0.21986677803139335,0.2671101973510458
1600,4.482098802382657,-0.8743243263339797,8.744446333818127,0.13496268436502626,-0.21623323526186655,0.2667174111506682
1620,4.448966867025746,-0.8020470463747816,8.726421499204703,0.13091667493021017,-0.21131108272785698,0.2670084759631523
1640,4.420693791973755,-0.7278795535074212,8.709736221388292,0.12717421053054936,-0.20749365451557486,0.26726254669535643
1660,4.393366342580025,-0.6535132763286432,8.69005265665376,0.12297843905608888,-0.2039082643645029,0.26747701625974246
1680,4.375481881474311,-0.5778775570322104,8.67787567481496,0.11748860989655374,-0.1989288336684568,0.2668346030504479
1700,4.3584134368148435,-0.5015384055075465,8.673743994666031,0.11183747169434746,-0.19280052173400358,0.2644141746330485
1720,4.330025641104959,-0.4296359382252744,8.675012496132272,0.10684570741132958,-0.1867372524346628,0.2614465390594597
1740,4.295059588629371,-0.3624574929569831,8.680007976993165,0.1035593749366199,-0.18272692367511567,0.25901089794199056
1760,4.262610106112826,-0.29907516191161954,8.681251906444952,0.10187220955190046,-0.18150347169590714,0.2571183536439067
1780,4.2298149382120664,-0.23810896678573473,8.678874360801158,0.10059469724163433,-0.1811302964711646,0.25520743468034734
1800,4.196165392306738,-0.18044213674143664,8.672869786759144,0.0992646991999332,-0.18010250394664745,0.25342906167932244
1820,4.153638248931087,-0.11876856757892201,8.66172012658515,0.09751329533306348,-0.1774038740180323,0.25144533509929756
1840,4.11579359714337,-0.0680706439791766,8.65322498581681,0.09587864533550938,-0.17462261516875055,0.24983456890473626
1860,4.086928138878499,-0.017840060862539007,8.652527024698129,0.09522545342810276,-0.17347947833662378,0.24867841801370844
1880,4.072796208500959,0.036236341699183765,8.648148392660955,0.09602255797279732,-0.17445119527416522,0.2470406362597903
1900,4.071422556048896,0.09431698676533902,8.62765494682096,0.09533818863609993,-0.17359416951589374,0.24336488458796604
1920,4.060411469003721,0.1518186550284084,8.607694460498525,0.09096033195076325,-0.16668285321978657,0.2388525193054454
1940,4.0404584524749545,0.20877091150721463,8.60436441942402,0.08523714856505019,-0.15819283406471865,0.23593774821268518
1960,4.026571514881553,0.26407331699723763,8.615208134944655,0.0818131310084923,-0.15267482032608054,0.23350550620491498
1980,4.017405935848292,0.3169172820807607,8.621254592726904,0.08136912882385522,-0.15070161103230706,0.22974304041917218
