0,1.852148519621955,4.9124513202243385,7.771572642856174,0.1934986553258366,0.4479547788699468,0.0955090108844969
20,1.8568446355707504,4.953745870029225,7.688576558057,0.11183534180471565,0.5877307048615288,0.036856802837813604
40,1.758710823059082,4.973593540191651,7.754498767852783,0.07095299850217998,0.6195144361257553,-0.014681944325566292
60,1.6197376917390263,4.966566268135519,7.779587282853968,0.06147026458946878,0.5526866369387683,-0.05268807407906827
80,1.5249432183447338,4.962024450302124,7.829319181896391,0.07010129353009342,0.44783641644088285,-0.0666267764089363
100,1.49238463640213,4.959798231124878,7.8366000270843506,0.08581756763825459,0.3583433320745826,-0.06966133069779192
120,1.4904454946517944,4.960581154658876,7.786621751456425,0.09370153649019655,0.29327205380681776,-0.07083754463057065
140,1.4570428521344156,4.963641874717943,7.730470180511475,0.08393243800100843,0.2780881390173101,-0.07248803648646131
160,1.3610184526926763,4.988631680205062,7.725750749175613,0.06591803941410035,0.26753320931331126,-0.06883682291073775
180,1.2697108951283664,5.028314491597618,7.7994690464764105,0.05484827746716669,0.23966165677723816,-0.05336169758243713
200,1.262494683596823,5.088990921444363,7.8871189806196424,0.05848821966857132,0.192273555119108,-0.032441087279261815
220,1.35255067962773,5.170407475257407,7.92189402969516,0.0643872726086185,0.1465024509471936,-0.020061313084383706
240,1.4635377540340964,5.2566161920439525,7.955035133181878,0.061004432456409734,0.11522266430613357,-0.026147205462758342
260,1.5686538263893963,5.338666828055131,8.041089346534328,0.05112543572434796,0.09251465341443882,-0.04789053662700513
280,1.6460852175951004,5.409681883014616,8.15437440012322,0.04756275877799289,0.0711519189930872,-0.07833865603344271
300,1.7124758887749452,5.475936038677509,8.264365302599394,0.05131361815863504,0.05265198298550856,-0.10743615971967721
320,1.8553648528864057,5.583945195451915,8.376021196516298,0.06731377819740622,0.03184298190234645,-0.14570441542665655
340,1.9373713021890984,5.649285819795397,8.413936836851967,0.07923054601027009,0.020458234216979083,-0.1738956316136561
360,2.047426656868897,5.743099510669708,8.433809553322039,0.09680332115079325,0.00989708701595909,-0.2292284496981761
380,2.1488648419394907,5.828472470059807,8.429789063371258,0.11434687351244559,0.0023684653893320095,-0.31172778301679727
400,2.165351343330215,5.87165831117069,8.401813422932344,0.12437726302236757,-0.004296283992281293,-0.3808584572699414
420,2.164117973128503,5.8934357003732165,8.3693144782023,0.1288995100952558,-0.010980854021247731,-0.43170913394119864
440,2.1588140452100384,5.935914521576256,8.304331428261213,0.13085904067772772,-0.03127203453006724,-0.5172959554956735
460,2.1435178851651164,5.976141880467995,8.265286846259206,0.1272964558597731,-0.05369455762778783,-0.5885777610225709
480,2.0984683065046554,5.987237737178803,8.266601884365082,0.12487946352222934,-0.06680359888705426,-0.6415212430112297
500,1.9245921617395998,5.99660454704648,8.276138621284849,0.12630430454876096,-0.07947471060102716,-0.7185134049022703
520,1.69965095749048,6.03476833203517,8.248865110064866,0.13176455446348073,-0.09023714902780848,-0.7636739033399312
540,1.4934916713440585,6.045881127251519,8.176149968041313,0.1286621562577784,-0.09443074494496816,-0.7920654118107632
560,1.1453493529118282,5.959033070219324,8.20617298369712,0.11030957793341355,-0.09175880456917938,-0.8177227589722842
580,0.9285123501517868,5.846928643487796,8.335920504019963,0.11001958904586949,-0.09993520627064917,-0.8211631318636401
600,0.6779733149346009,5.6698290564299345,8.545603200613733,0.1364894999381918,-0.11960971104747889,-0.8132247285712623
620,0.41386679470229853,5.443981352675721,8.637217573217443,0.1935218553576604,-0.12389832487577954,-0.7902472833837616
640,0.1933417753281581,5.278210653640916,8.598389596974805,0.2269265222474793,-0.09088650931715826,-0.7595006942104597
660,0.02424847991836868,5.1569071526847265,8.555045232668029,0.24388709494625746,-0.05466830113564956,-0.7269350626772857
680,-0.2351350695891931,4.977900212545066,8.468417063197483,0.266862626152949,-0.011946029196799381,-0.6574349353067716
700,-0.40545789114458813,4.87170038909949,8.397119908808023,0.2843235632247864,0.0014682480260486558,-0.5925106088958099
720,-0.5132896752212347,4.806852631745922,8.328785262651891,0.29542033018813085,0.01363171002086902,-0.5350648096966519
740,-0.6471077794018004,4.728923365255326,8.260929812825852,0.29556403218856514,0.05039692036762033,-0.4645788782410451
760,-0.8240084023747061,4.631891945181858,8.26782067314027,0.29133776813775064,0.09324324958928167,-0.39756813656930473
780,-1.043858957515719,4.4696684369679405,8.27860712857894,0.296241290679052,0.13331004531183108,-0.30311376594307393
800,-1.1855347152976095,4.280982176975224,8.227007867342019,0.3066138290275584,0.1531090279935904,-0.20125242100266952
820,-1.2153738411074944,4.0715897364103615,8.09396885528284,0.31062676130437894,0.16861444532063188,-0.09100816462168415
840,-1.1627957921344036,3.8429191222457195,7.906496628733544,0.2981027694935536,0.19139798306766362,0.01724992056836203
860,-1.0546024908256728,3.5816980480122265,7.701643110451738,0.26715989725460204,0.21187832662796477,0.12323980584048687
880,-0.8496792713771216,3.322326497747921,7.507991771244413,0.2250617571894059,0.2238376980224,0.22904987975278265
900,-0.4893565925616791,3.093605659371342,7.310797435101322,0.17563649784317942,0.24072928145910882,0.331428655355315
920,0.03680766967590898,2.940743768872007,7.1020021446049215,0.11867128168110197,0.2676267606261382,0.41001502085495495
940,0.6689388649598167,2.874270473587682,6.8740149866597555,0.052887697162865135,0.28598568638481836,0.4553878549891452
960,1.394276399406454,2.8930385681998096,6.68488687333284,-0.02378109190965805,0.28715849984872316,0.46514299514937457
980,2.1505023579419786,2.9704053204525076,6.567096411020006,-0.10343988346152634,0.27711277234305787,0.430909780501607
1000,2.939785107191129,2.9787781277071623,6.491929781368367,-0.18553054451521991,0.2596357503179144,0.3468047998847273
1020,3.4508079946397268,2.822288866661436,6.518117045864215,-0.2808457383932435,0.23148224126346267,0.203360763050764
1040,3.7304915066576174,2.556340122096119,6.650550813125425,-0.35732740125052265,0.19162370546369234,0.06095068430444465
1060,3.877750522941905,2.2477889574757293,6.816302606951044,-0.4158842596651675,0.12842969920803757,-0.07668407620074658
1080,3.899511758578167,1.884616734028867,6.889335869955882,-0.4706923233271901,0.0599001728463918,-0.2118861108079155
1100,3.6356503702093645,1.4602323726691289,6.947121895718127,-0.5385629215265396,-0.0014833904608516702,-0.3317706764598067
1120,3.157373598670696,1.0430232626093054,7.099399285063697,-0.6078271457547657,-0.07162831668285431,-0.4011496091546862
1140,2.7351736958031414,0.6645387983890866,7.319629388339103,-0.6613535500044174,-0.16213578868583878,-0.41109620395532526
1160,2.500932718141969,0.33164745515341276,7.533747654806518,-0.6967783809221687,-0.24460375339790508,-0.37930007552483025
1180,2.4075823699508208,0.0335203997483573,7.728111085956244,-0.7258147608632817,-0.29087546196977426,-0.33103642858704074
1200,2.362567840598365,-0.23232176039239455,7.94891956685825,-0.7473540586838782,-0.3127174162798,-0.2725888270807772
1220,2.3618239860753056,-0.4536482682618909,8.15018010450278,-0.7549151837957759,-0.3291957095788677,-0.20971935382414936
1240,2.3731357227764365,-0.6504215856758403,8.32465620579965,-0.7517073319485301,-0.3479269430292405,-0.1422071489799932
1260,2.3743614275197222,-0.7877210299610287,8.439771777198697,-0.7448609472714494,-0.3555573972915641,-0.08144342578775843
1280,2.391823233686876,-0.8978136310233477,8.54119551568487,-0.7391706194273575,-0.3490971826232028,-0.016217450241464412
1300,2.4504010944499908,-0.9873221732383028,8.654345140712204,-0.7323561129064302,-0.3379809857212698,0.04968343600992651
1320,2.5418581944276886,-1.0582009768697718,8.784932016680271,-0.719787511909707,-0.3325860893686312,0.11284389265540581
1340,2.6815684872704812,-1.1177513035115871,8.909664635888555,-0.6986431002925912,-0.3311182031640783,0.17177785611774943
1360,2.8463563559465044,-1.1730788941144623,9.01372077026301,-0.6723128440009604,-0.32130106303492045,0.22302363934241548
1380,2.9850830677279694,-1.2392830148721015,9.093424080762446,-0.6430248294075845,-0.30677012928026026,0.26551261300516443
1400,3.0776586349159545,-1.3166098809940578,9.163303386679614,-0.6090617117862207,-0.29922605154651316,0.3021404547825738
1420,3.1492862028919504,-1.4015062256072908,9.21216729724991,-0.5688801897642494,-0.3024523284000623,0.33742089982883033
1440,3.257048081477978,-1.4789855083482246,9.239425547458863,-0.5250162965448384,-0.3076295746265421,0.37196028998922714
1460,3.4092743946309434,-1.543121557900788,9.240922919695691,-0.48245960656268505,-0.3022926735771932,0.39907613126105507
1480,3.548257147847973,-1.5968773592533942,9.237788326091597,-0.4426165123077466,-0.2904950299606852,0.41523737500774405
1500,3.653294288311366,-1.6522826922553855,9.218773819154269,-0.4054399325215813,-0.2798046324009998,0.42267049794257483
1520,3.7462958629636867,-1.708611621668149,9.200025102920183,-0.3713270725051265,-0.2741837752589932,0.42510759297266476
1540,3.861539566644748,-1.7616928016678208,9.190557090642434,-0.3393859424558099,-0.2693803375671869,0.41999550596275
1560,3.9684574296997224,-1.8146665798190713,9.199428066389407,-0.3091341201307217,-0.260066467392416,0.4038806103349103
1580,4.03177678265855,-1.8810935771550517,9.230309411042716,-0.2707441560898863,-0.24206024389879538,0.37957566356703126
1600,4.045550147572689,-1.9366677188975665,9.230551918965714,-0.22969781281248816,-0.22105091700991544,0.36100288099157873
1620,4.047987761302552,-1.9791098395545108,9.170714400124316,-0.1904188856896193,-0.19765085844936897,0.34650470837539826
1640,4.050271313880056,-2.001063922208859,9.09107985995821,-0.16356174912783247,-0.17564190083440503,0.3356113814343976
1660,4.047907681401204,-2.0140245620309427,9.003524285012826,-0.13969969769510465,-0.15263672754551189,0.3199154472769621
1680,4.019135777723977,-2.018816778520353,8.96012054590896,-0.12132261242626677,-0.14156315333597644,0.3054315394637537
1700,3.969777772166237,-2.0222305163473107,8.92331934233578,-0.10116832721877923,-0.136811152882807,0.29341236959402484
1720,3.9151178051248605,-2.0202791184918216,8.870777959854555,-0.08096890431592986,-0.1351691394935591,0.28506105016651373
1740,3.8682430246261994,-2.0116884848666174,8.80128955355886,-0.06529331947388664,-0.1334554531703746,0.27901096375572
1760,3.818193514555201,-1.9940268151306857,8.73071807673615,-0.05512751533630459,-0.12878073284679584,0.27334301659769455
1780,3.770701795952666,-1.9762201804391384,8.687492870541474,-0.04995199074171698,-0.12653415672196058,0.26854044728855486
1800,3.724760594713774,-1.959986308749233,8.663414902762085,-0.04539263303467662,-0.12992813915178,0.2647793191401161
1820,3.671777552177113,-1.9388134575208589,8.630665702374792,-0.039302703616852744,-0.13996182954481134,0.26147590711088825
1840,3.64057633960731,-1.9174616328896361,8.597591787745106,-0.03786685931628837,-0.1463296531874124,0.25944036288243255
1860,3.623040732724813,-1.8930109096200842,8.579912023961937,-0.041465883639236714,-0.14546679363946552,0.25650505335177415
1880,3.6007124269217456,-1.8687514879275113,8.582278416967407,-0.04657256717321919,-0.14210647146409391,0.25209541729282137
1900,3.5727149766429385,-1.8468255615917986,8.594830409930923,-0.0506919578408472,-0.14020878917923144,0.24717749034870085
1920,3.5431260534838955,-1.8263185524324677,8.607254544244508,-0.05318441220686286,-0.13963250044021988,0.24286674512226528
1940,3.5237512534156186,-1.8055303029132763,8.614026794689849,-0.056726074820758324,-0.13674027977141132,0.23925237775168198
1960,3.5108592738053996,-1.7836788937170058,8.626752936998383,-0.061983216643275225,-0.12972407750959064,0.2346123982766585
1980,3.488743283207837,-1.7640564504660445,8.650579707614044,-0.06691147001214685,-0.12102676330693549,0.22894893614168965
