0,-1.9507434666156769,1.514849916100502,10.003398180007935,-0.07052490720525384,0.01940759821445681,-0.17157771065831184
20,-2.270478599211749,1.415879249572754,10.061054678524242,-0.06394141583758242,0.10952818564906278,-0.07725480894612916
40,-2.1568588733673097,1.390260992050171,10.159864730834961,-0.027549475776031614,0.03795118884881958,-0.007708078883588314
60,-1.8522936611464529,1.429463834473581,10.253587000297777,0.041152332055692874,-0.12396126476321087,0.01433514795181426
80,-1.6009245820161773,1.4830428885250557,10.217036875282846,0.10897377294079377,-0.2656756874710526,0.01371984588118588
100,-1.311033742921427,1.5333873701095582,10.086577243804932,0.15254412782844157,-0.3264331760175992,0.003136313585564494
120,-1.1269806138609118,1.553707046755429,9.99606862561456,0.15626851351658716,-0.28302879133040953,-0.01213700732954874
140,-1.081460224245816,1.5479084451993306,10.013722202994607,0.15430439814967525,-0.21668769319799278,-0.0217224395424692
160,-1.0856984848194844,1.5502666806521481,10.01433164779454,0.16155772593369938,-0.18843297940784146,-0.019649838950574296
180,-1.0401394987399348,1.576623897726943,9.96170442860301,0.1720322325865443,-0.18735276621258137,-0.01432778762238918
200,-1.015594766087209,1.598329656653934,9.91580704583062,0.17677771191164438,-0.19104279598234117,-0.01345695547837143
220,-1.0201806050905844,1.6114083114935427,9.881899882336052,0.18021578667447807,-0.19385862110802732,-0.012260888039124939
240,-1.075112905002953,1.6080389919735136,9.852654566083636,0.18358212318049655,-0.192766037617167,-0.007018034995001342
260,-1.218896921434064,1.5882341621214884,9.783319054988393,0.18976585115020148,-0.1881384895608981,0.018747329661875898
280,-1.3236606054229387,1.571250669291762,9.636381121932484,0.18967668680649738,-0.1920624159445383,0.05969057948095724
300,-1.3677035965920927,1.5490987007434551,9.467033602641179,0.17872460450117406,-0.20714755737303325,0.10463711706688628
320,-1.4213226654911009,1.4953253032180711,9.269697870033374,0.15896477269521658,-0.22986651668063554,0.14740614956025494
340,-1.5549705694809708,1.3853640788469186,8.975295344177557,0.12068582158915851,-0.25912021893610365,0.21002579420776468
360,-1.6795422878266582,1.2498294077573284,8.66743698735391,0.066818289699093,-0.2882007448171686,0.2895774867858798
380,-1.7608243133101407,1.0823725557948913,8.349949430102951,-0.008305014916724222,-0.31971711827552035,0.3920202953333858
400,-1.7186660899205461,0.9244494046358501,8.088601188098684,-0.08551402854568818,-0.3572913919510457,0.4913038867025855
420,-1.4312316251934283,0.7414927296964816,7.746135733647053,-0.19827587969143298,-0.4158468359041382,0.6048894750686654
440,-1.0402325933057077,0.5925560368095489,7.448767210949551,-0.32375245481570136,-0.4628399769283139,0.6826150133342975
460,-0.45350618723732156,0.4853415208749282,7.370322876939407,-0.46932086998071426,-0.5081651601453837,0.7419146583337958
480,0.3994465807226883,0.5055625634175716,7.617063521379881,-0.5910799933394583,-0.5668731720759049,0.7764247298548413
500,2.1307048154045867,0.7614346325256248,8.388493830770678,-0.699792142657307,-0.6392333868582583,0.7229181552185541
520,3.4700006796833827,0.8974652568635331,9.258030398455384,-0.7585044815523984,-0.6670797153721036,0.5535012931391793
540,4.340070983959108,0.8284024748672211,10.479466416434045,-0.7736144483352022,-0.6935522534798868,0.34372451403311616
560,5.028664746228605,0.5797578200539376,11.909138285035782,-0.6982111705110429,-0.77001692280099,0.11578970628324896
580,5.579276744503391,0.07730809173195577,13.202329767715247,-0.5302216750187952,-0.8858941802747842,-0.16927661208605746
600,5.7531602827754496,-0.5056152497344311,13.924054864084436,-0.35841057768889834,-0.9322536170978325,-0.417533609003941
620,5.6942328562369,-1.154896890415022,14.313153141450423,-0.18522921685989086,-0.9099370654522387,-0.6382401680649938
640,5.435079934150469,-1.7659995691913568,14.42139091490583,-0.030364070269052454,-0.8838036364628514,-0.8029287114729826
660,4.84984532531614,-2.5388596509110886,14.244743688544933,0.1555083698552588,-0.8813391522889488,-0.9670561080114356
680,4.243957904585585,-3.158423719468566,13.903375660397217,0.28612163222171894,-0.8879672037693754,-1.0670604062480622
700,3.6275032731522616,-3.705210215616206,13.457828537752366,0.3787382353250294,-0.8420924864422724,-1.1171868438326136
720,3.1206705057261557,-4.133964104982822,13.029050951119649,0.4336218054477985,-0.7558352143488541,-1.1201444301060417
740,2.5399805064866463,-4.583523273649444,12.405035258597367,0.4931201402630125,-0.6443927127063991,-1.0745362297321108
760,2.1223057000470478,-4.886719248139689,11.696502780329578,0.5197184412162515,-0.5672182231027812,-1.0041309167351722
780,1.7212305822151786,-5.124487187484136,10.966861191987991,0.5073100860646138,-0.5018033267552248,-0.8971387704006898
800,1.5141285088190988,-5.25248005320823,10.508451595094549,0.47954237159251806,-0.4619594056221323,-0.7977693406251366
820,1.3662287480460038,-5.3808857004903805,9.98997101379979,0.42595358523936216,-0.4072715209742743,-0.66079346756444
840,1.2933792092191605,-5.49282999245989,9.573847337319037,0.35795378944380235,-0.35578846091349187,-0.537154496436936
860,1.242458346624616,-5.632804419302723,9.194232121652583,0.2677500633945485,-0.3077973866679038,-0.4146539726211749
880,1.1823895931701882,-5.814765532091669,8.896260922836078,0.16936998105106446,-0.2656202163685761,-0.3020462304060117
900,1.2459623952141536,-6.124829305231012,8.583763182402935,0.009769690769846894,-0.20080685788274297,-0.14971928258055706
920,1.503192254983798,-6.431111758921951,8.453602082773143,-0.16179654554627698,-0.1248703783280534,-0.030171243728412282
940,1.8592863589570712,-6.73711020182483,8.485696146911092,-0.34830556565699355,-0.04952690454399223,0.06613244783285296
960,2.4467810087119433,-6.980607486932869,8.69083246145801,-0.5310195622595041,0.012623818934178426,0.14087873363664483
980,3.2775104326494957,-7.153763987832232,9.009235934563625,-0.6922577829732571,0.06868020946456027,0.1640473604797282
1000,4.126984154439101,-7.303244140612517,9.443904545636212,-0.8350634293193245,0.10804714810046238,0.12946862854107483
1020,5.0909377131246965,-7.527251594006945,10.375281782794337,-0.9561151515833716,0.1407378552070768,0.028662917654138163
1040,5.703194922039238,-7.791015622907238,11.374389258575883,-0.986392519247907,0.14879318643705963,-0.08827313073527607
1060,6.124305789693807,-8.074497011826123,12.515103981647318,-0.9480760969204581,0.18773866750203716,-0.23567275159921047
1080,6.412928191359226,-8.246718477365883,13.15374851788106,-0.8721346385493006,0.26406949266596624,-0.3586862601233843
1100,6.517565866225575,-8.486757347885405,13.65511473396276,-0.7626552288441012,0.2947958059497906,-0.5021647399474481
1120,6.431038134744484,-8.838297844054319,13.92880034007116,-0.6481807972193411,0.2928424712371257,-0.6326607479443652
1140,6.040015296946141,-9.363843940285609,14.124939108148535,-0.5008717781130938,0.30739131518775853,-0.7726678280875662
1160,5.549290548518074,-9.813126989106442,14.114241497536584,-0.3857076138834699,0.36672690410639947,-0.8403543833154643
1180,5.101155264593408,-10.18321940547369,14.060539317474444,-0.28421705354909593,0.43702812927883833,-0.8606100738043284
1200,4.74516414844069,-10.4736051116561,13.967686607046167,-0.1794409115500899,0.4866733448432621,-0.8563598613313641
1220,4.462789876726957,-10.685757027315606,13.730695247946983,-0.07840849685508654,0.5317706903817264,-0.8293610259937401
1240,4.289217166535958,-10.82057662862627,13.41361268484125,-0.0010886286476663514,0.5845821215792824,-0.7798872110527465
1260,4.209835363276525,-10.879600519497442,13.088233129884006,0.0609675220255103,0.6443000137199189,-0.7122427998812733
1280,4.1659499542945255,-10.875720430342588,12.857740286921821,0.1016154546970537,0.6843173946912388,-0.6578697817961813
1300,4.1285393074999135,-10.823707047682777,12.50476904968235,0.14199740769010838,0.7261018680603348,-0.5819977060310699
1320,4.22054504444068,-10.722824900731801,12.169302040097024,0.1594398877279864,0.7592904535854368,-0.513241756872298
1340,4.390031855425775,-10.585369571144211,11.871395101402285,0.1626086324223481,0.7879541118187913,-0.4513727056233131
1360,4.6216152929525665,-10.429228901215511,11.633030971585637,0.16132763918909815,0.8017053301799767,-0.4068954802424093
1380,4.957935621880646,-10.205715127926602,11.330521065354137,0.15377731726552496,0.8043249911702373,-0.36894370278452787
1400,5.343734468546413,-9.99099727940948,11.079502424001694,0.14206688225431285,0.7964890111791496,-0.35261988797609733
1420,5.7527303345649985,-9.77311795755045,10.835233126302118,0.12415103159531772,0.7774324790668661,-0.36181615440971276
1440,6.121394594069948,-9.55543133025822,10.61803382448537,0.10323241769214825,0.7425785334358289,-0.39114677328352426
1460,6.430543726954597,-9.364654734251843,10.388275690040922,0.07590744260213461,0.705615395036676,-0.43585696768887083
1480,6.691116656034823,-9.229719140709575,10.183520874680562,0.03519631303767052,0.6731909088658274,-0.49142507869689656
1500,6.922019514381674,-9.157558146270553,10.065235500001325,-0.013230673010211165,0.6377239377884293,-0.5610458138241713
1520,7.043395196418778,-9.149574734168919,10.059697533854512,-0.06370977138768565,0.5953792656384472,-0.6453354190977105
1540,6.983080154329851,-9.215633236409037,10.172168358357508,-0.111040037070739,0.5523989906569791,-0.7353100781131569
1560,6.587718527729885,-9.376973400759743,10.46256092635449,-0.1507127534274554,0.5057087156673673,-0.8142805111352923
1580,6.131767684261079,-9.483523777726301,10.78715363105782,-0.1747970085484723,0.46080421163141083,-0.8584542470140868
1600,5.800598586391202,-9.515658008534718,11.032345288377682,-0.18443214249377715,0.44846393178236665,-0.8639289529924814
1620,5.49687302611973,-9.458199465249002,11.302104845082006,-0.17914201790629605,0.4427080447283252,-0.8550376969963629
1640,5.30457642884063,-9.339571535348936,11.400899319399503,-0.1613634889072273,0.4404214576022371,-0.8414062064896696
1660,5.161126408825273,-9.178983204620069,11.395228676213062,-0.1423889328903683,0.4365382959082661,-0.8250234221931725
1680,5.045923425675895,-9.008072669536611,11.344282005393747,-0.12721091894524952,0.4364730918262699,-0.8056833914937628
1700,4.979245800921698,-8.84109799489486,11.286192776806567,-0.11573067414654611,0.4373950625333404,-0.7841508180632634
1720,4.956016832804545,-8.680639813680584,11.236003257313065,-0.10593901011717125,0.43701140656668774,-0.7663654534528839
1740,4.944127817848158,-8.530219003165747,11.197544263299093,-0.09640778354342944,0.434726529807265,-0.754041997213708
1760,4.919064281395145,-8.385881843940458,11.164989413134753,-0.08497781302495343,0.43003122893884815,-0.7446666313543877
1780,4.874595288295366,-8.242703534197062,11.111601457470558,-0.07363223714452073,0.426556332250734,-0.7351958827823362
1800,4.829503455881049,-8.080581779663769,11.035327543862154,-0.06471071997973335,0.42315722719803794,-0.7216921687289488
1820,4.80900626273648,-7.95274640550156,10.987680487715268,-0.060437865155969335,0.422697919379824,-0.712166926873784
1840,4.772866452118367,-7.80945199992052,10.951061646969237,-0.05594908410529705,0.4235469201827227,-0.7036034110390168
1860,4.7103269567007,-7.653664491909131,10.917261097947339,-0.04916774944748617,0.4243647868046078,-0.6940655965315491
1880,4.653040392404866,-7.516991818781521,10.863186152281315,-0.043316941617495136,0.41962694418754354,-0.6823043469510675
1900,4.624718167818483,-7.375174772886121,10.818257434928892,-0.040025616820992725,0.41293291020154066,-0.6710019028882533
1920,4.599237039040442,-7.233905112007811,10.781109169619098,-0.03751042168350167,0.4092650993951822,-0.6623724717434769
1940,4.569274618508222,-7.0950146335756115,10.753317999490273,-0.03522665298944351,0.4061266828056344,-0.6563250801890377
1960,4.523686757546671,-6.962540361118711,10.721931787893716,-0.031995718865033315,0.4037405187583101,-0.6499270294607209
1980,4.480007070164474,-6.832674258815675,10.68045534042478,-0.03026922747644749,0.4009005172765694,-0.6414328136762526
