0,0.5360053949058056,2.8711495637893676,7.863807535171508,0.2570423908531666,-0.23220210671424865,0.0638181909918785
20,0.7232959299451776,2.8631129132376776,8.062700510025024,0.14186362963583735,-0.2021202233930429,-0.027486808598041534
40,0.6236262646718667,2.739902459658109,8.101614456910353,0.0597881912611998,-0.11346199701970014,-0.08040632364841607
60,0.2706372188952039,2.541961133480072,8.346643433851355,0.028634025948122144,-0.03135589462266687,-0.07998937631354612
80,-0.03387241890387876,2.3743768476304554,8.40104459580921,0.05444431000034369,0.0018948283201704423,-0.028040576903592972
100,-0.11524834401905537,2.301134865283966,8.166250562667846,0.07122831244952976,0.012212167410179973,0.03141284495592117
120,-0.13007434129971882,2.2776636727925004,7.876806662000459,0.043508294801195634,0.024017868266473043,0.070663430824362
140,-0.17948131946225962,2.232956637035717,7.698681759111809,-0.011555970201946118,0.03594755010933361,0.0990429324182597
160,-0.3229392686909115,2.1296902943301843,7.637199775592701,-0.07797752404459626,0.06356568666602913,0.12943415847179052
180,-0.5893500738481923,1.9679467403670636,7.728669945786639,-0.12289717142106737,0.07942931383007729,0.18286538614732464
200,-0.8896699601163467,1.8099961693088213,7.60344221856859,-0.1530666735695882,0.06639151609399252,0.27337345994181106
220,-1.0423223182026828,1.6901506904740722,7.246987264983508,-0.2201113025990448,0.021964552783768396,0.38832926309230376
240,-1.0350099914830249,1.5687378586955227,7.032455475825183,-0.31728991755846675,-0.04570947753546654,0.49819886276744446
260,-0.9318917241595361,1.3947761280057223,6.919399153667947,-0.42197112676323106,-0.11910108092200497,0.6111026280600091
280,-0.821923621197338,1.2258966861628606,6.769189260045036,-0.5017822614649585,-0.1583521231535639,0.7009322734885528
300,-0.502515337692986,1.028798048135661,6.482531995263718,-0.6344165970528683,-0.200924260676874,0.8222191473682419
320,0.10248616802767455,0.9095905462561322,6.338014544342919,-0.7795336868433054,-0.266691590150108,0.905775198297535
340,1.0102746958407212,0.8680398336732064,6.4322732743762785,-0.9345669993896316,-0.3765745801394995,0.9517825544894147
360,2.2977664118212076,0.907387952482508,6.920988673548544,-1.072696552368542,-0.5055985579387315,0.9594093329483463
380,3.892127315085267,1.0362647492324282,7.805148598606601,-1.1541895197355903,-0.5966592037798893,0.8895263425731585
400,5.359521723749955,1.1277040931782876,8.872777436908923,-1.1698852596363347,-0.6659585054342946,0.7208517534298855
420,6.468881140988549,1.077437710849433,10.027773297698804,-1.1351639611422808,-0.7827640943197981,0.4843748670341915
440,7.2189478059324195,0.8638976650003762,11.289584664737477,-1.063047351811161,-0.9150166452419073,0.22843452720320162
460,7.872859419414248,0.5375160948015176,12.559826875344301,-0.9459884522506633,-1.0082674079837326,-0.023134629944196114
480,8.394767979783891,0.07130787262849032,13.695288578277738,-0.7783042728015465,-1.081017851668956,-0.28788313117300346
500,8.675077427204979,-0.5974896226675724,14.550467311211353,-0.5506686771811284,-1.143263132350941,-0.5852262634467685
520,8.696555779290131,-1.2736279100010341,14.944857207211582,-0.35672711794984274,-1.1547740019053558,-0.8298498910428448
540,8.549904944693768,-1.9647144562679164,15.152364839587296,-0.1747532111506811,-1.1511053645435982,-1.046439379796778
560,8.31132701881451,-2.594455763681839,15.132383556689247,0.0011283713886198604,-1.1507887081203636,-1.2307002663896498
580,8.013637524548551,-3.121260264109759,14.82309062461384,0.1484848934122682,-1.1278690457168479,-1.3821167260194656
600,7.639789479496401,-3.55861902637555,14.43485937610505,0.25588235013105626,-1.0713142817876937,-1.50125509768074
620,7.170725613739341,-3.9686396637644905,14.037357470450493,0.351778709797117,-1.00698488092838,-1.587397197419061
640,6.563515549629871,-4.380723280901673,13.48086847014614,0.4379074723866365,-0.9496282378190767,-1.639201084026761
660,5.83855455543549,-4.734294342160549,12.84988777431241,0.501312013899408,-0.8989699553273133,-1.6454781119617214
680,5.147841702379338,-5.027365500015587,12.161707312970513,0.5367390323695923,-0.8353329776412427,-1.6018573308993183
700,4.546222984299625,-5.270306348992027,11.526507722851756,0.5427578025487928,-0.7713760971570107,-1.51983111289215
720,4.0319399599208685,-5.486377323374301,10.91856829020074,0.5372010531229898,-0.727730671679601,-1.4156864985699456
740,3.655962589410854,-5.649177011343557,10.429062623277451,0.5210546851030048,-0.6947327004625043,-1.284179327255989
760,3.310158901333762,-5.808504393600421,9.995588005388196,0.49171827633553755,-0.6620225682766515,-1.1518867219730695
780,3.005329590136042,-5.971749349912772,9.633284823206754,0.44966795397420917,-0.6234216956135172,-1.0002489795019993
800,2.811695510129984,-6.133436727262026,9.316079771062276,0.3948171356120972,-0.5752007354627008,-0.8364648562003005
820,2.7123421742758356,-6.295755120830015,9.042695133086523,0.3244632684299313,-0.5163264003803522,-0.6755328752493753
840,2.6294158797198772,-6.485795534944381,8.808676343635366,0.23740915948709201,-0.4542388043427749,-0.5201138904302203
860,2.5762763272511777,-6.728730533125938,8.605017074475102,0.1323918590748667,-0.3959304807363313,-0.3644781327109878
880,2.594652720219264,-7.062499537686371,8.465810420537649,0.006885969056428908,-0.3355099451179578,-0.20542071493317002
900,2.8184180063502637,-7.4552145721665495,8.440524348105246,-0.1357796272973283,-0.26545348133512303,-0.04392576096804148
920,3.3109354830818774,-7.798271947792117,8.511887216309862,-0.28344497257743395,-0.18724181725254913,0.09970542820771848
940,4.075843173191718,-8.018230225086443,8.612601436004233,-0.4261252222095489,-0.1186687960229565,0.20597074448028077
960,5.280416516984939,-8.075994190998637,8.713960013909256,-0.5860133085068755,-0.055751446664951104,0.2612649435317846
980,6.62432934574581,-8.085881260365909,8.94400616008513,-0.7301492207400326,-0.02061696315019075,0.21562610919876346
1000,7.560845581981115,-8.22511065883589,9.609536130755131,-0.8397415269639766,-0.024776870854972786,0.09364842426409756
1020,8.0343714479613,-8.334089449929047,10.225031225708141,-0.8820453467762309,-0.015745975617849007,-0.026928073625075873
1040,7.949827651397953,-8.482090148390379,10.688248560144459,-0.9084646064966787,0.01655316414138259,-0.13761736091312973
1060,7.531505591550748,-8.59534270917682,11.158385543620478,-0.8920268894148753,-0.0011047679509916535,-0.20191772635090569
1080,7.21021197010834,-8.619364209364548,11.307918740060565,-0.8456922391426411,-0.04995102192496572,-0.23154259869837174
1100,6.860475708500765,-8.611066260649967,11.27747221780112,-0.8092568863418143,-0.08586356208951003,-0.24447529772009355
1120,6.573188405302535,-8.601179066279427,11.268567387772586,-0.7753353960155933,-0.10408649294641176,-0.233555421047719
1140,6.377101572805104,-8.585747921839356,11.253147540289037,-0.7350732978438325,-0.13574375948729983,-0.21767642980718865
1160,6.222711950879559,-8.549458501844912,11.240829257380264,-0.6883944886581677,-0.18622259160690788,-0.1966716851727359
1180,6.164426446171359,-8.471081175223697,11.225383270049976,-0.6332226724921318,-0.2565821651044231,-0.174952817533846
1200,6.180215107277036,-8.394645430456206,11.295880291768999,-0.582133901006815,-0.29594340993637086,-0.152964699877934
1220,6.256286475070517,-8.334992112617785,11.496027594858088,-0.5244922495820183,-0.2833741851554624,-0.11856562883461683
1240,6.417490257409542,-8.271310455054628,11.700228665993638,-0.44098356466078786,-0.2642857641539374,-0.07749075783004733
1260,6.655275023249848,-8.203943639010307,11.777165263230861,-0.34455579554488047,-0.2649841663770392,-0.0444267522005332
1280,6.970834165610076,-8.143757545624275,11.836632411071653,-0.24691080233476265,-0.2657967916295724,-0.02887109075399006
1300,7.285945184622831,-8.10054732939211,11.816238986303873,-0.14284157129831473,-0.2614788136614713,-0.03469965152494679
1320,7.523308005749932,-8.080125823308256,11.661787265434889,-0.04125029431153466,-0.26817809293710354,-0.053864532477062875
1340,7.762262976074257,-8.048822087616053,11.421287918777734,0.05098971134235917,-0.2998499522926269,-0.08467027589175073
1360,7.973016075213475,-7.992219085656839,11.121802809919782,0.12763108037810353,-0.35697914906594175,-0.13266375800428082
1380,8.143294852427363,-7.912164904341443,10.819811670106345,0.1777467357558962,-0.4179813124808586,-0.19975712738612525
1400,8.206545187879517,-7.84376844789023,10.59213470135046,0.20422514624529234,-0.46229636346556896,-0.27966752804734785
1420,8.138104176206282,-7.79732945003574,10.450690775189555,0.22312117726414257,-0.5098874216094952,-0.35663751760293216
1440,8.038731433183283,-7.7565567905868065,10.339984637478684,0.2428565975306193,-0.5786453288701692,-0.4192803842551351
1460,7.937454319891209,-7.708179096474002,10.202592046322922,0.2639954507284953,-0.6488931169985638,-0.4730933937019048
1480,7.760549030998893,-7.701209274653689,10.07101817613492,0.2747919215314476,-0.6651286036637765,-0.49941783619808694
1500,7.597849866202972,-7.702919696149259,9.909992497734871,0.28158126857892196,-0.6656404539051484,-0.4977965757527461
1520,7.532329047185599,-7.70754283733091,9.764071497389406,0.2869348070757176,-0.6715518218795304,-0.4881704450215114
1540,7.541037642464772,-7.696888246956647,9.386976290995232,0.2866759022422978,-0.7046840435982228,-0.4788853170230831
1560,7.53289808180125,-7.695482498494675,9.078501552977832,0.26556412786558214,-0.7365577988213772,-0.4796113384094497
1580,7.523429344428335,-7.694702823307181,8.809776654104805,0.23375136859932005,-0.7538635108830481,-0.47762503752263585
1600,7.507897323914577,-7.690911880438784,8.542757567001233,0.19692377840905598,-0.7605069524884684,-0.4713295044429975
1620,7.512188283039301,-7.6741334581354925,8.267413004946683,0.1523050635724177,-0.7763498788029769,-0.46483593055745587
1640,7.54282921336181,-7.645729529089294,8.005994654022201,0.09428440517201254,-0.7985369037906778,-0.4645136489534274
1660,7.522813021049232,-7.641824372457888,7.825825275289004,0.024095380870173412,-0.8118317225293996,-0.47029132328941214
1680,7.442530472231568,-7.64592612906749,7.753096293728409,-0.04388380618691499,-0.8186317030668697,-0.46976291181771407
1700,7.401698060044029,-7.618392287052354,7.717014787681187,-0.10438466976141161,-0.8272949265233835,-0.4618165812370817
1720,7.40455820168309,-7.53591399624521,7.731802819452598,-0.17523236795236086,-0.8391339445688121,-0.45777354984748975
1740,7.401195145223217,-7.4315343075399225,7.891707266013427,-0.2269631618835958,-0.8524853913535317,-0.4604434680770507
1760,7.372515755860109,-7.341773024703272,8.129022632192614,-0.2687834886682039,-0.8599932167992747,-0.4601248735956486
1780,7.384433607637898,-7.1856962641948945,8.383705457853887,-0.28784808631512415,-0.8474553659176952,-0.44671194422772903
1800,7.422208089810471,-7.0024459726016675,8.51508447967136,-0.2919207339101121,-0.8325817311682399,-0.4382725928814038
1820,7.403671148768782,-6.796262029198392,8.582811654639125,-0.29072472626662144,-0.8216522890583756,-0.4364725658088772
1840,7.344256141874197,-6.5919973376945435,8.625295853853265,-0.28630033594643967,-0.8159079225706047,-0.4353233486702134
1860,7.29285051988844,-6.405100775929107,8.64160850717051,-0.27686661771778875,-0.8070241459678986,-0.43200337312168363
1880,7.263319047872142,-6.234706393613811,8.60254925201188,-0.2639776359776081,-0.7953531335284195,-0.42494162523838047
1900,7.269436337436733,-6.069022910019798,8.527626154107669,-0.25269627018904783,-0.7832280409032721,-0.41827412891325133
1920,7.283526242129908,-5.911475941942186,8.442740158927716,-0.24459365773471486,-0.7686224640664425,-0.4157084355172316
1940,7.270266097620182,-5.752432965966744,8.348471365325969,-0.23846165479397782,-0.7530229661149801,-0.41621798031578683
1960,7.253261644862355,-5.638516088405836,8.275334036064924,-0.23401544610626726,-0.744319527942778,-0.4158669420931902
1980,7.239111148943947,-5.511979304525739,8.18907837275121,-0.22928881254829972,-0.7368557737188757,-0.41469357403603063
