0,0.41513674043946797,6.288257069057888,7.377192656199138,-0.021700706070987508,0.025126242958423164,0.21619566447205013
20,0.7103346406536943,6.386812967412612,7.254655361175537,-0.04739934148314847,0.029084431034896302,0.200655336765682
40,0.7204219052195548,6.381290302276612,7.110525875091553,-0.08198283990728669,0.06651531795039772,0.19610477805137635
60,0.6161732316920252,6.32807731628418,7.032648534485788,-0.11681053103000688,0.11662600241657911,0.20665670570098993
80,0.4119433764277435,6.21758779665319,7.165080907868176,-0.1310967280885784,0.15558649332648733,0.24642578966733886
100,0.29522282911502584,6.123136520385742,7.142828328268869,-0.13184808706805318,0.15915027782511043,0.3074279558293673
120,0.3026809296089,6.019592778436069,6.9871807180601975,-0.1549148849479589,0.14404709962325107,0.3708885967217643
140,0.3241751198012095,5.92454163477971,6.8319961474492,-0.19657251670768555,0.15000254939525173,0.41259765785474045
160,0.3713575049328643,5.803585671089791,6.563065822060044,-0.26413430433603935,0.1762746198243168,0.4614180904136945
180,0.5149876384019125,5.733443329973919,6.164955775912215,-0.39171627397250053,0.21602726249001558,0.5206469513657617
200,0.8515093230124977,5.731388415230645,5.929483154084948,-0.5486751941909056,0.20277684445285962,0.5749293868740399
220,1.4344212531055114,5.858804542191175,6.178417473423238,-0.6955686383164958,0.09548985941468605,0.6206428759864399
240,2.2608529189867634,6.183666960398356,6.937436662401471,-0.740062703524572,-0.0647261734652732,0.6414596720820381
260,3.5279899864016393,7.125939724738138,7.910581776970311,-0.6622269239412976,-0.24285295985949537,0.6043777154072335
280,4.588229426320215,7.92048695439198,8.604559542702846,-0.5890978192030281,-0.37478274804326234,0.48035155963458
300,5.4880217008579235,8.359023802097028,9.867001859958355,-0.5344500723543416,-0.4966166845988482,0.3040360003136672
320,6.160302905689763,8.38780995728313,11.578149674595267,-0.3914069505979938,-0.564647705776725,0.10231399811480356
340,6.471802382206876,8.103991811406123,12.743276089838107,-0.1474881807678261,-0.5712340646710451,-0.09801212305279627
360,6.469601227647879,7.600330390423149,13.209621890798791,0.124244385081617,-0.565176113384667,-0.2863585366927958
380,6.19307998076447,6.862950765739189,13.066374878210524,0.41565603578618177,-0.5776733945386678,-0.4781589499371915
400,5.83541632515558,6.035981670893424,12.38236352940749,0.612536150229753,-0.5383232317031607,-0.6294698149227259
420,5.272522007099576,5.039763521632003,11.404896150920644,0.7227930690777454,-0.4168467096354833,-0.758275329608824
440,4.403429314235155,4.021993597959452,10.416234945390313,0.7636936872198065,-0.27153587222527614,-0.826351507980237
460,3.5869987009227584,3.197277129694973,9.58676975366381,0.768110337741727,-0.17172360551524332,-0.8250322782424921
480,2.5882257614927044,2.2877510537214465,8.542574887939274,0.7464387056676114,-0.09767135325131085,-0.7497292975046365
500,1.8830529817013661,1.6172398360560856,7.657138820649323,0.6953602951811461,-0.06929607704167047,-0.6273349241764059
520,1.4016442384451764,1.0506152729057285,6.883855093151467,0.6072149855324193,-0.045472200949289346,-0.4712744625327794
540,1.0464864321840754,0.5356403356212877,6.215677325027104,0.4817334283780489,-0.01877553013280559,-0.2987258062094844
560,0.7794718903271441,0.022931031280375543,5.6882837220709375,0.32193086923092623,0.004580393681263036,-0.11230213445551852
580,0.6650072724822863,-0.5085917840646618,5.296837236287662,0.13576495808986622,0.025955714739537165,0.08137876451506046
600,0.7409164418155948,-1.1223898413517173,5.00585713497703,-0.10274383742978985,0.064381347934065,0.2849861065901461
620,0.9062754397065593,-1.6688128349299614,4.966312701541644,-0.33349648608922366,0.10205638241918327,0.4409405180468009
640,1.1572770703055744,-2.1544274026667005,5.100122803738758,-0.5639178573670615,0.125976907167542,0.5840863313581517
660,1.5875061195411466,-2.5094231854243714,5.280452183485031,-0.7566987539234106,0.13168920315971427,0.7014593700387262
680,2.45774554743261,-2.919225335698312,5.6158993744724235,-1.003906884540465,0.14326909514517905,0.8089225547729244
700,3.362131858920704,-3.2760423688753826,6.043700799243908,-1.2091048285188688,0.15884837176019248,0.8517911662283826
720,4.279245448497434,-3.605111289570729,6.527498276730379,-1.3949202186690914,0.1760291073176389,0.8572037485738595
740,5.202153721788003,-3.893555423414165,7.127314047089645,-1.5580610577575522,0.21210086321028845,0.8275066685330655
760,6.03062911764306,-4.15892127396751,7.795485737674598,-1.6880326209591865,0.29257396556277865,0.7626425361296139
780,6.74310385922177,-4.433462236168576,8.489782792274598,-1.7748243513323596,0.38600388697756705,0.6622227137436929
800,7.344053580448121,-4.716284202299564,9.225038516683032,-1.8107141190648033,0.4461593955982454,0.527118526449629
820,7.818752924473408,-5.014889343126732,9.975087715334752,-1.7925979386863593,0.4829181868761011,0.3743990366566269
840,8.220791662650925,-5.412113022112573,10.684861989024718,-1.717122597567771,0.5369668534161646,0.19434946395969152
860,8.520044184188132,-5.846034957372508,11.117573815317048,-1.6231979827150533,0.6104427547225368,0.03783805977751394
880,8.779485798198474,-6.344846643609543,11.449506205483658,-1.51194523304106,0.6993764029343753,-0.11738113364434405
900,8.959505174808385,-6.912039510486273,11.692832598817253,-1.3733639893740455,0.7787890409858493,-0.2735017936317195
920,9.02691070331637,-7.527917593287357,11.773061616918234,-1.2116865108236199,0.8252364770519081,-0.4256398970715878
940,8.979784395813866,-8.10107696129148,11.66212021699295,-1.0545585992922473,0.8571080586485144,-0.5645660494806144
960,8.811271185135135,-8.558207515918037,11.42604143827478,-0.9275224548951466,0.9248760930726995,-0.6716586779615366
980,8.593342258210903,-8.902861603800162,11.200578399407275,-0.8228398992012421,1.020123062711669,-0.7385342767531121
1000,8.378312180075822,-9.167752426812203,10.996387614771615,-0.7166711456461874,1.0953103394437014,-0.7798913661300342
1020,8.13396452884953,-9.371376193157284,10.727924416739839,-0.6033545614334543,1.1282962074651517,-0.8105169338198498
1040,7.849299998176751,-9.498938186289546,10.354535220264694,-0.4980882629284734,1.1345599804622815,-0.8301136895519244
1060,7.549068988230531,-9.545485041882134,9.939199953538193,-0.41695391757245115,1.1386345241280609,-0.8330992957027267
1080,7.2876733698620555,-9.524664798847745,9.566892477786274,-0.3566631272319427,1.143927063932119,-0.8200033749547903
1100,7.048838190480017,-9.432758471875202,9.196200154048887,-0.30480904391927527,1.1437598167178078,-0.7949825139092651
1120,6.856236170808023,-9.298855557940998,8.915890870817424,-0.271671217659106,1.1343126088479805,-0.7720754989372353
1140,6.6752967950273705,-9.129213561513957,8.655835372479038,-0.2377632098678039,1.1146764998789878,-0.7369396813174195
1160,6.518972864125127,-8.92500561137516,8.429807734430211,-0.2183634222973558,1.1000955471326694,-0.7005802896536232
1180,6.402784369770943,-8.685316959878913,8.250734231737539,-0.20615281005682942,1.0904737773395445,-0.664180586103028
1200,6.312845099951152,-8.424476731508246,8.111320633910642,-0.19549243858451473,1.0746750192903358,-0.6337190079597025
1220,6.243014653996227,-8.157417805412733,7.980281764613576,-0.1856673364072414,1.052244445378614,-0.6110634103053773
1240,6.16469599678382,-7.888161542237389,7.8672450327643135,-0.17966894629113514,1.0293102273343167,-0.5931802970923338
1260,6.074870195246974,-7.6208230287958525,7.777414770683626,-0.17858576274679885,1.0136548877580445,-0.5758352084444929
1280,5.98518137413541,-7.356006858792481,7.7204323100729955,-0.18168519857199464,1.005257197513206,-0.5566512598220557
1300,5.912433364871569,-7.09798605063379,7.7003289952487,-0.18352276932927544,0.9950962973512667,-0.5381977116507705
1320,5.846273790852854,-6.825144364565446,7.688692284794267,-0.18229237018305505,0.9797933700864939,-0.5209699390390905
1340,5.781273118387603,-6.581818235209871,7.685118146925259,-0.17892564150724288,0.9641618874818154,-0.5080456218078814
1360,5.700883647550251,-6.3419862952423225,7.681954792040952,-0.1728806348695284,0.9491550440846714,-0.4959209579841129
1380,5.609769575422666,-6.11697308378823,7.671505563494929,-0.16294899936743873,0.9342992520871419,-0.4823009958178646
1400,5.5412840247931685,-5.907792859997438,7.6289747594961,-0.15201633154450025,0.9208526293666143,-0.46703880018190197
1420,5.502563760553584,-5.707541311060687,7.567555460697088,-0.14493945674601533,0.9096479311794694,-0.45506327325481394
1440,5.451907593359802,-5.513772876419493,7.5182300529910755,-0.14150231268942198,0.8986546487150345,-0.4475937056167653
1460,5.383524322932048,-5.327899115200532,7.482920986205302,-0.13967217968069195,0.8870827023535407,-0.44171437153900556
1480,5.3078527610221204,-5.150389120535069,7.462668122353931,-0.13749805247387925,0.8766423716114702,-0.4351818497573475
1500,5.2385504953835795,-4.979195207006079,7.439491777129592,-0.13365787738868853,0.8674904238091918,-0.4277999168701046
1520,5.183130024581024,-4.810698731071398,7.4053315186580075,-0.13049085101520644,0.8581238156819887,-0.42154544550943435
1540,5.126685647087292,-4.644675635580688,7.373252037796007,-0.12869223856979503,0.8477066037209672,-0.41725004874701166
1560,5.061647228217438,-4.482104975934226,7.3488497678292495,-0.12709786799835246,0.837357681825413,-0.41383656377267203
1580,4.984235433778254,-4.306540999780006,7.320909746285861,-0.12435585960387763,0.8279836355158082,-0.40904800508194317
1600,4.918552507155166,-4.154928268353659,7.294061509956231,-0.1216775651931285,0.8216907894274322,-0.40381264245767917
1620,4.859206271433575,-4.006471098086472,7.263661721761967,-0.119046962716859,0.8150979637326841,-0.39860877862581645
1640,4.802548959521421,-3.8605079266708344,7.2309135557110755,-0.11694266900230148,0.8069334330204929,-0.3941668653396413
1660,4.745308745129253,-3.718634292560027,7.199182480591459,-0.11563435648734893,0.7976200290000313,-0.39002137191607344
1680,4.688341433986436,-3.5807980464359876,7.172067319602045,-0.11438279177956817,0.7889397217700419,-0.38527630222352155
1700,4.6346107435201285,-3.445221992648453,7.14214125756929,-0.11324188323525394,0.7820530321152505,-0.3798842217188446
1720,4.582638723730766,-3.311679392957806,7.119093808616691,-0.11193397656581344,0.7746721994574169,-0.3745072541582472
1740,4.530112353160067,-3.180922467962661,7.095501321437245,-0.10939495584174887,0.7643990932063062,-0.36913812365526794
1760,4.482013123118991,-3.051141932182428,7.063325382951492,-0.1076499101323053,0.7529220963279032,-0.36418715300387705
1780,4.432961215666241,-2.909452782317853,7.034865880061825,-0.10778486529680253,0.7426086823821864,-0.35945709993416347
1800,4.387071519269983,-2.7898956683528797,7.018700910569137,-0.10807631014464164,0.7360631207660526,-0.35567793929494484
1820,4.339743420620443,-2.674963689880483,7.005075594579063,-0.1075285876762425,0.7302722706672468,-0.3516746613484551
1840,4.291251771081521,-2.562149399849444,6.988724550577363,-0.10588550548382866,0.7243137469430347,-0.3474006509243858
1860,4.2420927573976925,-2.4504985025203965,6.96474857526157,-0.10404389868595187,0.7178610797841017,-0.3427510606143354
1880,4.196647451315511,-2.339301964309265,6.937540326239626,-0.10275176951047232,0.7107814683794954,-0.3378636706965613
1900,4.154813473361593,-2.228780010559307,6.911397863094344,-0.10216763325532548,0.7033362587080704,-0.33323595761842884
1920,4.111659864431758,-2.1194978099624824,6.89108474180221,-0.10158793932634441,0.6952971133863672,-0.3286862830619571
1940,4.073532743194501,-2.010940648483824,6.872365388428513,-0.10074187133539483,0.6875229353560676,-0.32421833020077095
1960,4.042721373498202,-1.9038642109761226,6.851113637601178,-0.10042472207412553,0.6802358613858632,-0.3209088790653676
1980,4.017581778234827,-1.8013745078400274,6.82874867089475,-0.10158664908603884,0.6727498897063398,-0.31971706192288896
