0,1.4268994728724163,6.513921154869927,6.5197756555345325,3.334070853371587E-4,0.021846589321891468,0.18083908326096004
20,1.3606529235839844,6.462044715881348,6.718734488767736,0.026146923462339842,-0.047419970855116844,0.17843353397705974
40,1.381830530166626,6.424400653839111,6.604122943878174,0.06026045121019706,-0.0994562616199255,0.1798898136615753
60,1.5740359371358699,6.435780626354796,6.437957937067205,0.05546353324704493,-0.09311051350651366,0.1702940407575983
80,1.650811096517051,6.440850362545106,6.3906133698254095,0.01925556476812855,-0.039446537632767745,0.15145192949510203
100,1.647382488056105,6.419727928784429,6.538892385910969,-0.011314449362618354,-0.002316318452358246,0.1417624769466264
120,1.6172163671460644,6.382644735533615,6.698539569460112,-0.02036170056591549,-0.0010188467216533448,0.13848665729165077
140,1.5583594477537908,6.332431916034583,6.745971968679717,-0.021203226174376057,-0.012336028902967828,0.15019120851700957
160,1.5904225046570237,6.298772180402601,6.8019852187182455,-0.019106068705818994,-0.0182839731404218,0.1686357258743531
180,1.6541991786258976,6.28348005108717,6.8046012680705,-0.01900301835494025,-0.007339205985417499,0.18205879510539333
200,1.7228174659940931,6.277080350452,6.814895311991374,-0.02681899913457326,0.013135089698739142,0.18753841146826744
220,1.7365358775975752,6.259945913236969,6.861389106633712,-0.031239242676636015,0.02752739181017446,0.18754167269383157
240,1.7139754745195497,6.225379057650296,6.882744154840146,-0.028314277612085822,0.03328533707360105,0.19204669129454865
260,1.6846232037795217,6.178814519915664,6.846772879884954,-0.02573442298473725,0.038473432633940034,0.20330152261936874
280,1.6640282371005073,6.1250467769435195,6.781203625632114,-0.030373470272800168,0.04807605470299767,0.21711434478886793
300,1.6216493762456454,6.064079181964581,6.700785937676063,-0.04270555175966225,0.06362179607609646,0.229038657190708
320,1.5249899883600448,5.97438510373342,6.583478217502292,-0.06546238434196135,0.08375129209146265,0.2449054208269222
340,1.3960846464346055,5.871936444522572,6.469844133675504,-0.09431125116803792,0.09651085195491141,0.2698817821282919
360,1.3135832888164347,5.75824527894297,6.390406842385569,-0.12874208577803425,0.10076447848733815,0.31036538121200374
380,1.3564921037631075,5.664823869986037,6.354501358570497,-0.16505744344443427,0.10326082143679753,0.3549430396384988
400,1.4607929171610843,5.606008376794703,6.352211957819321,-0.1934143533128971,0.10690629051361397,0.38363783434033394
420,1.5554515221338283,5.5232364025861855,6.324189836086507,-0.23223779891297616,0.11740654996985195,0.4146182893791012
440,1.620928796033131,5.474451353205716,6.329025092609426,-0.26873595418625157,0.11875661455666307,0.4504132491142992
460,1.7270670803454824,5.463666179852608,6.316219471662473,-0.30636114313517915,0.10629769620121433,0.49185066318664794
480,1.9371107585975909,5.48737932308554,6.335357849233843,-0.35134809214353396,0.07427637487405618,0.5276212936331486
500,2.173605767721754,5.556285883131482,6.410692028772264,-0.3932443831975217,0.024298845400889627,0.5483993289371332
520,2.5954576201150066,5.727837094433231,6.608919979774789,-0.447946683760439,-0.06996337971549065,0.5662789707110353
540,3.4368951977925017,6.02248696067877,7.05812286494071,-0.483764760095622,-0.21930039416627933,0.5494225053606849
560,4.239553218066661,6.274664864580855,7.380304177602132,-0.4850965803543814,-0.35645050744045503,0.4783657307489815
580,5.274720277173499,6.489083939619025,7.8416688118451905,-0.4917438617986991,-0.5707917475046249,0.27448126682896673
600,5.807029227278979,6.4673133369476075,8.670275207549807,-0.45890313951392836,-0.771296093069684,0.03215249731308884
620,5.999542598408432,6.32325714643185,9.295716017943162,-0.36151247250695284,-0.9130744463327574,-0.17374127853948337
640,5.959149704314768,6.103694083538842,9.492135572969243,-0.2660651684399478,-0.9726484979702115,-0.3277445681365242
660,5.591780757109729,5.75905032866243,9.53021700485893,-0.17594355212286641,-0.9837715268682139,-0.47151111630533915
680,5.099553381456849,5.367997986330113,9.534404501109057,-0.10876162830063037,-0.9660307425068131,-0.542884650600838
700,4.639687994895087,4.912489790277383,9.375176787990885,-0.05176909557020426,-0.9418601332533596,-0.571652271724034
720,3.9493554254217695,4.270304038524627,9.018143062790235,-0.003551106823530669,-0.9145804549468448,-0.5704196862317622
740,3.312934220209113,3.716246215554027,8.736533958610002,0.025382536985418553,-0.8904041906664913,-0.5288689312549284
760,2.7189535985117237,3.1745227326320697,8.414295150697987,0.048955890976697135,-0.8538024976676039,-0.44473147108750066
780,2.1954297296674206,2.6032463198441724,8.006042155669286,0.055844624881059506,-0.7968238139534011,-0.3035288144934636
800,1.9454650226896038,2.2400307446448102,7.753583020133915,0.04265159540887067,-0.7485170114450959,-0.18984782461110739
820,1.7038211609124918,1.6633095230874428,7.428929496196009,-0.0038396349798784186,-0.6541174578890436,0.018435601795043065
840,1.6234389907176097,1.2215286360087572,7.194378207440363,-0.061131125778683,-0.5700744074887067,0.19035463740136527
860,1.628572967078725,0.8243845935617939,6.997937903812762,-0.13133903993444068,-0.4895816159395702,0.34449704494222666
880,1.8043487203932584,0.3071530649106797,6.816147140362491,-0.2482702662565503,-0.3715725757011008,0.5407505288567037
900,2.218327524322747,-0.10092471368191389,6.69840118832307,-0.3645214423142129,-0.28529570908201407,0.6967540303489878
920,2.692090750496992,-0.3067525902753154,6.638259448623531,-0.4400501745446861,-0.24605824537504412,0.7759272678553191
940,4.20964409649171,-0.5912558468571052,6.6039495669630925,-0.6275777451219372,-0.16062840355208843,0.8603732605874156
960,5.460680929899347,-0.7569468585910365,6.91260582426333,-0.7761580928188329,-0.1193138765159734,0.8417149174545588
980,6.61570652573151,-0.9193918575475245,7.7052335296884,-0.8785476886825406,-0.10915776722802907,0.7662352178245783
1000,7.530498407192565,-1.0962231009116183,8.482289691164764,-0.9009357505254154,-0.1228644643279106,0.6498439103121403
1020,8.195087455007826,-1.3594630877553568,9.072845161173015,-0.8918293833771778,-0.12141897599833523,0.4982510487729975
1040,8.568878927452186,-1.6064789145491845,9.547617677685826,-0.856634889377097,-0.10018049481847367,0.3589366252035942
1060,8.752451578340148,-1.8831744057947097,9.796800483239295,-0.7877158059993201,-0.10159589955649662,0.21231727557656563
1080,8.67623245793566,-2.1981339791430488,9.815198588732112,-0.7153074973972301,-0.12388963014946629,0.061368046758587855
1100,8.246031459968636,-2.552774401488283,9.762574820200777,-0.6537748677684261,-0.15913466130968468,-0.07579558178175257
1120,7.570926593211419,-2.8977871245636053,9.69370200772048,-0.6040332495460178,-0.1898364747227603,-0.162848752907183
1140,6.949633530580855,-3.19465043646224,9.615433111025933,-0.5610574359656312,-0.1998990552208852,-0.19345080113395097
1160,6.40382149950192,-3.4495698193625923,9.49686413822563,-0.5207402948122063,-0.19626777799798578,-0.18907042224910967
1180,5.906985711879308,-3.6684998597627803,9.336141359168316,-0.4824244765161897,-0.19386295957259408,-0.1581500361179128
1200,5.5178440044038295,-3.8505806879476014,9.123007956304049,-0.4494532969380118,-0.19360078853776072,-0.10555004539639361
1220,5.245579601022456,-4.00079918240171,8.901620055099883,-0.42598720186411315,-0.18648111063161907,-0.039823192494561475
1240,5.065475882945911,-4.134470724124535,8.698824027005363,-0.41130735541707564,-0.1660820464572787,0.03146872570117314
1260,4.885424697766285,-4.289927777986765,8.413228670756022,-0.4087626844317507,-0.1375975063585888,0.12422788995883369
1280,4.86957933450298,-4.416007180820154,8.150765366527116,-0.42340817757589705,-0.11278001556804304,0.22279681881758928
1300,5.08034247402798,-4.4961994487548544,7.852566555058845,-0.4538505032647697,-0.08154455938509221,0.31969720406510005
1320,5.470418885574911,-4.529374672782575,7.5246488806512035,-0.5072397118625978,-0.05123829460048081,0.39666187568373884
1340,6.051236584787671,-4.531038096941967,7.242661090165431,-0.5799982080296503,-0.03839324901403163,0.44619655914726364
1360,6.793518149447236,-4.49833529281275,6.997022023141278,-0.669502101757577,-0.02296875673023424,0.4531387717118204
1380,7.510215518209341,-4.5281415372508755,6.874829950366281,-0.7817845684999758,0.015314448212057425,0.414412194721703
1400,8.176222123975014,-4.666256310006847,7.055103063583374,-0.8969211043342543,0.04242533691662728,0.3370307145429694
1420,8.770874083430328,-4.87781281986531,7.488343175443123,-0.9813407105263914,0.04406818474144124,0.2288968046267691
1440,9.160086889436087,-5.107276016887271,8.01199315687525,-1.020207263477889,0.05118033612750127,0.11089639075718152
1460,9.373003268161966,-5.322277394678437,8.4287578414796,-1.0181878194800238,0.07609641298335683,-0.0020296392038787942
1480,9.467016247816469,-5.541334861987515,8.724512950762323,-0.986136951397049,0.10381817234491264,-0.11812483298739321
1500,9.505086399788677,-5.704384665210526,8.858718872457356,-0.9402515950736321,0.11824082965498062,-0.20940221725152686
1520,9.505065264877302,-5.8607512169923535,8.84414737461469,-0.8914900013857195,0.14036168831574822,-0.2902199302632839
1540,9.460304789414595,-5.995916497103775,8.771729123743274,-0.8474730253799839,0.17108262137057115,-0.35532353926874416
1560,9.420981845520146,-6.096268009394407,8.683233527140692,-0.8031325147128883,0.1964881824805161,-0.40936031765304504
1580,9.384618295820855,-6.1723647698944,8.55244512621667,-0.7577538369444449,0.21512473480483837,-0.4579324889238234
1600,9.320109351633242,-6.226408483778558,8.390944015009687,-0.7177016052363153,0.23145632686690787,-0.5026551882577378
1620,9.230340718576427,-6.259672372456056,8.2344021567849,-0.6837867956756858,0.24920645935265615,-0.5409658882901611
1640,9.117989410018449,-6.2722214077200205,8.09511649471339,-0.6550245571185466,0.2694753366310276,-0.5716106208218705
1660,8.974906358773381,-6.266280063460855,7.975359055971699,-0.6263124506802449,0.29042969157684745,-0.5924975680516047
1680,8.83390457455345,-6.238476130158403,7.842338649038263,-0.5971764815248058,0.3049696526651069,-0.6036535773079755
1700,8.716956105076537,-6.184284809848358,7.702913102449651,-0.5699622967304199,0.31292688217234527,-0.6106341470503944
1720,8.587840561614973,-6.10275462800835,7.539732459971536,-0.542930778426924,0.31995885926026335,-0.616894284672771
1740,8.458396427211879,-6.016840211665689,7.3910171792118815,-0.5251862047777967,0.3283291181968558,-0.6185181501620615
1760,8.329386636174327,-5.911679116954792,7.265792015730048,-0.5121777275576864,0.33824745407636403,-0.6152280733795338
1780,8.20704562391125,-5.791479441553191,7.165228558054631,-0.4998770651025238,0.34421383316712634,-0.6078149060564133
1800,8.105032390293132,-5.6592786618062325,7.067244758156572,-0.48629180188218113,0.34419895692472885,-0.5972317369361604
1820,8.02582971739064,-5.519404724805347,6.9559986054116,-0.4751345547345848,0.3426551411824532,-0.5864633228067284
1840,7.952680165167022,-5.375416419287008,6.8501124084805936,-0.4695739540601382,0.3434953553237084,-0.5757794000943046
1860,7.88879810457097,-5.227619743089678,6.770629260176854,-0.4678103965815737,0.34431160481317147,-0.5651143326701868
1880,7.8288800225899555,-5.076762676108217,6.715242655172106,-0.4659734039798425,0.34316665968990623,-0.5545748897267431
1900,7.775287889235412,-4.927859244223305,6.6644920065077295,-0.46231173972453576,0.33872816481133394,-0.5437006488492763
1920,7.73405229841614,-4.78141720327697,6.606409977463661,-0.458968972582459,0.33452601624722444,-0.5332142841201394
1940,7.700105890137241,-4.639874865271593,6.551179074889582,-0.45869869079419107,0.3325774664687454,-0.5244366446472376
1960,7.6611325713409375,-4.501865487443411,6.519034163821163,-0.459463164518871,0.33088062593116646,-0.5170219556141306
1980,7.612797560454289,-4.352022706013587,6.4988118791671035,-0.457432467804756,0.3265631980948972,-0.5079335034181031
