0,1.4193485081195831,4.474794805049896,4.399651110172272,-2.298628643155098,0.07339367142412812,-1.4898498952388763
20,1.6016693860292435,4.098926439881325,4.608167499303818,-2.8668140545487404,-0.0882269197027199,-1.5782668516039848
40,1.9048389593760173,3.8273411889870963,6.298801879088084,-3.2487335056066513,-0.18717445662089935,-1.6630885352691014
60,2.1996758431196213,3.4994230791926384,8.03858406841755,-3.300509814172983,-0.2485159326752182,-1.7773714438080788
80,2.0971390664577485,3.3299754440784453,8.904742896556854,-3.17735193669796,-0.4141512385336682,-1.8649694740772247
100,2.2258713766932487,3.350233311454455,9.585118045409521,-2.9766139512260756,-0.6662882310920395,-1.9088206390539806
120,2.602461946638007,3.299370661116483,10.325770001662406,-2.6953204765654446,-0.8615989804496629,-1.9852948314265202
140,2.7002188224058883,3.2253176872546856,10.702421577160175,-2.507488045325646,-0.749972779289461,-2.050673745228694
160,2.4573885647401417,3.10050057058465,11.313482199629693,-2.3501790182231224,-0.5436926845792834,-2.070297737644143
180,1.7027998150866708,3.0766836331214433,12.191862218173934,-2.187389021302447,-0.4925305342393709,-2.001448920479527
200,1.3086763955234142,2.8702561274338305,13.142253120293779,-2.013474361950092,-0.5748249874502588,-1.8233756835708457
220,1.210250327574838,2.351366094246353,14.072345237142033,-1.7835471530243294,-0.6485474484002928,-1.6938061843213348
240,1.0074821097510203,1.6772664815187455,14.930347074781146,-1.4822365543672016,-0.6742032203912025,-1.6909889601525807
260,0.5712651562901725,1.0317235980677393,15.58755075826054,-1.1419646960180418,-0.6899242901811953,-1.719939372708312
280,0.2144235155799172,0.29064850927877034,15.930502753612423,-0.8108910478589949,-0.6056590511517461,-1.6804282517472575
300,-0.16627750378246456,-0.37289897265822386,16.016573089037756,-0.4646447304376336,-0.4148148628846966,-1.6154329247714938
320,-0.5022024194689563,-0.890317943300644,15.702640272405025,-0.14031433787224065,-0.25183030007828544,-1.5237026721048748
340,-0.7717248974175289,-1.2779329155025811,15.173027464439128,0.14895519151769834,-0.14829107463231375,-1.4261558181895264
360,-1.0356904926238122,-1.5805729816292788,14.361844076738729,0.39341917935929266,-0.07439567043379046,-1.3170277217853499
380,-1.1960018630380984,-1.755371972642563,13.491116009376666,0.6010262312160598,0.02216973880673816,-1.1748990481489419
400,-1.2698676088277032,-1.8556471126044498,12.525022829981411,0.7139534270938706,0.13619806501904833,-1.0407555628020098
420,-1.3259528573979154,-1.9023721555478117,11.55851274460889,0.7620782076140468,0.25300220306439514,-0.907819781965168
440,-1.3970175475202582,-1.9029074698205917,10.663245470934017,0.7611932534203735,0.3329094278085376,-0.7714657711906618
460,-1.4460980591085768,-1.8812014929873426,9.856011944333302,0.7245082307952581,0.36848085763931426,-0.6271003280891124
480,-1.4206734955423779,-1.8447460773410183,9.144682924936314,0.6583069420908347,0.3758450672629815,-0.4763107705990424
500,-1.295420517024052,-1.7975306538598879,8.509653010254814,0.5631397258312929,0.37216294832261543,-0.3295429427442806
520,-1.105422426592943,-1.745529849799948,7.971042810776912,0.4391267452423179,0.3600432728459939,-0.19651807821569367
540,-0.8907035766550612,-1.6975602339458677,7.566312103672365,0.2931021166784046,0.3329440675000042,-0.07683729958118854
560,-0.6557625596713307,-1.6547632555721143,7.341136049623142,0.1580878736315367,0.29072848697045073,0.021949229410213975
580,-0.22319209458371855,-1.5833355947513104,7.208949708064233,-0.01650964724254017,0.2216816803686752,0.13454467460728628
600,0.3472682966088201,-1.4505994534157067,7.301708751762531,-0.19001341818932044,0.14754918448448895,0.21853267964702916
620,0.7987716598644606,-1.3188450452925977,7.505674672323906,-0.3000126330595072,0.09725254268932668,0.2527623775737643
640,1.6464548916320494,-1.0481933436185569,8.09193712433849,-0.4630078144566843,0.03420904897544045,0.25345711494457634
660,2.214008399088105,-0.853114698197354,8.75507700687105,-0.5585069413889538,0.01681723756546324,0.20078264215453104
680,2.5217937406614834,-0.752291854636684,9.325541640781,-0.5967230890410227,0.013894532359738792,0.14279604955738762
700,2.8514231440868816,-0.669469708064731,10.224478710404377,-0.5843704729196951,0.00795381128967218,0.0269583203602595
720,2.965747214631835,-0.6703091174501141,10.751972031284335,-0.5267780001795411,0.004686566876453102,-0.0721808765581918
740,2.9797656514139876,-0.6935976798844631,11.03011763393879,-0.4723884917917799,0.013484118784182384,-0.14296511606481233
760,2.917977883396966,-0.7505079091955272,11.321280596227872,-0.37579703248209423,0.05835209761169695,-0.24505986126051063
780,2.839084460439691,-0.8050380200089962,11.436433767248234,-0.2941269320277238,0.11251555468840957,-0.3127131065290317
800,2.772639258820592,-0.8523649166091869,11.456085021236747,-0.22918437455291082,0.15500155659986936,-0.35830168248830774
820,2.6402512846650574,-0.9422176767272495,11.366678387234344,-0.11635849954543916,0.2205955908169481,-0.42699742334232743
840,2.5103049826068853,-1.0144944229144441,11.193272638260803,-0.028089119931978178,0.26585715268644633,-0.4732915642228439
860,2.3955895628736594,-1.0605526852234142,11.018555808506337,0.03343866505889649,0.29432458848700394,-0.5005472224712287
880,2.188104461854806,-1.1178935556403122,10.656874069251305,0.120057697856886,0.33373547255346353,-0.5282728456874114
900,2.0002727654220545,-1.14660920927261,10.2710416840129,0.17415665592797983,0.35989898826015654,-0.5347995192403354
920,1.8339232675210377,-1.1530443847522531,9.905126802309564,0.19934511002349226,0.3736643961998389,-0.5283162817015852
940,1.6657176476959668,-1.142245354222076,9.548443272940277,0.20365431556506947,0.3749575538335118,-0.5095025436021388
960,1.510809847037896,-1.1208087064659769,9.21547306885924,0.19000406859847105,0.36335476259042443,-0.47638326595923064
980,1.3885482152673823,-1.0921704490544588,8.910409688728281,0.16049488872925907,0.34257400910702007,-0.4287997087196327
1000,1.3191558999225308,-1.0615808246453808,8.64082390453341,0.11724255728824697,0.31370583325579254,-0.3707165560251084
1020,1.3075153625320777,-1.0310274384804956,8.405760477625188,0.06209005283502241,0.2783778242123801,-0.30884510490245054
1040,1.3423693466155842,-1.002567527752596,8.212936402133135,-0.004343860658651618,0.23652785352135303,-0.24772106527533627
1060,1.4274097425973153,-0.979332315562498,8.076418178292727,-0.08120118646130581,0.18796641458842664,-0.19015092244200887
1080,1.5709656741997637,-0.9602302573768103,8.017678832635283,-0.16799167742289872,0.13467097984467474,-0.13839699971061703
1100,1.786017020906227,-0.9390437472199576,8.069896770212635,-0.26119008479615163,0.08536789115246353,-0.09646337946250508
1120,2.0845139183628287,-0.9011300319720892,8.283110445288541,-0.3594338997709615,0.05191696327535229,-0.07306421403076152
1140,2.311985483227758,-0.8596333141790143,8.557001710144569,-0.4283844535407831,0.04625740486270647,-0.07619159329118633
1160,2.473081210551518,-0.8206833509544782,8.85486456678411,-0.4755504211660795,0.05030248394778752,-0.09386648217790157
1180,2.587055768354402,-0.792158915186973,9.145888620015887,-0.49871406804616614,0.0570266348895492,-0.12133747199838309
1200,2.652302070444782,-0.7771571504583102,9.386592027820027,-0.5006547248383897,0.06585755721528015,-0.15553257693338224
1220,2.6735733275663316,-0.7719516361470589,9.56606216055012,-0.4874772416509524,0.07651465715740077,-0.19292963784329312
1240,2.6576013080752867,-0.7704340550821633,9.69225389826567,-0.4631342020284655,0.08735264929410341,-0.23004375619553982
1260,2.619136957633192,-0.7682129693374297,9.767825822491826,-0.4310770125994801,0.09644895700676587,-0.2643650179509095
1280,2.5702438350425414,-0.7667028076237157,9.802874649096102,-0.39481556019435327,0.10304011930489825,-0.2947823458235888
1300,2.5182126166022036,-0.7636742514067139,9.799530618368014,-0.35794880143130864,0.10830120444053165,-0.32009447802480234
1320,2.4582490387017844,-0.7569013233210657,9.76388522747533,-0.3203297628148208,0.11406118453848021,-0.34226060833617
1340,2.409050097185695,-0.7466756741270761,9.71383383356712,-0.29227993868799373,0.1211850772747262,-0.35625091852450913
1360,2.366708615979624,-0.7320218686269776,9.65446147649786,-0.27069195785716604,0.1321901233155801,-0.3659846936135576
1380,2.3191364439045548,-0.7111261815281894,9.593458469219954,-0.25493892670408314,0.14491296799971917,-0.3717402916553006
1400,2.2725940772380113,-0.684958923748412,9.536204596806174,-0.24391390000168195,0.15453356697357126,-0.3730205769588983
1420,2.2322735258412494,-0.6527498425616598,9.490503962878202,-0.23595122138959998,0.159861993859122,-0.37128951420040984
1440,2.1971910148271028,-0.6176146715098076,9.4525335768143,-0.22930495222335903,0.16268428367862509,-0.3679199303263577
1460,2.1647973729832484,-0.5797068906993135,9.417020940025614,-0.22457424468862322,0.16430612006396006,-0.3632937802720572
1480,2.133689796218184,-0.5388715107573301,9.385927797113807,-0.2223916532181314,0.164447204614052,-0.35764364667333626
1500,2.10422758655342,-0.4960811167010425,9.36838453091948,-0.22218133124723083,0.16236907075324583,-0.35072502177413434
1520,2.0804865595976705,-0.45351737313394785,9.365755067724987,-0.22159706884051802,0.1588201407740683,-0.3427692472936969
1540,2.064845808926416,-0.4150047353157901,9.368338222877494,-0.21977280104526914,0.15551018022224367,-0.33536225205786313
1560,2.0530273499515426,-0.36504153264788647,9.373476167796268,-0.21627238698210274,0.1511761442809964,-0.3262607514486739
1580,2.048516648839914,-0.3200910351341504,9.378941362083603,-0.2125410408289071,0.14678211576174138,-0.3195383817374839
1600,2.045910734647318,-0.2762512301930742,9.387261128537244,-0.20812076487399023,0.14215760109825087,-0.3146581837422548
1620,2.0393429649344097,-0.22706808814874443,9.397681338721002,-0.20201036039610615,0.1386189358235164,-0.31084607883713306
1640,2.0298987147332364,-0.18481270440169867,9.40394998943619,-0.19613844309496276,0.13752377189101786,-0.307756126198665
1660,2.0167899525025517,-0.14032204598202117,9.409577108766001,-0.1901428902930469,0.13691487855007747,-0.3038172727921876
1680,2.0077770814586717,-0.1029788590838682,9.4113099376614,-0.18477856289627947,0.13640248148129172,-0.2999916329960211
1700,1.998902714559983,-0.059927253775239546,9.414280355803303,-0.17841114178944045,0.13560094195216765,-0.2959135175794658
1720,1.9885476695338549,-0.012581516442102397,9.416556256901403,-0.17015345907567406,0.134359897893309,-0.2917885134671583
1740,1.978178427187574,0.03001353964301248,9.414663846283606,-0.1621101523124719,0.1328386394591097,-0.28844557271690047
1760,1.967996629370475,0.07375594789307352,9.409355925222513,-0.1545532646074746,0.13110454875665947,-0.2848466279044079
1780,1.9566552723438302,0.1160118542374605,9.402675761450517,-0.14752388424771687,0.12906281436475486,-0.28099719972857
1800,1.947339959288979,0.15705463661413108,9.397336896554547,-0.1406808591416093,0.1263553496180134,-0.277051850553716
1820,1.9385411428876127,0.19739732689952444,9.391255562560957,-0.13385185677543143,0.12332194759364742,-0.2733943351800773
1840,1.930532330922978,0.24219954697640633,9.383199631186955,-0.12613998121641418,0.12076820011652865,-0.2698671222160362
1860,1.9187195603769445,0.28295266301015787,9.374239195304874,-0.11991254571629198,0.11889659121324687,-0.26664457782968193
1880,1.906622741602708,0.3234056152305129,9.36515357994358,-0.1144854935312954,0.11677546503377319,-0.2627193497616342
1900,1.8987870194820027,0.3585668894762714,9.35832752132608,-0.10997383188816809,0.1146887421808506,-0.2591963579583793
1920,1.89087870872953,0.3982370145075347,9.351279211502955,-0.1050631633244864,0.11217507087299362,-0.25544759422828506
1940,1.8820463976561999,0.43777991774964103,9.343365201728911,-0.10090835712727644,0.1097748679895273,-0.2516931815999507
1960,1.8723747942847864,0.47815263243531986,9.335819496501596,-0.09762736670066777,0.10724207427017846,-0.24759531158252207
1980,1.865489094341485,0.5236319172407021,9.329606305521978,-0.09475526298479278,0.10419801613487394,-0.24283722803828833
