0,-1.2822336554527283,4.785548686981201,3.1970518231391907,-1.7420279383659363,-0.5236204713582993,-0.10240952111780643
20,-0.9123527985066175,4.4834768027067184,3.4682878106832504,-2.2452655136585236,-0.6251867711544037,-0.12461362779140472
40,-0.47122011811006814,4.177812407414119,4.351251711448033,-2.597124586502711,-0.8345223466555277,-0.16581495106220245
60,-0.04176315091899596,3.855233184993267,5.335055939853191,-2.751083053648472,-1.1434212923049927,-0.23954568151384592
80,0.17735120665747672,3.567741018533707,6.040538877248764,-2.8044028699398043,-1.4583234369754792,-0.29484955221414566
100,0.5247088870382868,3.4110069423913956,6.749963656067848,-2.8236042658487954,-1.776171714067459,-0.3040108277151982
120,1.2271744369186068,3.401852294018394,7.49237771201552,-2.8336460213912162,-2.0653477928094697,-0.30944694866213884
140,1.9592383094859542,3.379297874867916,8.296273153275251,-2.846182879060507,-2.1004115771502256,-0.35135684069246054
160,2.649055745567463,3.30807987304583,9.596351528820927,-2.797342032602389,-1.9833902765626776,-0.4090834815208226
180,3.0673400708761664,3.2856417026048823,10.79671891236011,-2.654395718633393,-1.813951617129791,-0.4396594358079227
200,3.3945770237406485,3.230881496761622,11.863850848058636,-2.4268328974839677,-1.6329916483366842,-0.44580321499470915
220,3.702453428984994,3.041798399358066,12.707554421474024,-2.1630339022226557,-1.4182339417076064,-0.4500605095293104
240,3.94881712145926,2.935062356577033,13.549424405325027,-1.8766989221530301,-1.2028330816089043,-0.6069200464657375
260,3.8137826269855144,2.588825479611359,14.302294222654494,-1.549164397691467,-1.0570634251781863,-0.7850142617141251
280,3.493700243386417,2.1673938090766756,14.884334459777707,-1.1827431820209855,-0.924476838959304,-0.9295796771680028
300,3.159346510425152,1.6839401690188305,15.05344104582025,-0.8078456952186056,-0.7787884673962817,-1.0344509001850157
320,2.7979423461726656,1.229991187633824,14.884505089182053,-0.47546831809364964,-0.613351500521747,-1.1074603052034866
340,2.374125148644992,0.8236720402179093,14.535093371621494,-0.1950554479042004,-0.44204324579251736,-1.1459324939497586
360,1.9329999943683838,0.46569827534988817,14.058436532425725,0.04565557844790758,-0.2881273885647115,-1.1450258064893335
380,1.4641109809198958,0.13172609611977765,13.392402792418444,0.27847137630997615,-0.16260430670090387,-1.0969637736310194
400,1.0961723076343974,-0.09730822159086956,12.65279011559837,0.44515586659750517,-0.09033667596659678,-1.0289687247837291
420,0.8145623234979641,-0.28951479975929423,11.832594510963125,0.5566108299398356,-0.028371236739638313,-0.9460316558232468
440,0.5440428745131739,-0.437786396753083,10.975113100662668,0.6097424195939174,0.04074919822385475,-0.85253754963157
460,0.27522972942877216,-0.5568420502558812,10.157117785636297,0.6031696575780198,0.1279095554719535,-0.7409079084076833
480,0.041154023541119134,-0.6457304774165744,9.43226314395076,0.5499215486579307,0.20466182393593585,-0.6044958307601438
500,-0.08765772117656612,-0.7281315743568397,8.794329621465433,0.4667611826566004,0.24316196631241058,-0.4481347728343237
520,-0.08418823865353378,-0.8111865451781575,8.23501134226355,0.3633561375456939,0.2500864872772999,-0.28793535620794386
540,-0.017453972130717164,-0.8968076713515066,7.730339169304456,0.24054827631772618,0.2396320927768649,-0.13302998706302813
560,0.122279057219529,-0.9768916508262484,7.313182216233168,0.09681545266419904,0.20807736987669945,0.019109158689140253
580,0.3681897310008995,-1.036380406961707,7.016526713659448,-0.06210253549324087,0.15925146802328527,0.16591497812389341
600,0.8213486026312072,-1.0555357139602126,6.897952345322328,-0.2483907704838956,0.08539886377655355,0.3243355439953595
620,1.5339129772720477,-0.9821152419254586,7.049310300858785,-0.4066813470342675,0.013357138338509558,0.43317431027364545
640,2.4271236609716373,-0.817383412481024,7.447004089250547,-0.5477921033647846,-0.04501749176273911,0.4677767876382178
660,3.173496809943833,-0.6065757265145129,8.092954246835275,-0.6566836582124234,-0.08160350558601998,0.4306454398686236
680,3.7117303387284966,-0.39246161827034326,8.869206249555935,-0.7150748201083168,-0.09835409599622916,0.3569552077263488
700,4.109047114711473,-0.23438270305542602,9.63634093075069,-0.720585226129318,-0.09897896408221822,0.2624678231033263
720,4.359688674392534,-0.14914803553285408,10.282676371094773,-0.6803738227531464,-0.08691548021746967,0.15379416705872304
740,4.455898914028093,-0.133075706769958,10.760230309460372,-0.6064572627337631,-0.06787638882090147,0.0394515428413009
760,4.443803054629456,-0.16369007867243554,11.050757447168941,-0.5145773264978614,-0.04461162124745666,-0.0695887796226002
780,4.370844088070925,-0.22714869436972282,11.186550928389325,-0.420479507073068,-0.00920492056728378,-0.1693838686904302
800,4.250277084382842,-0.3083931375463744,11.223206715686445,-0.3275204113490452,0.03725253386434246,-0.25817746299901395
820,4.098196507766733,-0.39884494103293505,11.171176974796264,-0.23354388319593264,0.08659066882803157,-0.3359659734157334
840,3.8983486725001373,-0.4971042095908317,11.004420108879092,-0.13001031898518747,0.1367394218807398,-0.4095928843465002
860,3.729011828329047,-0.5586400070975364,10.803265658461711,-0.057083711311431,0.17045334227986528,-0.4552367072499974
880,3.4988078493343484,-0.6137303518704497,10.481638931863747,0.01937665341033058,0.20830254898288872,-0.49766211488007844
900,3.291664756626712,-0.638626826256113,10.16156612214462,0.06757006642999508,0.2333916781698003,-0.5204871338341506
920,3.095758251014999,-0.6425207325796548,9.830729944356962,0.09521690325713471,0.2522172423067356,-0.5312036678783203
940,2.933564853791908,-0.6342964965311054,9.55097316577068,0.10316739715539516,0.2665208618430955,-0.5324787082251652
960,2.7282176594546232,-0.6148245145303357,9.222512987432907,0.09610611017831046,0.2821861860998483,-0.5243537527258564
980,2.5469314507923393,-0.59436205523273,8.959335683503806,0.07875165621759278,0.28795811307897773,-0.5066180298938232
1000,2.3775045882155488,-0.5743512784637221,8.716476306084145,0.054597503189178345,0.2805468936358099,-0.47801088509590645
1020,2.2287881520820694,-0.5551541387280893,8.489797165191598,0.024095614591524716,0.25898874601504457,-0.4384750704364186
1040,2.1085349816032557,-0.5383030385710299,8.27735572599014,-0.01376946467175105,0.22610045900616238,-0.3885885633427049
1060,2.031108472489863,-0.5307330475915053,8.081609229890441,-0.06135819990768892,0.18415858303388974,-0.32970052961326296
1080,2.0001164852570206,-0.538879410682565,7.917686773967501,-0.12099769055373497,0.13658317763186353,-0.26439567625486954
1100,2.0244592159792814,-0.5586807124267241,7.807345405006699,-0.19101697907049572,0.0879497446389704,-0.194458248377551
1120,2.1199880626477787,-0.5825676926209227,7.767850481864551,-0.2677134546410778,0.041275382308167935,-0.12520616058128603
1140,2.287105564945417,-0.5849784212982935,7.832865651776521,-0.34392518481701356,-0.005219075153183797,-0.062260640517939836
1160,2.582830331667055,-0.5386584867455799,8.018314853326205,-0.41836783585121046,-0.052473197436346763,-0.008507947536552447
1180,2.8681052800610445,-0.4690279712100044,8.214561060363472,-0.4666466088734629,-0.07271206427523327,0.00982843336027716
1200,3.190394467859327,-0.3630859428907142,8.509815668645665,-0.5150033911542766,-0.06996689652306222,-0.0020858459339928616
1220,3.399565434557369,-0.2760248134459207,8.787790740009196,-0.5408616712142131,-0.05312015479170307,-0.036041242285666915
1240,3.548398031520132,-0.2056893635109389,9.043095369396955,-0.5477285561515914,-0.031104126210509266,-0.08719783132275555
1260,3.612013879142039,-0.16321340314971872,9.269884116803539,-0.5349155788272043,-0.010149602013562646,-0.1479894797938265
1280,3.6036788311973216,-0.1478206073031539,9.441213011897746,-0.5025574292916627,0.004804477492081268,-0.20955405292899482
1300,3.550115579269183,-0.1561930206784276,9.54523616518972,-0.45653673580465015,0.01186379530217226,-0.2656440382686183
1320,3.4633265315637516,-0.182277781091548,9.573410482795365,-0.40024917189554204,0.015920259799925108,-0.31764254722584423
1340,3.3766641482253643,-0.2047959466752681,9.544157595133239,-0.3566538771072572,0.023033549784767356,-0.352712268945761
1360,3.29730565156587,-0.21547436482094134,9.502229646824741,-0.32555343255173264,0.0327574079931518,-0.3754846417362663
1380,3.196610695884856,-0.21896656945532075,9.44316465687994,-0.2930757788177777,0.04714578537471171,-0.39561083934692726
1400,3.123912296144139,-0.21784646705079036,9.393622285135441,-0.27168616089794334,0.057672784901849836,-0.4052367190701195
1420,3.0460156446303563,-0.20840792599007513,9.330431746059256,-0.25084672567215005,0.06726486239623977,-0.4111475736337991
1440,2.9704586742920185,-0.18839329696167104,9.262386702456478,-0.2347566746902638,0.07466479108695744,-0.4124034946837347
1460,2.8877568691299236,-0.15197160094976425,9.188929372744317,-0.2232106080727284,0.08070691278668425,-0.4077418190002734
1480,2.8240324595017916,-0.10874416256206658,9.133020057081685,-0.21844374032860453,0.0841322770780953,-0.4002911204514517
1500,2.7761207779924133,-0.06295814641050958,9.092947947393137,-0.21683267529500833,0.08694029053624532,-0.3889771558304103
1520,2.7313928193700203,0.0025528956599940823,9.05997036884979,-0.21777532488443618,0.0884271435396095,-0.3761775379759768
1540,2.7027036184075452,0.06271530557719487,9.042601910789335,-0.21989644349567475,0.09001413505627877,-0.3627698607266038
1560,2.6775681275281715,0.12183067639326227,9.036277685734825,-0.22154361733635392,0.09043770702628763,-0.35202743209932047
1580,2.653804094679135,0.18072018015772195,9.035767682138887,-0.22166093275089382,0.08975749026519757,-0.34196662186571447
1600,2.6379289013414913,0.23124593685724834,9.0352133973794,-0.22088264768649388,0.08857135758214668,-0.33365529523427906
1620,2.6250248494291744,0.28785165533445967,9.03508655669424,-0.21993278391918508,0.08708630078408794,-0.32528768945309233
1640,2.611238859600808,0.35513037822907445,9.038761258247446,-0.21808115229143826,0.0855726848124636,-0.3175482761705414
1660,2.5980946853891522,0.401582628554475,9.041131992904047,-0.21618463535131036,0.08530150982894685,-0.31336761361563575
1680,2.5808640747743796,0.4543031123697584,9.042798118703828,-0.21334505014110672,0.08550660220265345,-0.30911390344054324
1700,2.5622741336698085,0.5069228242170226,9.042210265553908,-0.2100874174638552,0.08603775090476234,-0.3054456123327353
1720,2.5419631370976994,0.5534101232950085,9.040754957594903,-0.20691284975475405,0.0862449555034708,-0.3024537491601508
1740,2.5118399955471125,0.6201214568817833,9.038551452573593,-0.20210477240572247,0.08614005560105151,-0.29744785535705975
1760,2.4889017334985075,0.6725075320963734,9.033744240285873,-0.19835579110586676,0.0866093887871077,-0.29310277204828467
1780,2.4666330218891597,0.7231740459410327,9.029457916040615,-0.19524392981896949,0.08706912542712533,-0.2885397447899568
1800,2.4475894951255244,0.7718350027491446,9.027395980161469,-0.1922708273668881,0.08669635400961653,-0.28401879983428285
1820,2.430142285662025,0.8187647090264637,9.025736249100873,-0.18914382106813815,0.08614379080190432,-0.28009845102757397
1840,2.410678146182548,0.8644713428263341,9.024695483994945,-0.18597776003519245,0.08528668303960332,-0.27631552649299784
1860,2.389344062750522,0.9142924509354328,9.022120891070287,-0.18214992837931374,0.08453620860971951,-0.27214678451357605
1880,2.375115327494506,0.946742514075405,9.018609014517256,-0.17980191471692242,0.08429439041025538,-0.2692370843573889
1900,2.3537549222639482,0.9995904638403162,9.012773689487469,-0.17641036099389426,0.08315128510385529,-0.2645617030247729
1920,2.3372581096862595,1.0409293052911455,9.008951888961375,-0.17380846294869043,0.08155029257502566,-0.2613649012239374
1940,2.3185362496161646,1.0802627247805245,9.00408538539113,-0.171375473667256,0.08013968445727251,-0.25835642412556525
1960,2.3002576835977377,1.1186657762341201,8.999825152112171,-0.16906304952921347,0.07851360926804773,-0.2550858740619151
1980,2.2842529353900067,1.1567855961067546,8.99524319639411,-0.16672324492264134,0.07662968633926674,-0.25201720061958627
