0,-1.1514056771993637,3.7556901574134827,4.79662549495697,-1.3911564499139786,-0.9606452211737633,-0.32718033716082573
20,-1.1439740727929508,3.4726375832277188,4.870765489690444,-1.7878421615151798,-1.193546523066128,-0.2684732938514036
40,-0.9613608736544847,3.1922737693786623,5.463997764587402,-2.088286838531494,-1.4311192870140075,-0.1772603353112936
60,-0.6743794616989114,2.792157435055935,6.208181178931034,-2.2876733433116567,-1.6007642511165503,-0.09008231956624624
80,-0.40674442711581543,2.4348003268241882,6.979729745446182,-2.3787865173525926,-1.7364370343161792,0.020209553628796485
100,-0.026589602269992536,2.1693990084589743,7.587715421404157,-2.375004276937368,-1.8376567643515918,0.1280653256618855
120,0.4029095345095061,2.044968605041504,7.937641260916727,-2.35919217477765,-1.9013718126112955,0.2247551427663941
140,1.0267633405728982,2.0803140475199773,8.567832668011006,-2.3746086083925686,-1.8512267635418818,0.33046272801092036
160,1.7113563495700899,2.1741856989795214,9.54982906498321,-2.3404676179363304,-1.7223785952345965,0.4207356408085317
180,2.3058421144284953,2.292181628721732,10.685365276572146,-2.1965818758364075,-1.6066524673391271,0.4876927232346785
200,2.891111612633875,2.444427009378926,11.840761741895355,-1.9429454927364092,-1.572654591517502,0.5535704412528973
220,3.7073669166102543,2.4684504467187467,12.705875377065128,-1.6432672152199697,-1.600729115230521,0.48714158326848267
240,4.188098505121779,2.461537921203757,13.509243749222666,-1.3448375522528055,-1.609411356584081,0.2876355377078619
260,4.467909095825203,2.3718887923056617,14.250156670285945,-1.0998907280072832,-1.5871562000952268,0.1159766838281301
280,4.64520983088546,2.2108208565426266,14.898684698688097,-0.8763608048277453,-1.5333591091238763,-0.02703217346190421
300,4.7902971654987105,1.9138601939265545,15.594414887061486,-0.5469138771295547,-1.4637327345517965,-0.20439836345613002
320,4.874871528869414,1.5929136806424113,15.882173455279807,-0.22607747044252313,-1.4319436761780062,-0.3645900307304185
340,4.89630593521495,1.2585336095462107,15.85435733403245,0.08285219354988778,-1.4037988696196309,-0.5268134491849844
360,4.82552908166227,0.9245086872538963,15.566430048509078,0.3533974435035284,-1.3406333404218223,-0.6850901711248345
380,4.644977932623415,0.5997897941205237,15.130359066857231,0.5793428301443289,-1.2476879494885604,-0.8267745714818622
400,4.367416899596505,0.29238963504047955,14.600955372698166,0.7717346273800906,-1.1490121620981133,-0.9451668775037808
420,4.011240757154196,0.03195602262622855,13.994341858442915,0.9384961903430102,-1.078787824243642,-1.0348795003393727
440,3.6274632397257993,-0.15749185356081172,13.332095639159283,1.0804461585257643,-1.0432404312499177,-1.0937311784514496
460,3.2586340697520635,-0.2730198918083279,12.614593053102187,1.1911297715509062,-1.0227160820126602,-1.1237634058427257
480,2.928030053199739,-0.3308684050594226,11.86825890776397,1.2623356355003792,-0.9976631492176923,-1.1299454363819101
500,2.6290814640177858,-0.3509273998084522,11.130397512337991,1.2931781517607825,-0.9633185162292128,-1.1175342761867104
520,2.3156996286946208,-0.34935571702375806,10.346605078372509,1.2859820904524903,-0.9207403549800104,-1.0856723413041465
540,2.054620859570112,-0.3355454151571979,9.693140310961507,1.2493854785370866,-0.8824409553858078,-1.0455786113992398
560,1.7925345960370405,-0.3227671133146245,9.086989818323167,1.1879168531956508,-0.8468964984001434,-0.9961273157374656
580,1.5266426651366822,-0.31593561397554976,8.544424702202587,1.1079803242811879,-0.8198231676868413,-0.9349219266309905
600,1.2719653338357153,-0.3195681370529476,8.054260156633132,1.0132834150222134,-0.8020895093107091,-0.859277278021631
620,1.0415098760852368,-0.3326118188419354,7.620055465250632,0.9048278293748563,-0.7918203315930441,-0.7696696991194399
640,0.8490120205358508,-0.366904449189598,7.249849978094914,0.7828927574721113,-0.786431582614497,-0.6679248191025596
660,0.6940679681775245,-0.4322183065361936,6.9509130396355285,0.6466635217416016,-0.7831305102237754,-0.5552355364913291
680,0.5994065453894042,-0.5290962270577849,6.7575944112120165,0.49815787853798155,-0.7818755784870846,-0.4302921899242241
700,0.6124665904534129,-0.6406060209749043,6.71696833500645,0.34319115657666605,-0.7806987983068208,-0.29794366720462173
720,0.7192107685670307,-0.7342136905296553,6.842378822233167,0.19405510582739993,-0.7802708200206295,-0.16693951669195822
740,0.9581789199637806,-0.7640268121787057,7.1840091140384414,0.049285227502393836,-0.7876158265148248,-0.017044821113057725
760,1.4172755950837856,-0.6760321847388603,7.65690806713191,-0.04695781735597249,-0.7955325916803684,0.11009726667470193
780,2.0891445628137406,-0.47044394849181564,8.208892818011435,-0.11178363114882858,-0.7836666459395165,0.19972776873382153
800,2.728922864349267,-0.21150476309114574,8.807598109861994,-0.14565687967991703,-0.7527245200468446,0.2385072053174477
820,3.251534992407131,0.0439133848029408,9.382123090392527,-0.14130352698540424,-0.7205988314149984,0.2451424205018317
840,3.71885984000782,0.2665216354673311,9.831920329331496,-0.10057165840073307,-0.6859569748172446,0.2308851085153633
860,4.122353529949997,0.42955618566412246,10.107608491261855,-0.036798307046901145,-0.6451818052233914,0.19683404973174415
880,4.437181800557812,0.5257068054237567,10.218838140347993,0.03740714541329378,-0.6067696275879696,0.1455746907433802
900,4.66310965401491,0.5690038672577019,10.194838845741845,0.1115208287568142,-0.5759129262994349,0.08083315805522023
920,4.818495868651294,0.5747227730443947,10.06886420200922,0.17641529724933208,-0.5474585638170155,0.008142514477827047
940,4.920314742381848,0.5562926877461633,9.870264768926907,0.2285974314700351,-0.5163256029737033,-0.06893741912640554
960,4.971008390145884,0.5132781052885511,9.620430963527825,0.26697884245794457,-0.48587083168688816,-0.14867588016910083
980,4.961410302544634,0.4397551686140812,9.302747066245402,0.2947298170768736,-0.4605265642329476,-0.23859139913578092
1000,4.902610977931223,0.36425754545339933,9.009756488044527,0.3057170265103909,-0.4507027295134515,-0.31562521047980385
1020,4.791973476291517,0.2921810129811133,8.717279800344391,0.30283169640391855,-0.4495225961117136,-0.3860307811292645
1040,4.639616391437002,0.23612436681870796,8.441562103797922,0.2839744440203919,-0.4532099641658179,-0.44638717658209914
1060,4.452785416495575,0.19726850015848654,8.209568260753318,0.25066477255533437,-0.45815545760624715,-0.4943149892924443
1080,4.246751924424191,0.17373848720035107,8.03462347175633,0.20853687234306603,-0.4678317310123736,-0.5288662788322133
1100,4.04767833361875,0.15592476174751374,7.908370668962845,0.1626176427942896,-0.4856448493608547,-0.5520560379339501
1120,3.8504642197526913,0.1403034668988518,7.826986483964916,0.11391554211231995,-0.5084930210035403,-0.5668893536379047
1140,3.6472676373295374,0.11732531809307603,7.786566272133719,0.062132336096023956,-0.5338654057135178,-0.5709546567804651
1160,3.4566710708580866,0.08357965416837272,7.796622372689253,0.008298485947917343,-0.557343794023413,-0.5633387660463214
1180,3.280026289217712,0.039623991439848676,7.84914597227747,-0.044323881961328464,-0.5753648673465053,-0.544960165503867
1200,3.1150363665376366,-0.007748597094214864,7.9402041990578205,-0.09321485483229282,-0.5890337588177224,-0.5173940195401651
1220,2.953680659820904,-0.05209765752671498,8.081943542815507,-0.13316732355785704,-0.6009435750371656,-0.4808986537835139
1240,2.790737916773879,-0.0955941612069842,8.283842229297129,-0.15936291810198158,-0.6141825731206849,-0.4254493810272976
1260,2.714766325623633,-0.12418432096947107,8.429524051304726,-0.16760745785078413,-0.6203843988426394,-0.3725109620189125
1280,2.695517181843774,-0.143382454027613,8.598657746202607,-0.1709536910836121,-0.6190335374104634,-0.2991588848745698
1300,2.732587323600796,-0.13858373457442077,8.747616328921671,-0.16767125333614005,-0.6111546900484812,-0.233366707168966
1320,2.828390026832776,-0.11430253731679667,8.88763503079574,-0.15651490195307236,-0.5974008468449257,-0.17061246397159308
1340,2.963109568198296,-0.076601441338743,8.991896527390928,-0.13789407979019663,-0.5776100126164966,-0.11687433577735315
1360,3.0982626265876236,-0.028727363299755348,9.045418278219039,-0.11584012813559036,-0.5561979017789996,-0.07456991865923862
1380,3.214717204866819,0.026434073390442445,9.060185763032205,-0.0934873843539256,-0.537323989420216,-0.04163719644250065
1400,3.3185375230581555,0.08562820693048022,9.045538504710194,-0.07253160760883982,-0.5216235654472815,-0.017104365155490225
1420,3.403874317347312,0.14602212131757902,9.010635848238719,-0.05550879905403582,-0.5062486079741106,-5.957514873331355E-4
1440,3.476255488227391,0.21111429100832546,8.968059817680462,-0.043226738498246264,-0.4910098380947849,0.00933990065260964
1460,3.514643237296878,0.2574886372667211,8.937412242359953,-0.034138642422805066,-0.4766277018983157,0.01373505364031995
1480,3.5359238399485173,0.2983798553147315,8.90652377736747,-0.02828171504122659,-0.46620888030098767,0.014387282383943762
1500,3.5462283241177275,0.34405587880655286,8.876816495168493,-0.0236830199258675,-0.45657387205815936,0.013144366497383226
1520,3.5469932098829466,0.37282086244256396,8.861819454180841,-0.021188580036619244,-0.4500992127025692,0.011332566809020157
1540,3.541584977968677,0.4084020841718399,8.848341186462994,-0.01901137912365506,-0.4406775632379104,0.008569825074241368
1560,3.5360528434213,0.4292348881542326,8.843841208704985,-0.018617507903531467,-0.43472105921871135,0.007070042210114971
1580,3.5259731011061524,0.46001060108759445,8.843135423642574,-0.019057803684638004,-0.42693244537515496,0.005096119439749177
1600,3.514550522768884,0.49051098623455197,8.852800637467956,-0.01967314688176919,-0.41730382637998786,0.0022452082623592544
1620,3.501464505318895,0.5167715400243164,8.864036279865351,-0.01913113791755784,-0.4094708780120696,-2.660259978809193E-4
1640,3.4877428535862043,0.5362624339825475,8.870601383500047,-0.0182693738164763,-0.40426626761276163,-0.0018441196818528376
1660,3.4645795761950997,0.5656661897644285,8.879174959987324,-0.016644738743423038,-0.3971297446966987,-0.00335365673973552
1680,3.4395968014783778,0.5967886883455696,8.88261532985905,-0.014887452382866153,-0.38934830623781214,-0.003721938989419365
1700,3.42078513383962,0.6218319895985249,8.883593692845512,-0.013947523112884544,-0.38311454585987553,-0.0030356028297733547
1720,3.4020691645036254,0.6549441788996706,8.885383139576387,-0.012912558290758335,-0.3746933187233883,-0.0015478634621926806
1740,3.3889931922833503,0.684248011659781,8.885711459614567,-0.012293678979273446,-0.3668707776934225,-8.001679311599451E-4
1760,3.372839610902075,0.7161108674284252,8.886613885837141,-0.01196859250667988,-0.3589689605268656,-7.424944139348657E-4
1780,3.356399585055392,0.7422619814083241,8.88827972648957,-0.011894279868091882,-0.35014991106988047,-9.598927895390112E-4
1800,3.3438552692354904,0.7607678683326841,8.889816889916204,-0.011858812366229703,-0.34431425943778454,-0.0010058345988123837
1820,3.325133867604378,0.7912996762231248,8.894217645234969,-0.01171983536719332,-0.3345424748886119,-0.0013926529287365615
1840,3.3119804758786877,0.8125590419334132,8.898151688770046,-0.011338224444403803,-0.3277252898323654,-0.0021184381719470302
1860,3.2935868714617467,0.8387862944298449,8.902152454486655,-0.010596100379035833,-0.3190525533032518,-0.0036517810637106823
1880,3.2759689680557735,0.8618421990743931,8.905493794888267,-0.009830207904315102,-0.3117833427084709,-0.005243655136231003
1900,3.2585877794220313,0.8843147015764939,8.910204490691125,-0.009010782466163816,-0.30478550233417934,-0.006902918773739282
1920,3.2394534470727288,0.9062460996979748,8.914214183126187,-0.008053861236142122,-0.297870689707396,-0.008596257722107408
1940,3.219257163996291,0.9275106623627108,8.916966528853994,-0.007476740021295634,-0.29134171091933203,-0.01002740506006339
1960,3.201304932524717,0.945343322390737,8.91968557528233,-0.007141895485777892,-0.28602450266285206,-0.01126056622092534
1980,3.1774470472344114,0.967244089683368,8.924518960782807,-0.006775372952904603,-0.279966278895096,-0.012684047791247008
