0,0.12693603988736868,5.0307387709617615,5.184019982814789,-0.4605147410184145,-0.0731467705918476,-0.05880025727674365
20,0.20507355453446507,4.92086723446846,4.967570096254349,-0.8272986384108663,-0.1504783122218214,-0.07564475131221116
40,0.2358096387858192,4.717390358448029,5.091512362162272,-1.1823424082249403,-0.2501360211754218,-0.08334572597717245
60,0.38709504692815244,4.543501950800419,5.545667961239815,-1.4426719606854022,-0.36241599984350614,-0.0840004199417308
80,0.6547165831051222,4.388026475906372,5.93427448737912,-1.6098864242071058,-0.5204766485158626,-0.10590735595764184
100,0.8890013407605389,4.300357550382614,6.078360239664714,-1.6855023394649227,-0.6520958162339715,-0.14457624165030816
120,1.2478052198625447,4.10199635070667,6.187344141173781,-1.7521502880150812,-0.8384528571674437,-0.20495758303686193
140,1.5069095032719466,3.9401757607093226,6.252364554772011,-1.8150169879198075,-0.8959959721192717,-0.2531137196490398
160,1.6424585277699444,3.863790028715787,6.512878600865195,-1.8707443485929542,-0.8623308064671208,-0.2654770731619776
180,1.8161049395983602,3.8725989100373823,6.883670818658523,-1.9194224140158407,-0.8066520465445923,-0.23319539797699285
200,2.1412821009420275,3.966825268241797,7.44923765203926,-1.9429694261778607,-0.7695050673936022,-0.2065496003605802
220,2.5792386094780313,3.9843991023978007,8.092326911454348,-1.9207082035922514,-0.747315038331621,-0.21943624080254784
240,3.0664234643181163,3.92532312756493,8.733678608848935,-1.8545109841085616,-0.7262337837102157,-0.30378635973403495
260,3.38274269023564,3.8895966626901544,9.346574758006408,-1.764856878503234,-0.7124928140320477,-0.439967558651223
280,3.565056003260711,3.798995977590892,9.992378242744888,-1.6733106670300824,-0.7174854070979578,-0.5738737860921586
300,3.7086043528230617,3.6801426105721053,10.735870501791783,-1.5623997708623723,-0.7177339602160708,-0.7019645189992766
320,3.816472522044269,3.5400313186819536,11.532806278145227,-1.416380661682491,-0.7207643837212537,-0.8358645179788208
340,3.8223036923126816,3.297745184181896,12.4117299889865,-1.2067854326881775,-0.7250393669325093,-0.9976712760805752
360,3.6575837773452333,3.013821167266601,13.105065376727612,-0.9803136885166168,-0.7252044804914335,-1.135254322858104
380,3.4028941569045004,2.673773308273083,13.569471659483733,-0.7399938198519341,-0.7050803845897777,-1.2509536671000936
400,3.1112995596054724,2.2822987378081856,13.818305324105655,-0.5175079980317284,-0.6367954246645027,-1.339070338496993
420,2.769167441958457,1.8722864178877867,13.923446676704321,-0.3130848692374283,-0.529246030851487,-1.4008546921599845
440,2.4064796688335557,1.4567256297876117,13.881778481186076,-0.11665914039457997,-0.4100638544237021,-1.433341493012674
460,2.0520997268253383,1.0700552700490682,13.651019359372325,0.0709053225738486,-0.28934465544106264,-1.4379065965827957
480,1.708680511664341,0.7296510348004279,13.233064475626048,0.23269159221413113,-0.1652723591691713,-1.4133822451389422
500,1.388677996645371,0.4418469125671046,12.697493142670108,0.35797231509571986,-0.041499525552526825,-1.3585402109560423
520,1.1069604912687332,0.2026648076097353,12.097661676141646,0.4471553069189054,0.0741077317394863,-1.2770724945708067
540,0.8653438998204944,0.010629226972835254,11.48553922264713,0.5055045229671276,0.17012830385608615,-1.1752050781191896
560,0.6376765189969793,-0.14867466532803597,10.808040796886099,0.5412378359348216,0.24994512622422996,-1.039125467720937
580,0.4968926474574662,-0.2394723958132689,10.232095551037004,0.549023323588901,0.296521385545256,-0.9011074494476595
600,0.44581715426912377,-0.28704930607422413,9.695993690792308,0.5356183838882146,0.3234005929323366,-0.7531603844084989
620,0.4926897471736484,-0.2998860498250221,9.203681339570915,0.5024149029148908,0.33832449598676567,-0.6078564373724177
640,0.5926372848899358,-0.27743656369630765,8.770463248261352,0.45145385298522167,0.345188483348193,-0.4736497061569523
660,0.7283559448314323,-0.2260550174929879,8.39791427910328,0.38570275546982885,0.3418158780207688,-0.35019537046128374
680,0.9200091240080173,-0.15136862569899948,8.086711875488817,0.3065871609154391,0.330697165299026,-0.24149382734003183
700,1.1441527228407191,-0.04611441533999754,7.857088258765202,0.21832455619625568,0.3131923577128157,-0.1491635672042396
720,1.4285851509900558,0.08164694147763843,7.705402964906749,0.1251085839315277,0.29157227236990907,-0.07353828172978126
740,1.7347665435159791,0.2090610291942323,7.615444722873574,0.02778971216304634,0.27290067289378006,-0.02191570321938284
760,2.0022592177681093,0.33154675004974243,7.60101679901755,-0.06981084704665201,0.2524517481204211,0.013268465197659911
780,2.28380322200102,0.4584052731562694,7.640898628292992,-0.16325280114852653,0.23061975291548095,0.038115092213683685
800,2.6158303406786634,0.6044466853680381,7.725135838208967,-0.2641836392078885,0.21090665333153938,0.04896390500144629
820,2.888619091600755,0.7195202489986139,7.83423602491179,-0.3509444848428864,0.19901108022210845,0.04257609324105194
840,3.1391205729618292,0.82357016779568,7.997879020591405,-0.4305679799691806,0.18691552035683157,0.02411970227820285
860,3.377717714315265,0.9190484137180146,8.212058129416926,-0.49593780364113954,0.17354724538712657,-0.005768201938500691
880,3.5808438544275476,1.0013024347660306,8.471921384150347,-0.5383361412460435,0.15329803026231406,-0.04863562650535931
900,3.738928238248518,1.0679727292028807,8.711008331287772,-0.5553791458751025,0.12717593684873885,-0.1019284452270386
920,3.8462250505800752,1.1185876136547641,8.883777014028869,-0.5584069648720814,0.10423939690073511,-0.1598497136122253
940,3.903962244402699,1.1580290271295715,8.99772458759703,-0.5588169872014275,0.09194452268792767,-0.21932505296492835
960,3.9093131287701928,1.1860669429103534,9.091845329794468,-0.5607101522783532,0.08926841020707577,-0.278214484403225
980,3.8741102440099433,1.197278612247198,9.198825805918267,-0.558710264010899,0.08816038417522704,-0.3363234131743366
1000,3.8037329731238962,1.1855521559719793,9.294699167000871,-0.5479388482274162,0.08508767505957365,-0.39132243939799716
1020,3.711345229109949,1.1527058402985513,9.360666232290013,-0.5302452016499869,0.08219035745104997,-0.43968494075649817
1040,3.6102123008328317,1.1057324387485632,9.387229102080532,-0.5108298438646891,0.08297172897233122,-0.47889464894020234
1060,3.4961860816764863,1.0506463343004784,9.386991732572664,-0.4918684595290069,0.09029241473956387,-0.5114957644775706
1080,3.392289658734742,1.0077327648177743,9.379661148970717,-0.47690816696293736,0.09954248370388209,-0.531112944097729
1100,3.2897260040276075,0.9776226921854068,9.36559475690258,-0.46175904213975105,0.10717012009518653,-0.5417973167148868
1120,3.2023646429311405,0.9638005779377324,9.34312226752591,-0.44643438211995745,0.11251225529330502,-0.5442819797899574
1140,3.135376882314908,0.964937577736991,9.31360325107633,-0.4318403537516226,0.1167238529904116,-0.5414827518330922
1160,3.086361879985135,0.9780918733242204,9.278275949009684,-0.4193125332225372,0.11992209354699619,-0.536257185640821
1180,3.046825457639397,1.0005799427340478,9.2465733000759,-0.40983260950342437,0.12222081888251045,-0.5306450198198064
1200,3.0090919762427597,1.0296786925481523,9.224124220137544,-0.40209186720637263,0.12313442770934817,-0.5249157252548636
1220,2.9706274624119238,1.0632739839071552,9.207038700803668,-0.3951575449266343,0.12319280100059686,-0.518497628936388
1240,2.932040437183678,1.0985940927712792,9.193798108615551,-0.3891893939720284,0.1230850500035903,-0.510580833515972
1260,2.898325825717599,1.1364808235789434,9.185766589350465,-0.38377064769539077,0.1234061213881696,-0.5011051013048854
1280,2.8693200294623336,1.1803986288398192,9.179076673739196,-0.3776909559440601,0.12385577443582554,-0.4904771704742855
1300,2.8455927900273235,1.219522467366165,9.175006272068966,-0.37220204335856266,0.1225611710047161,-0.481362898493524
1320,2.8272367160809417,1.25814976737185,9.171851422390265,-0.3666923798657644,0.12039184122263863,-0.47275156896635273
1340,2.8102899075964127,1.295187425276434,9.171649310683662,-0.3612306605154564,0.1183814930238507,-0.4647926461133598
1360,2.7940135911481763,1.3304806192385494,9.173079719987287,-0.35546641679431434,0.11666074196522634,-0.4572327984042139
1380,2.778832105286633,1.3659186263061902,9.178244178252486,-0.3489391303404445,0.11478536803104221,-0.4501134487960731
1400,2.767346958350634,1.3975211239288226,9.185276484497242,-0.34179749667590054,0.11298751941253066,-0.444345709994146
1420,2.7531820596391783,1.4385302710871746,9.189891984257399,-0.3311093803313145,0.11131375405739007,-0.43751070376395973
1440,2.7391798923885196,1.4745121031383968,9.187307501937878,-0.3217112520372227,0.11065423803530254,-0.4316751000897612
1460,2.7226927596690245,1.5099757719289724,9.181091501847856,-0.31327623950047295,0.110480870520478,-0.4255387093342317
1480,2.7066685959943433,1.5449615591912602,9.175324179047701,-0.3056071129554142,0.11035690586184069,-0.41901148782840164
1500,2.693195673978754,1.5795193476562999,9.171446847107491,-0.2983069918476764,0.11015289352527222,-0.41229435291553845
1520,2.684554749765717,1.607952930778565,9.167869052149344,-0.2918137924428114,0.11001718392664636,-0.40654360411475726
1540,2.676398264708009,1.6385246950123216,9.16129279808276,-0.2845270151965726,0.10971312137655262,-0.4007921784713462
1560,2.6630778859495727,1.6719939870231415,9.153164416913608,-0.2768163305824421,0.10837688864877325,-0.39487847039617635
1580,2.647270353840969,1.7067679847494182,9.143666727546101,-0.2697770575637579,0.10594012183777793,-0.38853491110823635
1600,2.634909184770801,1.7385502346499844,9.133197129489357,-0.2645945308781549,0.10422932389832124,-0.3823030894312951
1620,2.6248223061745684,1.7698364219056557,9.124808064312147,-0.26053565765396014,0.10385644628011746,-0.3762256754650053
1640,2.6129021693715733,1.8004943778094364,9.119706508022041,-0.25676090243718713,0.10446088225858344,-0.3704566979484463
1660,2.600659755377143,1.8310507082000418,9.114598184593559,-0.25280054309799727,0.10500400908399697,-0.36469187569291506
1680,2.590072539808863,1.8602818204578029,9.108043527921994,-0.24891613787219735,0.10471421745307527,-0.3592574655337956
1700,2.5798841316323298,1.8877958260757997,9.101312391953075,-0.2454890188990536,0.10343020852846127,-0.35435281132629287
1720,2.567035187299762,1.9154024711620607,9.095926852083393,-0.2424202325429627,0.10146625703190762,-0.349792385520546
1740,2.5555465795907275,1.9432940024439818,9.092963209540784,-0.23940851857886372,0.0994371281992107,-0.34504841723015633
1760,2.5472334690828493,1.9672017453515949,9.090527186725382,-0.2366590006661233,0.09834486469811264,-0.3411923398313691
1780,2.5353177065453125,1.9970675194354157,9.086490361109643,-0.23325571379072815,0.09758842390167054,-0.3364781313649465
1800,2.523151551890599,2.022354578557519,9.082233793790243,-0.2305703579075951,0.09681491218713195,-0.3322760248864006
1820,2.5118268685923097,2.044533363642608,9.079819624224362,-0.22840159915646818,0.09588034116933523,-0.32833424551855533
1840,2.4987029605486275,2.0753800587523035,9.076961993130835,-0.22507572893138128,0.09461963890839313,-0.3221684859640168
1860,2.4902909905738566,2.0997483778070953,9.073815512882643,-0.22217374802582382,0.09390352286144135,-0.3173091114930637
1880,2.4828422215103623,2.120872634710717,9.0703140718588,-0.21958356741418142,0.09325445379780768,-0.3132817175283644
1900,2.472206545805561,2.1471258436351266,9.06557524103441,-0.2163756356225649,0.09224858410906442,-0.30836385941599764
1920,2.464291673761734,2.167018659946914,9.061417620062905,-0.21415619432731706,0.0914772391273101,-0.3044375103828765
1940,2.4570479143811825,2.1891630040175563,9.056341346301487,-0.21208441151996577,0.09104654732987742,-0.2998711426560467
1960,2.449063248880266,2.2135729471512606,9.051231267666445,-0.21019158982686348,0.09130743103441546,-0.2946731175194145
1980,2.4427481039400134,2.2351935721926925,9.046860623099647,-0.20859685060951402,0.09196922657333338,-0.2900951500180394
