0,-0.022885743269903794,5.419929398430718,5.316145208146837,-1.197041584385766,-0.9530995951758491,-0.09928770508203241
20,0.043110353461302375,5.20902681350708,5.974305994370404,-1.4837717904764063,-1.1596147032345043,-0.014783688273061724
40,0.38349054360762236,5.061826133728028,6.961364040374756,-1.6753690075874328,-1.3065046548843384,0.06826181951910257
60,0.893487475318552,4.85455965273308,7.871413476539381,-1.799346427122752,-1.4659598849036477,0.15478324305943467
80,1.4315791713051134,5.011549391397616,9.01590536861885,-1.8048558075253556,-1.642213109062939,0.25713995864569417
100,2.1356243407258724,5.205013099981814,9.845827968753113,-1.6706144529945997,-1.7993290010763674,0.31456269508189694
120,3.0698689327967403,5.372659331873844,10.427957526424475,-1.487731079521932,-1.8781696139720447,0.2675993309372611
140,3.881516185266754,5.51064541890071,11.0471570455111,-1.3169566756472564,-1.885798694537236,0.12721846311424787
160,4.391495021695674,5.712542585424475,11.91033556010272,-1.0851592231428604,-1.7972304861287813,-0.03345165199071572
180,4.695746433662458,5.767680380079481,12.496650666366389,-0.8589647834672144,-1.7077736854553223,-0.13558561399717023
200,4.996942329474001,5.762310806910197,12.997239298290676,-0.5408031731171327,-1.6133978294001685,-0.2568817560767962
220,5.173095756709309,5.684603549996201,13.2655004822478,-0.26010647379527135,-1.54929077017064,-0.3716795832127789
240,5.216420529080766,5.5709060632957605,13.387504465175125,0.0034304989967495203,-1.4882274691788655,-0.498755747267871
260,5.1418340206677255,5.422891708842495,13.362696869331494,0.24794448028612687,-1.4282589152193905,-0.6146358773030602
280,5.06629102352289,5.243502878751911,13.203330942841827,0.47343181176340116,-1.3695408462500962,-0.7187545259147272
300,4.911522018039026,5.071564628527715,12.923083738180308,0.6794841140974313,-1.3229252498883468,-0.8284794512777948
320,4.674158484435411,4.8796095450719195,12.538882272830907,0.8657838449968646,-1.306709481322247,-0.9267794911992615
340,4.365021694442002,4.701538383960724,12.038992654787352,1.0291608766340077,-1.3233276205520108,-1.0023445869693914
360,4.056121258225365,4.552294700950771,11.456327542275577,1.1612621497804323,-1.3656808811348755,-1.0616369494116056
380,3.73627497038781,4.383536439986877,10.812759618516322,1.2507191276850387,-1.4133825898170471,-1.1071298202373272
400,3.3854729507255423,4.206372993483263,10.171380666950169,1.298542305161519,-1.4369468681952533,-1.136889418340562
420,2.9429439215025965,3.991949159905637,9.446251759815482,1.316132821717596,-1.4320916736592129,-1.1384439400901925
440,2.5342381467798694,3.7945051801074694,8.768922491985208,1.3028973578774237,-1.4268052144484087,-1.1011996397071264
460,2.164041474721848,3.606273188254533,8.080869904389749,1.2581371325641297,-1.431875864053384,-1.029076941841497
480,1.8376525442593092,3.415121034653674,7.41027330750315,1.1839052228729603,-1.4409338564708316,-0.9295158885703813
500,1.5349692074047905,3.219632847246745,6.780118942119499,1.0860403144745359,-1.4629640991653876,-0.8041707983823113
520,1.2822541315810219,3.0294155031304433,6.197774913076941,0.9677914306117418,-1.4975178192739618,-0.6521097089899661
540,1.0937326559940526,2.818737650941442,5.691874915676495,0.8208581567536793,-1.5149358558234665,-0.4753828994265146
560,1.0041960511059362,2.610357385163413,5.3805899349932975,0.6511549753018041,-1.5084053232314738,-0.2804214457525535
580,1.003394943568089,2.3841976993611858,5.308654626363834,0.48143162415267077,-1.488026732770504,-0.07657082485793917
600,1.0571292134102033,2.1137718158649776,5.488316283431423,0.33011995237580394,-1.4631624931833183,0.13559486948888735
620,1.1573123134417338,1.7862222932708813,5.852484752916691,0.200743519310915,-1.3981614523355104,0.35750763202050134
640,1.386189090110598,1.3680566684299482,6.567626385685446,0.08933658708310895,-1.2664675255264364,0.6143982178886046
660,1.765979859594971,1.0482202657537225,7.311118480223029,0.04869708191583176,-1.1355106792534175,0.8281742817877481
680,2.3054003475158487,0.8399097795006294,7.946725732974813,0.04646109272299571,-0.9983664411841564,1.0028023954618617
700,2.901976379114586,0.7397986055847755,8.511555274999509,0.06628222097100511,-0.8717156816784242,1.1290143499412408
720,3.509015098706198,0.6922165645558077,9.028050443455577,0.11572228637368728,-0.7695829149832328,1.2120665049335608
740,4.131665449149532,0.6615541958962204,9.393072575838728,0.18976001041886917,-0.6776307152414863,1.259519030500276
760,4.74292708904618,0.6438585913561792,9.604415237266995,0.26825253766389634,-0.5893634501844645,1.2710889162690249
780,5.274986375532872,0.6265785375999482,9.722293887724295,0.3437598962753574,-0.518354954243994,1.2460788810441707
800,5.691439516120029,0.601791972375099,9.769753966098987,0.41724228685727366,-0.4767071039875947,1.1886942532160376
820,5.985252663226086,0.5636890085872865,9.75716908269507,0.4865225641782779,-0.45944140245316223,1.106690745329594
840,6.181249722234916,0.5168769003886291,9.7126855207286,0.550372221406774,-0.4614892099561148,1.0099653798722843
860,6.311078548008901,0.4734334926130093,9.659773465057604,0.6080083181267981,-0.47753430110548906,0.9029787362061357
880,6.39542419444642,0.42725182238085935,9.619888334506996,0.6687571228941112,-0.509499133722729,0.7704269956338079
900,6.412207938887189,0.38985383227374903,9.603681044012149,0.7180600336725292,-0.5459852807739529,0.659224547215447
920,6.393816058948059,0.3359125089651986,9.582134081720524,0.7869514972130399,-0.6060680072251072,0.508189425234172
940,6.3246865608815614,0.28249534088483796,9.54314349314011,0.8526314546564799,-0.6649665304921701,0.3673512805492682
960,6.193804297198586,0.22470955379126636,9.449245288423837,0.9158508492884712,-0.7150541078041235,0.22979440002394863
980,6.001333737471083,0.17111085113540384,9.291286455720295,0.9673680108787929,-0.740200550125245,0.10471444645965541
1000,5.743135285242427,0.13540849909716293,9.076817041177293,1.005250111381246,-0.742093809244401,-7.216995875136905E-5
1020,5.399557527434523,0.1401626967582763,8.809849304445708,1.0291041728084787,-0.7398830515856804,-0.07491152656580943
1040,5.001783554740728,0.18371866606251883,8.471234668680143,1.0320805862582874,-0.7483713865380014,-0.10664475255044469
1060,4.637223854035488,0.23638350877311992,8.102767922802567,0.9986217741905637,-0.7515882646699076,-0.08970703318495585
1080,4.405921167023271,0.2723271905805581,7.830761552945281,0.9285730254585237,-0.7317312347985218,-0.036660200969075386
1100,4.372459920321614,0.3157407800717357,7.745932294323087,0.8438377706488187,-0.6943096822686905,0.01985697121725358
1120,4.474726114717405,0.41228552608704394,7.901470423276935,0.7775190952344841,-0.6614672893404283,0.044052293926812064
1140,4.485214411218631,0.4988061549909849,8.045079859790016,0.7681085579067548,-0.6648835885417747,0.03473596781284172
1160,4.423150312160356,0.5945811620908575,8.059075705192702,0.7804542495742456,-0.6862014295809968,0.02591645797845132
1180,4.37168452507479,0.7100691147883511,7.975622341726665,0.7843766171502432,-0.6897929443425879,0.027330866692407602
1200,4.343683234431973,0.8392992405845833,7.896496074176149,0.7714781296328238,-0.6666979807700494,0.03331093822260904
1220,4.318516193474439,0.9723445751840635,7.85664720009582,0.7555233346682368,-0.6376971243732271,0.03697200309795019
1240,4.286202269285807,1.1025402443168466,7.821354553994595,0.7452126385927127,-0.620713046969225,0.037413278552155725
1260,4.253272825532906,1.2310493406727299,7.768227673189635,0.7386064389423902,-0.6129494637001889,0.036041490670246826
1280,4.215307402822009,1.353791679274698,7.703767321649726,0.7306670858816885,-0.6045532167752844,0.03428613450581796
1300,4.178412245081612,1.470228102331552,7.636919258029831,0.7193159880892684,-0.5943318755594379,0.03296040507924677
1320,4.141258492094131,1.579957332126573,7.5868830850341,0.7063227528096194,-0.5834600192114945,0.031012443490103025
1340,4.098714667955752,1.6805635018862615,7.54625832927498,0.6944686824667522,-0.5742147104023024,0.029166665742258457
1360,4.052017604159975,1.7839854296795816,7.500421704261269,0.6827133743430626,-0.5663120283970979,0.02838675417372547
1380,4.014868137347011,1.8731334508068997,7.46211239250091,0.6726666395174671,-0.5582227669082412,0.02837968373102854
1400,3.9751286260629803,1.9594967684615403,7.42416515123585,0.6631634663150686,-0.548671774775215,0.029357484927319964
1420,3.936118223313817,2.044944175937186,7.385443565788748,0.6540919449076529,-0.5388402205686833,0.03189721170455013
1440,3.9040400454098463,2.1297073848431305,7.344686338151671,0.6447586170728625,-0.5284961631850342,0.035504643168684895
1460,3.880997145122515,2.2041269576743114,7.310853488681009,0.6361246681499628,-0.518711871715254,0.038375997310037095
1480,3.8510771420940793,2.298776936106295,7.273418145490537,0.6256515572248011,-0.5068131501279515,0.04119786631033635
1500,3.824791829437169,2.381455646304989,7.238477562125621,0.6176387415653686,-0.4982229975681578,0.04326954906639772
1520,3.8010499267539917,2.4637870696798583,7.198548654695288,0.6096068613386652,-0.49008172983836223,0.04458611469153751
1540,3.7802647699121503,2.5346720892355763,7.1659747647978955,0.6020649716021522,-0.4828825503958219,0.04537778600666022
1560,3.753370568288143,2.622362845760576,7.129028922713512,0.5925093615465508,-0.4737980929051208,0.046171780178652776
1580,3.738755807249448,2.669632439294422,7.109567423241201,0.5873936558871166,-0.4689264099319901,0.046639873557984365
1600,3.7085178694346537,2.7714106843739263,7.068342816932056,0.5767057924040856,-0.4591134132903588,0.04743439798449514
1620,3.6855420521102813,2.852078835654889,7.034756978064865,0.5685443378050801,-0.45197420789594045,0.047693338619646086
1640,3.666286782553514,2.9212182802879223,7.005493003886104,0.5631483333866432,-0.44742622943881744,0.047467264085799564
1660,3.648055805431731,2.9796583908887797,6.980886109809725,0.5551907744091306,-0.44058003868718754,0.04652613673265886
1680,3.6251846831840946,3.04476022512755,6.954725632164763,0.5483559962332227,-0.43448403274467257,0.04566402025683478
1700,3.607141483798865,3.0920982223288336,6.934981514203858,0.5434622085145251,-0.429982487242726,0.04525242536933488
1720,3.5751757588461093,3.1766499443550527,6.899122801873918,0.5349423388437241,-0.422391589552469,0.044991188541396034
1740,3.557557442743572,3.2279576115194266,6.875953141322199,0.5297813331540894,-0.4180828705273664,0.0448047066590082
1760,3.539929077042848,3.2791154510857186,6.852541435572181,0.5247387637479168,-0.41439524871463534,0.04435777028505029
1780,3.51481632238758,3.351030547546343,6.821088282135571,0.5181388950760895,-0.4099097101446504,0.04361618199690592
1800,3.497054513511533,3.3991063682460636,6.801184491569899,0.5122254978190255,-0.4056993115675116,0.042996394629178404
1820,3.4770882101322136,3.4532830801878305,6.778024819956573,0.5063799415845633,-0.4011250873443183,0.04277992965264965
1840,3.4591354627475965,3.5064650166109477,6.755081110258156,0.5003092737874861,-0.3961007905565636,0.042808505643243476
1860,3.448311881308207,3.538983660406081,6.740766908293442,0.49636467273075907,-0.39283670662214276,0.04279549910425746
1880,3.422030867284169,3.615141808992424,6.711072655559595,0.4872897246177293,-0.38508406992377786,0.042632232420146465
1900,3.403751347566975,3.6699776704764133,6.690254616624217,0.48110481313584247,-0.3796246780909327,0.04231823895496953
1920,3.3915894398945095,3.7052146709493763,6.676727445503532,0.4772779805556229,-0.37606501127108527,0.04192381186320388
1940,3.3728408267600414,3.755729481432942,6.656651637328769,0.4719400015078877,-0.3706440499804695,0.04108042300695253
1960,3.3536284797843523,3.8030998227654487,6.636757867473565,0.4669739965477478,-0.3650589755969703,0.04010504101125172
1980,3.3367922689670144,3.8428341732386326,6.619328018033829,0.46287316031161435,-0.3597646198954666,0.03900914044465929
