0,0.40296205575577915,5.170248627662659,4.25894370675087,-1.6520796716213226,-0.3355347216129303,0.02881774236448109
20,0.9718989594529073,5.269362513224284,5.8468815644582115,-2.0216509977976482,-0.45061434904734293,0.012612406661113103
40,1.7641315400445212,5.5553478598594666,8.890811850627264,-2.1173561215400696,-0.5895558968186378,-0.06186289511000117
60,2.402132123878056,5.915045333631111,11.17189569906755,-1.8557408795212254,-0.6458837697000215,-0.21057018490903306
80,2.6563688568861745,6.22448079178973,12.195790459470052,-1.5445025617756494,-0.7528861702942267,-0.34240906367578156
100,2.682523906983911,6.41483078611658,12.73019178370212,-1.3348674123612618,-0.9648326051996109,-0.41779297043351415
120,2.9652481564387148,6.7437765427998135,13.458941123315267,-1.0235736164681188,-1.3335923765386855,-0.5283441125149173
140,3.404723069845484,6.6959222133343035,14.047527082149799,-0.7410255365203529,-1.5067612116153424,-0.6991235647637111
160,3.5650710569248654,6.524674412230371,14.491993920903811,-0.5331309267346793,-1.4978648155507908,-0.8142518784693429
180,3.5778340834112448,6.258600276193501,14.822007688475244,-0.16094038126031568,-1.4267016884721355,-0.9492043644465782
200,3.5675835700475433,6.07011000493939,14.846511382735178,0.12191407419211399,-1.3791056161516169,-1.0183469584065208
220,3.4054405990988017,5.845814359815497,14.713714843047292,0.3119771563996389,-1.3522896785485117,-1.0401996842732555
240,3.232660640048839,5.45430367957978,14.366468213853382,0.5808205339445045,-1.357722532749176,-1.0162504569050812
260,3.339526354920416,5.14575268315003,13.970721757517452,0.7840475831930299,-1.3463958517640038,-1.0415733138478436
280,3.269262175772245,4.954168566635677,13.603630989539523,0.930547153898818,-1.3210111941610063,-1.1209623716896822
300,2.888043636011963,4.514409365705573,12.810904730283298,1.1742625811000695,-1.3242158761391274,-1.2534052485170273
320,2.5285853660813924,4.231548468406865,12.114391103494858,1.328699145324999,-1.3533842917801677,-1.324705937931287
340,2.2923520123390677,4.066776845552079,11.614220611177958,1.404875945919185,-1.3749530098655007,-1.3563850312330923
360,1.72786670491438,3.724753206547398,10.468039822559078,1.4989959455536324,-1.4154820155787777,-1.385152225636623
380,1.2766341776184646,3.4971278450785226,9.669669993405725,1.5129451513652228,-1.4537212826587536,-1.3580291869785683
400,0.993847112756914,3.364443279066664,9.186549546743581,1.502229387281305,-1.4864887755788014,-1.315850203265687
420,0.45417915798430697,3.1001780074340908,8.16176941982481,1.4307769720677712,-1.5650122266137199,-1.1540544639142711
440,0.15948771880639176,2.9199924931450876,7.466937242256057,1.3426729624504812,-1.6174523324094794,-0.9891405339523028
460,-0.0377894422308225,2.7386926118591703,6.8135962808101445,1.228166864508464,-1.6646010574606276,-0.7970511854923877
480,-0.1478509469658579,2.547127098822505,6.225521543459727,1.0829228886757865,-1.6958648869306734,-0.591053444855284
500,-0.20710075274996814,2.314615406965216,5.798787312493438,0.9072606783142657,-1.7069846953664507,-0.37623193519456044
520,-0.21011351868339362,2.0482142043530667,5.64818138572806,0.7223233535095201,-1.7061959412119805,-0.15196995478157604
540,-0.15367334671483368,1.7555705916334305,5.814842726062753,0.5642472382564565,-1.6963682143034133,0.08369715524985727
560,0.0728493785683779,1.4240582938682527,6.2489833099252365,0.44770986358176895,-1.665685951329292,0.36003144522930713
580,0.5506968276322256,1.1508315763141148,6.676802222912081,0.3757797389758565,-1.5848803118814105,0.5960275417983286
600,1.2225096381354736,0.9790668512037788,7.240879081441943,0.30325065650807903,-1.4194060085207758,0.7922370678400138
620,1.9080261570908503,0.8815429206779335,8.001834559898004,0.2606430362920595,-1.2314845761643816,0.9449393139382587
640,2.611737529332104,0.8341934111262306,8.758990448331007,0.28051878419503734,-1.081483891028004,1.0589387539620703
660,3.2990916680273683,0.8159265792098912,9.314588421732187,0.3516123343837998,-0.9586667104979808,1.1313163963231174
680,3.9025279568975573,0.7958066294252767,9.63181264476041,0.4429541650616322,-0.842051712522948,1.169876244169242
700,4.447296348538032,0.7780686288406349,9.771466114100619,0.535269995041082,-0.7306661287041003,1.1839966587594284
720,4.941510270178368,0.7808885416109427,9.754162016358961,0.6180730485220098,-0.6370604254249297,1.171775524083986
740,5.358197242804236,0.7946082238314206,9.660175164900599,0.6848114947563739,-0.5732871042321821,1.1291685301434333
760,5.678409094570411,0.8002178776122275,9.531592688331056,0.7388685783906286,-0.5340414424471203,1.0594934912901075
780,5.933358086025871,0.8003948639250464,9.371475276974156,0.7854287128777488,-0.5093133577151385,0.9595178103557339
800,6.096760554042791,0.8012999873608351,9.249796666148825,0.8165848870253778,-0.5040253611724734,0.857323210192732
820,6.218710758674013,0.8074597368564675,9.176827667598777,0.8463124847781728,-0.5194471226868165,0.7418204408358126
840,6.288234177254269,0.8114230166264307,9.134818230413071,0.8821439219978418,-0.5550595296669922,0.6113789371889213
860,6.294921194924645,0.8009485377182424,9.09521186707515,0.9194396674819126,-0.5976968410123192,0.488196028034452
880,6.235681047375742,0.7737694836886133,9.021464945394392,0.9640434882875382,-0.6482446536026669,0.3447261213763686
900,6.0992265431841295,0.7307707086726222,8.873232269028742,1.0039460701664993,-0.690328609636454,0.1914360076990179
920,5.92452226344398,0.695627150037571,8.708669548315045,1.0235205456788352,-0.7040944715055,0.06964336594468669
940,5.690702462016806,0.6694203331951321,8.54011533097316,1.032399811174888,-0.7015511888180158,-0.034869492438036144
960,5.3900461344452895,0.6620051998438107,8.367672420879991,1.0369511319848683,-0.7017886215665688,-0.11580865167909199
980,5.0124619128136425,0.6839085276524471,8.17051462702958,1.038184419216915,-0.7219573998487195,-0.1600813969674677
1000,4.606849348954675,0.7182094190649472,7.941338667367445,1.0243100238925391,-0.7572326869907273,-0.15372055749074348
1020,4.275686010013201,0.738755210444686,7.754577460806884,0.9868980770999249,-0.7842906626894892,-0.09299201321388995
1040,4.209908585869522,0.7629784453217383,7.657251813257382,0.9253269172751042,-0.7842154244073865,0.006556361618436578
1060,4.419970298446544,0.853357580199906,7.687617510345171,0.8708739884930248,-0.7517116518516025,0.05329262900995005
1080,4.626079999065299,0.9998803314784269,7.882580106238196,0.8254003518064156,-0.6977660551813714,0.04479303626197108
1100,4.6058924020562015,1.1029832015023722,8.020106547774756,0.8286077657872661,-0.6865412457013466,0.01735137128343119
1120,4.55330639134147,1.2183220696084023,7.993526086948081,0.8482605182747442,-0.7001054268512156,8.146098113887481E-4
1140,4.519596109516235,1.3439736950165555,7.876729331093966,0.8518135153088666,-0.6975140873052831,-0.00997817746675345
1160,4.454003459889153,1.4606757818074971,7.790597182455955,0.8383739477228368,-0.6737133125468027,-0.016472823824147758
1180,4.369587405820944,1.5694341467136574,7.739868897070494,0.8240456176289842,-0.6515499297126206,-0.016327582422605496
1200,4.299604352038452,1.674847434964371,7.686055223604392,0.8133121938172526,-0.6400411110220224,-0.011062765565774504
1220,4.255146776469138,1.7788064241215973,7.623409634870114,0.8029800266319186,-0.6333384412394729,-0.003822800032273976
1240,4.230041418688408,1.896066609952672,7.548932820727921,0.7864790908391383,-0.6219234769250832,0.0023117749276114446
1260,4.204489339139442,1.9956616751748968,7.504780147118138,0.7683063282481998,-0.6072694215937932,0.00540383138539248
1280,4.175420775028661,2.0897866804152727,7.476959883990988,0.7511592376607045,-0.5937537413812862,0.008917250716527604
1300,4.159180338334027,2.1787861415328047,7.456184987321911,0.7365736588959435,-0.583552553775382,0.012277521988314189
1320,4.149610140539596,2.265127379454095,7.439964992143265,0.7241600240355532,-0.5746244146639818,0.013578078121881644
1340,4.1341522610018195,2.347393580722538,7.424674081851051,0.7136627992354228,-0.5658804663084447,0.013138313586400314
1360,4.111278691903211,2.4273867371515454,7.405967269795045,0.7047895598518942,-0.5574244674642347,0.012482069661393494
1380,4.087113705924432,2.5052582420895777,7.3836001044500446,0.6966884936850954,-0.5485167794535101,0.012311135780711267
1400,4.061089596146465,2.5813721924539954,7.359619948138055,0.6891445124544465,-0.5386538631331422,0.012579238189884075
1420,4.03457930108974,2.6557599092510453,7.331467849738124,0.681868327446464,-0.5280764481225579,0.013059612246761514
1440,4.005183221611305,2.727850237886532,7.303360692570696,0.6747696019118647,-0.5171476225605456,0.013685846112479094
1460,3.9740264478379417,2.7981799401803857,7.274936218370285,0.6684700403166184,-0.5064301542987593,0.015248362147825517
1480,3.9430703707192785,2.8759766673175173,7.242010654732385,0.6620969280419404,-0.49453540491262415,0.018407880067763945
1500,3.9218894418510724,2.944226846020154,7.208892268712852,0.6562731873253038,-0.48413465685718426,0.021607443652441348
1520,3.9050468429175607,3.012500291023505,7.173964157576088,0.6493866976215912,-0.4736171512480341,0.023916055418455293
1540,3.8868929326103294,3.0788641636645075,7.142047234500571,0.6414111958834267,-0.46382046377554936,0.025267153551799086
1560,3.870655329466589,3.1435026245159627,7.114299001869949,0.6330510820030305,-0.45513012376796097,0.025789223948030123
1580,3.8515839616190846,3.206838747397226,7.089472816426126,0.6249701542949568,-0.44745405162274376,0.025719650465436568
1600,3.8330771856493393,3.268123128344767,7.065498058709409,0.6172224241779417,-0.4404964924996136,0.025615183434641087
1620,3.8148038968820335,3.327578147201831,7.043857503301347,0.6097926167363591,-0.43343128338119025,0.025303558734432425
1640,3.7967343279611647,3.385490532198313,7.022865031093245,0.602875745750871,-0.4264670722131047,0.02502873490929559
1660,3.778624952001297,3.4424333231295945,7.000134462499936,0.5962293321272,-0.4197979669946634,0.024642721610623843
1680,3.7591558889915633,3.497582783643292,6.976340088473763,0.5895663695820398,-0.413824568349418,0.024373465358297267
1700,3.741210208766216,3.5509525994977933,6.953338168889432,0.5826613482930815,-0.40866999620397526,0.02419777482433124
1720,3.721340009336762,3.6096245845811525,6.930424770209026,0.5750577067961703,-0.40345363729333755,0.023836462222044993
1740,3.705324117960199,3.660192120898766,6.909789743755742,0.5683167419765289,-0.399048106894574,0.023523628732629035
1760,3.6894279594921198,3.709615975902933,6.890424918503332,0.5613682689241007,-0.3944201580713626,0.02305573812660037
1780,3.6732462244082735,3.7581345350072195,6.872956262221803,0.5545242214823672,-0.3898207586447185,0.022579839882942345
1800,3.656225264302718,3.8057838260024055,6.856950976314851,0.5480048131574854,-0.38546318842734606,0.022293761165992295
1820,3.640091842768954,3.8527174338407977,6.840839212976574,0.541771651477741,-0.38129883998959896,0.022340286686773642
1840,3.6259068582637948,3.898961387688611,6.823882298936332,0.5355761997329961,-0.3768569100573857,0.02246727537149514
1860,3.6111381285162154,3.9432769269878536,6.807427333565858,0.5292441615999116,-0.37209220030835194,0.022471047516017664
1880,3.596019074851938,3.9860954194203564,6.7928744381021415,0.5229393176528371,-0.36724296948765794,0.022527449480245803
1900,3.5806839852329806,4.02745390702135,6.779828370880929,0.5170136270725445,-0.3624758768812321,0.0225504285787333
1920,3.566013166859119,4.06816996568909,6.766889697469104,0.5116355182348788,-0.3582469881013302,0.022689791714323553
1940,3.5509352435112413,4.11357458207808,6.7520677433375615,0.5059264263474061,-0.3539626576807373,0.02264070645982369
1960,3.5375606154118397,4.152952087315244,6.738885582494172,0.5009587168159864,-0.350314171537443,0.02243575111168731
1980,3.5235742055621038,4.191760995880009,6.7262098521362,0.4962117155094036,-0.34676417868068654,0.022307271450960592
