0,-2.816543072462082,6.703061103820801,4.352648735046387,-0.06836427026428282,-0.5774163212627172,-0.09568503755144775
20,-2.792892277240753,6.612798899412155,3.950435161590576,-0.3685691059799865,-0.8578804982826114,-0.017587838563486002
40,-2.608775148789088,6.403384367624919,4.008763899405797,-0.6879709214748194,-0.9878316738953193,0.056847513430208586
60,-2.399210922420025,6.204522907733917,4.301904313266277,-0.9382193051860668,-1.0708168908022344,0.12281068374431925
80,-2.0400894102526874,5.984044202944127,4.7402111786167795,-1.1338301199692777,-1.107398420935724,0.15609573087336995
100,-1.7092619738636576,5.839693293279531,5.066444080703112,-1.2302797692542782,-1.110374694880174,0.14876189767573106
120,-1.5072656916617824,5.704222486730208,5.156099097770557,-1.2927503021466626,-1.1488373015533413,0.12176089594140649
140,-1.3891850819667944,5.556003423837515,5.116977856709407,-1.3517744358055868,-1.2404205695940898,0.1113378371971731
160,-1.2163418904202032,5.508282713694115,5.023701298726748,-1.410951393949863,-1.2963531203057668,0.13330394914373755
180,-0.8813376571339222,5.629774570465088,4.6890936063395605,-1.5579426627330206,-1.2231901856714193,0.1945871908252162
200,-0.48901457174189306,5.6545606463143,4.517706679829051,-1.8584244988147127,-1.071286116779018,0.27417791548467585
220,-0.20984816284293367,5.500347788800898,4.908382854818069,-2.157745957393775,-0.9045733382598948,0.35257782385271697
240,0.06370752217868964,5.268792302267892,5.711711235557284,-2.311159359858859,-0.8133521312936431,0.44789467416260215
260,0.6353584287144178,5.010508258785822,6.689289790602912,-2.2761177742540575,-0.8305203521838495,0.4967911200375354
280,1.2543370804233738,4.91281867372103,7.532495062459599,-2.1063010017272115,-0.9329945743237892,0.37966555373527666
300,1.5371198674245168,4.864266319330349,7.956645083288814,-1.9236028258681528,-1.0531477519390426,0.24658328495096676
320,1.803710099728103,4.870758375827817,8.315143686489783,-1.82178955634489,-1.112896987291026,0.12174179387089891
340,2.086865897188346,4.874914830269879,8.913410034285834,-1.7837866145785746,-1.1135544517804703,0.019145533375518574
360,2.3292965534227816,4.821781054332659,9.811586730859496,-1.7257462847469882,-1.0938240318837298,-0.09146463200026615
380,2.457704089432495,4.720923730988561,10.786089182819849,-1.6005170361058396,-1.0801882786262367,-0.20392035800147296
400,2.553710807191537,4.566879790320116,11.609984468887834,-1.4117724076022997,-1.075963232633384,-0.31113400552695725
420,2.5926625635998137,4.369067472965572,12.185254400533237,-1.1936276529214522,-1.0669442507427898,-0.4129296349220271
440,2.604699729701444,4.155294681373503,12.550971608809245,-0.9738075599494961,-1.0388848859796762,-0.5038352585172341
460,2.601583893871722,3.9187582838253032,12.74078840892954,-0.7638336967811296,-0.9819367821088311,-0.586765789083618
480,2.553138345876469,3.660408102294043,12.789120285375283,-0.5663305669377493,-0.9169298249324507,-0.6646094424488705
500,2.4563093170789734,3.3810606226546778,12.70989018238726,-0.3793022650427052,-0.8594958225619935,-0.7368772400742662
520,2.319939055804744,3.0935963246877383,12.50653983761958,-0.20575404120181953,-0.8110806234949909,-0.8038287640339908
540,2.0971087256306986,2.7861780424023843,12.155252171639304,-0.034302760399713916,-0.749400226136727,-0.8648755042731664
560,1.8612665706096176,2.5537228104480088,11.751688692354142,0.09310151914808344,-0.6851870958871664,-0.8962939066237751
580,1.6362025043218102,2.3723408711859535,11.286870051252007,0.1937664334466796,-0.6193824909366821,-0.9063987059024289
600,1.4282618406863208,2.233083868603337,10.789668404664177,0.2679123692585534,-0.5568325382794636,-0.9000756357447708
620,1.2405924209857424,2.126157877948782,10.289753361961097,0.3188624671340334,-0.5011841179335554,-0.8808335435583928
640,1.0798668041755533,2.0451494290873633,9.799657872051336,0.3514646509878533,-0.45518621576998786,-0.8518185924846776
660,0.9393005650355057,1.986028666987338,9.312620149471543,0.3670277323980223,-0.4191296573999253,-0.8167947645739398
680,0.8066984606386811,1.9412353524819754,8.83922193954985,0.3648473719602234,-0.39352082256425186,-0.7766104225882134
700,0.6872142518188843,1.907505572613495,8.389630313130588,0.3463338663884762,-0.380465043062197,-0.7316380961561301
720,0.5764627960700555,1.8829740520635228,7.976528775682019,0.3125417179873456,-0.3750125244509018,-0.680808500014557
740,0.48031454925889494,1.8663522090052986,7.609024177108215,0.26583124014643,-0.3743724178413615,-0.6234032293396368
760,0.3971412398475163,1.856443385867685,7.25291525747014,0.19990877591993048,-0.38042837221033965,-0.5500397287129389
780,0.3715458948475619,1.8598214523596575,7.00687386808388,0.13171476375794522,-0.3932340813823688,-0.4797301503159911
800,0.40324339038883167,1.8765700247211674,6.838819850550358,0.058602748433105555,-0.411931350557919,-0.4084645047522969
820,0.5003125501193982,1.9148182002526215,6.737387459681314,-0.017543314906823284,-0.4306510903379496,-0.34010136592996254
840,0.6539160576863108,1.969366837124308,6.697610460735601,-0.09908551087431695,-0.44244304188024036,-0.28071582566641656
860,0.8070811260071858,2.022050988131111,6.725134167452933,-0.17487645525432807,-0.44697395067819407,-0.2388950429423909
880,0.9961044423353786,2.0894309245894283,6.867356908436005,-0.2695119443840787,-0.44961386354087474,-0.19817212724336677
900,1.1492488667999785,2.1524273275312598,7.064464502677482,-0.3402529695992588,-0.45025468369325,-0.17114629693484554
920,1.287568841654023,2.2169625347798787,7.274267071407092,-0.3951131109197281,-0.44753816904206023,-0.15161634331544568
940,1.4113764137788147,2.2884289201027377,7.466214440762997,-0.4379890669262056,-0.44368171530593303,-0.13845144051784822
960,1.5066795519777114,2.349235352649813,7.62391743742967,-0.467728538212331,-0.4410638311241247,-0.1317201520528503
980,1.6094176109907872,2.4183710804324376,7.809429836966614,-0.49542324855868325,-0.4398007772789143,-0.1280747618137785
1000,1.681454912130947,2.4735786084072138,7.9509478034180345,-0.5100262712515456,-0.4397153887644555,-0.12781040377867436
1020,1.7437510571442545,2.5263579552749262,8.061961117457775,-0.5174772248958193,-0.4396104261279106,-0.1289511057254415
1040,1.8028174439732367,2.5777965697403302,8.147834401473263,-0.5215359794489483,-0.43716480993778906,-0.1325430784425611
1060,1.841275703619072,2.622716792374251,8.219284396857843,-0.5233983311913224,-0.4324438582866564,-0.13834022060880402
1080,1.8683521159704817,2.6637354606678816,8.289211378405604,-0.5225194192208936,-0.42636303029368433,-0.14489114418615368
1100,1.889882430710327,2.689103676387381,8.337328269616165,-0.5194530924081605,-0.42082245819336545,-0.15000352388880406
1120,1.9149818395965463,2.7129286232539767,8.38485982380565,-0.5129694866456915,-0.4136729392419022,-0.1572616999567872
1140,1.9303858164403365,2.7254146456929385,8.41197422853647,-0.5069061007358643,-0.4083488487089292,-0.16352908307055616
1160,1.9375759069025202,2.73609861277803,8.438484368391899,-0.49959831237558183,-0.40261784949566887,-0.1700773262316087
1180,1.94450408713028,2.7461393948394766,8.468374608411002,-0.49092886807761854,-0.3948343982497595,-0.17465780193187758
1200,1.955118160109219,2.7530580729748637,8.492637591901222,-0.4833274473706317,-0.3852581827718062,-0.17708527546283426
1220,1.9671763784982665,2.7575806769265414,8.516976634601871,-0.4757061914853127,-0.3748948887946036,-0.17871441723483275
1240,1.97922257415599,2.7617399657130504,8.542588014909468,-0.46715668908801583,-0.3656013670719589,-0.17973564793666813
1260,1.9931937026209423,2.7665858593583827,8.566823079634451,-0.4569926236475128,-0.35835819376715433,-0.18059752452208858
1280,2.0060474932753256,2.772576728901213,8.589614968052835,-0.4435419018668948,-0.3518627862205779,-0.18158592252696407
1300,2.013803365200842,2.780703017971224,8.601152373777794,-0.43205464528663884,-0.3477519117607325,-0.18162908456917315
1320,2.0224324873650303,2.7885554548294427,8.605186006002638,-0.4191272016313416,-0.34379261414975265,-0.1809075622386411
1340,2.0383056648760927,2.798102754253032,8.608455270745932,-0.40661532153037866,-0.33939084882916165,-0.1803496852665563
1360,2.0563432487849425,2.8093709140017924,8.606472999979092,-0.39341692385550814,-0.3323262814416227,-0.18104485483918553
1380,2.063458035716536,2.8171376046734524,8.602885038453215,-0.38560814251347136,-0.3270706862921807,-0.18172734949518166
1400,2.0698486898471495,2.829458647141035,8.596260473730261,-0.3752863831228104,-0.31941504473486243,-0.1816752944901475
1420,2.0768859957965176,2.839656478337456,8.590634498815733,-0.36749318369749207,-0.3129703903282751,-0.18082862774514483
1440,2.085026960160141,2.85202592083616,8.58667716025296,-0.359863051173072,-0.30628666769118384,-0.1796723515059704
1460,2.0914488868463947,2.863594418162648,8.587471057888257,-0.35354874306202655,-0.30100247346112713,-0.1788587353163458
1480,2.096776448961704,2.8756360560916856,8.589465216982482,-0.34681490246320246,-0.2965231467736609,-0.17792772964102588
1500,2.0997534944775973,2.887703264746451,8.590139687401075,-0.3402010178692481,-0.291839577906574,-0.17674599378104305
1520,2.0996582604962675,2.89936765039136,8.591297376721235,-0.3339602136363087,-0.2865948544279628,-0.17488048380312668
1540,2.1000102343155986,2.911766035383242,8.59200368471562,-0.3279430054786009,-0.2814664213132173,-0.1720283689938249
1560,2.1053123486353824,2.9249684120948807,8.593199061889633,-0.32239227112000196,-0.27671455045944804,-0.1689864735171596
1580,2.11086500919029,2.9383628399532298,8.595462238225775,-0.3171472158866874,-0.2728479900255558,-0.16643299767747521
1600,2.116695643300105,2.9514991553337953,8.599614627636536,-0.3125663550027217,-0.26998965657438667,-0.16455070620971757
1620,2.120760939010838,2.964137085053642,8.604010354491159,-0.30614835032391335,-0.2661627936958297,-0.1622755436745143
1640,2.124632636921953,2.9767913570836075,8.6053627428279,-0.3003120874687195,-0.2625305190606502,-0.15982609338008924
1660,2.130355830485644,2.989620354478481,8.604238739539388,-0.2952176747482358,-0.25860373467379905,-0.15737317094426867
1680,2.1357919218496533,3.0028064961480005,8.603284094971402,-0.2910239489120499,-0.2546419787089499,-0.15525852785847602
1700,2.1401723111356548,3.0177660991618636,8.603110398620153,-0.28680134178775785,-0.2503586858866603,-0.15305461764349032
1720,2.143246172255655,3.0300711922223016,8.604334593963827,-0.28295254808086184,-0.24677142852016337,-0.15100616077888507
1740,2.1474433180898345,3.0421802217753817,8.604537524041914,-0.2788772289497115,-0.24341846893857072,-0.14886521212507758
1760,2.1526729564087903,3.053360240164787,8.604349538373018,-0.27479407258697053,-0.24049274202798124,-0.14698155151721562
1780,2.1575503038649835,3.0645874066206598,8.602327420385208,-0.2707809979689181,-0.23794058104165347,-0.1454133558640464
1800,2.1616306688585856,3.0759579371242802,8.59914366675883,-0.2676630555239712,-0.23605204725592868,-0.144193222953707
1820,2.1649720303859676,3.086783831225881,8.596540999244072,-0.26440195988081544,-0.23364990092533702,-0.14269082868737476
1840,2.166999110285728,3.0987955234917575,8.59485599981185,-0.2619364176483012,-0.2306210470169293,-0.14100341027029145
1860,2.168447621330913,3.1088520914132363,8.594464933362447,-0.260121680616009,-0.22730245150639683,-0.1391863842473341
1880,2.1713877901662877,3.118970457911928,8.595843972133784,-0.25855320791751535,-0.22438810839194379,-0.13755613957189333
1900,2.1757734836602447,3.1287258803357187,8.598543320849691,-0.25610889070523307,-0.22134001953661037,-0.1357258135280644
1920,2.1787744071025745,3.1377109515549595,8.600390257998084,-0.25346823309519095,-0.2192598836483127,-0.13451081271579118
1940,2.1800998817409645,3.1467534037074074,8.602768398407433,-0.25103456338949376,-0.21758993082605227,-0.13335859383734275
1960,2.1816473303060047,3.1560640714887995,8.603919427506625,-0.2477215118134336,-0.21504798559702068,-0.13165303683839738
1980,2.1840355919355914,3.1655193902010392,8.604632686971144,-0.2450241382880134,-0.21259621616639263,-0.13000159339499798
