0,-2.3477180004119873,6.3973968625068665,5.758824706077576,-0.7187082096934319,-0.9319496527314186,-0.2758478969335556
20,-2.2995182275772095,6.019732177257538,6.110144138336182,-0.9396840333938599,-1.0934038273990154,-0.21815716614946723
40,-2.135559171438217,5.71232142051061,6.840874592463176,-1.0889542251825333,-1.1773821786046028,-0.15141168896419308
60,-1.9208057466894388,5.681585356593132,7.677983850240707,-1.0960781816393137,-1.1435045469552279,-0.08400042221182957
80,-1.6548986919224262,5.610872387886047,8.0402006149292,-1.0454115331172944,-1.0614059373736382,-0.07082443190738559
100,-1.6563057632495959,5.540329078833262,8.076405336459478,-1.0195233821868896,-1.0179919650157292,-0.06366052800634255
120,-1.6829717398754187,5.5499875630651205,8.005566929067884,-1.024895680802209,-1.0778148110423769,-0.0256629254602428
140,-1.5244115700658698,5.443732254321759,8.157363143334022,-1.0205017575850854,-1.2201395474947416,0.013038511144427153
160,-1.2770703973452726,5.272947415913621,8.348382244371388,-0.9549087412553291,-1.2709764585103074,0.027207987893321742
180,-1.0953518775073283,5.066974510381251,8.359357704350979,-0.8470758902782827,-1.17677883118575,0.038210316043761045
200,-1.071838559990937,4.938207575444425,8.049338046084628,-0.7604839560167675,-1.0603581635553516,0.06482352904473128
220,-1.0654380615781416,4.952357412613544,7.66635906327631,-0.7406422472318884,-0.972398822051809,0.1075395474920875
240,-0.9602432028257422,4.89560261453901,7.426248763856433,-0.7763111422015797,-0.9072323536855125,0.16806492239591622
260,-0.8534535871225253,4.845336673534022,7.4540428988701475,-0.8411688700038116,-0.8219133794423094,0.2660812392863816
280,-0.6710607448962232,4.853992233591631,7.663706519386985,-0.9018566894983827,-0.7339265700814522,0.38901523520692816
300,-0.30205095785330666,4.927855014801025,7.98987831441007,-0.9495341187169732,-0.6793266309194209,0.490586652326607
320,0.2600432020836394,5.077633927338315,8.496498226249305,-0.9671811744992207,-0.647074518449958,0.4915094234603355
340,0.6769151477913918,5.218648680325212,9.124050291653337,-0.9484178258106113,-0.6596841343871221,0.4395483539391566
360,1.0250527582076543,5.285949214611178,9.831759103762558,-0.8972496939823031,-0.6573912338049339,0.36135213246136855
380,1.2464303179230127,5.317327970339928,10.665613792560718,-0.7857771571208205,-0.6662968666045525,0.24143252000758816
400,1.3422676272197243,5.235724241593305,11.343249730502858,-0.6397157476393177,-0.689297296399908,0.13016119882984853
420,1.3586219860544282,5.083738639113609,11.860460168859932,-0.45166798289132754,-0.7113793221370348,0.023625317949205218
440,1.3159602824348196,4.892625939301265,12.092054977211902,-0.24448227531386799,-0.7302502839430486,-0.07181610821080343
460,1.2397189565799822,4.690991623269529,12.072824866501326,-0.05051010817807821,-0.7435042419033989,-0.15465827913325972
480,1.1390334015094334,4.48233852505979,11.870120442739807,0.11866611860563407,-0.7459390609234682,-0.2266354492720272
500,0.9970238681306087,4.2620286746394065,11.51520879410562,0.2600263354191113,-0.7426718218229889,-0.2867421300383285
520,0.8061987693387366,4.043628099656433,11.031790036195462,0.3721934433795785,-0.7426349392412829,-0.33315778295659043
540,0.5788529337202487,3.835994851074915,10.440166127958657,0.4473934202471468,-0.7380544398437394,-0.36281130533043165
560,0.3370836612720711,3.6502350923469944,9.801720212221655,0.48087288527232075,-0.7262597244738355,-0.3721934442107892
580,0.1164355628954416,3.48115113925589,9.174479000393516,0.4771369726951272,-0.7125354434059518,-0.36290520632520223
600,-0.08177554929628968,3.3249291151165963,8.57825141197443,0.4424151267297566,-0.7025401640143245,-0.3372779721589759
620,-0.26148250975563375,3.177488266328587,7.98206410956889,0.3750561746628416,-0.7008060364387066,-0.28924570758791074
640,-0.3676220561492811,3.067993238679925,7.522245382604081,0.2964738454941786,-0.7064250426537843,-0.23395722272652394
660,-0.42672282295132224,2.960618759339506,7.129355108575387,0.20189235290681773,-0.7194974305599251,-0.1727203741373325
680,-0.44753015052211265,2.8371165597502,6.8284379497117795,0.09352298711785263,-0.7419300538672022,-0.10932575008015777
700,-0.44779459640857383,2.6888910108517945,6.632665328195005,-0.022200067898841044,-0.7742907480861595,-0.041467526470730244
720,-0.42353398802948733,2.5113262706078014,6.549537647179138,-0.13883115581383174,-0.8195894183295103,0.03734007253728956
740,-0.35504020404992837,2.325688886186199,6.563820465816737,-0.25135986934983284,-0.8713807388093529,0.13175303312033682
760,-0.20256543631650625,2.149092933724797,6.664647762027998,-0.35997871487800565,-0.9164849285258069,0.24273996358101685
780,0.05685020361280201,1.9967567860249764,6.888202537001102,-0.4606742737641783,-0.9486313043522646,0.3638700095975581
800,0.3391245902575394,1.9041643626874702,7.137311401745831,-0.5252890424338653,-0.9582888417124272,0.4504493826902599
820,0.8649129479063076,1.8037677063087447,7.667206761100299,-0.600384505852991,-0.9466043048878928,0.5616151548525082
840,1.2674071209999043,1.7552249933504405,8.138608041732043,-0.6242504092899583,-0.9379408049627989,0.6231986748488078
860,1.714253861307573,1.7309650201507858,8.597735955387774,-0.6180969798802989,-0.9308875753990257,0.6629038566034812
880,2.252818645200702,1.7307964676663607,9.088125736872247,-0.5830494127908573,-0.9089579378692229,0.6728118209003286
900,2.6902380020142362,1.7289015777629388,9.453921553628739,-0.5272498315207095,-0.8759738703105618,0.6508083443366421
920,3.0455006679495504,1.697054187179004,9.714987503580357,-0.4532106680449368,-0.8351009939392833,0.6060782539725647
940,3.3268612836818834,1.6344218900158387,9.866894517708378,-0.3680289177384261,-0.7941166496938863,0.5447949276026098
960,3.548850584970411,1.5512651025289388,9.927791872146456,-0.2790687257430464,-0.752976482521244,0.47163352525658964
980,3.738690860650161,1.4582646141787714,9.905890162370287,-0.19069168164762484,-0.7099692405023991,0.38928781823418795
1000,3.8952552860001446,1.3566449181203848,9.8021585076541,-0.10724381727671693,-0.6624448582545845,0.3004892792985594
1020,4.002459876174994,1.260396187725876,9.625566832934107,-0.03182568083090397,-0.6138407644361169,0.2071081542293541
1040,4.05308389706128,1.1694354844653858,9.405370837756406,0.033159431579542376,-0.5709637639833023,0.11292698733219181
1060,4.0441279863883155,1.0861194298577008,9.156583063782902,0.08660973388506228,-0.5379917722381224,0.022601484749872034
1080,3.9980105955115945,1.0174464133089862,8.88971415578245,0.12530274097288557,-0.5159069046258574,-0.058901599355079735
1100,3.934466197301708,0.9655426261386117,8.618298025917163,0.14710551129877608,-0.5012581701775749,-0.13393377673253828
1120,3.8257191657046272,0.9168457251260311,8.339676596983912,0.15285084684709704,-0.49311601495725826,-0.21191711328497434
1140,3.687748083942083,0.8813416905192806,8.111854930040932,0.14406912184895268,-0.49505594208228915,-0.273911670794083
1160,3.5129465192177602,0.853545832129457,7.907456100236945,0.12167545872329455,-0.5052463381738642,-0.3252476820750533
1180,3.321502121704986,0.8295952941415851,7.743844170914483,0.08659492854398589,-0.5205696460579704,-0.36483052485699274
1200,3.1114705750288,0.8020060863459207,7.63563353648413,0.04203268130376943,-0.5390246756607194,-0.39150265453744143
1220,2.8847174982404606,0.7714927105563962,7.595993626528157,-0.005371730123784118,-0.558429746874636,-0.4021392405956069
1240,2.6598410564282644,0.7380424737417979,7.611979414443605,-0.05203735909981869,-0.5787264612843676,-0.3950581999631939
1260,2.463368038149691,0.7069847795398946,7.685571708491278,-0.09596584393931967,-0.5976244207224818,-0.3726809411557352
1280,2.3028820996110637,0.6737441130550135,7.81142271237714,-0.13425290118703354,-0.6088507661995078,-0.33977298730407796
1300,2.179431930944449,0.640562154960733,7.978174403868965,-0.16315431565401892,-0.6119275043376041,-0.29765193317632416
1320,2.1051602912309293,0.6156794181551488,8.16042072024341,-0.1779609776432101,-0.6099649867767644,-0.2483598321573826
1340,2.105966902542859,0.6134298462420702,8.326028869937767,-0.18193404701263222,-0.6043723662934182,-0.19028848685535857
1360,2.1524905832116517,0.6367570319324999,8.432511575479909,-0.18113742676112948,-0.5946212150281901,-0.14929380231282777
1380,2.221505770118561,0.6863066514179242,8.542166077906051,-0.17630148055917888,-0.5789793494981672,-0.10931415467737325
1400,2.2983745412517465,0.7511333288725655,8.627709249889456,-0.16629934493581525,-0.5622655949490324,-0.07665096605188468
1420,2.3875629868137547,0.8327878301073492,8.687695074864884,-0.15060378058675095,-0.5430405045118618,-0.048989322736196834
1440,2.4467301132973343,0.894651652716973,8.710901951066303,-0.13862733487780268,-0.5314722731638205,-0.03568281886701592
1460,2.5051304734916267,0.966682789037409,8.71401063028885,-0.11802643373663876,-0.515745001934612,-0.02028215245030708
1480,2.5395982075688543,1.0234835778513658,8.69986537671817,-0.10319806458931816,-0.5048491463930386,-0.011662064355693561
1500,2.566821347526199,1.0738035406650375,8.673302287897187,-0.09267897294362518,-0.4957350513800602,-0.0057130736450028115
1520,2.582536956830769,1.1134103009846188,8.647960834961006,-0.0850700203507703,-0.4865776240758057,-0.0013528445514009123
1540,2.5940229683685754,1.1585394239792275,8.62460639072316,-0.07766081407529464,-0.47474005689977533,0.0024120985319660533
1560,2.5957508217061647,1.194364004485239,8.608639079692034,-0.0728140010972519,-0.4675972511791872,0.0039078150229925595
1580,2.5908514297273206,1.2262018528873615,8.595228694287062,-0.06865037212435923,-0.461760933161533,0.005056470855652432
1600,2.584963408860722,1.2529657052439076,8.58565394046387,-0.06576432112535208,-0.45624698667660796,0.005947917931931375
1620,2.574117912180733,1.2857818449720786,8.575729610809207,-0.0632648372970271,-0.44908656237250916,0.007177164978938588
1640,2.563070785541548,1.318181682911031,8.570433225899091,-0.061466640857847796,-0.4426254519796132,0.008435352219285335
1660,2.5545957773349697,1.3438285583229104,8.56981830129669,-0.0602632302371579,-0.4375445953974498,0.009384738554378592
1680,2.5420152833061684,1.3775999519317865,8.570060083200664,-0.05902459666256968,-0.4308463322587401,0.010500194966790348
1700,2.52915452976423,1.408409385302727,8.572368018168339,-0.05791433012404432,-0.425538743269402,0.011724961611690173
1720,2.516719349336732,1.4392568964357482,8.575056095147879,-0.05662400801126232,-0.42059516049355167,0.01314460394333036
1740,2.506039416995135,1.4703096261329205,8.577040294156463,-0.05577078360222853,-0.41689269824071074,0.014254796491772966
1760,2.4966863973289004,1.5008645353784398,8.57923682916894,-0.054728808757422885,-0.4100957331654029,0.01581355299695715
1780,2.485210089526681,1.5308392271860676,8.581226890750404,-0.05409858916118162,-0.4043606780250038,0.016807985153533468
1800,2.476944367990376,1.548903694340725,8.582428550561431,-0.05362447137327972,-0.4009069599186724,0.017530250961986456
1820,2.4598882526477666,1.5882751602493979,8.583237863746177,-0.052612189471585025,-0.3937592919335248,0.019235130036901558
1840,2.448861345077075,1.617100674143128,8.584697555864699,-0.05186011574244109,-0.38925956511053417,0.020346443671993564
1860,2.440152178893215,1.6422219928452317,8.587924296847277,-0.0509272378899764,-0.3855317074577889,0.021158712867851367
1880,2.428115881332275,1.675074234561123,8.59206582368819,-0.04937665810917214,-0.38070143126858935,0.021886336614439724
1900,2.4166644420198375,1.7042774302872918,8.59437191634409,-0.048000191435548324,-0.37639199501549403,0.022460279073866624
1920,2.406211697206253,1.7330490551070616,8.596618650002954,-0.04683007612942788,-0.37205021531041,0.022843588903334613
1940,2.3962368357081236,1.7608208587880607,8.600433775300322,-0.04563582043340677,-0.3679080379185798,0.023060231033639626
1960,2.3866295824247006,1.787520956872812,8.604520214159736,-0.04416016615138684,-0.3639554675266051,0.023157875629104627
1980,2.377687656380642,1.8136412318301984,8.6082555648895,-0.042285419215651314,-0.36003704182558394,0.023048979566632186
