0,-0.19758912082761526,6.228248596191406,5.049300134181976,-0.744674026966095,-0.827420562505722,0.09280018974095583
20,-0.2757266345433891,5.961353570222855,5.3090101182460785,-1.0080939829349518,-0.9993276298046112,0.15708223963156343
40,-0.17623352662970623,5.86151119073232,5.836862464745839,-1.197100763519605,-1.179312949379285,0.23807562422007322
60,0.16750168683938682,5.814359232783318,6.406902089715004,-1.3031223267316818,-1.3463375493884087,0.2817348206881434
80,0.5028942516073585,5.736790513992309,6.976512563228607,-1.336268699169159,-1.492358648777008,0.2808326752856374
100,0.8204653012205143,5.5671009336199075,7.459117568269068,-1.3262622818654897,-1.6120815860981843,0.2624843116013371
120,0.9942325304395386,5.554221596036639,7.821663643632617,-1.2908408758895737,-1.6308582361255373,0.25145800983799355
140,1.1164159526815638,5.533505737781525,8.184717617928982,-1.2546028597280383,-1.5623864633962512,0.2538132428890094
160,1.200954709457208,5.567108298001224,8.779748243828342,-1.2193643099641147,-1.4557560437346158,0.31218811491989107
180,1.4197144194701572,5.701299873399146,9.396489891005151,-1.1718500521447923,-1.3815200100710363,0.40999418193543397
200,1.847125255241153,5.849714354182897,9.961182642518803,-1.1127753053488356,-1.3158600283472726,0.5076563538292821
220,2.464351750756662,5.962290267354434,10.521839726831494,-1.0493273464674802,-1.244738604297343,0.5644666121638927
240,3.1272113421843164,5.954315330868676,11.112115528469994,-0.963914367077606,-1.1754152014141992,0.553624708560251
260,3.63710225228451,5.849612902751011,11.639562231249514,-0.820542339680601,-1.087244345254339,0.49269975177877773
280,4.007699184858602,5.649673168324242,11.934798441642572,-0.6166651494770257,-0.9849415995057457,0.4196217754347758
300,4.327911885845107,5.444696531739345,11.945763769075851,-0.39152134754225726,-0.8959964538902737,0.33102407378628274
320,4.592895938260277,5.276665297737957,11.72370847298281,-0.19105437633166783,-0.8331925355876885,0.21602192496622566
340,4.728031225961773,5.04735623728739,11.35690418988058,-0.006757715755231576,-0.7731221818607555,0.0751631210672937
360,4.7164157433072464,4.8238028213260815,10.919936458785813,0.1290278257076423,-0.7242637171905923,-0.03537914972123388
380,4.668041107601222,4.634156012873131,10.393734673038125,0.23393408387301512,-0.693375617282948,-0.13279751644550283
400,4.572712368605768,4.450467747175956,9.842488120693494,0.30827248450368644,-0.6750384094248362,-0.22957234244574518
420,4.405719348135289,4.263081126072015,9.284253211608261,0.35465640703404555,-0.6617637224903519,-0.32026359340531774
440,4.165608719712304,4.07661957362847,8.723369680525314,0.3760342530966286,-0.6526635111489844,-0.398162166297596
460,3.851673047183101,3.9031289285528907,8.169708229927826,0.37188918769333185,-0.6510458633294041,-0.4562324531491577
480,3.4929345736261643,3.7475180466668587,7.651494873724509,0.3429965408556947,-0.657413990647154,-0.49095551332108456
500,3.0979464913407964,3.60409397279755,7.183849956964453,0.2919639447598629,-0.674545613796051,-0.4992979008704424
520,2.713744014433218,3.472954249011626,6.788243670067793,0.22236250101539537,-0.7052773782821081,-0.4754072392291022
540,2.3882690738655823,3.3523492504640657,6.4809336984876245,0.13890270077658454,-0.7411536008770685,-0.4214998370333187
560,2.1404822755955224,3.232508870042685,6.236559453953663,0.044972556968056396,-0.7829759471301531,-0.3431399528367015
580,2.0001580968252886,3.1024510315138354,6.069256835686397,-0.061279410482403505,-0.8316183566916272,-0.2498881331729618
600,1.9292503431572976,2.9416184559765,6.015707239167267,-0.193007668949185,-0.878200743195278,-0.13801684584542812
620,1.9256882626189342,2.804715944671622,6.094196791771411,-0.31341521833298736,-0.9116440734225523,-0.03193087537114915
640,1.968499831499511,2.680053879393523,6.285859073104149,-0.42595501188389356,-0.933930813048858,0.07870786845656147
660,2.05537264321652,2.578588273099209,6.530763985425995,-0.51330270063613,-0.9440053156577051,0.1801567323383515
680,2.269022990037875,2.479827024801157,6.941900911224288,-0.6032164436464721,-0.945913132750709,0.31180002852984745
700,2.5622018944420866,2.4183854779238168,7.399359638300241,-0.6552142673456094,-0.9395055702353006,0.4188804890627611
720,2.9501275294662817,2.377677769068454,7.8953464062741165,-0.6722187087400022,-0.9301702766009547,0.5014622787505787
740,3.3967853706961053,2.354101464008239,8.365257459628952,-0.658113948977704,-0.9164480151584318,0.5472478301534338
760,3.8310353971722106,2.341150699249868,8.807756906050065,-0.6154291589119811,-0.8966169010256491,0.5576727319272264
780,4.2013019124109405,2.3217231336960875,9.153980052104398,-0.5475246940430213,-0.866704883653636,0.5447456539138552
800,4.521977964490427,2.2842698726603294,9.379577023711539,-0.4654255234773532,-0.8281203604435543,0.5171467670411142
820,4.835396708816509,2.2256987886188333,9.508812593679655,-0.36744668597786906,-0.7787262429811938,0.4690688371220056
840,5.045126110750119,2.175864982997102,9.53696125931501,-0.2930805996628693,-0.7402789916263448,0.41917596800354784
860,5.2401815155914555,2.1210361329405765,9.518469162358784,-0.21107146882773442,-0.6990500239156922,0.35087889042538656
880,5.382875895373954,2.066743594372373,9.452185783802067,-0.1311818808737306,-0.6624936885649425,0.27610308239775255
900,5.500307832129119,2.0156059156904984,9.325954662791561,-0.05627382902216387,-0.6280336174913093,0.19824091792909926
920,5.601116762631683,1.9715814251455142,9.144248131819875,0.008047351342414587,-0.5924017043012664,0.11463495448113746
940,5.644869908541633,1.91783666149017,8.90561505832431,0.06453705778658707,-0.5541054328913158,0.01453483623174048
960,5.6220303674585965,1.8623394451275788,8.681649797069229,0.10101275484582099,-0.5244032819379083,-0.07273678199359865
980,5.554773765925023,1.8064079882109094,8.465096092635378,0.12624554697448379,-0.5004114196359152,-0.15560416866204527
1000,5.439112827765023,1.7584559677939555,8.264840692164178,0.1437797610757045,-0.48516623655478786,-0.23270142631768023
1020,5.290330344301072,1.72360439062052,8.085363867195944,0.15546298686863988,-0.4828271856309757,-0.29998435268089885
1040,5.127071118387002,1.7082477526959015,7.9234244072043865,0.16117157473660806,-0.4914422691538582,-0.3571819309667449
1060,4.9735142747603955,1.7084803724008473,7.798178400792953,0.15964576888792004,-0.5043159229017194,-0.3988184175614653
1080,4.7657222529025836,1.7214635135616418,7.676706785545894,0.14832345459128832,-0.5244518128173375,-0.43931498052971857
1100,4.584517957498443,1.7513369119002904,7.610683542429016,0.1310899806473161,-0.5428423717065789,-0.4606906980342042
1120,4.427110475694517,1.7945205266314113,7.586266321713186,0.10923266154030621,-0.5551083045525719,-0.4704004773951095
1140,4.315774083013868,1.836180009243998,7.590950603395445,0.08829174207436714,-0.5573530903951578,-0.473190821627478
1160,4.182331894807502,1.899180275613571,7.631305771545981,0.05761439497636307,-0.5494079158711687,-0.4741714452735033
1180,4.079962848023195,1.9524496346644904,7.690822838254503,0.036774562828521214,-0.5390437485026099,-0.4733941657334259
1200,3.9825872926430637,2.007303360049588,7.756156906870933,0.02276173459850516,-0.5286399678735187,-0.4711608977697442
1220,3.898895561579615,2.0562249434227122,7.804018181793392,0.01591623546858318,-0.5202031079614535,-0.4680306368768215
1240,3.7986752262086494,2.122768480112055,7.846103127665217,0.012037536798343282,-0.5102052599317916,-0.4620819744052025
1260,3.716912954991658,2.1847721154034154,7.866263619236777,0.01011036154052974,-0.5012293180794865,-0.45590860372124603
1280,3.6400740013839235,2.2474453647017834,7.8778764806404,0.007970023119068217,-0.49234735556390313,-0.4492050812797
1300,3.5659595507653132,2.3082327469423287,7.8882959671737884,0.005781012916837873,-0.4844135479926434,-0.4419692967280983
1320,3.502481137495488,2.3596354336865866,7.896982909125034,0.004410039474195973,-0.47834969607949324,-0.434876570221968
1340,3.4382429751635524,2.419415616879858,7.9067333745192325,0.0038695815235994975,-0.47269869712053925,-0.42543637331653333
1360,3.3775065561499,2.485630492782605,7.913794138266486,0.0038790955405541873,-0.46633621501231387,-0.41476077545531215
1380,3.3304125577916053,2.5405138980176925,7.917705992464207,0.003702735950484196,-0.46062658133141826,-0.4060242531367833
1400,3.2830169649664085,2.598683926514561,7.921569153815767,0.003498766632386147,-0.45517119309575627,-0.398345038937616
1420,3.240654967473644,2.646912326742623,7.924239315931074,0.003621596955569042,-0.44894763455474973,-0.39101518175878347
1440,3.199640678344058,2.6923958263352072,7.9246084811260635,0.003812794503114597,-0.44290231927416396,-0.38525211613830496
1460,3.1535079245682165,2.7423094971717514,7.925292177736311,0.0036809002957910292,-0.4368210185210557,-0.37996745718577657
1480,3.105988712269404,2.7900397866271227,7.92789438926913,0.003186853115879869,-0.43258343312813263,-0.37453931137510627
1500,3.0627308153658834,2.8341858808492715,7.9350081934542045,0.002990213313573404,-0.4300133985194608,-0.3685360777818261
1520,3.0274976441668926,2.8719679332389263,7.945028318869079,0.003546637904126536,-0.42790534994366236,-0.36291662870190927
1540,2.9952404836532533,2.91194026479616,7.955588872930915,0.005450155807868911,-0.4246668923797607,-0.3563787584320386
1560,2.964974140647135,2.9485774783357637,7.9599210583375335,0.008193024546498276,-0.4193968080056194,-0.35049091213056743
1580,2.928567714517397,2.990126402588019,7.958887508404283,0.011326893244070959,-0.4126326174076269,-0.34434038352425966
1600,2.896003533714018,3.0269312846000145,7.955240807396328,0.013946938043414325,-0.4067981031352002,-0.3392015903617116
1620,2.857233128190844,3.0685042150235744,7.948643889356838,0.0167777376952402,-0.40091823899242635,-0.33360623985425
1640,2.826652208920707,3.1017470347521297,7.941123691240131,0.01867815369801811,-0.39666162247321246,-0.3291180571645443
1660,2.7967815160960443,3.1355441417964656,7.931088048205374,0.019885477842204204,-0.39224362961292414,-0.3243253771098746
1680,2.755022104048703,3.1832878824053643,7.915369053936551,0.019656871794341703,-0.38489652879172165,-0.31742604585700657
1700,2.7229443358351215,3.2204088775541555,7.905573839415535,0.01802597867652419,-0.3784954375471826,-0.31197136050063395
1720,2.6915796105561123,3.2572607731408203,7.898573736372705,0.016098893590281754,-0.37317387502560223,-0.30718801231282705
1740,2.6621030533631265,3.292468188532907,7.894008280350479,0.013470423126679357,-0.36698764627298364,-0.30132910597914864
1760,2.6334623180936,3.3251466633543445,7.890540403512116,0.011101256994268584,-0.3616632390143972,-0.2966082203681212
1780,2.607833285526098,3.352453477635143,7.889072601455097,0.009122698478451699,-0.3569689492562583,-0.2927231869625682
1800,2.5742224900343387,3.3857529097021284,7.888334409877354,0.006822731751801294,-0.35119546685022535,-0.28769360211215356
1820,2.541537527861174,3.4157615542888733,7.8893910281069735,0.005020121848941418,-0.3461565813123216,-0.28262963377487577
1840,2.513053965185115,3.440923439235392,7.891449547189466,0.003977596794945509,-0.3427680754942408,-0.2787496083187864
1860,2.48808144355421,3.4622422818134986,7.893896347287262,0.0033161529688865844,-0.3393528831681036,-0.27427972002293577
1880,2.4572433594488152,3.4894843606119443,7.897293445338922,0.0030340941731310522,-0.3358031173413802,-0.26895556340059557
1900,2.431926385507338,3.5131944315177965,7.900175950571549,0.003063344216439573,-0.33217831394259734,-0.26399132189972174
1920,2.4078439794265787,3.5367077815741994,7.9031432070246685,0.003149065064295725,-0.32763219754457745,-0.2589850427163527
1940,2.384378119232486,3.5597884500113484,7.905968871376844,0.0034590193665115457,-0.32242941215257115,-0.2540059238031384
1960,2.3606720516755013,3.583224805757054,7.907812944049947,0.003998464337746555,-0.31720285073368815,-0.24896393451082985
1980,2.337248670804605,3.6069143959050214,7.909341872914113,0.004781018574870512,-0.3121635037896565,-0.2437778833699136
