0,-0.136250006655852,5.787165747748481,5.8449123700459795,-0.9839886890517341,-1.4361378749211628,0.2241384204890993
20,0.1341211002539186,5.956836504094741,6.9685209218193505,-1.1608400099417742,-1.7275886255152084,0.26412760597818036
40,0.5852470025420189,6.22350643157959,8.589019412994384,-1.1847721171379089,-1.9448323631286621,0.3218373650312424
60,1.3211799252665404,6.500809062610973,10.06866251338612,-1.0412332054340478,-2.0555514133337773,0.3277434485428261
80,1.9553874998194416,6.882059725319467,10.973629451379544,-0.8393884174889181,-2.0768929138416197,0.28156309448205297
100,2.4556282884916483,7.18359256277279,11.798942050155329,-0.664265617652207,-2.0391113028234367,0.21377563636692964
120,2.770869640274006,7.299473620297616,12.588937483335796,-0.47432816100486536,-1.9760431197651647,0.12798427784276245
140,2.956817553937435,7.275037956237793,13.247516800807073,-0.2762342606026393,-1.9050554000414335,0.04874125289587447
160,3.223372781900941,7.080616635245246,13.615492414783787,-0.057963568364848964,-1.767690989214021,-0.03361719982333582
180,3.278840303693603,6.7385337847035105,13.631750752286214,0.12234402525170547,-1.558713245319157,-0.11114924686972233
200,3.144980122231775,6.35313553015391,13.377488586637709,0.2826462568922175,-1.3291556884845097,-0.1664585568398858
220,3.0023526284007396,5.985227384129349,12.930368832179479,0.42152690845636687,-1.1301255235258414,-0.2055798499460085
240,2.7454607191513167,5.654709140084824,12.325019557521028,0.5402132403808382,-0.96856937177901,-0.22454059443585925
260,2.503972023464086,5.356986636655373,11.584730960559426,0.6343831813714483,-0.8408730424809874,-0.21169491838091953
280,2.3466873574452323,5.1077916280168,10.757132512715753,0.7003025839135784,-0.712307619511104,-0.19359660469621542
300,2.203196989150288,4.910140291544107,9.87930858694017,0.7278143471536728,-0.5861801745799872,-0.1985926679442995
320,1.9700424952257047,4.697535973528157,9.012753908265976,0.7094022570366877,-0.48903411432452826,-0.22591652308482732
340,1.6527275978204832,4.468450467472207,8.261603809459364,0.6582555012643491,-0.4369546423015529,-0.23423783111462548
360,1.3746635159417115,4.2785781598710395,7.627484337148535,0.5920581582588954,-0.42867358991658533,-0.21033154151329844
380,1.1845061892666426,4.12810286056776,6.986698368644239,0.5002238711233656,-0.4490682977748795,-0.1570607015514529
400,1.10647106478372,4.0383952702695165,6.500377398550684,0.3945102361466583,-0.47785459323758966,-0.10056478494495066
420,1.0925972590992987,3.962432873981625,6.125242631591066,0.26610939638356174,-0.5107510081133363,-0.04073949544508447
440,1.15190198932361,3.8836972381979384,5.895488104997153,0.12264131775305154,-0.5495286183481548,0.018846190756156962
460,1.275685717151142,3.785150439922626,5.830300682897751,-0.022859756373919737,-0.5914887487506255,0.07062287778378679
480,1.4193735859159546,3.6832216467176164,5.893659581948677,-0.16138996359355418,-0.6333295985909518,0.11574993951227791
500,1.6154010179562945,3.6116328533226847,6.076073989731158,-0.28759547509473715,-0.6770993401583337,0.15958557328015072
520,1.8867614766855014,3.5832774552036093,6.362156388660272,-0.39787516276220275,-0.7161901371051732,0.1951500848679884
540,2.2012551710017783,3.6052536512786597,6.727536285205822,-0.49170720176196897,-0.7475371942055383,0.21747307831191742
560,2.549646189575024,3.6528635603316286,7.200815050367345,-0.5656943470180194,-0.7632007259954797,0.222367503610935
580,2.9290697601066564,3.721065438184582,7.837691928244761,-0.6106843271037014,-0.7602707274319207,0.20526416632766667
600,3.232364123498666,3.7795500670160567,8.402489188851582,-0.6105099349922042,-0.7442020876480947,0.17092168836166993
620,3.4734509236143474,3.824791082052084,8.881092060271364,-0.5816517375606614,-0.7203584383707493,0.12339580456833714
640,3.6392680839878686,3.849323807367638,9.264481085199696,-0.5324519302942721,-0.6904953515066752,0.06776845262823765
660,3.7319786070974246,3.8417590070461882,9.537054963490885,-0.4689712830721333,-0.6552173087501602,0.008051830649281434
680,3.7612265446715214,3.8025574894018574,9.70566527249003,-0.3974710051937711,-0.6193648749195092,-0.05113805445324315
700,3.742620088227017,3.7441702791272777,9.79936227056976,-0.32157803027514265,-0.585737802021282,-0.10575854832351157
720,3.697143913671995,3.6738164134820304,9.814055989359815,-0.2433197891386226,-0.554103022251899,-0.15338066034484654
740,3.63732720946881,3.605764263636106,9.755295996324389,-0.16792329910435025,-0.5251353683355325,-0.1947900948293096
760,3.565418742847617,3.542643310525749,9.630078360792014,-0.1001637981352809,-0.4973360896434729,-0.2299479805684613
780,3.4902088943506695,3.489388370587502,9.459388767288607,-0.04357882448109902,-0.46901087944372843,-0.25954261360500286
800,3.4102194065435687,3.442718083959028,9.255805863740752,0.001601428900149662,-0.4414523305253586,-0.28464194677113724
820,3.3188209761509344,3.4051050726105183,9.03574692777851,0.034673397710053795,-0.418392714186955,-0.3051951525226126
840,3.2251967600969618,3.3787257705611746,8.817663953521814,0.056239493304981326,-0.4023165483022344,-0.319535221801482
860,3.1363858562093645,3.361665700928549,8.608797161473651,0.06852666567618634,-0.3914902805941954,-0.32771445955594564
880,3.0589006573990356,3.358639989580427,8.398162666135109,0.07095560495572799,-0.38305385697922145,-0.3284592339295669
900,3.001165628509586,3.3728958477256117,8.208620761350918,0.06173970885399569,-0.37615294029037416,-0.3237812211273879
920,2.968374732995749,3.403360715037898,8.058005742807138,0.04387252086307854,-0.37176843047889535,-0.31637490500181326
940,2.960855371631999,3.452464009683157,7.9486380743304474,0.02028738936414155,-0.36924910608297407,-0.3103200497541375
960,2.972854411432924,3.511165308831918,7.879372673955831,-0.007715516256855217,-0.3681416328052162,-0.3078078509612959
980,3.006346919871637,3.5796199957529704,7.8686152459662635,-0.040144659499465316,-0.3673119879942847,-0.3128679769452845
1000,3.019584951539144,3.6260306586339635,7.8954321888175985,-0.06233987177256495,-0.3670796071438037,-0.3226826915204371
1020,3.014857545385531,3.6704955876864616,7.9632923746052375,-0.08491955157214523,-0.3681171701523097,-0.3387808964854314
1040,2.993752162656573,3.693495193931544,8.02775887142275,-0.09757320799921404,-0.3676575478128262,-0.3519763524038064
1060,2.9431831814632146,3.711436418428574,8.10976666675825,-0.10853903320696827,-0.3639283161615693,-0.3681275005227496
1080,2.8749761897285753,3.721661372131176,8.170192370387944,-0.11549866347981805,-0.3572489110784333,-0.37988488910186075
1100,2.791387455855552,3.7327676287813167,8.228843353310431,-0.12052874982040417,-0.3484291543343226,-0.38700592460236194
1120,2.6976008193085605,3.748744863968391,8.294901667348235,-0.12050115636114467,-0.3389365930781494,-0.38840479247253873
1140,2.635966782862229,3.766696911122499,8.329781260953022,-0.11600649292999779,-0.33291769745066635,-0.3859564117240364
1160,2.573618956417757,3.7962564329721937,8.343426681587387,-0.10866606204037917,-0.32608969262450405,-0.3799293080152881
1180,2.532752977626651,3.82726108635404,8.339207032212505,-0.10410983984381604,-0.3197067221732036,-0.3741664944073845
1200,2.499671792581254,3.8553063405212957,8.335897410979861,-0.10153929166529804,-0.3141242296597401,-0.3692293769106624
1220,2.4613883976167834,3.889578678218492,8.334529968015701,-0.09859410084192892,-0.3080798427299215,-0.36356756431673337
1240,2.4340349757167346,3.9178294710084502,8.33263490538971,-0.09440165876191767,-0.3026386765219892,-0.35724010967612996
1260,2.41510451161824,3.945910435845953,8.327765303804147,-0.08974978990554378,-0.30003524641461427,-0.35205723787837706
1280,2.403229180847369,3.9750222819839593,8.320653361625999,-0.08510069538902902,-0.2985307050823719,-0.3479970361454901
1300,2.393307624342825,4.000990387646387,8.312659308454108,-0.08177453739128265,-0.2972088097817462,-0.34544696787714707
1320,2.3807779023881706,4.029330563413017,8.305352577770924,-0.07934429817841614,-0.29496471036454514,-0.3436646088157297
1340,2.360413780209016,4.057650972279635,8.304138360565359,-0.07692708539437841,-0.29196322617925363,-0.34220588571899996
1360,2.341024391109451,4.080765791264059,8.304520270409977,-0.0738595711663165,-0.2897586562344471,-0.3404221594705844
1380,2.3223946863232516,4.104141187752093,8.302902584046441,-0.07086295330962908,-0.28816403701151433,-0.3381169668761436
1400,2.3025260612206613,4.131213099852852,8.300917297135229,-0.06620458715392843,-0.28646852446031634,-0.3342645704381816
1420,2.28338625173102,4.154303283675048,8.296573962089742,-0.06226095070065627,-0.28553661141156395,-0.3313625894293611
1440,2.262503322103579,4.176298262100736,8.290682641080188,-0.05886208149801479,-0.28469391577552483,-0.32843733301808564
1460,2.242669998800292,4.198005607410743,8.28816736530581,-0.055850104502680555,-0.28345758279510314,-0.32482727805388867
1480,2.224629969530949,4.219744453320197,8.290480810983176,-0.05279379553825915,-0.2820020008658073,-0.3202822159203245
1500,2.2091271694083283,4.2390718169328645,8.290927092331211,-0.04951387622991834,-0.2800594501685715,-0.3151876603521982
1520,2.1950200949421217,4.254825539527599,8.289532607103851,-0.04652209056262825,-0.2773491453946122,-0.310606647158937
1540,2.1753914016143976,4.273834728401172,8.287215817843677,-0.04316724363121126,-0.2727523849669714,-0.3038624755395414
1560,2.159265747369618,4.291661545704228,8.285962100413297,-0.04020438557607304,-0.2680995420721128,-0.29698095731444496
1580,2.147066622002301,4.310109910493288,8.283066208708968,-0.03763817426973475,-0.2645732254866113,-0.29066245376252087
1600,2.1364268837695395,4.330564245581627,8.279393031920602,-0.033326672808204706,-0.2596484311212496,-0.2830782185224163
1620,2.1264884452985915,4.34611533705825,8.273831943670908,-0.029959741140523334,-0.25664479797425066,-0.27868970818038
1640,2.1136761093927947,4.366192075823035,8.262771409980598,-0.026058925344190947,-0.2532623900428842,-0.27374624339523607
1660,2.1035679683215442,4.382991751093576,8.249011987877875,-0.023427467621089302,-0.2501369679783195,-0.2685576415691382
1680,2.0936132128902183,4.402785164126489,8.23222981937761,-0.022486979635283243,-0.24633772048121114,-0.26356741074192047
1700,2.082879067064081,4.424905451207326,8.21948371476483,-0.022681894174231023,-0.2418733331391216,-0.25845393542389
1720,2.0735146532161095,4.441885862377595,8.212808503958781,-0.02280832453237404,-0.23885695187916123,-0.2547444293866991
1740,2.063624373381714,4.461958635373122,8.205408008541236,-0.02260773616178818,-0.2365137262110377,-0.2505829824850555
1760,2.0555797320387748,4.482054402997331,8.198435349076448,-0.02242494583753571,-0.23471823708469666,-0.24666600395285462
1780,2.048417138181719,4.5013521039010405,8.193474180022822,-0.02247256540870768,-0.23292416606455185,-0.24329533173953743
1800,2.038750702836652,4.521517220074716,8.188637213943446,-0.02251522074268154,-0.23065827719809653,-0.23973528775747147
1820,2.029764674731449,4.540536092271741,8.187038677090767,-0.022607315265822665,-0.22818355432317858,-0.23657414560132378
1840,2.023266786991422,4.555753553056147,8.189965250086816,-0.02142580893928999,-0.2248010641527591,-0.23338135268327695
1860,2.012612735549093,4.570959493145836,8.191964814368434,-0.01918259697232601,-0.22364704483864847,-0.23099174233748235
1880,2.0039952578154043,4.583506251064439,8.19315634861899,-0.016565804713991383,-0.22387059347890195,-0.22836317933251848
1900,1.993319905216604,4.598798806212612,8.192979461830301,-0.013185374395406959,-0.22460101806656482,-0.22486483455712417
1920,1.9835619827594646,4.614686566043873,8.1921921549555,-0.00983249042073279,-0.22472819475601402,-0.22076937674345182
1940,1.977084178789924,4.6328619560708315,8.190166798170097,-0.006108446645522243,-0.22364308007345107,-0.21608536887073052
1960,1.9740672766320528,4.648622482159313,8.184102026338731,-0.002982518120468844,-0.22253897128212202,-0.21285008876520523
1980,1.9703551215477684,4.664678200213665,8.178142398558972,-1.2561545203058844E-5,-0.22163775444133793,-0.21015151375755023
