0,-1.262707577811347,5.0029299524095325,7.367080317603217,-0.9023775789472792,-0.7740168041653104,0.14548639373646843
20,-1.3283906053094303,5.31891601225909,8.256055355072021,-1.1022504568099976,-1.0898398792042452,0.2756575253956458
40,-0.7845126412808895,5.493791904449463,9.631619319915771,-1.1859652090072632,-1.439470944404602,0.3678780898451805
60,-0.039989581500942055,5.92549636147239,11.248245976187967,-1.0969174847458347,-1.6927320559819539,0.38276596570556815
80,0.6935042158314367,6.048242441037806,12.601249776235441,-0.8877410319883648,-1.8366238344006423,0.3101433557344646
100,1.2281074123267008,5.938524547888308,13.585284515303009,-0.6703311020926553,-1.8506029844284058,0.21337343889231586
120,1.4872231515483898,5.643380600109435,14.243770022141305,-0.47656147717906716,-1.7633920468782123,0.15402718737982868
140,1.838286435118679,5.396741317980217,14.8610242135597,-0.29139999266375194,-1.6170175743825508,0.12620671202118197
160,2.120045487190018,5.2066432495374935,15.0794319913194,-0.10591485925220154,-1.436573686682292,0.12217772763373481
180,2.395662202386231,4.866475464367285,14.874999598758977,0.11695924846500885,-1.1990565825253725,0.1115040173867672
200,2.661505486609207,4.551974334981707,14.355055766635472,0.3573213015165594,-0.9957397514333327,0.092122556320909
220,2.9092645590782773,4.2631838437245815,13.658796942963892,0.5955074241726982,-0.8582765527297648,0.04049080599821648
240,2.9242511813019245,4.065794385126177,12.65379247997167,0.7760437002300091,-0.8018856292660788,-0.0801520359807841
260,2.8040217519002524,3.9096174610027097,11.679922478502256,0.8723716731264926,-0.7834235144321594,-0.17175684695279128
280,2.7235692067407684,3.7786539014978486,10.787757347108888,0.9098933676837898,-0.7547872179630594,-0.23992687765295145
300,2.6684571772527237,3.621472356755,9.952043486787723,0.9016450258974845,-0.706223182382886,-0.2955030552111566
320,2.597121104139133,3.4387622623555902,9.177402823947478,0.8597975331729791,-0.6587083502765407,-0.344998424542069
340,2.476204232784779,3.2471873180028563,8.476827485308256,0.7928254035371675,-0.6294282238000736,-0.38448389840937436
360,2.312718045184171,3.0623281040295427,7.829225855407777,0.7036065690056118,-0.6255918694818816,-0.4077755434063638
380,2.142146697599281,2.8801360155478624,7.192508427826174,0.5729722858326612,-0.6431686267566702,-0.412237288276065
400,2.0265507610699935,2.733263646347764,6.725159095219004,0.4299536405365413,-0.6643101322057532,-0.40201593928409424
420,1.9397785794145985,2.577696756654882,6.344580936864768,0.2656422259530583,-0.6912389397653673,-0.3807820292741227
440,1.8873779281904115,2.4097739895183174,6.047565446499197,0.08173118033919503,-0.7251975590563603,-0.3452349982079975
460,1.903770396557565,2.242070004613831,5.858611041001785,-0.12316667983690516,-0.7587270703101053,-0.2956805991438719
480,2.0190959328216653,2.089082429894324,5.822646663840769,-0.3410496748043362,-0.7873285277752352,-0.2455452602411726
500,2.222861985940822,1.94167988309725,5.951078935963283,-0.5609115007271663,-0.8118451926973097,-0.21013440025784957
520,2.464715787728389,1.7783075530596553,6.275782573304764,-0.7713719144714444,-0.8284004216351372,-0.1975263386335411
540,2.684838097448161,1.60640403434905,6.804314072567986,-0.9481471573117514,-0.830015407262333,-0.20093182929779202
560,2.8894535916163884,1.4576395306518262,7.461199562727137,-1.075348534575723,-0.8197571967535237,-0.21685916520655155
580,3.08578074412658,1.3387272767895073,8.177247523402972,-1.1489665371810427,-0.8073644059209092,-0.2480740351487457
600,3.28078567452239,1.2045899214338052,8.909501658136627,-1.1721681471286987,-0.799010437088128,-0.29907124978582933
620,3.4326641936336992,1.0238662758234414,9.633647455787106,-1.1468036408198128,-0.7884991006754001,-0.36677351748592374
640,3.5205805496722737,0.7801061599852461,10.358683352261338,-1.0571144975899065,-0.7625318675309788,-0.4502104276638311
660,3.5371142417847086,0.5574061177633838,10.803395576343156,-0.935217414737976,-0.7279312519674641,-0.5197539014701286
680,3.532569620748457,0.360054104918496,11.053218023143184,-0.7978847350935045,-0.6817934936798722,-0.5797999228849272
700,3.5085807237933606,0.19138012175952174,11.175514320090208,-0.6587177585309677,-0.6246874426090484,-0.6313133366750425
720,3.4630706480549027,0.053369029190701744,11.210488167703152,-0.5184722094594811,-0.5694304013023308,-0.6741902316051225
740,3.409232679842185,-0.051663987216080065,11.158513127306065,-0.3803622139022117,-0.519119045154763,-0.709094935852744
760,3.3541719343283365,-0.12642064895569288,11.036470281266713,-0.24876306223523909,-0.46998812312656674,-0.738453321105836
780,3.291000905909495,-0.17395677332289194,10.839696249568169,-0.12904156476437448,-0.4194103287849834,-0.7656451578160035
800,3.1990753290305163,-0.19756747061717717,10.583043515686429,-0.027874555650548673,-0.3689983091951791,-0.7906297334380089
820,3.072549547531697,-0.19820195570012883,10.29271663883564,0.05021380073363509,-0.32056854540543794,-0.8093190277707489
840,2.924064322120521,-0.18027339586533134,9.991870513939213,0.10351373641831993,-0.2742230953644003,-0.8184509154398465
860,2.7831140038124484,-0.15656681213868964,9.737832754770373,0.13145161843137212,-0.23373951977151644,-0.817696732403317
880,2.590680886441228,-0.1200207434377152,9.420493913552171,0.1457422117070694,-0.1846893311668172,-0.8047846298982072
900,2.415074696155986,-0.08519058412076125,9.155393922524977,0.14033739115186636,-0.1499617951987837,-0.7827741834141003
920,2.242601836681072,-0.05700146102861158,8.923143569109227,0.12275121312612962,-0.1283358867050418,-0.7509116985645194
940,2.0555363672984175,-0.031929484234552996,8.69988112515892,0.09407010473966944,-0.11982364022109543,-0.702882198291857
960,1.9188098886515945,-0.017309453920461237,8.548272638252438,0.06708036820907522,-0.12206151560707384,-0.6563497420848403
980,1.7558332387426938,-0.01148426106751517,8.384023481625833,0.02615562006486235,-0.1332115817806442,-0.5833333663326217
1000,1.623834903545894,-0.025776900485221108,8.286762144118908,-0.015139067228703104,-0.149559189548849,-0.5010934626829041
1020,1.5317714930823927,-0.05750322102009365,8.232814579370327,-0.058667429918622394,-0.16841931154784434,-0.400795226457093
1040,1.515092763114104,-0.09897739057144744,8.226412330838768,-0.10344658484074584,-0.18527362200769104,-0.28670306753482244
1060,1.631852373730144,-0.12662912125100362,8.282926044505713,-0.1472017405761376,-0.19998485530546528,-0.17039051539055763
1080,1.9111610766981593,-0.09911075054322568,8.415248633050517,-0.18405974963889196,-0.20339002014383717,-0.07804637761901688
1100,2.1693950006099567,-0.031029275436143894,8.561675917868197,-0.20771121116153138,-0.19509481201365597,-0.030613754732241705
1120,2.439804416788879,0.0751839237483178,8.770826288196561,-0.22461110812579624,-0.18875736988364272,0.0028447232433913266
1140,2.5857479578114426,0.1444722905780858,8.897875838776006,-0.22490418172066115,-0.1890445409110809,0.01393570419279799
1160,2.7193012668124443,0.21419108150706506,8.993283669731778,-0.21933087275365457,-0.18444318479181812,0.019600950637871335
1180,2.8174171389474236,0.26985205288342745,9.043939818626212,-0.215047205720397,-0.1740618762543352,0.020825514673305415
1200,2.8917631814086637,0.32019570782905077,9.074608194758655,-0.21098030493726674,-0.156060039818236,0.01928993977883431
1220,2.9258661471102387,0.3473784438306466,9.085957252576947,-0.20845185465720714,-0.1475022353550885,0.01721648654108867
1240,2.961674681882976,0.3833584233849494,9.094670646156098,-0.20276494380179289,-0.13986157888133988,0.01333151930213077
1260,2.986492378897893,0.4171911575786525,9.091110780044067,-0.1944541361893219,-0.13659633323617645,0.008382614110021143
1280,2.9968584061325307,0.44248558554709666,9.076659101829643,-0.1879239554382262,-0.1352128877852201,0.003780863396379919
1300,3.001520224342869,0.47167983672874614,9.05472156713797,-0.18162640184496506,-0.13303847717544612,-0.0019479969377744566
1320,2.9994616007648847,0.49485436697126234,9.038870389239925,-0.17779855647647788,-0.12979496493658507,-0.006020281424769973
1340,2.9967148678092275,0.5133936223811478,9.029926392183603,-0.17489506500691068,-0.12684439948345627,-0.008531631778447273
1360,2.992100595635125,0.5345228911455935,9.02040795021854,-0.17110022881443196,-0.12256368733539853,-0.010619707327539696
1380,2.9908886626181803,0.5522932259591342,9.01058433930202,-0.16839842089625032,-0.11792787702047833,-0.011762758238527384
1400,2.9895853361371216,0.5692803171189106,9.002403143040498,-0.16656437751121952,-0.11226787024049027,-0.012963956386217595
1420,2.9822143539738413,0.5876137589657197,8.994588673689865,-0.16546183052613747,-0.10591347873924575,-0.013676231609190946
1440,2.9733297389753908,0.6035409004903397,8.990332309831116,-0.16542363562631024,-0.10028691101193274,-0.012745027663974114
1460,2.9667084094052854,0.619336862921447,8.990859653701053,-0.16564089169441162,-0.09602457666674233,-0.01072596456975455
1480,2.9642557197453288,0.6383952548544509,8.99530643368564,-0.16528749988437783,-0.09248369831848112,-0.007868615583449036
1500,2.9655156510112066,0.6545917435550721,8.999254970050423,-0.16438775033558023,-0.09067577153344995,-0.0059674015269444314
1520,2.9692553770272463,0.687459059066347,9.007834152906034,-0.16141202791235568,-0.0893431124104565,-0.003818480126383336
1540,2.972154833112213,0.712049589760265,9.010640797318917,-0.15853399602246504,-0.08905335970319994,-0.0033641914887244558
1560,2.9726803717458496,0.7352672836725805,9.009898951414138,-0.1562990026038573,-0.08759473683959287,-0.003588943597197486
1580,2.96887299456019,0.7561413885218018,9.011085542739359,-0.1548988818529442,-0.08518183482384419,-0.0035381170264639572
1600,2.9656083737236965,0.7763373914515983,9.016148313914092,-0.15333129413228638,-0.08238387813086032,-0.0029071090451463035
1620,2.9644932560692823,0.7969463949592459,9.021505136143821,-0.1508733200016102,-0.07922231161352233,-0.0021968499136000245
1640,2.964774126504337,0.8136188246793435,9.025752672182751,-0.14860796068814805,-0.07740803095107848,-0.0020656943055433283
1660,2.963872011319515,0.8294164363904308,9.028998612009865,-0.1453703441476511,-0.075175476786321,-0.0025511580125620477
1680,2.9602547045864793,0.8440738497904318,9.030835790743748,-0.14259832506015596,-0.07317774156966385,-0.0029807066410200583
1700,2.9562697674846277,0.8584321638757909,9.03293355311342,-0.13987931667871562,-0.07130475473935093,-0.0029343273948969043
1720,2.9525761161150346,0.8730152795383632,9.03476591007149,-0.13716989992537326,-0.06931848035566707,-0.00228146858154849
1740,2.950509448113244,0.8882529113521496,9.036247620474171,-0.13454381131484983,-0.06737534517644357,-0.001189944876182636
1760,2.9506741620250976,0.9040034917448388,9.038325096552985,-0.13217655707824935,-0.06507369728957807,-2.329025601890559E-4
1780,2.950111486146912,0.9197368914073405,9.041620220507976,-0.12967549443379578,-0.062396090252470136,2.89730591748094E-4
1800,2.9482463848152016,0.9357790814911309,9.044654975817336,-0.12684018386418125,-0.05964136295741533,5.867913508985151E-4
1820,2.9463505729374484,0.9522713990738084,9.046533187280499,-0.12389188320778112,-0.056811287237994085,7.135217930490692E-4
1840,2.944552424786107,0.9692345116481909,9.04608151765461,-0.12113663721484431,-0.053916767298939336,5.266176108791038E-4
1860,2.9423131281277164,0.9859192896003247,9.044838916677001,-0.1188199480784916,-0.05100959723709629,8.223798695804649E-5
1880,2.9393127883922716,1.0023531423994427,9.044539048074512,-0.11699122230106695,-0.04841058398589363,-7.821797647314573E-4
1900,2.9334305223027193,1.0209595768105963,9.045261713269825,-0.11530315945953785,-0.045926933013519015,-0.0019438236915223185
1920,2.927972594434063,1.0352747343743116,9.047256929581339,-0.11347290865308665,-0.043804444467612634,-0.0031388283309845104
1940,2.9217699172802054,1.0533103095737497,9.049365742406884,-0.1109832322814685,-0.04185362248515598,-0.004567900089744342
1960,2.9173767074758423,1.0645067967032695,9.049142548723498,-0.1093326093794665,-0.0407457016640837,-0.005586278987046009
1980,2.9092412973789794,1.0830580788095825,9.046895059035132,-0.10737841694184944,-0.039702703547678374,-0.006972390483450075
