0,-0.9074130728840828,4.72627180814743,4.223018407821655,-0.836952593177557,-0.3598360624164343,0.05092198122292757
20,-0.6939569432288408,4.509672284126282,4.496948778629303,-1.1841955240815878,-0.544426410458982,0.059643833665177226
40,-0.41783113684505224,4.332390924294789,5.003894567489624,-1.4430214998622735,-0.694395683084925,0.07256016523266832
60,-0.07050339807756245,4.130810111761093,5.313201367855072,-1.641476939432323,-0.7906356803141534,0.07921806804370135
80,0.030237115919589996,3.790537703037262,5.411427104473114,-1.821949376910925,-0.8893923562020063,0.11647569118067622
100,0.12259506091262058,3.7450622816880546,5.421775589386622,-1.9633698929101229,-1.0006037512794137,0.21552752850887677
120,0.8112813874695188,3.6834561782970763,5.4911497517635945,-2.1077897397049687,-1.1274385564682776,0.335206251591444
140,1.71140733795742,3.611873857791607,5.796684455871582,-2.264173443042315,-1.2128302140877798,0.39581260973444354
160,2.4455446994780523,3.517069943963665,6.428527975735599,-2.3533820987564242,-1.1255459893647939,0.38404239132387996
180,2.930971804399756,3.4584083674866477,7.325951117056388,-2.33112081149478,-0.9742602398734034,0.3498922257402475
200,3.3500673524705755,3.5018416442228166,8.220891438173444,-2.218214596590299,-0.8663723259494546,0.3539889644271579
220,4.005460473211943,3.565196614904502,8.968509025180463,-2.074380816258106,-0.8146902785550073,0.22768380364508742
240,4.19153528170261,3.6019270647139776,9.755348350888207,-1.914307807434705,-0.8330595279378551,0.054254094921495945
260,4.309233795878255,3.6018340060141236,10.573651372858908,-1.7436269853816293,-0.8749079484393639,-0.10417357678689985
280,4.388566698534568,3.487227772385621,11.459654295740048,-1.5626508012098406,-0.8846747147704451,-0.2573097647294741
300,4.312520642261302,3.2152674541801445,12.392110085302544,-1.3455110894436695,-0.8631054111287113,-0.40855848036756987
320,4.058736647018673,2.8530627786569354,13.100337829032954,-1.0875988289217606,-0.8270614617810088,-0.5437293477801701
340,3.666775075433304,2.4092421263762533,13.465965075035617,-0.796541867583148,-0.7389498385345589,-0.6642945750587785
360,3.3197163778731564,2.067637682886295,13.54291244581634,-0.5910244677428862,-0.6328866871049493,-0.7311566334592142
380,2.8248369685434565,1.642835642958497,13.445654992704037,-0.34341295154040885,-0.48386376651785806,-0.7816980943690273
400,2.380959470741286,1.303679639583125,13.162591151630178,-0.1354132837972001,-0.3699968204504865,-0.7932695591151167
420,1.968141035329854,1.0279343658534998,12.696994742315807,0.047764503232234815,-0.27702373665433083,-0.7733301389949354
440,1.6245315298400518,0.818800568059888,12.11254137450008,0.19081570225347194,-0.19475158822212008,-0.7247058102668273
460,1.3649142985916265,0.6708277249996809,11.462391113651167,0.2885487261012235,-0.11240095512211784,-0.6564609854633334
480,1.1657461830112843,0.5624383571050545,10.806731691602433,0.342540382465237,-0.026300193626654915,-0.5768253181376356
500,1.0038097693063763,0.48448967092803547,10.174510987741607,0.36144709446290063,0.048662407079800254,-0.48801116751662144
520,0.8877283246523419,0.43747561278009633,9.561874175427157,0.3524738127352892,0.09855503666240277,-0.39180352360997006
540,0.8322905323115812,0.407831581259987,8.975124114514452,0.3166651826916444,0.12536831584602462,-0.29227995852614236
560,0.8290862120721791,0.3885356501206501,8.424809070861238,0.2528174994214892,0.1422403620548037,-0.19237771483723265
580,0.8778439869167098,0.3717228894714605,7.935214661492789,0.16116278731910713,0.15058406832250804,-0.09512105343905701
600,1.0004121184439967,0.3401691304571719,7.483167264684738,0.03246129469842134,0.14490086655225234,0.0063477096220189
620,1.1620099038779232,0.29563235328263066,7.194047143445512,-0.09570436027713666,0.12193388881837827,0.08542507420955621
640,1.3604877718910924,0.24834649896158484,7.011567968219407,-0.22648323779883847,0.07997551221533047,0.15511166575113625
660,1.631818325787952,0.22399966034191576,6.955476658235897,-0.35927346828816964,0.019844515609808943,0.22243075647222046
680,2.044102717675565,0.2512570294196135,7.064893218422105,-0.48782155700126667,-0.04706144073398869,0.280513984313261
700,2.5959626080322677,0.35480858442050334,7.379969027955918,-0.6060674771509706,-0.10408382884409163,0.31171705648127007
720,3.1790160989757927,0.504363906723961,7.888321558867011,-0.7029652738348771,-0.141710704321783,0.3038699487636931
740,3.7003989623964184,0.6445645415254471,8.588189343773193,-0.7629626604261223,-0.1673398355085779,0.26085128363431204
760,4.1034289632975645,0.7551611021412389,9.3783266382558,-0.7640081579649141,-0.19588595528066868,0.1933776293726017
780,4.40224629958685,0.8250064140332765,10.049064912017284,-0.7153631815897307,-0.22058902467361682,0.11278749160517595
800,4.607178447512752,0.8607888750273318,10.55446079463397,-0.6430092644765185,-0.22390784628357277,0.028533111369304833
820,4.7555721325450575,0.8606784880174981,10.968168515054618,-0.5493186335284811,-0.20133255473748946,-0.06435452785055318
840,4.836742166855945,0.8235770587544439,11.225092255949289,-0.4553001510961538,-0.17195770777253455,-0.146715965228364
860,4.872842377531107,0.7506704719153787,11.370833365853583,-0.3514642770640196,-0.14611589556083796,-0.2310731332072873
880,4.86177801631281,0.6453064641068372,11.39971443691424,-0.24366172083146911,-0.12662948978230726,-0.3173632151594355
900,4.792633886537289,0.515618116651181,11.31748500282085,-0.14137496245819675,-0.10622724537332091,-0.4027826018344801
920,4.699801531574127,0.4106698389665258,11.205042325393864,-0.07273240205486892,-0.08876008567124329,-0.46210465873850304
940,4.495519766025366,0.2458228438422948,10.955764226615429,0.023794847517754382,-0.05592545789316028,-0.544048122043323
960,4.315522992398444,0.13548191029677223,10.718595867807215,0.08486973020751405,-0.026394848110897446,-0.5927754991089295
980,4.153855506153361,0.05657714415484896,10.495885305310006,0.12820544891248897,5.08132267040813E-4,-0.6241706986686275
1000,3.9344010782745684,-0.02606036649108186,10.19147704932296,0.1735994420929821,0.029971856089281733,-0.6516554785109107
1020,3.754687727065001,-0.08042463992204438,9.93626767809465,0.20090039690227418,0.04597692871644097,-0.6627370353631435
1040,3.5997596057707115,-0.12040467652656577,9.709268704021678,0.21739292720332742,0.0555575344218489,-0.6645787121087093
1060,3.316459506064965,-0.18112610237258528,9.28902321616444,0.2286221824571439,0.06346483806195165,-0.6495315443073963
1080,3.1437363044656266,-0.20792338243132755,9.034673625674797,0.2230907690934164,0.06243367466032841,-0.6272142796160162
1100,3.008790103389357,-0.22411835908304842,8.828447755567215,0.21106658456639651,0.058645001430072737,-0.6005336459335106
1120,2.7861871389644888,-0.24139303820199634,8.458196260923936,0.1704080620924023,0.04670962813934574,-0.5295831680296842
1140,2.7040848794519876,-0.24182005157510747,8.291255380663166,0.1431232350240252,0.03827686330036318,-0.48708832126092844
1160,2.64020094011256,-0.23850656136819298,8.112992575902979,0.10525024278808527,0.025886298355721094,-0.4345006594677035
1180,2.6169663636172285,-0.21635174953580363,7.888058882636815,0.03279467356132017,0.0027596308993770905,-0.3510875479707053
1200,2.6461072743863694,-0.19330047379433352,7.791393162402499,-0.01990339485076597,-0.012098679214912823,-0.30253958789304247
1220,2.715120474540697,-0.16137938376445465,7.7332411203868014,-0.07619844228757139,-0.027859428365582334,-0.2580296638732466
1240,2.8200391730488494,-0.13060620520355395,7.744185400039894,-0.1608492040957282,-0.04898552236665033,-0.20151495877314865
1260,2.9170409184478188,-0.09863760152614666,7.8020159463352945,-0.21353653574868747,-0.055007546852586915,-0.17245298996703357
1280,3.050282340438348,-0.04628994483839706,7.92849224749453,-0.27190731686604175,-0.05560715671921313,-0.1447349103016893
1300,3.2683121098321646,0.06293554797394665,8.202398523052292,-0.34315801839174714,-0.05234588922558817,-0.12162750575815522
1320,3.3958545313264086,0.15248882368830155,8.398895564346184,-0.3761287097829478,-0.05256388831518714,-0.11895386016989633
1340,3.4748981686799283,0.22918764926428586,8.548345142152895,-0.39501263634522654,-0.0530953113547098,-0.12376438439135393
1360,3.4974283052989747,0.3395949031224668,8.723116455225801,-0.41100237284466545,-0.05146205832674352,-0.1359352881658829
1380,3.463880884421956,0.40524156679506457,8.825838089945305,-0.41489337396156867,-0.054642991182616854,-0.14201780229567887
1400,3.452130325059333,0.46031191144512407,8.912607864670157,-0.4132157416801321,-0.06396723586909903,-0.14268716556315894
1420,3.5000125762588055,0.5027483707378679,8.978430660428716,-0.4097430815694604,-0.0696430258033637,-0.14462703608794145
1440,3.5356619607455935,0.527192539031128,9.024036149762697,-0.40566670940952154,-0.06909561107878305,-0.1529143457596932
1460,3.541479846626798,0.5395413628713831,9.04940716116697,-0.40058892925848666,-0.06652210645242695,-0.1627033604351863
1480,3.5306271189365783,0.5482021851518984,9.065588717131822,-0.394597973383112,-0.062480021513873614,-0.17217641150145577
1500,3.510486394347826,0.557341357156883,9.072580103868624,-0.38453353733182294,-0.05472975840594116,-0.1839113657659296
1520,3.485142487312751,0.5672115037237201,9.07059007989081,-0.37683337001090994,-0.04969873527592069,-0.1904655984732594
1540,3.4587163002588714,0.5822863022050273,9.06087248297556,-0.3673459488292417,-0.04644118737159592,-0.1955757803294719
1560,3.441301085966094,0.5988752280092934,9.051301804317083,-0.36098463110935697,-0.046456423962197825,-0.19756611362004614
1580,3.4228575280265616,0.6230091214123767,9.03944547931684,-0.3544660961592783,-0.046267399272085646,-0.19809492748056254
1600,3.4122521355737514,0.6466589621495712,9.028938800966694,-0.3506044528027641,-0.043635087217495754,-0.19697227971948228
1620,3.4088473808786373,0.6642525490982532,9.028485967409079,-0.34895709502607947,-0.040651173111397924,-0.19618764930227195
1640,3.4045132771235154,0.6835243085906633,9.034754002366716,-0.3460198774669709,-0.035757185398156185,-0.19576842880759165
1660,3.3961519670822904,0.7040017395148627,9.043410710721593,-0.3416536221368477,-0.03231078793571793,-0.1955077956963484
1680,3.384333583366687,0.7220618179565488,9.049185995196888,-0.33671205392543885,-0.031297736964052955,-0.19476636521093915
1700,3.373264384446921,0.7383182969095953,9.053115541813224,-0.33208168335983623,-0.031604147517700715,-0.19331657008827538
1720,3.3636841484750217,0.7603659314026587,9.056778664360218,-0.3259108858394992,-0.031191758751030613,-0.19094751155862366
1740,3.357009097566021,0.7806281892172783,9.0564888372923,-0.3211132370750256,-0.028495750800475908,-0.18874894807170212
1760,3.3491368458618607,0.8010524608776419,9.056195465435943,-0.3172520423748094,-0.025164871115686945,-0.1862689145427503
1780,3.3416388060124476,0.8212611310861677,9.05691663378227,-0.3137014801982288,-0.022375457627254257,-0.1834302509698038
1800,3.3325378660331193,0.8411374163091638,9.059296986283291,-0.30978688531187776,-0.020706233212908057,-0.18061207526800585
1820,3.3232571516997775,0.8641546349002359,9.06239374679443,-0.30456159905166247,-0.019791200334395243,-0.17724220622931758
1840,3.316114899869872,0.885211363081211,9.063174689788015,-0.2997065546784297,-0.019056271997427796,-0.17434320812846751
1860,3.3118924883250096,0.9041278041507779,9.063016193583902,-0.2955536624660276,-0.018531444891569437,-0.17206276858002142
1880,3.30756272322066,0.9251770403999908,9.061370985842318,-0.29137015460645527,-0.017662225364442705,-0.17021336534814582
1900,3.3013956939178093,0.9491870243170721,9.061103084119823,-0.2874984963183152,-0.01680032494426921,-0.16884715959655372
1920,3.2936377360248508,0.9692406210013694,9.06459026989451,-0.2841237954909994,-0.016165996110987402,-0.1679076640474686
1940,3.2840981112332717,0.9875434076800388,9.068593664080694,-0.2801810708311457,-0.015167873360262478,-0.16676051049808396
1960,3.2760845022546707,1.0041838344588176,9.069840557058342,-0.27604688987514236,-0.013753620393545133,-0.16534135494264773
1980,3.2699991667376356,1.0202635458450404,9.070232801586574,-0.2724263487181437,-0.012403628372069734,-0.16396744062635346
