0,-1.1175760328769684,5.312752187252045,6.228847324848175,-0.8115859553217888,-0.25430830381810665,-0.6514867916703224
20,-1.250948689877987,5.119653820991516,6.071674168109894,-1.062056291848421,-0.34941644314676523,-0.5200597867369652
40,-1.0196796054175745,5.106780628363292,6.145520627498627,-1.3049587880571683,-0.5193816007425388,-0.4251624724517266
60,-0.5366295512314095,5.082739699970592,6.240840579524185,-1.5520759188767634,-0.6475623706073472,-0.4498673257502643
80,-0.26946891730696687,4.895303301694916,6.212797781316246,-1.751540589623335,-0.7128997710419864,-0.5255695999395557
100,-0.2806663642404601,4.693090866009395,6.13549147049586,-1.9155772464970748,-0.8137718777482709,-0.5631364108994603
120,-0.24462814557186344,4.377087459229586,6.145158198841831,-2.102762438749012,-0.9933086458528251,-0.5128657392046431
140,0.17012009202287748,4.19198443706219,6.262202570988582,-2.266615353180812,-0.9943280524932421,-0.4168940364454801
160,0.5637482547086395,3.9325566193828845,6.454873189534227,-2.433196674471032,-0.8488471643769577,-0.2978290130881822
180,0.8110246124366919,3.634693620381532,6.776781965185095,-2.596996330184701,-0.6890652412433683,-0.17046973727827455
200,1.1279466094846806,3.390917232867037,7.459544288978148,-2.713490721215023,-0.596154203659363,-0.05591043723182062
220,1.478270321431541,3.1535248175724266,8.389753764437646,-2.715335037904916,-0.511139301986424,0.03233406967339442
240,1.882713533263831,2.904428901647528,9.37873721349807,-2.5830554468291145,-0.43575136838924317,0.05949418181109996
260,2.1654368730970717,2.914018264468924,10.24763197603479,-2.3927218223781845,-0.43948343096185577,-0.05418628106404722
280,2.350800846941954,2.750986845363393,11.198676361525354,-2.1677826205268502,-0.4986924035551627,-0.1949433770092312
300,2.419633069147284,2.520426543071293,12.27633638381958,-1.8773185304222773,-0.5172370781405614,-0.3513925609250481
320,2.3732721602992854,2.262769092730906,12.987544644488036,-1.6224004470260582,-0.5142546967487701,-0.4688886884382389
340,2.2553434230568303,1.9562986022404705,13.524126999908024,-1.359627547835569,-0.49893814565924305,-0.5761711003077734
360,1.9640560710754293,1.4637457915255194,13.960180623190743,-0.9896035872266761,-0.4520782787449561,-0.7056068818314702
380,1.648128330282131,1.0729096518185588,14.038732805369813,-0.7145227735206761,-0.3852774693780107,-0.7783642133099982
400,1.2994953943854746,0.6838485375156298,13.898228477029239,-0.4609267343986122,-0.28819389639093596,-0.8178427066544399
420,0.9525854295705644,0.3173266335421901,13.541911926162378,-0.22995827410349182,-0.1856593397351798,-0.8260158472537492
440,0.6189194369199936,0.002819929802690142,12.961678850554652,-0.034141181342263696,-0.09512930161129403,-0.8073898068859532
460,0.29546395062286523,-0.24714381723021417,12.236896025304942,0.11121518982420724,-0.012719094273202197,-0.7657219775431531
480,-0.0158521772482165,-0.4470980101643075,11.461390157294746,0.2038108278204235,0.07152484772302727,-0.698829742221134
500,-0.2919072648332942,-0.5999866456414262,10.667337601099696,0.24752471386233255,0.14531741470453285,-0.6039246239998777
520,-0.48489259119325,-0.6976758224479512,9.912195233713597,0.2472374546341598,0.18967913913138962,-0.48489200181878866
540,-0.5470288360689198,-0.7536151930607394,9.23308680292252,0.208976884904128,0.208423603573336,-0.3522222969275116
560,-0.43194942846101647,-0.7730613900546698,8.573833952178346,0.12668454194877377,0.21780132031504143,-0.21043584995031198
580,-0.2574695320914925,-0.7637747278965917,8.082944850004258,0.02435430974427442,0.21811702870476393,-0.10442992089672681
600,-0.05623047443411027,-0.7383053647242932,7.72460624195665,-0.09910306983452988,0.19928029310180848,-0.012960743514331154
620,0.2006915566874632,-0.6818223364478603,7.552366129449896,-0.22695806031708668,0.1535196058078162,0.07206607795622502
640,0.6240326870121201,-0.556846559396509,7.5533806212832415,-0.3486315275015735,0.08652669816427909,0.14992897261425936
660,1.24879807761447,-0.3314010512964292,7.769713673808358,-0.46185839822685176,0.022769159186970103,0.19850878985175355
680,1.9033635735393308,-0.0410030820265465,8.246077990574046,-0.5563541679896493,-0.021647537765570327,0.19626210497728427
700,2.445166904357649,0.2513782923650701,8.97735663029746,-0.6068179004848054,-0.06853108246301867,0.15036243711809447
720,2.8600059004818217,0.4813749099330958,9.774940214627563,-0.6006820557983966,-0.11257981636053742,0.07716100709746439
740,3.1315701033750165,0.6294688855082476,10.472812346410285,-0.5516325671507155,-0.13390891909211,-0.010484065999298171
760,3.2697036321851467,0.6916284420069247,11.003754241693587,-0.4769853180625461,-0.1305953853778423,-0.10410339000250493
780,3.2965597446582477,0.6819744429171637,11.40815118930222,-0.37315810879047123,-0.10632121131789905,-0.2070323136903886
800,3.257955326973629,0.6281083201854882,11.57724356202476,-0.27085754430413816,-0.07333126889698836,-0.2919512050028565
820,3.189983022897778,0.5522351682953098,11.597248597530758,-0.16752156556330566,-0.035820220947703894,-0.37035957610385273
840,3.097944150523593,0.47152292633150844,11.489741932215361,-0.0804113988983995,-0.003126742957047152,-0.43273016115213053
860,2.991372813486358,0.395359879537496,11.283166230562028,0.018715143431660856,0.03993733000177681,-0.5050002031827482
880,2.8596731998937224,0.32755182903505614,11.013445146296142,0.09152639196490982,0.07647605476757655,-0.5613409722944118
900,2.698684963953471,0.2651969147044965,10.704707645116404,0.14871345562340882,0.1093313058597907,-0.6075711112553304
920,2.5580077068683096,0.2213555672871215,10.466432213937253,0.18172631209510473,0.1304955730737044,-0.6345549251079786
940,2.3116643051316035,0.15744623386852194,10.114650627281708,0.21833021008711578,0.15302613900266876,-0.6598686863943809
960,2.036383607006171,0.09254089185046126,9.74941125857959,0.24048712132575056,0.16292631738076005,-0.6622719125054316
980,1.8003256059675892,0.037241364239097234,9.415770699036086,0.24407213242064754,0.1632292598818727,-0.6461844153687237
1000,1.6025064939009117,-0.013021471657003592,9.106724992101714,0.2299589242142494,0.15737955403758339,-0.6052570199109026
1020,1.4541647012611585,-0.05433273706585169,8.833402649132491,0.20459074357862672,0.1463382824678861,-0.5554386077221438
1040,1.3525018210302542,-0.08242345687691166,8.61905867503127,0.17573037088616364,0.13003900892753373,-0.505424711761115
1060,1.2508979006243204,-0.10459534749559579,8.385567983489596,0.13317596318799396,0.09895451395524614,-0.4326366290760893
1080,1.2214330011184074,-0.10921938889754546,8.227400638042207,0.09602733236673429,0.07115297138472308,-0.37031843491754246
1100,1.2615236232708316,-0.1011471956745779,8.054853728324364,0.03859465952732897,0.03883325540567789,-0.29195354793548367
1120,1.3509521441909922,-0.07666661049322167,7.950192340739564,-0.03027643084525052,0.008959749915562327,-0.22265761541536
1140,1.4621773771584226,-0.04712418745210303,7.938647487718088,-0.09618662611252742,-0.017631226372140558,-0.1685686483219671
1160,1.6044271845932838,-0.006100527024525267,8.01085363737985,-0.16024555143069444,-0.03867503418440714,-0.12299711156033168
1180,1.7591888495519297,0.05468051568364974,8.139461881048094,-0.2169604143432639,-0.05253967770672951,-0.08706670723346628
1200,1.8976393006628425,0.1264249039094562,8.281486233986907,-0.25888637500806577,-0.05954733586726271,-0.06408058440386567
1220,2.059004609355937,0.22999836881821623,8.477752820641628,-0.3001948311205065,-0.06356444882373967,-0.04641112411894767
1240,2.1628344943289495,0.3334770700281343,8.646519645904913,-0.32463204455749484,-0.06777310575228661,-0.03962511945770201
1260,2.2148640450530563,0.4373045855909297,8.783896965518876,-0.337290894779577,-0.07148591601181516,-0.03803845342246873
1280,2.230351784928214,0.5637465577998332,8.933564658337938,-0.34261659780228954,-0.07964666723140648,-0.03697110068319099
1300,2.2649799490640503,0.6559438447569138,9.043795971335033,-0.33818437962523357,-0.09297835161693199,-0.031052277051086784
1320,2.3358569073761073,0.7092268428353803,9.095106988596987,-0.3329628603599618,-0.09939417522917063,-0.02751834277500865
1340,2.4122384857345636,0.7581087779660857,9.14016273368289,-0.3283203221577218,-0.10067750908814384,-0.0299659736148287
1360,2.460543605926243,0.7996489784803815,9.18200310322583,-0.3209493482169548,-0.10021031737047177,-0.03745178958212483
1380,2.483215713411965,0.8259808018111285,9.197604508476282,-0.31272414620714345,-0.09897119174886544,-0.044383024745332324
1400,2.502498763514257,0.8520752527502351,9.191349723526677,-0.3041331746541794,-0.09667757523567269,-0.05211117415374692
1420,2.5121122368377766,0.879083309895471,9.168884129000226,-0.294566398851143,-0.09406631981298617,-0.06380788372354294
1440,2.510893942052656,0.9050697966115707,9.151252312531252,-0.2891953912451153,-0.09353259858713901,-0.07245438876601283
1460,2.506804582581896,0.9329522589944228,9.134857214366656,-0.2849451757287669,-0.09323582986865686,-0.07895100425522351
1480,2.5066568055912457,0.9595847677642314,9.121542947867074,-0.2824472625145885,-0.09109147312564445,-0.08330289178363451
1500,2.5135809174535573,0.9848211468788962,9.115811403830921,-0.28060172500463465,-0.0882942648420895,-0.08653076187023402
1520,2.525883208436239,1.0079066585659548,9.11293035146924,-0.2783155575423828,-0.08638679794651923,-0.09032554823682132
1540,2.535234737316413,1.0288738191098212,9.113171368508437,-0.2753561389717525,-0.08541803136526256,-0.0950232785827081
1560,2.542204486086474,1.0490861664902782,9.10964864020843,-0.2712011358720399,-0.08484673638649211,-0.09970337909034696
1580,2.544597146602999,1.0682195348422916,9.105397519637505,-0.2675736647422913,-0.08336696655931311,-0.10357827506202559
1600,2.544611472861116,1.090516424267233,9.101963156736847,-0.2638943685519061,-0.08096162965541767,-0.10596292359960614
1620,2.55012877307113,1.111867089524056,9.098918020053096,-0.2608344950904609,-0.07845482196283024,-0.10741270253565416
1640,2.5536513238973173,1.132776465125371,9.094275050966594,-0.2581508116126574,-0.07598794442475826,-0.10903826553406452
1660,2.5542408309695865,1.153739858706741,9.090125963115854,-0.25598926183445975,-0.07444756754950332,-0.11018859266800002
1680,2.552846905372744,1.173828053246137,9.088716043267139,-0.2540937436504613,-0.07339406957931932,-0.11053683421793109
1700,2.550737272505816,1.1937156877044937,9.086935390458985,-0.25157900632748925,-0.07225995099188708,-0.10992356258349209
1720,2.551169472361039,1.2139376709648377,9.084633136670877,-0.24839964017052082,-0.0711459955964218,-0.1084213454861215
1740,2.552500616929586,1.231930630053328,9.08031553747985,-0.24595735288835066,-0.07010589593869875,-0.10721635206136852
1760,2.553217517745698,1.2554932719119858,9.073959935484364,-0.24342210635559708,-0.06865329325790372,-0.10556736119028041
1780,2.5541978521193114,1.2760051819258862,9.070512590539787,-0.24169942278682705,-0.06736419935943179,-0.1039662189327534
1800,2.5548156126650334,1.298647327346059,9.069184415975622,-0.23989355277792682,-0.06606985914157062,-0.10192394063209498
1820,2.5563390225457447,1.318026944271399,9.070293471339204,-0.238226990772331,-0.06526285086865546,-0.1001555239465238
1840,2.558782294642755,1.336599305348887,9.071165542615493,-0.2358437667333567,-0.06451561569037743,-0.09795184107032293
1860,2.5632603174099993,1.3557985529279042,9.06986058632978,-0.2329952799300372,-0.06376123496243292,-0.095329028495134
1880,2.5684290556394953,1.372571073654636,9.067322647674409,-0.23097299530710133,-0.0630692972927385,-0.09360460825282667
1900,2.5742664911049733,1.3932409425501318,9.06386848942547,-0.22870166599574246,-0.0617844121003267,-0.091668344909006
1920,2.5779637049014053,1.4101625082572466,9.060991650905189,-0.22703363933445017,-0.06056401832321097,-0.08994634608157236
1940,2.5819855929292297,1.4251214596601827,9.059541776985302,-0.22563520920974045,-0.05968838441563249,-0.08817037415346919
1960,2.5887074872725484,1.4412023132650627,9.05916927749459,-0.22384054567470352,-0.05887319813786342,-0.08633373846481782
1980,2.595860415398798,1.4588722610952203,9.059090642610652,-0.22136946455556075,-0.05834118132405378,-0.08468500830868195
