0,-2.476982514063517,4.5891236199273004,7.660603258344862,-0.12325498089194298,-0.3706366750929091,0.25680652095211876
20,-2.5036408199983486,4.478404886582318,7.430477927712833,-0.2789889817290446,-0.45506757673095255,0.38845022899263043
40,-2.1388483381271364,4.4592391204833985,7.675846271514892,-0.41942216619849204,-0.5203394544124603,0.47314752757549283
60,-1.7219465438163641,4.3945706829880224,8.264994982517127,-0.44136015562848613,-0.543166455897418,0.49308540468866174
80,-1.479771646784573,4.410048926748881,8.564239699666093,-0.37663490840847175,-0.5624246735398363,0.4679453994442777
100,-1.4191713314883563,4.45810908687358,8.634583424548714,-0.2918143545904634,-0.6436909905501774,0.430937403014728
120,-1.5224761654410446,4.376877366450795,8.345803051664118,-0.23588644591437882,-0.7910579218153369,0.4179137537353917
140,-1.5873084742289323,4.4014197056110085,7.927330728677603,-0.2461200285058182,-0.9567324092754951,0.4705613943246695
160,-1.197903518399147,4.394368906543679,7.632533857267197,-0.30823482406542524,-1.0813739614127433,0.5376228796292658
180,-0.46369916309670706,4.37908895713527,7.523691305300084,-0.38918425121753497,-0.9650751478606607,0.5230923230055629
200,-0.042604734831386146,4.42354805469513,7.441059891382853,-0.4394728165275107,-0.7666783090266917,0.47117915769987223
220,0.2725679025966294,4.5644919653328095,7.32115955742038,-0.5028834727412204,-0.6036022672695773,0.4461228581197674
240,0.7381631273706004,4.747674534905632,7.378490636933525,-0.5820981113477346,-0.5232687337359168,0.4238085009065404
260,1.259444188914801,4.909601171811421,7.676962333813048,-0.6481951983408643,-0.47830935502261446,0.39013278025831505
280,1.7172094585954165,5.0009776783771205,8.016582254503595,-0.6804503950969789,-0.43301623748218426,0.3661998698590934
300,2.151151373065435,5.0008746935771065,8.25581693649292,-0.706330682319374,-0.3758437086183291,0.3160365932388231
320,2.4767106393541116,5.032092452049255,8.562976194464643,-0.7305457960051633,-0.3353851552566756,0.2369370246829087
340,2.7361294915006584,5.002047716754756,8.902353613343957,-0.729816901035071,-0.3310264961870566,0.13305951574377153
360,2.84270168453842,4.955264514142817,9.229534768438958,-0.6976312166223508,-0.3648753170552966,0.011298804518210326
380,2.853872874820674,4.922341925126535,9.55271323521932,-0.6487098380852847,-0.44134852073994685,-0.11112398478449725
400,2.7852528664995644,4.91569326765397,9.97160789826337,-0.5863835889209226,-0.5534635393496822,-0.22667106231263676
420,2.7109213905960488,4.905682591752633,10.565234418687874,-0.4911716157933385,-0.7011030469943025,-0.35118374527255125
440,2.6120186632170395,4.842511972641562,11.162584575102292,-0.38596832756398813,-0.8180464579858244,-0.46412876502481254
460,2.4248775490583516,4.706520636570759,11.789035870478703,-0.2602525607533514,-0.9045453735269033,-0.5696830069323858
480,2.19245760744722,4.5027548949523215,12.290285124567342,-0.11885808669019197,-0.943431738305268,-0.6568580371031786
500,1.9409307254857926,4.270285956084869,12.637304075521316,0.022260179414890564,-0.9330152246694994,-0.7244678101473669
520,1.6859188468352844,4.013068653660142,12.850111491059604,0.16881879003873715,-0.8954318079876301,-0.7761400533791155
540,1.4120381662892876,3.724951881127604,12.862616484385756,0.32033406109251655,-0.8492206564657226,-0.8138765536406639
560,1.1453187797297824,3.4439159357642875,12.67574843142895,0.46326048675221093,-0.7999409973462845,-0.8331645203328275
580,0.9053469957024963,3.1852184170895397,12.333414797920259,0.5870287295401196,-0.7467845986010851,-0.8352407927063404
600,0.6868458342148488,2.9489180219927396,11.876482528133458,0.6868286536198547,-0.6903725478842676,-0.8204460554205223
620,0.503287024191908,2.7266512547536936,11.329080934776533,0.759793499231601,-0.6344614379740819,-0.7911333394062464
640,0.33701858563876863,2.5008830788281204,10.665076059720187,0.8090817376457801,-0.5784577370218155,-0.7422121373542112
660,0.22528804444532463,2.3299549364390364,10.082182265359206,0.825427341692072,-0.5383952213451266,-0.6842504192921468
680,0.15748097668861,2.201225441513242,9.539498144131102,0.824263575183913,-0.510128367206895,-0.6147417230474186
700,0.1499183890282189,2.1090690556735003,9.009087826775973,0.8087806819466881,-0.49161510691301874,-0.5374040739963226
720,0.18072020033374428,2.0566273120914897,8.49605275121828,0.774686017575441,-0.47641504812364777,-0.4563329980343891
740,0.25519400892488947,2.0433872086540252,8.031402872439909,0.7209724773665702,-0.4661497957157818,-0.3737752791320264
760,0.37573007521915097,2.054684315289406,7.62842556162254,0.6505594451051895,-0.4606249076491104,-0.2955881649152305
780,0.5119428411988473,2.076733355893305,7.283380388914619,0.5661963336101451,-0.4582842478620601,-0.22692382534071917
800,0.6357045818109021,2.096075018475124,7.012300093198218,0.4687471936827845,-0.46172122312821895,-0.16738745799717347
820,0.7313383794692758,2.111110608947612,6.867910135713731,0.38965058762520915,-0.4708236924664685,-0.12576892580244603
840,0.9133077049681424,2.111457571890419,6.750121976216805,0.24992327866761346,-0.48967128680569344,-0.06344626223649723
860,1.0579797429597695,2.088510945428874,6.781289551135027,0.13672008821014786,-0.5047030492131127,-0.015877743916758703
880,1.1996548082423653,2.0623093006600226,6.910269889632588,0.031567202936307846,-0.5176927427362118,0.0324371423064424
900,1.343631768574117,2.0474005647464306,7.106119833105514,-0.05988939014928145,-0.5334698727394465,0.08174376257242114
920,1.5216672362569046,2.0402738555112068,7.420368014768822,-0.13945947658469818,-0.5606628778119256,0.13748571366069257
940,1.7064730402388655,2.0497243007439114,7.756304954597606,-0.18441578497419464,-0.5862670612538229,0.189204212818606
960,1.962202786643912,2.088547617262722,8.108100680113589,-0.20894763981471876,-0.5981728869680344,0.23843718764386246
980,2.2563805272503767,2.1442167312918623,8.480196818985322,-0.21455997070038899,-0.5929402577840251,0.27440178942015786
1000,2.538071319348118,2.2083646813745794,8.844389973573621,-0.195409943957105,-0.5776497594917477,0.2946152342455214
1020,2.791665612797379,2.2608132040893523,9.135810920380216,-0.15195779084375088,-0.5541335958301703,0.3024526319445516
1040,3.018846888498931,2.288293319000995,9.32143315883019,-0.09348799107299949,-0.5224236039670579,0.30103361245737537
1060,3.2072327271981904,2.292406472916666,9.411714678583348,-0.028471085002903723,-0.48607173127929937,0.29181601209363534
1080,3.3562513489359884,2.2825667371826897,9.423627234392622,0.038064630617638734,-0.4471895462571737,0.2764939577051888
1100,3.4660903927201927,2.2644355524635604,9.361761650321368,0.10198927422698637,-0.4072950084572432,0.25672773608915245
1120,3.5454758893084306,2.2411669000029693,9.233964422341929,0.15910608879337995,-0.36916290765624177,0.23509992148329195
1140,3.6045758935959733,2.215184236579436,9.03415163849738,0.21062395950269072,-0.3306580207033202,0.211338609424816
1160,3.6454102872017473,2.19848773244254,8.825767596575693,0.24333812723790635,-0.30108829306157997,0.19279630310691223
1180,3.6956631409985476,2.1906446274829867,8.604896511736905,0.26401577513102525,-0.2753612544644363,0.17655768742116068
1200,3.7599190274434475,2.1943228087851754,8.377453842317225,0.27258720387999713,-0.253828238218887,0.16020564448327837
1220,3.854345179051606,2.20668617020773,8.154550439028805,0.26998239459096085,-0.23851157085732574,0.14178907547648847
1240,3.981851639346603,2.22560721822083,7.944444484972194,0.2575325023339532,-0.22992706724497325,0.11821038591465456
1260,4.114135140038911,2.2497880502485286,7.757704392528614,0.23608543105629312,-0.22582045219938404,0.0859926610777845
1280,4.219050200602939,2.2717990637208008,7.609123076995686,0.20606182583898994,-0.22342044814952788,0.0446997376388123
1300,4.262453224659943,2.2817540447740408,7.529322787303101,0.17052527118325128,-0.22488062616855373,-0.0031948153505952895
1320,4.229012551765573,2.278498837421906,7.547692266908024,0.13575769246343655,-0.2342026689245771,-0.050012578961363824
1340,4.119964069208492,2.2552174278847645,7.6680487285278565,0.10617041377162226,-0.24959231334499266,-0.09151595141341447
1360,4.007700528812638,2.2348323099008063,7.796643043203967,0.09207829827961002,-0.25701609320790875,-0.11266557111256292
1380,3.8580049207857834,2.225475899960576,7.952935141144974,0.08352092557855285,-0.2584955060517422,-0.12896952009431334
1400,3.7597126936666783,2.233190708753066,8.039901180540651,0.08250775532232171,-0.2561126804862246,-0.13430542307727064
1420,3.6194333732479587,2.274570277781828,8.137344178489663,0.08712550854061987,-0.24837934787806099,-0.13441749026888652
1440,3.547620808557307,2.31782287500041,8.168413370462545,0.09292759829125825,-0.24172171138057297,-0.13067199553607695
1460,3.49294959488863,2.364213344433549,8.175858866348488,0.09931093938059798,-0.23521038636247749,-0.12610787878217022
1480,3.4349671515438223,2.4282934418166,8.160581570400977,0.10804624106260124,-0.22852818357057814,-0.11964922702619638
1500,3.3995181342541443,2.4762010651814745,8.133918950343277,0.11341791021603546,-0.2254711438131299,-0.11412203240329476
1520,3.379664878314585,2.5209869044873248,8.100383124533998,0.11601667512259797,-0.22211643865466174,-0.10811695146649467
1540,3.3706807998671726,2.5622345158053936,8.06954610680131,0.11513090631817563,-0.2167230212887367,-0.10298922767666377
1560,3.3647177382714824,2.6004478524676604,8.048547813141244,0.11227182097057484,-0.21020267051249286,-0.09876175570966317
1580,3.3608455483929776,2.637194248765615,8.035575906237964,0.10936324728938565,-0.20390777709961178,-0.09506196920094952
1600,3.360110013045097,2.6706849318339465,8.024809915099624,0.10707044949920973,-0.19851772854913138,-0.09204967624033639
1620,3.3607355606747813,2.71829678997375,8.011690551005529,0.1032443766368915,-0.1899344087051507,-0.08845280662791927
1640,3.36007334819083,2.750920982184735,8.004983701328184,0.10007094560644204,-0.1833692955500488,-0.08662564234062752
1660,3.3556623675768567,2.786734092212522,7.9992456503914715,0.09632223920121004,-0.17593714303845562,-0.08515801686356023
1680,3.3487394667343064,2.821437718387384,7.994125818511067,0.0927949661520829,-0.16952858879147883,-0.08425875473530282
1700,3.3392561299956522,2.858806930048841,7.9891144802162275,0.08892829954806827,-0.16392383294977214,-0.08359522000657683
1720,3.3294889404602475,2.8904382925089025,7.987288418580482,0.08576617829004879,-0.15947480407463777,-0.08361684760265317
1740,3.317324521093408,2.91657474238305,7.984544077099585,0.083002539908444,-0.15560681762495673,-0.0838773418627234
1760,3.298534143392721,2.948428840102214,7.982913121679384,0.07923181647735571,-0.15006478307566593,-0.0841025211398826
1780,3.2796767266482565,2.9763974927232733,7.983366977807216,0.0758656571904814,-0.14466069588381067,-0.08372204500451366
1800,3.261938648144006,3.003497803335726,7.988116144906203,0.072828136110057,-0.1395861285658137,-0.08256826021249214
1820,3.24643624254242,3.029860793898303,7.994646359290127,0.07041863823620607,-0.13510822207140874,-0.08096535984953736
1840,3.232379571145096,3.0589648781178562,8.001363019479976,0.06837260596355817,-0.13079890486891574,-0.07923419657225163
1860,3.2239296314821235,3.0817379411849144,8.00836581283396,0.06711213615076543,-0.12784950271253412,-0.07827288407470884
1880,3.215812825682709,3.1074475378991337,8.014989343563988,0.06626615181668664,-0.12437447884978307,-0.07795561152700732
1900,3.204933903629543,3.1354320923746246,8.018004812420067,0.06553240887980435,-0.1201992072961341,-0.07863730736984183
1920,3.192811357070971,3.1581094996896897,8.020563791146515,0.0646278881637682,-0.11652729115293177,-0.08011107194344187
1940,3.1794399768937227,3.176606469679473,8.02377240323565,0.06418112291746615,-0.11395030016968241,-0.08187427462197398
1960,3.1585255853166703,3.199231944871269,8.025917107185881,0.06456869586492096,-0.1120267624387049,-0.084002302363387
1980,3.139479962436595,3.219380063381235,8.024135824569187,0.06508051054945045,-0.11096876156186841,-0.08534769036194681
