0,1.0487524933285184,4.423601309458415,5.126672532823351,-0.47354943884743583,-0.4833771453963386,0.2095798071887758
20,1.3822081018896664,4.357667810776654,5.634354086483226,-0.7722064396914314,-0.32460400599109773,0.17943908887750962
40,1.4730328845977783,4.278558902740478,6.456972885131836,-0.9656685018539428,-0.1564877298846841,0.13045196262188255
60,1.4316411415735881,4.183155825643828,7.221855105775775,-1.0297896753657947,-0.05251533992475632,0.10027721680164563
80,1.4374791063913486,4.105706226534959,7.670254823638172,-1.0193141742450436,-0.02406340939696969,0.09162125398586618
100,1.5027037518365043,4.040935783970113,7.993842358491858,-0.9864211471713319,-0.04396884844695427,0.08353075855031457
120,1.5670151292232044,4.003170272760224,8.269750678748416,-0.9448947090851633,-0.0898429213026375,0.06534860513924637
140,1.606652861375075,3.9804857804225042,8.489755043616661,-0.9044370834644024,-0.15426870494221265,0.044996447363295236
160,1.6885544567891997,3.9610015758096355,8.658619331986937,-0.86916223535799,-0.22764476930901203,0.02632513404058369
180,1.776394929414914,3.9375896836504523,8.792087496062855,-0.8406119582093792,-0.2955157874657968,0.007376830395380104
200,1.8803831338882446,3.9064366843965317,8.917163700527615,-0.8100724038150575,-0.3640793641511765,-0.013320863358159032
220,1.996884275455864,3.8615048150626983,8.958350969820607,-0.7873634288505632,-0.3896036786787516,-0.036268013422567476
240,2.0684301898592996,3.813920497894287,8.980684925260999,-0.7770314489092146,-0.3867897871083447,-0.05487970619994615
260,2.106713888937967,3.7762946789724783,9.01105124490303,-0.7729012129599588,-0.3753711670195978,-0.07292085568003945
280,2.107597644211816,3.7446524510618118,9.015167963309366,-0.779829950117674,-0.3662931353662957,-0.08225026808213443
300,2.0888255834579468,3.6925123031322773,9.028358085338885,-0.7945222739989941,-0.3549276501011963,-0.08043844516998014
320,2.0827472538187886,3.66910065257031,9.094566365946894,-0.8159676405830659,-0.3597395696569288,-0.059843332822218646
340,2.2293531698723363,3.682178637752794,9.31741373506311,-0.834001214945153,-0.3762965847431899,-0.036565602391843414
360,2.496947935649327,3.691487299931514,9.741431261037851,-0.8219662462542583,-0.4073648390892361,-0.041926368960639004
380,2.781002183019379,3.6820026444800105,10.266961239002368,-0.7535463181801463,-0.42959772878797886,-0.08611985644250879
400,2.946057305616491,3.7065746419570025,10.80622990552117,-0.6404144231257413,-0.46675101449055706,-0.15339966248583925
420,3.070186440864306,3.6711210708939626,11.396808506397718,-0.49558320342500306,-0.5209184108207818,-0.2258679921087401
440,3.1779979146936888,3.5749917193766563,11.912080764770508,-0.310207946348675,-0.5571333490442284,-0.30191322815509375
460,3.207127814415174,3.4358091848018844,12.141779200236003,-0.09789530927410875,-0.5509704550537161,-0.38331361985048995
480,3.1488727201969167,3.3162409230112444,12.192891534326112,0.06677345922125016,-0.509147569284834,-0.4387700611190971
500,3.059404900853668,3.1925157623076412,12.110354306008578,0.21667350522988427,-0.4465655041505446,-0.4778540349726552
520,2.955793258929668,3.0683263573151285,11.908190688041792,0.35852832226167736,-0.3854838885647589,-0.5061392860910239
540,2.827674136997615,2.950885748569669,11.562637769777147,0.49253620868466697,-0.33944469831867496,-0.5284255617554607
560,2.673534946924353,2.8471789517033685,11.078463933133381,0.6063255350462141,-0.3122017458120876,-0.5466061090446137
580,2.4976999481772015,2.7491671403787588,10.489486181510635,0.6864446681050331,-0.29452724457783586,-0.5601548719834997
600,2.2953162142724928,2.648223775380525,9.844274928674578,0.7235463472784486,-0.28199642802035785,-0.5654807316864733
620,2.0736154043313446,2.5425213971813516,9.200343048545212,0.7172837130649871,-0.27357123804307437,-0.5607483022150487
640,1.8272923464862427,2.430855222246069,8.613836086037733,0.6765219233633623,-0.27106901507193315,-0.5405658669761043
660,1.5839179374311458,2.3183093277475035,8.071686426787213,0.6123194011080672,-0.2813967696704309,-0.49641744189557024
680,1.370769256165146,2.195018622923387,7.498890770422164,0.5148961692376219,-0.3086414818355197,-0.41646562127025905
700,1.2705579240238676,2.084380660822443,7.04043085062366,0.4029295368308252,-0.338952140709583,-0.3250479776633916
720,1.266382606976355,1.9661115287283124,6.6627609724365175,0.2686286120970423,-0.3703484521860567,-0.22615065146160002
740,1.3291892480474061,1.8422366541836035,6.4037692537712685,0.11713530852417038,-0.4008089755412324,-0.12706106716038224
760,1.4323966224544815,1.7345644510491558,6.304847339842291,-0.024280045017422664,-0.42667803220850015,-0.03547668124637788
780,1.7766758396238502,1.60678466368412,6.455479715577108,-0.20743385165567613,-0.4607287794861793,0.0851542878972171
800,2.3286804780840917,1.528837692893688,6.943674081291285,-0.3428270510378215,-0.48156820440101045,0.16140225809137618
820,2.9135766114847845,1.5075451029389275,7.673530168617692,-0.42658290184952097,-0.48565946883617844,0.1851429524783538
840,3.372311529202986,1.5167700578759682,8.490041759726859,-0.4423883772393603,-0.48384448590931944,0.1710879438210161
860,3.7302565334830433,1.5373604062223922,9.152305125734989,-0.40411703708304325,-0.47321641608599174,0.14212103576328752
880,4.024916038533754,1.56076322797146,9.634571787630014,-0.34143190201663587,-0.4396474984913276,0.10410106447231086
900,4.235952772242668,1.5642761648012955,9.972694335009662,-0.26402353664724937,-0.3929036558894891,0.05813184383598166
920,4.384664916110731,1.540777100649176,10.214683276975132,-0.1601887738095044,-0.3531530059481729,-0.0013453537724139731
940,4.464661392388066,1.5138309523684708,10.310701105049345,-0.056136284522702654,-0.3334844691222797,-0.06008545748810439
960,4.51082945842371,1.4802246860935768,10.297769970089309,0.05020815658474562,-0.31977260289350123,-0.12449464236587868
980,4.524120960018072,1.4432601680095067,10.21498991258092,0.13988706498005712,-0.3101562510934972,-0.18492269365631026
1000,4.505014544936939,1.3787484286611191,10.027141107742384,0.24620024631584636,-0.2997318133548326,-0.2680507291905519
1020,4.43769263679874,1.3065201839030611,9.78661908570792,0.32683307823399854,-0.28858923646754137,-0.34368970074288263
1040,4.324501056460737,1.212868085203232,9.500579489525277,0.3899459449741512,-0.2762196404063783,-0.4163102322537018
1060,4.1690550799453865,1.109206481641201,9.205896425681098,0.4371787192250945,-0.2726434444709206,-0.4832869533282114
1080,3.9753504752798863,1.006753227615394,8.910328761216128,0.47133764791082633,-0.2756185377618361,-0.5409923507669794
1100,3.713887695677447,0.9005062316280171,8.612094051893347,0.4924875145097557,-0.2798536407404577,-0.5810686318038307
1120,3.3877032124174193,0.8293276107166488,8.363918779308543,0.5011632025150744,-0.29114388247253375,-0.5863857833015651
1140,2.930538886107568,0.768775766781434,8.031225950832464,0.49369962040736065,-0.3093297032312726,-0.5275990846134953
1160,2.6291854251585276,0.7285319007450918,7.710640426557589,0.4511026208937776,-0.3066876208839283,-0.40070416638773776
1180,2.6630391668516773,0.7333312574143844,7.55991409149806,0.4008143297964245,-0.29072153739763945,-0.30252295191359346
1200,3.0879673239988468,0.8621341947746666,7.583822364471173,0.3162183872892561,-0.2407808828457593,-0.2126722050557748
1220,3.3787429482653826,1.0521006358706715,7.826003346284221,0.2699389325972439,-0.2166736521836986,-0.20809614951434763
1240,3.46250671654947,1.194126676495895,7.976154096911283,0.2675242208608578,-0.23068321962321217,-0.21410975307326816
1260,3.5691525915720317,1.369516614104017,8.013569223349302,0.26838581094924635,-0.23051646150312383,-0.22127132004793934
1280,3.599864779119893,1.4960084906677422,8.035682430713944,0.25590449626054684,-0.20504261439837898,-0.22957038467868582
1300,3.5784918611386956,1.591268120978751,8.077367702946347,0.2494588171946161,-0.18488737023662685,-0.23454451713995836
1320,3.5376030889896475,1.700879314521283,8.075285908016909,0.25202584508514353,-0.17083614388166332,-0.23690061586628913
1340,3.4950173258527437,1.7869197943116624,8.026150582029738,0.2551178454260596,-0.16327444233550606,-0.2349221080588177
1360,3.4617063513634263,1.857395773314197,7.974946672203859,0.2556755397748035,-0.1573445026481046,-0.22954819599355453
1380,3.4270154410427867,1.9601736180274871,7.901837144135719,0.25421597342034785,-0.14882117951234616,-0.22013132616251746
1400,3.402480063358004,2.03237026847959,7.851629561225426,0.25197043797432833,-0.1447194621396066,-0.21335707722152242
1420,3.3826591899286234,2.123449879497574,7.79299948961629,0.2480499142873553,-0.14219824887019794,-0.20508670181117467
1440,3.3705585551812187,2.2028466652808536,7.747531874307042,0.2437857380121089,-0.1397773988305413,-0.19949614976898353
1460,3.358509253208309,2.276284239538253,7.707824892888408,0.23871780601089107,-0.1367827652703243,-0.1948258664396021
1480,3.3464658531625764,2.345631727680665,7.6764127430237545,0.23341403994862683,-0.13330460096137134,-0.19061388633032889
1500,3.3320369995963888,2.412945287800735,7.650171691981878,0.22825518657521504,-0.12938862356349703,-0.18662234300452216
1520,3.3165409301166955,2.4792182260027746,7.624258580577244,0.22309203225862156,-0.12557834669660603,-0.18248794128988266
1540,3.3051726512283253,2.5453896751223652,7.6044757826941565,0.21780572130260678,-0.12227661017972014,-0.17867868607782605
1560,3.295232187066058,2.611478440089338,7.58890267080556,0.21322525066435805,-0.11931594377835406,-0.1757266670913641
1580,3.2832905955316134,2.675869931588151,7.576909266795151,0.20984472148552238,-0.11712247932436293,-0.1728888118025664
1600,3.2740357935852984,2.731801880437052,7.565555725967233,0.20784792116920062,-0.1150337376828314,-0.1701869588122427
1620,3.2631980038934905,2.8025811788465176,7.5471764606750975,0.20569432271450624,-0.1111349797390435,-0.16665053808518024
1640,3.25217649839691,2.8714824221419155,7.529150498390663,0.203671518854808,-0.1071663748878214,-0.16364217120231075
1660,3.243699611397803,2.924033269098588,7.516467520325213,0.2021207604886462,-0.10354858160084758,-0.16107416316004133
1680,3.2316960793132026,2.9892490736718513,7.4988900024340985,0.20107566866059895,-0.0994470378676386,-0.1587794945652456
1700,3.2234479604833775,3.0313839474495,7.485002307776866,0.20043467621584704,-0.09637882491246252,-0.15754116536420032
1720,3.2082259026110957,3.092924272192769,7.463521649774858,0.19908115929880235,-0.09139207888866217,-0.1559112038417649
1740,3.1895001291446494,3.151105809924415,7.444148204616386,0.19754790993710833,-0.08674984133875605,-0.15404266768607333
1760,3.173161187180692,3.1949761840757707,7.4294907894006235,0.1967440046478835,-0.08416111132593745,-0.15209672504469948
1780,3.1538493715362255,3.2494757923871345,7.410016366068254,0.19632210523822693,-0.08148591086637368,-0.1492135588779784
1800,3.1370266614615936,3.2959179886425063,7.390998030792537,0.19595667174966683,-0.07779862071164763,-0.14542462756514357
1820,3.1205947021215215,3.341187597772229,7.371625762775801,0.19557507147621964,-0.07392710783288524,-0.14149139920451118
1840,3.1064392032034873,3.3855354248616036,7.352761216285797,0.19524083668229664,-0.07042279537424902,-0.13766447940597015
1860,3.093424360970287,3.4349491237586243,7.331784522469289,0.19451008516265766,-0.06590437645484742,-0.13258733075681928
1880,3.0853123242862543,3.473994695435067,7.315609284659634,0.1936589099908209,-0.062200764693746656,-0.12841763681869148
1900,3.0761249535681063,3.5185924837663984,7.297951962820437,0.19283420778570948,-0.05924205180046331,-0.12476908183955472
1920,3.0673144821811715,3.5627933328639245,7.280654994488161,0.19221588260047517,-0.05726156025953895,-0.1214619826561681
1940,3.05979181301305,3.6069086448497,7.26307846528873,0.1918999029469272,-0.05625520264488795,-0.11851760036473144
1960,3.054089574500239,3.656949801251034,7.241962280745308,0.1915513053420145,-0.0558902534177921,-0.11592297545069138
1980,3.0499524130268374,3.7005688205573763,7.222094356923908,0.1908897184853169,-0.05562241543586595,-0.11452656477282218
