0,1.4160553216934204,5.2283278703689575,6.778803706169128,-0.8226380944252014,-0.7370728179812431,-0.2842368669807911
20,1.2455598823726177,5.142855554819107,7.307953357696533,-1.0390532314777374,-0.874025896191597,-0.28164028376340866
40,1.161484718322754,5.145799477895101,8.143964886665344,-1.1668738822142284,-1.0197674085696538,-0.25807130212585133
60,1.3432317823171616,5.101466655731201,9.234821498394012,-1.138821916654706,-1.2436060905456543,-0.22350013861432672
80,1.4312637269496917,4.897515773773193,9.902747559547425,-1.0014027941972017,-1.6068479359149932,-0.1707861910108477
100,1.771727990130989,5.013460392854651,10.094030224547094,-0.8246205233474623,-2.0706235875888748,-0.08216135253255465
120,2.49035822717767,5.188074722624662,10.12387406198602,-0.7170589419424926,-2.3292250131305896,-0.012724074518732857
140,3.3934112035311186,5.272433068202092,10.21147942176232,-0.6832963819328982,-2.2912383427986733,-0.054777868751149913
160,3.8912835578395897,5.488105473453051,10.693336173279645,-0.6606330744705278,-2.1281203145850194,-0.13296109670135256
180,4.219374103310668,5.5992602242363825,11.351979126164943,-0.5754268697325002,-1.9450120226836498,-0.17346168546305027
200,4.6191048354245305,5.572780116220539,11.99600753355562,-0.40801906300541224,-1.7846242623047883,-0.22358186884123957
220,4.900555856449088,5.564099729675608,12.495163121174292,-0.17870975630933938,-1.6858459405370594,-0.33228838587775056
240,4.99035415649414,5.454258042290097,12.71997210184733,0.0686414050248762,-1.6325556830281303,-0.46243974954954215
260,4.921807742751805,5.324277006419359,12.663125856787758,0.29725474080037884,-1.5753617108659406,-0.5798801501998595
280,4.820956799609602,5.1933922412966895,12.434328339316629,0.4862445200069938,-1.4993410728687098,-0.6760819501836192
300,4.695333885592084,5.073041468627693,12.099583492722623,0.6428463081323881,-1.4095158512120194,-0.759905819903857
320,4.49452531838069,4.9173424243927,11.645616895090924,0.7738263982307356,-1.3367360419203718,-0.8338661752233323
340,4.258708296870363,4.803467891956198,11.11201568389761,0.8754177694722753,-1.2956139373404358,-0.8914444842600617
360,3.976899003102021,4.651252543771422,10.491492373868823,0.9617395162032071,-1.2645637677508472,-0.9449973990173115
380,3.698945204462902,4.5212500566317715,9.934984966629633,1.0148945812302652,-1.2453469911875508,-0.979880028427291
400,3.4093949851306045,4.397580078068901,9.355143929294803,1.0463033649002147,-1.2340296606837964,-0.9999903967604041
420,3.135147981471225,4.264911028776276,8.76758830942046,1.0486343088638288,-1.2167724821369263,-1.0052585626397743
440,2.847073156386614,4.114798247013041,8.20762927243386,1.0211377908170263,-1.1884972525247928,-0.9966432030302703
460,2.5362517231902513,3.9543132143690416,7.683445202378729,0.9725500834678521,-1.1637592867197417,-0.9661317190116981
480,2.2280322266465955,3.7946121953520002,7.1712460370900315,0.9093428079458414,-1.156785703681716,-0.9096360870240496
500,1.9793126560747623,3.641524708528249,6.654835768593919,0.8303257745801516,-1.172285354281831,-0.8317517200839661
520,1.804317705162348,3.5107142606946646,6.17117458258952,0.7373347946276051,-1.2074689325140127,-0.7418284142526601
540,1.6543121243274845,3.4033864831708502,5.705615003074033,0.6311797897384989,-1.2600905680310381,-0.6400770207174715
560,1.5300900228321552,3.2913813184922893,5.278009165603763,0.5023943839940983,-1.3128493979722997,-0.5144836438787926
580,1.4309010322017925,3.1038665951961657,4.9365986983441275,0.32453526803119864,-1.3504739019872694,-0.33334560107455086
600,1.4525364712474356,2.867496890750569,4.852471990718606,0.14632151345444094,-1.3695253130232645,-0.12719867094252926
620,1.6806657272013459,2.56007254482193,5.077043990665708,-0.031070771639713564,-1.3651361885468447,0.10882800566499988
640,2.0827969794025583,2.228238351688431,5.608848936834864,-0.17717784870771713,-1.3174359781150042,0.33788832879105535
660,2.551566824831746,1.9576629130576144,6.2562093152309,-0.2767755194567144,-1.2310703295488334,0.5297363424504345
680,3.0493677668405086,1.7754373562163526,6.947291843310103,-0.3287226263279023,-1.1550286739240663,0.6658950833662975
700,3.4641613357306755,1.6542342916751902,7.640631142203597,-0.33077533618799854,-1.106422615268138,0.7550666172671872
720,3.835147338093922,1.5587172188444132,8.281601412097197,-0.28504138356573056,-1.0683161835125834,0.8203629239533956
740,4.218971404972022,1.4656115839415584,8.81225239944793,-0.20098883660012667,-1.0217270149778443,0.8712357096434707
760,4.628614931565428,1.3666362122085596,9.190321405214213,-0.08946581444008246,-0.9653687213638074,0.9005543186728443
780,5.0358735639659615,1.2788663275061238,9.421058129836393,0.03138224084950961,-0.9026517788247038,0.8994638884941768
800,5.387867996992481,1.1946010556426518,9.544015761099057,0.15627699146002216,-0.8404256063571489,0.8699681593268389
820,5.71312209045624,1.1046323572148513,9.507037480312455,0.27990257820103503,-0.789026861127286,0.8202544598507758
840,5.9839358962858205,1.0729894355265959,9.33367368429578,0.39750373955339663,-0.7541139998070792,0.7402238664324342
860,6.1905455471134525,1.0660063656099454,9.147605454171417,0.4700331477304055,-0.7397941303519782,0.6573029736450441
880,6.3557751004073575,1.0720780795419553,8.896125585338506,0.5338072840101278,-0.7352838164451019,0.5490499708657833
900,6.474532101935935,1.0938913195426614,8.630824445799556,0.5738602755453207,-0.7409947118924296,0.4329781349186065
920,6.571568316162417,1.1248650842419776,8.408813090960642,0.5981871232476184,-0.7588434728758569,0.2888200919928127
940,6.608346813982449,1.1333689638773536,8.281977892790911,0.6148669788141053,-0.7886612815891942,0.14980697355799608
960,6.589418726982643,1.1179600816544597,8.176131329400409,0.6298641274304534,-0.8261407741330472,0.006173515264321156
980,6.51780287370012,1.0766680292476263,8.081845545777037,0.6380666489273809,-0.8575782262301015,-0.11613070727707286
1000,6.4091132312506724,1.0246614774946774,8.003644056351476,0.6441580312568423,-0.8901115107245221,-0.2619418788258239
1020,6.222203983898674,0.9720814399975574,7.927532092965253,0.6547537300635927,-0.915750647266534,-0.3761925847713082
1040,5.9278414687054735,0.9357811711297728,7.780909566317519,0.6699635558533178,-0.9466312495290103,-0.4675861087314367
1060,5.562325735510081,0.9114728924379438,7.5536111285503225,0.6694923803970303,-0.9739016205084446,-0.516137064732183
1080,4.957901019535892,0.8884713665460581,7.26698583329667,0.626432877829978,-0.9870812736866159,-0.5014061942184763
1100,4.47525844877932,0.824957089443007,7.185228458733454,0.5656354120320566,-0.9720579069613868,-0.4018277344870818
1120,4.332746718014064,0.6981846636667361,7.272383398777279,0.5125811726087705,-0.9395749650906984,-0.25276459957189534
1140,4.634178364589587,0.6709337172854285,7.408513717708323,0.4830190041820405,-0.9022421356006645,-0.1558970887756386
1160,5.0136717134977085,0.7734101995328801,7.606939593459159,0.47457483595436706,-0.8721230692796834,-0.13883211121683112
1180,5.053461800193049,0.8954657372375278,7.727878988576458,0.5034241102088588,-0.8873281024484031,-0.17450947628654156
1200,4.992661824828483,0.9923559344521292,7.667874412054605,0.5261355683016326,-0.8883869298176539,-0.19341596393898977
1220,4.919523305075611,1.1196166992786074,7.529258118124452,0.5249779274503137,-0.8574734909429509,-0.2014219207306227
1240,4.870857038395846,1.2145672571592356,7.4894432647879725,0.5133728703078777,-0.8299028653896452,-0.20562793486788283
1260,4.791090854434603,1.328184309930719,7.4763757451050115,0.5059662574147391,-0.8085838546860482,-0.2139235497083032
1280,4.71179891424609,1.4095239006498304,7.4530222872663145,0.5057547084344319,-0.8015852323449466,-0.21784783329237714
1300,4.624805424180358,1.5016728070112912,7.406913348330058,0.5060956026488719,-0.7916696330374221,-0.21670614254373805
1320,4.552640141871054,1.6078683192654066,7.349416567253676,0.5022241533957698,-0.7765892653506767,-0.20932604134248056
1340,4.510543100314935,1.6913689831424723,7.315530651843814,0.4968450239470337,-0.7637277659442808,-0.20278149170216417
1360,4.453886674666998,1.8108108218535648,7.2789325083382295,0.48907926136804714,-0.7484599893978808,-0.1945887379027823
1380,4.413327223154002,1.9053862216724444,7.254154790999111,0.4844151216163506,-0.7382467399978705,-0.1889516086309357
1400,4.381799185824097,1.9877659824821468,7.231187059152319,0.4797770333018017,-0.7251106797926572,-0.18234265606076722
1420,4.353078036163509,2.0798787491767956,7.197895542636719,0.4752648385352232,-0.7120228411876052,-0.1762209835104811
1440,4.329249669684065,2.180170139589868,7.156619053526576,0.4683845693142927,-0.6969317680754564,-0.17271828748309448
1460,4.296280740043865,2.2654963348724295,7.130005484991972,0.4620634980833027,-0.68488244124835,-0.17198523261972132
1480,4.260585795089037,2.3478227318418226,7.10506286966636,0.45724002141413267,-0.6744599768657755,-0.17181383278305418
1500,4.222567841698831,2.4277541749740585,7.07690464805035,0.4529638328249733,-0.6633600853073542,-0.17181345542205698
1520,4.187697616125338,2.493797807081418,7.051261763788772,0.4489721462187536,-0.6525097437820251,-0.17154981902254604
1540,4.150313507074455,2.5568855928485488,7.030076720298025,0.4451228791038108,-0.6410539963922743,-0.17081286049571043
1560,4.09317114229568,2.643294583639673,6.998859259918869,0.44101162837397856,-0.6280998657144596,-0.167175641193983
1580,4.05397113732959,2.712867665558696,6.972480514980622,0.43832892971689996,-0.6206551729439255,-0.16245881953433836
1600,4.023197194940157,2.781815311203594,6.944645070294288,0.4355701533123418,-0.6129292070016369,-0.15747135798824205
1620,3.993863217158982,2.859573978078053,6.91246014820246,0.4316982567004107,-0.603907342055594,-0.15272414945957966
1640,3.9742755336583953,2.9108080624913177,6.891910642922838,0.42861304341805667,-0.5979771978300662,-0.15020645929741297
1660,3.946879151562006,2.9773773333261357,6.8662382716029615,0.424036125831328,-0.5905173420762482,-0.1472074347400303
1680,3.912130354877881,3.057603392859831,6.836417947927004,0.41802004856610564,-0.5815944208512238,-0.1433514204439524
1700,3.890046797754506,3.112742147433923,6.816546821588334,0.4135681202510031,-0.575003358293328,-0.14056905425423408
1720,3.865445692736942,3.17403218920271,6.796584667433637,0.40834536432587754,-0.5665094996120102,-0.13784128949517102
1740,3.8372997856147473,3.2404043070628776,6.7767063663924,0.4028088628206698,-0.5557926509251168,-0.13511186911339404
1760,3.815936750602652,3.2904567714938815,6.760646741829481,0.3993852521380786,-0.5481029768420658,-0.13334022758358433
1780,3.7926785383481256,3.345964494462769,6.741198420321913,0.39401625832551596,-0.5354674980218347,-0.13099298285308855
1800,3.768030626025228,3.4061545686416177,6.7213309600670526,0.38825191520847424,-0.5210681791582816,-0.12931774158607282
1820,3.747973327765949,3.450774637170166,6.708065883291639,0.3834686508731941,-0.5089393413502182,-0.12854543543261326
1840,3.721640170810123,3.500391456262519,6.69575957946231,0.3784623233768701,-0.4954939332375458,-0.12763601579361905
1860,3.6944094165781203,3.5491821290716272,6.682423899979835,0.37437748301878393,-0.4838789340108172,-0.12623494324835857
1880,3.665067008838563,3.603711417609051,6.665723714363097,0.3704729474812468,-0.4732356792215818,-0.12445556744659925
1900,3.6353743780649164,3.657676455570798,6.648034385302267,0.36741307989085814,-0.4655202552743046,-0.12286102053348816
1920,3.609887234788217,3.7056666353909886,6.631360296200372,0.36432739839334055,-0.45840902512185383,-0.12112702863565314
1940,3.584340420408137,3.752947383133384,6.6128790301454226,0.36156274236095165,-0.4528960524700292,-0.11966892628727076
1960,3.558909363967832,3.799671705641085,6.5939710457273755,0.3584672210955614,-0.4475812235818739,-0.11806421733781462
1980,3.5342694138070696,3.845212916019465,6.575200345959644,0.3549234369931204,-0.4421626729862609,-0.11639306424871447
