0,-0.3371655423608091,4.466445551978217,6.9484842088487415,-0.9407862822214762,-0.5304855008920034,-0.0688684865211447
20,-0.6739866915432846,4.323855736676385,7.3911714834325455,-1.1287880715201883,-0.5759437417282778,0.07585778125726125
40,-0.8212043265998363,4.132654275894165,8.12850507736206,-1.2245916986465455,-0.6166393482685089,0.2501237618550658
60,-0.49976075756730454,3.8903102296771426,8.548696041107178,-1.2271218624981968,-0.6088900340325905,0.4067505606817025
80,-0.044337063119178864,3.7772964558950286,8.59274635082338,-1.2069696246123895,-0.5926807726301798,0.5063988457138582
100,0.24258128006239327,3.6136936070967693,8.324403996370277,-1.215116065375659,-0.5885037585180632,0.569030455769781
120,0.5692163393424269,3.458030190384179,8.039114542174758,-1.2482521596707796,-0.5956099075183534,0.6114554828555699
140,0.9570498504317724,3.29978435589717,7.813806871267466,-1.2910871487397415,-0.6183798267291143,0.6466168279687946
160,1.464210017188771,3.203912904817764,7.716359602261896,-1.3219507442761773,-0.6431343726915856,0.6825863967892037
180,1.8528877218012456,3.134193655885296,7.626215640409493,-1.3622956732173024,-0.6519585211335877,0.725338759602128
200,2.194742767098877,3.032467412948608,7.839192014270359,-1.4828402135107253,-0.5718591843712298,0.8304218374917076
220,2.6307335557530123,2.971657266422194,8.45674102646964,-1.5681099246959298,-0.5311425316571591,0.9694503232437585
240,3.3214629439391055,2.9192803906944564,9.355285613042003,-1.5672165295987759,-0.5317707385539455,1.078192409751761
260,4.369482255883907,2.836396538374717,10.545712625771237,-1.449727306796009,-0.5476870267951183,1.0290251307499905
280,4.880932251021999,2.868840892783931,11.643073836310965,-1.2302447650581598,-0.6084268667556719,0.8433990465003813
300,5.224072109793241,2.8717943457456734,12.439989900588989,-0.9867329024638121,-0.697561759022154,0.6670494186118818
320,5.544487820209368,2.8400594013324683,13.129115840663081,-0.7550893637851097,-0.7420845911032486,0.5043106784139746
340,5.8610887772926725,2.7568972543494343,13.715129163167248,-0.5213351931729137,-0.7421164194521437,0.3435258519299941
360,6.094143023786994,2.600384788442548,14.07283988865939,-0.27607012223210425,-0.7203312315256184,0.17332967041157088
380,6.19103706770657,2.3751498397991613,14.183616758864602,-0.03298699232623165,-0.7005924558856979,-1.984013324994364E-4
400,6.167330541374052,2.1074482142706126,14.067443693385405,0.19205841069274088,-0.6827051810759311,-0.17112692971987759
420,5.9875892371188995,1.7745356063394906,13.708450160213022,0.4060131654184957,-0.6512468859358878,-0.3531655002458219
440,5.710584927768631,1.4693893707173074,13.265975343352332,0.5584484437371001,-0.6168966185015795,-0.4957876335381266
460,5.359980261402252,1.181665839579625,12.749979150954347,0.6803650443179485,-0.5875663812131955,-0.6133479291859728
480,4.9704798240526555,0.9261765089344802,12.177554028714304,0.7798368052712509,-0.5645649309606714,-0.7041048829677731
500,4.558709896924372,0.6947373086630733,11.498409820720553,0.8534012306746431,-0.5357044045192684,-0.768166377297404
520,4.115310847282954,0.4793320123837691,10.739027452565832,0.8890299903033259,-0.5007099871027717,-0.8064222664500004
540,3.649271376660742,0.27895120664249434,10.000536379088455,0.8881880625064941,-0.47256520670907376,-0.818250242247357
560,3.1898298383393184,0.08815710466909916,9.307759713405307,0.8622269520219019,-0.4658582044861953,-0.8019069444665566
580,2.754716107690776,-0.09242015931402704,8.672444950198992,0.8161438696293367,-0.4803457453120174,-0.7558983207523148
600,2.360296629161474,-0.2556850437772464,8.104593776886267,0.7522723814992018,-0.505192668950584,-0.6773335080022416
620,2.0436822841641527,-0.4059512028506594,7.583538392601844,0.669445490985965,-0.5308716740568428,-0.5684581089469974
640,1.8029654051145811,-0.5633050272666783,7.133884431975667,0.5622373674350899,-0.5529391847475439,-0.4376561383887679
660,1.6214805549383164,-0.735506173277443,6.837319482165304,0.44017650713636114,-0.5794868162932636,-0.2891770173236728
680,1.5257034137005536,-0.9327420812808502,6.6918029334776525,0.3070007783104994,-0.6204695195124835,-0.09922497719854222
700,1.633641258392432,-1.0922847914904967,6.695720310367593,0.19305416758886654,-0.6513099337029765,0.09163096332476053
720,2.023152925868829,-1.180585010262827,6.829630009612689,0.07580506186621884,-0.6573768583295169,0.28961314032164714
740,2.7638837601263804,-1.1455036751176049,7.211061970252157,-0.04160641984373041,-0.6265637613815942,0.45721922437176593
760,3.628151575881469,-0.9945243228391945,7.83100174978682,-0.12469013034413227,-0.5792620056115394,0.549859341844044
780,4.388444743682573,-0.8013114760986265,8.498313206472192,-0.14916162277042957,-0.5620324681870521,0.5764417801897421
800,5.028026312858944,-0.6018568903140454,9.047489640476877,-0.12430509589668588,-0.5581822138437819,0.5635364008478326
820,5.552881197981975,-0.4213262187317014,9.424951691032552,-0.07550781182123019,-0.5375002477987436,0.5292656873489785
840,5.980522316677132,-0.28043064655971595,9.638171505894855,-0.016068361841420502,-0.5016968468665454,0.47922641924989207
860,6.2961904191401565,-0.1902695084827837,9.723813330425012,0.049016795913803944,-0.46714799767579185,0.41122899760931647
880,6.495713191408001,-0.15195579325703726,9.685045988495423,0.1264820766239746,-0.44113252824411586,0.31917510354916934
900,6.565141543826108,-0.14540730722333675,9.54408239675886,0.180257564057566,-0.42640364282343274,0.2452962481421769
920,6.597516461971559,-0.14786094855639692,9.315138919009385,0.22510907001744368,-0.4092363063452802,0.16282031782902778
940,6.585312732311018,-0.16705415845228536,9.032123879388282,0.25690764919220255,-0.3905938685257263,0.06929626620128022
960,6.528394105985309,-0.19293818469606153,8.80779959327739,0.27251631001509125,-0.38305802693260677,-0.003851021821093228
980,6.435405865089769,-0.22074592842953858,8.578639387109181,0.28101272362217344,-0.38255223862132953,-0.07479159534208606
1000,6.237999703699033,-0.26194439923219365,8.251608097438698,0.27580190198518534,-0.385636489929549,-0.16805900272757682
1020,6.008165589482866,-0.29435417053539686,8.031075390303538,0.2588129735478773,-0.39053327008966254,-0.23207223900503118
1040,5.720412272178418,-0.3268224803051349,7.8421149328047095,0.23279206509678027,-0.39887900293697787,-0.28170201554243174
1060,5.388054289102759,-0.3586555592965087,7.7011280674870966,0.19666656799980992,-0.4076797264622518,-0.31190369280110575
1080,5.037754258203708,-0.3883860705033196,7.629972799298134,0.15549745287829905,-0.4209361659769712,-0.31806600969703347
1100,4.710596512016279,-0.4237069935356956,7.647625465916416,0.11865253423527705,-0.43903542375055843,-0.2994319884081846
1120,4.415236870331968,-0.46419740541900734,7.7091058036171045,0.09127460794478913,-0.45418996143358337,-0.254257349739833
1140,4.2044390849769115,-0.5038120394983668,7.793741120069202,0.07002753841637104,-0.45871997992485775,-0.18526873780664668
1160,4.122074810143724,-0.5324374666404315,7.905864389304782,0.05286091374940155,-0.4513198411182707,-0.10475693527702828
1180,4.150766542454049,-0.5348547961226827,8.052322648842003,0.04300472327152786,-0.43696396082877326,-0.025612992541768503
1200,4.306356799438113,-0.48428848348953857,8.208192846183533,0.04300113763827039,-0.4226651076115017,0.054618356498674706
1220,4.5318017468316505,-0.38796455403548696,8.323146451153306,0.04955646127997619,-0.4067586335877422,0.10981951321315658
1240,4.7687893238064705,-0.2641377902434518,8.397131360387977,0.059987552546412116,-0.3868342559354371,0.14604620565203766
1260,4.985704958374148,-0.13040372901272504,8.42466186429284,0.0733004673170627,-0.3683283643941548,0.1663564165683758
1280,5.184916973730174,9.880659760050333E-4,8.406664601403214,0.08730609442515497,-0.35198024852356713,0.17329299342092622
1300,5.35850209393277,0.12348703722546246,8.34763011871401,0.09867078171409004,-0.337339836190963,0.16864494796605145
1320,5.503702074557378,0.23066867542164435,8.264616193909651,0.1049288922520887,-0.32353845785182517,0.15453297582994527
1340,5.6211023544655605,0.32217369210229,8.168301536054773,0.10579096327302978,-0.3115834604278842,0.1319714390283281
1360,5.699902054810343,0.39537997613827897,8.06319841357302,0.10212385041599986,-0.3033636869489437,0.10279279307705955
1380,5.738762702201567,0.45643076695406537,7.934780287101366,0.09204867147126874,-0.3010121445758539,0.06568833824240551
1400,5.7364676995316275,0.48950869685200893,7.8219091845919255,0.07641859092162517,-0.30288100782204824,0.03139535718637964
1420,5.6888371196289516,0.49404777791015614,7.713688605357965,0.05379624510168755,-0.3062489703480325,-6.40886508273424E-4
1440,5.603981197472857,0.4775652993232478,7.634641759507295,0.025226230309392104,-0.31384088495396023,-0.02492886165223146
1460,5.496298149638562,0.4470010318106137,7.61202011524213,-0.0010574413632557344,-0.3279995091424871,-0.03734367398019625
1480,5.385274621257574,0.4177316752142738,7.592879040844898,-0.021057853821773984,-0.3491382317108722,-0.03393225899945079
1500,5.314809468206836,0.40572022549596015,7.54837362981303,-0.04280962831344516,-0.3711153118643054,-0.015577242241763488
1520,5.3015393243435875,0.41298519638045594,7.51259992671697,-0.0746237807225116,-0.38467357122818796,0.009358838508518512
1540,5.344640015882755,0.43437534099424085,7.533452638562196,-0.1142360741261868,-0.38805755576635037,0.029059703864759385
1560,5.396571412041247,0.45575837379231093,7.626803202639117,-0.15077099221534823,-0.38575791857226827,0.036913625041900294
1580,5.419300118118663,0.4708527215213804,7.7525674858442875,-0.17529534983791992,-0.38282939655138787,0.03691230945892263
1600,5.420565646374953,0.4816658774504566,7.879124607947719,-0.1870766240561324,-0.38232900379074536,0.03476992577193518
1620,5.416931122575141,0.4919110285848671,7.9808086795313775,-0.1908283235775981,-0.382309049698626,0.031282991981049536
1640,5.405141059754055,0.4994187934282444,8.056681603121001,-0.19090626558910972,-0.3805514856775938,0.027622318669194495
1660,5.382677862401476,0.5084072951109468,8.139408961327991,-0.18727344852705544,-0.3741806607057522,0.02458543190081084
1680,5.365366891384385,0.5164631543643068,8.192166390914194,-0.18064773177000756,-0.3665559938863927,0.02412611856959012
1700,5.356662988394714,0.5263081541258118,8.222333279632622,-0.1722103246566404,-0.35930688338372657,0.0244100360856425
1720,5.352190900228356,0.5366002361185499,8.235665086678006,-0.1644907433138643,-0.35365996095927316,0.023996185625112614
1740,5.346088027893323,0.547314203498851,8.23553943166145,-0.1561248200766834,-0.34747074703992553,0.022805203893221916
1760,5.3362833527123765,0.557816710001013,8.223216744279489,-0.14752896704319735,-0.33903973744203947,0.021011737596644604
1780,5.325769232988276,0.5650796855093996,8.21013717967735,-0.14304159217763263,-0.3331996933799692,0.019872632648531948
1800,5.310868159007362,0.5727155833067271,8.194354661148163,-0.1385385785345178,-0.3265979342856514,0.019490181312468612
1820,5.301961818760041,0.5807311031053604,8.183263803697042,-0.13531486482671787,-0.321265332201062,0.020059394495879672
1840,5.294735493881509,0.5892735658736127,8.173386676529264,-0.13261800277108163,-0.316109227334156,0.02092389353802378
1860,5.287210660300365,0.5977401814264196,8.163966444933688,-0.13035496430100849,-0.3117547948457956,0.022006372966203152
1880,5.2820143781145825,0.6062615981709207,8.158233123480535,-0.12873956861658656,-0.30847386183389286,0.02320576207184098
1900,5.278379432386575,0.6191557892442191,8.154186922879218,-0.12692705800048118,-0.3045487042039257,0.025079036358031014
1920,5.2789959488531615,0.6325020841120894,8.15272014361464,-0.1252757634708304,-0.3014299536836999,0.026634237173961343
1940,5.281616272937981,0.6476338511840223,8.15123035208631,-0.12361463222609807,-0.29777500883939423,0.027462584520590316
1960,5.281646965807304,0.6591034204594325,8.150159000768326,-0.1226375080415528,-0.29467450576640203,0.027630653209926095
1980,5.279653496211406,0.6733794621328912,8.151376786145608,-0.12143558524490008,-0.29073641713337034,0.027902851008714553
