0,-2.8311793274349637,3.6705006758371987,0.9745068682564629,-2.4059391816457114,-0.894036610921224,0.5873343977663252
20,-1.6979280403431725,3.446574155022116,2.357262884869295,-2.8572109867544735,-1.1764396078446333,0.7614494439433602
40,-0.40696174442768096,3.2880745697021485,4.311322741508484,-3.0345825290679933,-1.3412961959838867,0.7992462766170502
60,0.4870598907723571,3.21723714019313,5.931882999160073,-2.9711211883660518,-1.464733235763781,0.7104639085856351
80,0.6200764131982152,3.342103865088486,7.046965549631817,-2.8059965401161007,-1.641199818471583,0.6450521044614839
100,0.6726094838611933,3.484997953687395,8.027225978520452,-2.656951512609209,-1.8574293949166123,0.7268526420301321
120,1.4343646400068935,3.811442651246723,9.045526954165677,-2.524551119720727,-2.050536881413376,0.8833595587496172
140,2.7242427120988184,4.189184115483211,10.344605620090778,-2.4226356469667873,-2.1527047909223116,0.9837648309194125
160,3.8946579107762993,4.338513342109886,12.135499733525354,-2.2563887242529845,-2.1268722382751672,1.00220132518459
180,4.476676048411999,4.310591824260759,13.529850275428206,-2.0382914610299063,-2.0384462299170316,0.9761296260504075
200,5.044017762028509,4.113712334632874,14.995324377218882,-1.6205078927179177,-1.8640249600013097,0.902913080735339
220,5.445981358463059,3.8554439523390363,15.637596372438937,-1.1703966960158882,-1.690210036477264,0.7663870015162595
240,5.485106497785999,3.757599783464543,15.67412457767042,-0.9035807611438834,-1.606591052041181,0.6449885390771245
260,5.472178657392138,3.421705725096297,15.254951467639522,-0.41981278026574537,-1.4684586330856149,0.3979914344585778
280,5.422823396883905,3.223277297988534,14.85965978205204,-0.20816692765802144,-1.3894097038253677,0.26547066662460567
300,5.156182484042186,2.8539975096399965,13.967975553182455,0.07390588011879187,-1.2538223677547649,0.05626365307431955
320,4.825305049199665,2.53410432336555,13.140344613758119,0.24348416141625764,-1.16529948669452,-0.09054302569964658
340,4.411823001843303,2.217968625871286,12.248228808022933,0.37148778033379004,-1.1114093091016737,-0.21663908032725934
360,3.9596828379148206,1.9464200134207676,11.343870503610217,0.45771725025850457,-1.0845582861825218,-0.3175151340856955
380,3.53368883240784,1.7129860486329338,10.429260813205698,0.49247114006199955,-1.0458795112991752,-0.3898780522983015
400,3.0892671857421337,1.474365683588368,9.467400545308813,0.4706828841253331,-0.9672844178351023,-0.4494202095601294
420,2.65555494342145,1.287062143064078,8.700183093256458,0.41345214456652796,-0.9051517700378434,-0.4841483905078979
440,2.213177440170059,1.1403367292275404,8.03403571076731,0.33267501980703784,-0.8774363728038429,-0.49051257653191765
460,1.7715898747723071,1.0174289063765452,7.4638882955297445,0.22848257296360455,-0.8741826052455088,-0.45815801314818555
480,1.3339197449294364,0.9078186259334311,7.0511737469161675,0.10419936261594002,-0.9013537927129274,-0.37741503104787744
500,0.9965665251528624,0.7937844242388603,6.78047082901566,-0.03239647574475591,-0.9570619258753761,-0.2432762435262237
520,0.8498601300448401,0.6611675924226029,6.667789323280935,-0.1851141146941272,-1.017346211321031,-0.06263661057981726
540,0.9970561577805158,0.5117323484583574,6.84153710496058,-0.3500457827805948,-1.075704316308082,0.14429130428162965
560,1.472845344535729,0.43096085526841754,7.439460923950723,-0.4892173999484549,-1.1185411849861686,0.3428716050817611
580,2.175357896302838,0.47019262286861246,8.292435154625418,-0.5611181351444359,-1.1349529283947155,0.49918928852787725
600,2.9966084977947696,0.6292794863303819,9.173268723891551,-0.5604092949533842,-1.117649686644299,0.5843470799495499
620,3.720131287880738,0.8408738288409922,9.890904017051675,-0.5062856543593425,-1.0740886644332608,0.6036022307789924
640,4.369034140138824,1.0497335321200427,10.439282907590048,-0.4088315454992785,-1.0130637613526519,0.5784614314359905
660,4.83525828277925,1.1780025597283805,10.726104120521441,-0.30426246516298555,-0.9510037841408622,0.5243288057458088
680,5.164218935489976,1.2374830364551344,10.81940843951954,-0.19054899233537662,-0.8870650591405804,0.4447969680120775
700,5.372348934977334,1.2518406768571841,10.741072516837349,-0.07785134022570636,-0.8297453598870437,0.3490254947603106
720,5.482902488066659,1.23797766884168,10.533344261745611,0.024446880171696345,-0.7831774702318944,0.243165835859254
740,5.510683574608691,1.2008535165200616,10.23568406691412,0.10953660768928467,-0.7464232871138079,0.1341708607506007
760,5.47100550554401,1.1436825117267244,9.885079749305792,0.17299901849672764,-0.714272457082856,0.024227186397920493
780,5.359262999472708,1.065428922749067,9.511857445133321,0.21442890254619681,-0.6817694890138946,-0.08329720084877386
800,5.17831379848782,0.9722409102846924,9.128047442131013,0.23753827195390162,-0.6518965891908843,-0.18252250918254526
820,4.928675689683159,0.8710475113379824,8.73265015404014,0.2426396699731841,-0.6340366873664178,-0.2656142701805734
840,4.6382308159613626,0.7785396759114603,8.35790965774621,0.22725731312115302,-0.6328161889787538,-0.32704560139923006
860,4.365149298103684,0.7086289665989682,8.0715265128814,0.19993756915062247,-0.6429315803749618,-0.36176350156868425
880,3.9981233958227835,0.638391170028986,7.752316676243976,0.14906086950757347,-0.6702465053109176,-0.37669606709719766
900,3.709485171220298,0.5839522689746598,7.55307207202333,0.09735396405998266,-0.7020206732563725,-0.3602720444037948
920,3.3649584709844356,0.4924223418224995,7.38770908067297,0.018271145597100257,-0.7536629173310326,-0.2980355002010535
940,3.1042726079089635,0.3701786805909204,7.346204221373443,-0.056130222534549606,-0.804946368962848,-0.2001584869324585
960,2.9487469715631867,0.21411838630129668,7.427222000952396,-0.12770705401069588,-0.8517393955973804,-0.06121119130826132
980,3.1118638051909473,0.06589556872890687,7.667676060996306,-0.19429893620588162,-0.8829315284146341,0.11324837270112317
1000,3.5168247478997143,0.05761999071991632,7.960341876689164,-0.23366127555593125,-0.8788396132611489,0.21474973875260686
1020,4.019966332262404,0.16157829200272403,8.396243147170615,-0.25444697150517076,-0.8547122602899825,0.2632932680326381
1040,4.418057561895999,0.3055073665368147,8.877148658914235,-0.2296941259176859,-0.8375543904895645,0.26451918151715903
1060,4.670420141534457,0.4023413286916057,9.117806799479101,-0.18361931065217071,-0.8243011247015285,0.24586358046748702
1080,4.9303174673867405,0.5000908659352513,9.26903277150868,-0.1181067580252551,-0.7861363321098007,0.2028375551502189
1100,5.0692520437676825,0.5554277886951108,9.305629388756113,-0.0627163936431308,-0.7340842636634142,0.15234950687078386
1120,5.140621315763148,0.5881201921539975,9.265520513292055,-0.011398642382497643,-0.6801565630728108,0.09827587928687607
1140,5.17417381576742,0.6088569809296607,9.183017044598794,0.029347543437511493,-0.6390002057743338,0.04947833075888582
1160,5.196415987101999,0.6178850050816881,9.006351092736779,0.07959157892475567,-0.5929350764329924,-0.02600295116314392
1180,5.177642340637917,0.6119793699094161,8.852713553185009,0.10900388541295357,-0.5715639475593823,-0.0841640894349242
1200,5.080738420642041,0.5889760556080292,8.634603336023597,0.14038872371921654,-0.5604561816515431,-0.1586048804951251
1220,4.9283063356821195,0.5694660155373473,8.42131365888355,0.1596532280285995,-0.5694098538543799,-0.21385853548545347
1240,4.748765104164041,0.5622660824061171,8.201322096228308,0.16572548145172641,-0.5939446222014251,-0.25196687185625527
1260,4.567612230290954,0.5507805408446054,7.9758315130018245,0.15328269031862496,-0.6240154626221004,-0.27170581791485193
1280,4.408186469506028,0.5247602092669833,7.795925775021314,0.12388296817030225,-0.649060925704294,-0.2733633809518956
1300,4.177290991648477,0.47588233086228204,7.627119434760249,0.06521468135189921,-0.6821034791254114,-0.24861553887058788
1320,3.9657680805505344,0.40810339543384216,7.5670291905349805,0.0048077797922700975,-0.7196153562384524,-0.19173594094929716
1340,3.845406886416221,0.3269267279827774,7.585794993728833,-0.04327091137676725,-0.7565582812096218,-0.11501729711788437
1360,3.908367306930781,0.23690950806589803,7.678158260447951,-0.09233274332190927,-0.7884723058677242,-0.00593289108880158
1380,4.136930963994076,0.24224396766239098,7.796402485830571,-0.12883875471648396,-0.782586995516772,0.060356246858716746
1400,4.304226470427315,0.29011922227104975,7.927042682621024,-0.15556678672631583,-0.7634397408535727,0.08584463985614076
1420,4.443685750381567,0.35710852218897277,8.100469922394481,-0.17606335318620167,-0.7476448381002545,0.09666455471105426
1440,4.5300114654818495,0.410999150800183,8.198334578802895,-0.18259407958100896,-0.7428026717300361,0.09735756976192726
1460,4.615714629998941,0.46578933913198506,8.27094641936716,-0.18686785057609984,-0.7327350684265157,0.09137283688339597
1480,4.685443596526615,0.5159353694880053,8.326646794861142,-0.19042526023490033,-0.7181382711230327,0.07802758114090223
1500,4.729466694522634,0.5550136751775455,8.369923803543415,-0.19234851727156135,-0.7034050510420153,0.05819796941477836
1520,4.746144674732208,0.5815784303100711,8.398272830705917,-0.19255095882936235,-0.6905839877561135,0.03436435845024274
1540,4.74122034499928,0.5997683345908432,8.417837387284415,-0.19177501047658846,-0.6793871049879181,0.00900624564770615
1560,4.725051406755277,0.6112584875144519,8.432354404210624,-0.190284975712568,-0.6683013736964852,-0.01576943532454436
1580,4.7013606151592535,0.6188367988001642,8.44121154518064,-0.18864079856729765,-0.6574733225276789,-0.03921703533794863
1600,4.671704855976447,0.626136995081097,8.453988506543881,-0.1864080967384436,-0.6471895095388257,-0.06340067154619979
1620,4.644105386641508,0.6338974955135462,8.467480108921741,-0.1831080324860873,-0.6405805580350233,-0.0823531566673037
1640,4.616407475635545,0.6455005616229582,8.485608029461998,-0.17729233686086013,-0.6353400666786391,-0.09836164145824677
1660,4.59183026409934,0.6588452486006324,8.497895965391002,-0.16871063557645197,-0.6303059090004193,-0.111037347182248
1680,4.577989524513615,0.674775896855186,8.50482264184393,-0.15870041900103218,-0.6252092162091664,-0.12191714426681269
1700,4.564171026130649,0.6932928042778017,8.50450826056794,-0.14826677651438946,-0.6194873709069704,-0.13297232465374273
1720,4.543733275052628,0.7132123537290185,8.495379593789535,-0.13980812627679287,-0.6127304345935211,-0.14290391435894312
1740,4.517585605363625,0.7354392186238881,8.487233102546607,-0.1343560753916024,-0.6051640580648627,-0.15010176927735505
1760,4.494563703385453,0.75921124596692,8.48771674059228,-0.1304766041912242,-0.5973419367521677,-0.15396015331692373
1780,4.478288645581355,0.7844709169009577,8.49207507603505,-0.12683238182856527,-0.588833519153183,-0.15590171694146612
1800,4.4709810031310315,0.8092855964597497,8.494627006245656,-0.12333468438515885,-0.5800664481666109,-0.15744574333708125
1820,4.465904707858189,0.8385172720335974,8.495353251550622,-0.12028377643792622,-0.5674221310919251,-0.1611136071446458
1840,4.448158965149529,0.8647961088952176,8.494301319335047,-0.11860183438417288,-0.5559412612303644,-0.1641681290690504
1860,4.430102485086536,0.8875690677852713,8.494649340815254,-0.11750732002167895,-0.5477178621919225,-0.16510731489765212
1880,4.407072829314227,0.9169063287156165,8.494212767755993,-0.11600301104861309,-0.5393334560570705,-0.1645025328559842
1900,4.38737389846271,0.9418746085329271,8.492308093366745,-0.1147310539287937,-0.5339742264759211,-0.16227766486577583
1920,4.376433110067763,0.9670509609838674,8.491769416065543,-0.11340088651072128,-0.5291401576895896,-0.15982063292246906
1940,4.365972806328748,0.99265560447761,8.488574768427153,-0.11226278744923646,-0.5236238178886552,-0.15793976263456694
1960,4.355583906156556,1.0173002888882223,8.483195428893472,-0.11191278985725046,-0.5175400738320896,-0.15635912162257584
1980,4.3438018193328585,1.0408861924098674,8.477528735548626,-0.11261983602073179,-0.510596317986834,-0.1548920396757997
