0,-1.9052381217479706,5.88336580991745,3.516786903142929,-0.8472057580947876,0.24696519784629345,-0.26659341901540756
20,-1.9187101051211357,5.418582260608673,3.4652940034866333,-1.2034368738532066,0.07519130555738229,-0.22238493710756302
40,-1.9042401959498723,5.076942682266235,3.614483783642451,-1.508157993356387,-0.08810486049818185,-0.18030698845783869
60,-1.7382762161168186,4.74003419009122,3.953741947809855,-1.7781541166883525,-0.257885413829971,-0.14949502005721582
80,-1.536434300062133,4.431428915116845,4.316818417572394,-1.9390401462229288,-0.3824989121214191,-0.1204053479667026
100,-1.3511820940338835,4.126569971746328,4.660561556718787,-2.034793583714232,-0.5086306839639663,-0.07059561840866749
120,-1.0736830969128692,3.9643457646955524,4.784660954224436,-2.1268243475964197,-0.618400985321945,0.006525444883951231
140,-0.5185033213633757,3.969652953514686,5.037647419709426,-2.2965247062536385,-0.6285736121631299,0.07201318787052655
160,0.20531551784848515,3.970417643246585,5.753952624046639,-2.5679890799195797,-0.614284699588172,0.11791598184786942
180,0.7300868696427043,3.907368445698219,6.545679572262341,-2.7624618961841247,-0.5539872582995957,0.13201775901974475
200,1.5010314628984152,3.5959201709608015,8.296321073274934,-2.8798514979608942,-0.41104955358817924,0.11854756568045763
220,2.0450257909359393,3.3538423048466752,9.681582930161781,-2.719502732618568,-0.3713645347035202,0.053760162516276244
240,2.3339117613521596,3.19937420441109,10.594636748137983,-2.4935137748139575,-0.37135488535921785,-0.04100039497343371
260,2.4361588742616958,3.0857602650612854,11.7051603583108,-2.086642111033465,-0.46217923291260377,-0.25432873284032126
280,2.4939221748318827,2.8418478581321533,12.610445817963022,-1.7802816636798795,-0.546114291438221,-0.42138690480669916
300,2.442096746410243,2.6357752523908857,13.134680582210422,-1.5093841177877039,-0.5859675839569718,-0.5596160375062027
320,2.1866876432888103,2.2165733257551556,13.791234609009564,-1.119228354182796,-0.6176262138570842,-0.7295511674635329
340,1.9724060364452929,1.9118037858142936,13.99452917000343,-0.8541712775312621,-0.611772954589607,-0.8228267561580087
360,1.7474031787194115,1.6085550700020241,13.998385534474725,-0.61118657788948,-0.5810711769694248,-0.9011686450961095
380,1.3360661409542332,1.2025364101346996,13.753769831892885,-0.30127248186388134,-0.5253466063823672,-0.9862157186251823
400,0.9767030920723782,0.9124320459059057,13.364279984025394,-0.08459385545814739,-0.4778611084655174,-1.0265468091484817
420,0.6944196123989638,0.7274327909108251,12.959002159070224,0.054840258745984596,-0.44108064435534866,-1.0394609339207157
440,0.2258014225210714,0.48260934068070305,12.111253734117234,0.23103520834958682,-0.3793286911593074,-1.0242541665361533
460,-0.13092361946503833,0.35500611297632617,11.352331326986404,0.3157871434676279,-0.3353349861113436,-0.9810179623141501
480,-0.41732918492411797,0.28211187198758125,10.702556307228347,0.35279812756462475,-0.3010173054190181,-0.9215402597820952
500,-0.7183120016806892,0.22777777862335954,9.93161038064531,0.36199244934888114,-0.26696529768856375,-0.8181493044476069
520,-0.8841121984926397,0.20173940002986285,9.213378051270361,0.33532112430287825,-0.24661766942595792,-0.6945354405611958
540,-0.9233697462695679,0.19082082167989883,8.626691894548317,0.2822942967620978,-0.23896257439756455,-0.5808839714482821
560,-0.8836603257171017,0.18178709200088014,8.112777390029835,0.20287361222695796,-0.238698499807543,-0.47242290623723826
580,-0.796743194867738,0.17168250374894573,7.69530648817864,0.1029033109147117,-0.24894883203029886,-0.37092576797193094
600,-0.6635253971954622,0.1517163891033585,7.387986709308102,-0.012521692703800847,-0.27149020573166033,-0.27213406472641277
620,-0.46173943894911684,0.12267309641573419,7.200048569776837,-0.13596844326517757,-0.29940698820756906,-0.17456937485291807
640,-0.1707460604510392,0.09486789924654175,7.123192035973295,-0.2632567723899075,-0.33229180170011213,-0.08178200440530138
660,0.2374204738641327,0.08359054497697137,7.165620045011694,-0.39316627956249495,-0.3676831959994425,-0.0022044641761617225
680,0.723795247063462,0.11680587386389925,7.345609840782287,-0.5191828380914754,-0.3997449057019158,0.05418481165378654
700,1.2483813622422337,0.18104208977668965,7.633775292188441,-0.6356788724020789,-0.42771556485653134,0.0837248381054432
720,1.7845780106952855,0.2524222580834376,8.027296794098755,-0.7361184818962944,-0.442142002296402,0.08074514257307336
740,2.2560617091856194,0.31623621277681,8.48938503385755,-0.8092547909323283,-0.4345876219697943,0.04045431421165649
760,2.630004427012622,0.3563804425346323,9.032316329169877,-0.8485979677260488,-0.41508992341633655,-0.03791889554490866
780,2.860850975751003,0.36032479504744214,9.460512367847524,-0.8446461147525244,-0.40742281600664065,-0.12530285677941586
800,3.0023158385687654,0.346282331351505,9.823966572622219,-0.8144937480339803,-0.4074922175904391,-0.22427321599336364
820,3.0654279147055656,0.30774593932882827,10.117253264784813,-0.7666701517999173,-0.409623086161617,-0.32851660362554386
840,3.070960452908956,0.2483642316109337,10.329091586537595,-0.7154824628524203,-0.40820506457135386,-0.4177673210548264
860,3.032821453778136,0.14039121334849114,10.541954753606507,-0.6397095541522074,-0.39068684851691216,-0.5232922077058616
880,2.9562043346065496,0.029977228789293504,10.667581941236506,-0.5638043996315081,-0.3576718879843471,-0.6039237239740912
900,2.8539749462287674,-0.08578934062833107,10.727395950305846,-0.4810139022126634,-0.3142716762760306,-0.6707567339187228
920,2.7257277446210777,-0.19636639402689118,10.731162784444658,-0.392829780006095,-0.26993055625184514,-0.7240291655578307
940,2.5765720158671366,-0.28999489713844256,10.679682663267421,-0.3003777417248672,-0.22841181674418304,-0.7623902605870527
960,2.412867385466028,-0.35552130548302274,10.549553450159353,-0.21131815734987308,-0.18522551052952585,-0.7832520369821313
980,2.2674239393064832,-0.38395789375635,10.381364146178177,-0.14303121891418108,-0.14635297825410337,-0.785504066371463
1000,2.1109446825056253,-0.38456672366590683,10.16099608089512,-0.08014241430156133,-0.10579188315975627,-0.7713032547008346
1020,1.968957063258581,-0.347152387474974,9.899283327942802,-0.028021159164962315,-0.07085011685890745,-0.737701530131467
1040,1.8915898817869896,-0.27728507168173233,9.670753528024548,0.0016221338970081828,-0.045870531656780435,-0.6980031021439828
1060,1.8579597907093965,-0.1661387236801656,9.445940991015402,0.020137410585340156,-0.020465854915137055,-0.6501580760611788
1080,1.8602628954550189,-0.045677593802468164,9.272095153543553,0.027501772260398006,-0.0012973836232029069,-0.6092279311123021
1100,1.875072544675518,0.06680621567750926,9.147332396230503,0.029747314289607835,0.011235365304509713,-0.5769942571775807
1120,1.9002532721284995,0.21794678957692454,9.016324160774108,0.030422853398866096,0.020364551320485164,-0.5403860062825415
1140,1.9264606680824525,0.33804576269263387,8.928029319768946,0.03010328811330673,0.023358670985062495,-0.5156934289480599
1160,1.9697655846932962,0.4939966547133038,8.827655750848118,0.026991993126379368,0.024666888368305256,-0.48988801642151186
1180,2.0084486642026715,0.6293765968115059,8.751416554006259,0.02128763739595708,0.025775931720242635,-0.47319649987729245
1200,2.039118758098621,0.7595418621965403,8.689306118519898,0.01407466023191204,0.025973699040113707,-0.46239961709304733
1220,2.0606682134193632,0.8825671321112001,8.649438918562618,0.00441446799242092,0.023879731876683605,-0.45226942077688054
1240,2.0760247186596295,0.9849989757264458,8.622292266678299,-0.001322839027784002,0.020831357016375722,-0.44612925584147517
1260,2.093895727264149,1.1105479110803318,8.587915013419964,-0.007568454834663199,0.016700399253806515,-0.44047464313016166
1280,2.1039129938575485,1.2161636039614678,8.555443514503894,-0.013632485355649676,0.013996168151165226,-0.4367404835932844
1300,2.1107747697826014,1.329787563783734,8.526440327174347,-0.02132903541741746,0.011547234219482365,-0.4338818133685717
1320,2.110773758191526,1.41369022639699,8.508986795321107,-0.02642758595524786,0.009995293543246263,-0.43218885974436927
1340,2.1084315967729146,1.5174452534995295,8.484648809084161,-0.03170947009866888,0.008584671186135066,-0.4304155804161829
1360,2.1054071639722993,1.5941758117700393,8.465259243468328,-0.035170362550009514,0.007634742920854609,-0.42997666458512324
1380,2.098215563728058,1.6665345003815195,8.444096093141995,-0.038151538541130986,0.006879327834954532,-0.4302805409389416
1400,2.079890973388967,1.7629681161445816,8.412397979109675,-0.041845848232196184,0.0048787422403766215,-0.431135004179841
1420,2.061914388887277,1.8357660938758416,8.38692666705749,-0.04438709279140794,0.0030666166711510474,-0.4315535458788218
1440,2.0429639370922565,1.9043531842529773,8.361330171841812,-0.04777305151446391,0.0014267018188177845,-0.4317825178801224
1460,2.0210161024368176,1.9677449329616035,8.337483877001523,-0.051109818511184645,3.4622926808921715E-4,-0.43173166130938845
1480,1.9924748457256318,2.0367333826530705,8.313294651557552,-0.05468297515316104,-0.0012521736013712255,-0.4308213815288664
1500,1.967713092976227,2.097223286161093,8.293158547934599,-0.057954540339911854,-0.002866385656321891,-0.42903237646422915
1520,1.9483831375058729,2.14854054324257,8.27766146966319,-0.06111548773920421,-0.0040231859973082285,-0.4271854462466649
1540,1.9276562733960056,2.2047676416025275,8.263817563584992,-0.06469162678907787,-0.005015081294631171,-0.42539897143123817
1560,1.9047688854899152,2.257839070253518,8.25418740798512,-0.06783329039158119,-0.005947037909722224,-0.4238635055252955
1580,1.8783701610961934,2.3087507346443163,8.247201913353575,-0.07003635553291339,-0.006960624532219767,-0.4220494587192796
1600,1.851097501632088,2.359076033708061,8.240218860000395,-0.07121554609467859,-0.008127772409040964,-0.4195582138311078
1620,1.8246612748935864,2.4095236178588832,8.230857611133006,-0.07220290675534223,-0.00874051569883284,-0.41647547018169806
1640,1.79670019341208,2.465342556877303,8.218832898315947,-0.07363461413255569,-0.008131708474340537,-0.41238302170734814
1660,1.7752818198638327,2.5083556432265977,8.210424033306802,-0.07498601973496355,-0.00707641784244239,-0.40872215128615
1680,1.749954049796777,2.5636192600431227,8.202238033326367,-0.07631413981796353,-0.005874004330993127,-0.4042314735126516
1700,1.7325551421421792,2.606240354660866,8.198856218127528,-0.07675896832445685,-0.0050577260841520215,-0.3997207626758106
1720,1.7153731173626081,2.6550020910374967,8.195463779371794,-0.07587543291208493,-0.004365604351485247,-0.3959873249221556
1740,1.6996071396605439,2.7020982625094097,8.189098356540878,-0.0735000299079947,-0.0027684278018005244,-0.39168771010115216
1760,1.6809207224345382,2.753846210662032,8.17636385587237,-0.07124032079914071,-6.001136520414413E-4,-0.38811515397288443
1780,1.6656965775333201,2.7937079339952673,8.165509341241018,-0.06945299663768245,0.0015409562574634098,-0.38443645126360776
1800,1.6452545048364462,2.841795214220922,8.153805186766471,-0.06792668423968132,0.003225358170777564,-0.38052227747961576
1820,1.620838410778831,2.899014933463462,8.14300228455035,-0.06671438600948208,0.0035814790242078335,-0.3756002106197419
1840,1.6033379194910327,2.9441976398130256,8.139493384423355,-0.06571955910945933,0.002795573893080776,-0.3713145824217548
1860,1.5882609079325662,2.998413121462732,8.139090832418544,-0.06367617995356736,0.0016861241658240292,-0.365642648523401
1880,1.5802508250991127,3.043432951624344,8.1379613339187,-0.061515134038262594,0.0018114772935759022,-0.36160498157121707
1900,1.5748752998079985,3.0859225399551855,8.134296346232295,-0.058151806464358684,0.003564465919494509,-0.35740548174858333
1920,1.5660434716062772,3.1297346776522392,8.125470691552975,-0.05518483998203986,0.006002341240027736,-0.35472737274270644
1940,1.5526894226745525,3.165444834393007,8.114885960924298,-0.052145874302956564,0.00872054822956661,-0.3523424861242999
1960,1.5390342227871854,3.191615771857046,8.106181050660112,-0.05025943326308651,0.010096368231599973,-0.3504929928296365
1980,1.5183326473466525,3.2293975849854015,8.092234168707162,-0.04738666538767692,0.011293419922919554,-0.34674102505565135
