0,-0.4239184781908989,6.4237419962883,5.284910142421722,-0.6950726620852947,-0.7198954336345196,-0.401682261377573
20,-0.3041674951091409,6.313122034072876,5.482199937105179,-0.9693782906979322,-0.9252917561680079,-0.42601689882576466
40,-0.3263214249163866,6.124963283538818,6.132347981135051,-1.1457461453974247,-1.0935369692742825,-0.4252734345694383
60,-0.3202068670229478,5.91707739685521,6.8599168893062705,-1.2022979683948285,-1.2816529933250311,-0.4023823557478009
80,-0.1859353046421325,5.8136472469422875,7.147089120818348,-1.1948230113925002,-1.4737194463974093,-0.365572073474163
100,0.08866460653192991,5.731624097240214,7.318642382719079,-1.188321400053647,-1.6623229451325474,-0.33830310434711225
120,0.3503871711845134,5.73476943635104,7.555194520113761,-1.2051743577446854,-1.7823518875398134,-0.30903579167237405
140,0.7385503654404042,5.893258982438308,8.002755487882174,-1.2310717871555916,-1.810943387563412,-0.2643891342378293
160,1.2411123003957358,6.071735649892728,8.71222843535959,-1.2326071584877902,-1.7525927175397742,-0.24858606458411947
180,1.6236163330017186,6.262946758741214,9.567630367514528,-1.1856853428446217,-1.6645515734030876,-0.25736769578235663
200,1.9176572383868016,6.35161896502034,10.394250676873025,-1.0875381171452196,-1.568812464395266,-0.26147056768355326
220,2.1490486500875967,6.267346623017616,11.131063638274203,-0.9473804435548708,-1.4395392368134765,-0.26240922944361017
240,2.3094376061710395,5.993456783748808,11.718466113862537,-0.7691840311246259,-1.264476386138371,-0.30440015640065426
260,2.180315668840967,5.766740976181706,12.031773238055473,-0.553721881842455,-1.0802305741647704,-0.3714418323211932
280,1.992953245279818,5.475608674947881,11.993486380774128,-0.33278538991720225,-0.9519844370440018,-0.41794020149756744
300,1.740552892569954,5.167844390410643,11.640163883796106,-0.11170417921474347,-0.8798694876524118,-0.456804577803884
320,1.5412819182307904,4.934295800285063,11.163915433745453,0.04443021591050901,-0.8412854195339605,-0.47493366932030767
340,1.3711323423537567,4.7038185494403315,10.560412566649587,0.15548715666446783,-0.7687772222115237,-0.4866580817424246
360,1.1804025385864443,4.511314958333969,9.907698562876744,0.21968942858859317,-0.6745421603464147,-0.48368601145240925
380,1.0155918174868817,4.331851303209493,9.253661017083092,0.24578021188485033,-0.5911135246307463,-0.47003262381810973
400,0.8503165038014926,4.147117369490512,8.612997786876033,0.24229187874999994,-0.5284141617265584,-0.45241626698167664
420,0.6533828869794255,3.9642822359050256,8.00364432149054,0.21170150544599034,-0.49380204412991996,-0.4220352483837436
440,0.467118965986345,3.805879335570079,7.4587864693935195,0.1563549552623543,-0.48320342246593245,-0.367779220903783
460,0.3697712805311762,3.6809970226484476,6.970260209413533,0.07650342842410367,-0.4887110964111869,-0.29323326369877134
480,0.3940044435163001,3.5799259484404384,6.551137517953273,-0.03074253507714608,-0.5045142676750438,-0.21269208956210145
500,0.5070940852375878,3.508749374889192,6.273685502189966,-0.16025604139569968,-0.5321045445433508,-0.13967222879929025
520,0.7100850452773154,3.456144559328959,6.196823496558623,-0.3122162270704157,-0.5847880569388707,-0.06572783098675175
540,1.0181787649635226,3.443046456391591,6.3354599799156714,-0.4337535310364308,-0.6455392849237744,-0.005354905934873065
560,1.4463880229691797,3.4920303436035804,6.659071838887448,-0.5339947970821819,-0.6980201270887034,0.033709167452291286
580,1.8901534350502684,3.5932686485871366,7.099025476892544,-0.6120294716569438,-0.73225010384771,0.043398541004546445
600,2.289276170083303,3.710352961285656,7.619836079439081,-0.6730960504415323,-0.7489239049767444,0.027557506683315948
620,2.6219639184562897,3.812048252024706,8.263483542531844,-0.7101193037222079,-0.7490328988653668,-0.007830808118064834
640,2.8812444929045724,3.869939099536853,8.973941240222489,-0.7000511645719633,-0.7387001589132466,-0.061166939272437146
660,3.0434690141838723,3.877336473464966,9.556015134101564,-0.6440845424377105,-0.7233343157629398,-0.12610052720982243
680,3.1121460519650417,3.848178750634615,9.947786002429762,-0.5664384891525859,-0.6979624816256019,-0.19366044127184884
700,3.103163558198459,3.7899992269339022,10.201680797712294,-0.48036448692397254,-0.6634574811889621,-0.2579962544109595
720,3.043365057909014,3.712905216376518,10.328061602810354,-0.3876541709328027,-0.6277456188677222,-0.3157416522794132
740,2.9613364510358,3.6238519350849456,10.325608372906714,-0.29547123139244824,-0.5920472305058729,-0.3657983359463622
760,2.84958071031982,3.5164269403837434,10.205011928972754,-0.19923002470013557,-0.5521921446426076,-0.41421681911245434
780,2.7259462890294266,3.4173234121379568,10.008927509211647,-0.1250156660788451,-0.5167455694186903,-0.45026604854142477
800,2.5912597433135125,3.3184728333109383,9.760267703704177,-0.06460379799322999,-0.4856222944084488,-0.47743556087384986
820,2.4680995169860807,3.2344068951388287,9.517158059298904,-0.022522586276947046,-0.46433331822196244,-0.4930893777475409
840,2.31183398683253,3.142196934001156,9.187866551148566,0.01699612710100395,-0.44555311571223255,-0.5011612809331413
860,2.193392704796492,3.079462269793304,8.92888957250496,0.03700309841513214,-0.4363858141647783,-0.49823292040423506
880,2.0503999881240396,3.0101251539999394,8.595922865434089,0.04953178682282649,-0.4318628631811077,-0.48096325397836864
900,1.9537694501178589,2.9644291106140823,8.297938260710447,0.046959160824596724,-0.434491912334887,-0.4530318764943419
920,1.8943470749532265,2.9372898917498165,8.010893191524634,0.030660434956907442,-0.4440269940495981,-0.41731852396869246
940,1.8684309300255435,2.9268315744078515,7.783034043458774,0.005837418492739053,-0.45842601159751145,-0.3830196633543915
960,1.8633736526761722,2.920551048389476,7.52642783226276,-0.03285931225488835,-0.4809141557156757,-0.34277330812337936
980,1.882260151845426,2.911519843757632,7.338061537529056,-0.08853181943269724,-0.5140146350241405,-0.2958657751315144
1000,1.9298626339007667,2.8877251640152077,7.196737536608956,-0.14806392945539099,-0.5457130742623263,-0.25371716071984923
1020,1.9757600351209044,2.8363419167209596,7.108555139042437,-0.21745314098938945,-0.5729143167990038,-0.21438404415634327
1040,1.9862211124953013,2.75033870205788,7.106140774343964,-0.29315874799781383,-0.5985200140270552,-0.17566139684396004
1060,1.9626226729774119,2.620940683145306,7.216216089873142,-0.3772148154185791,-0.6257115684085243,-0.12409052759082881
1080,1.945633213349168,2.4910410828009417,7.41627249162686,-0.4434935844116164,-0.6405924970943355,-0.06464560763502306
1100,1.9704388133883766,2.3827160133205485,7.645973020233214,-0.49055075498124734,-0.6411695798572598,-0.004929585348860056
1120,2.0443129018853154,2.267273129766035,7.968848565985285,-0.5335422938956259,-0.6270793751468013,0.071019161727437
1140,2.111365553835081,2.1852230624611506,8.257797908498597,-0.5557767316512366,-0.6051063918963329,0.1358232929481507
1160,2.1757824422583663,2.109003074564805,8.53896802858268,-0.562062900836243,-0.5801611768195265,0.1925579453940785
1180,2.2503258741177503,2.032309958910973,8.773258158418628,-0.5513513582672194,-0.5430610037437573,0.2663671831960415
1200,2.3428732963561307,1.958445933528441,8.941550763886852,-0.5310763906910411,-0.5072676954209109,0.32923731158022784
1220,2.4540633143213,1.889498394692759,9.067233611314656,-0.5057366864324478,-0.4701818373005934,0.3862234060610728
1240,2.5940932812208533,1.8265389028848797,9.158150429641626,-0.4777832042173371,-0.4330416070077795,0.4314624639507017
1260,2.735075352653569,1.766046711324752,9.2284044235498,-0.44856017001686577,-0.39966140333851313,0.4600745796210653
1280,2.8374812217755423,1.713078928403983,9.278141526156993,-0.4209739485460525,-0.3768904655123172,0.47352245397455206
1300,2.9462066579406545,1.644327016127965,9.307064276761734,-0.3838639524739103,-0.3561990805770538,0.48042179477806457
1320,3.039028030185706,1.5822860706783144,9.313771798883693,-0.34819964105881945,-0.342060696933336,0.4768599643487126
1340,3.096197612659551,1.5361891501160756,9.311164512287126,-0.32114486066023995,-0.3332612137301725,0.4682120448173463
1360,3.143986901643479,1.4818218246162418,9.290680334405927,-0.2871348739661757,-0.3241878913591973,0.4516430167342773
1380,3.166656020391558,1.4394110306840746,9.251558860132056,-0.2597712433515215,-0.3178955158136469,0.43554291099905573
1400,3.1782495619035953,1.4113980268939263,9.212612308815356,-0.2399978318688887,-0.3119024218354264,0.4214670402452961
1420,3.186643571104403,1.3832472924725552,9.167126952430483,-0.21906993533820682,-0.3027098897374091,0.40297472284693925
1440,3.1844627486774697,1.361385990164669,9.129486042216925,-0.20325657142705078,-0.2946834115232578,0.3858133644599594
1460,3.170072809242905,1.3419639435954964,9.097810499102225,-0.1891150537669584,-0.2881435928165439,0.3691334400713805
1480,3.149846680235687,1.3306016511322298,9.073909946568003,-0.17717930229519271,-0.28395710555020687,0.35605630798049825
1500,3.124076863387918,1.323084518280038,9.043640952405644,-0.16305746010228603,-0.28091367876084355,0.34114430172305177
1520,3.1085773502306298,1.320427160155202,9.024715527490189,-0.15327368000741215,-0.2798027157762512,0.3296948040958536
1540,3.089796162876323,1.319998506915612,9.006983469946633,-0.1430492431757489,-0.2791600686309945,0.3161045557579443
1560,3.0685653189965487,1.3211672738504419,8.991708317821264,-0.13386259211177587,-0.27918994710510203,0.3029969743719058
1580,3.0458384044882885,1.325053880288159,8.977760763227616,-0.12520011284477986,-0.27824357224213125,0.2898679280822272
1600,3.030301333689965,1.3292542345633596,8.971270417597767,-0.11937423174342235,-0.2769285587930501,0.28065724962763205
1620,3.0167840877080088,1.336775504404347,8.96730806555295,-0.11208197648504754,-0.27591994133133585,0.2689851927817194
1640,3.0067469614054034,1.3448356955937708,8.965598720806971,-0.1056962494821802,-0.27520478212816724,0.25778778953575043
1660,2.995738591356986,1.3544224595738943,8.964562027377234,-0.09965761641732755,-0.27458663037112724,0.2461664519502141
1680,2.984299194476019,1.3652938594064152,8.965672213079152,-0.09400362578565499,-0.2738105282689779,0.23454674420017566
1700,2.9731407846879048,1.377281232951719,8.96854098957644,-0.08845849703025792,-0.2726954400434725,0.2230805711913317
1720,2.9612950661688635,1.3904385424200498,8.971723080578226,-0.0825799593073117,-0.2716421862424715,0.21169819147724053
1740,2.948660460771324,1.4040886936184596,8.975541849082834,-0.07607245662079101,-0.2714618786605416,0.20036976557605388
1760,2.932758083386903,1.4249734809130636,8.980039631870264,-0.06805130634819558,-0.2720387939102067,0.1875900173739832
1780,2.9217688964520128,1.4372723963106508,8.97999086282819,-0.061985911320402355,-0.2716920371577862,0.17779574399370157
1800,2.9042170934388603,1.4566020644567654,8.976403247625852,-0.056055698093351695,-0.26987927401062783,0.16714483249630546
1820,2.8916366573382244,1.4679690283823859,8.975886285189237,-0.05252712013174755,-0.2674826780560653,0.15977580919673012
1840,2.8610279411136403,1.492307713771172,8.98120562996611,-0.045577064519884504,-0.26288246324864994,0.14847461529852407
1860,2.837467990841067,1.5136177442698298,8.98495712614079,-0.03834696061737639,-0.2605274898811905,0.14143020865372627
1880,2.8215860508663417,1.531866424565229,8.984414984269318,-0.032469947795678696,-0.25895017680573623,0.13696195942688505
1900,2.801833464875373,1.5569448581795908,8.978434790852335,-0.026848872579153506,-0.25689406540875714,0.13275567773669478
1920,2.786499809741077,1.5766906717085634,8.974101866384919,-0.0228364788350265,-0.2545969869402067,0.1294972193177604
1940,2.767808062058222,1.6023286159710037,8.970013815538035,-0.01950537045180534,-0.251910790201039,0.12703256624470927
1960,2.7543264603111313,1.6258890161034651,8.96836657364387,-0.01694131104857661,-0.249409422815952,0.1254651883506449
1980,2.742789520288179,1.6500529257493037,8.965341024658652,-0.01450844725598535,-0.24674137041928237,0.12411671915981402
