0,-0.8803027669588724,1.4641553428437974,10.210767004224989,0.3589560257063972,-0.19156117075019413,0.03538146739204725
20,-0.8041630632737103,1.4795586081112133,9.672498085919548,0.31074410676956177,-0.16493303898502798,0.024405065540443447
40,-0.735558431148529,1.5623192119598388,9.396524200439453,0.2205450300499797,-0.12899226918816567,0.00340932983905077
60,-0.7434721571026426,1.6212105678789543,9.356543309760816,0.12380158661328482,-0.09887240093314287,-0.015363858589394526
80,-0.7568262034938449,1.6476594663801647,9.484049615405855,0.040589906164400634,-0.07457653175862063,-0.032415007440639396
100,-0.7681306970119476,1.6552459764480592,9.62721248626709,-0.002904841396957636,-0.06315892580896616,-0.044207992758601905
120,-0.7975415371615311,1.6636301957327744,9.757722887499579,-0.025043240475371993,-0.056433801113724195,-0.056999615216948865
140,-0.8505948483943939,1.6877630840648303,9.846143419092352,-0.03613334528706742,-0.059723932006763236,-0.06404321723984498
160,-0.8887163245514648,1.7123406162000683,9.89248095473198,-0.04055624961699933,-0.07119277083276682,-0.061277907303445144
180,-0.8610971795349587,1.7232458373395407,9.904399243796744,-0.044930045163576925,-0.08744383752686767,-0.054059610491981956
200,-0.782373079057369,1.7180274208386739,9.901330502827962,-0.05541409499322374,-0.09822624809522595,-0.05367464286068247
220,-0.7008120704024118,1.7159582546779089,9.913377294735033,-0.07160526891334021,-0.10640040149779192,-0.06225509458335535
240,-0.6357647389138363,1.7210249619663887,9.952165180782103,-0.08476458698124537,-0.10968264237590977,-0.07595709447292084
260,-0.5900151865360769,1.719792171528465,10.008955127314517,-0.08824635510283865,-0.10761708354070913,-0.09040383945153863
280,-0.5342464276787932,1.7099262339169863,10.040707564744793,-0.08105543734826391,-0.10350852355467857,-0.10533094482084156
300,-0.47690367774608045,1.6923577226125277,10.022088623046875,-0.07272965028308905,-0.0954438134132383,-0.1227188000562959
320,-0.3981935509058426,1.661419954231317,9.972551620263847,-0.0749855409610829,-0.08341979564723673,-0.14731010818425164
340,-0.32992617315834477,1.6077587613139024,9.938223592278097,-0.10100874278162207,-0.07821074992633698,-0.17755185140829002
360,-0.29123438679643215,1.5443395663172967,9.966804688976657,-0.13432136421963092,-0.06731964222666237,-0.20943462927675535
380,-0.25957310863661986,1.4847946289949623,10.050648478642563,-0.15851488411197998,-0.05213860150689453,-0.23978570599303198
400,-0.23389957763516067,1.4342666145043763,10.134462562917966,-0.16447506002994658,-0.0325128252901224,-0.26740281939321353
420,-0.19149453010847114,1.4013674687490116,10.17671940979345,-0.15828276896204113,-0.009922008422936973,-0.29392014004487815
440,-0.28420046012709166,1.4368837076154621,10.211723342936306,-0.16022811063321277,4.307525456549331E-4,-0.3231759106585965
460,-0.5628910293277257,1.5676447494289814,10.309048828711877,-0.16999785493438443,-0.024558659721739016,-0.32745852762451155
480,-0.6512329792099193,1.5619775342383408,10.501842555154134,-0.15204323065040515,-0.05217799120651457,-0.3186492874020977
500,-0.6644924997662505,1.5073341191169762,10.58058088847569,-0.11708952465449415,-0.06352568150143184,-0.3081789974056717
520,-0.7117036003449327,1.45951840373343,10.585090018842862,-0.0705733614310316,-0.0657910535379938,-0.2968667298491585
540,-0.807385388392512,1.4439119693663152,10.54775088053968,-0.035514325496334466,-0.07003837576267281,-0.28313338346492156
560,-0.9282324833842783,1.4347588384239855,10.492844880637476,-0.008784652452805412,-0.06768982073536806,-0.2607943967825307
580,-1.0144632965893534,1.425440780879784,10.453363803188497,0.010522485819909676,-0.060106220120495116,-0.24159167103139767
600,-1.1507309026617025,1.4219953871612985,10.366766450897096,0.03675791106578554,-0.049396977942836075,-0.21256517160809524
620,-1.2490211655958914,1.404181587896668,10.244070091614356,0.054409661944597384,-0.04560172938061162,-0.1821912823119559
640,-1.3154019806325548,1.3768681900214348,10.095257981499628,0.060382756305538784,-0.039586532018286415,-0.15106696960926333
660,-1.3867510811533725,1.3513464400463777,9.954742910205454,0.057526065126074936,-0.026133190670077674,-0.11761713549123565
680,-1.424446362378994,1.3022834924279227,9.824168141459076,0.05413264109143122,-0.010667720722677318,-0.08171572234698007
700,-1.4322709555048752,1.245082124369219,9.67172904700449,0.04744480784555055,0.0024071520605851732,-0.04695702459159218
720,-1.4257392229201893,1.187402833417679,9.516243278980255,0.03418944010666261,0.011375851638925571,-0.014108938402496279
740,-1.4052077873924433,1.1336063381871087,9.397217232685584,0.017505139204697658,0.014393224745275235,0.016773355445921324
760,-1.3648580258131568,1.0789715035765468,9.274304257918008,0.003730392055527036,0.013402996074166621,0.046113964098010544
780,-1.2936949897428147,1.0180164015547224,9.142396090207276,-0.011045857440438811,0.01739344753563565,0.07250474850836865
800,-1.193455598270801,0.9544441799762243,8.999401697911411,-0.030226155670909548,0.023588432904461915,0.09209361921361905
820,-1.0532889014910196,0.887435544896707,8.852498260760937,-0.06182314128180709,0.028850063798359193,0.10316606855588006
840,-0.9249442325715499,0.8265768620172211,8.767844341545871,-0.0978159396428839,0.03273778951748202,0.10447185319904398
860,-0.8069538988410404,0.763199505615322,8.736642520300814,-0.1340381953100927,0.03929048837866916,0.10230997066908315
880,-0.6869834963678804,0.7003168641015479,8.736362332513888,-0.16801157822730403,0.04708087896124447,0.0976978949883519
900,-0.5559270795891635,0.6367284905779658,8.761212973428476,-0.20224835925758006,0.054200096786816185,0.08901831451628667
920,-0.42542086608996343,0.5732331769638682,8.827602337038735,-0.23634330783982876,0.0635087579516865,0.0738517074122184
940,-0.3324336544490853,0.5169178878093632,8.937240483521803,-0.2688373545637225,0.07741444999086347,0.05112637391620361
960,-0.303823627896316,0.4683138140470202,9.093135449988416,-0.29836891287872075,0.09092473325680857,0.02459568055393526
980,-0.30189075008103694,0.4173839153445981,9.300115519982796,-0.32070123950985296,0.10539922289906736,-0.001036812789324257
1000,-0.32070067151366183,0.3696332961505789,9.54034324592886,-0.3310050384939781,0.12002743259872835,-0.025116564143340826
1020,-0.37821968273102635,0.3398424770059219,9.785947822901528,-0.3286262175406721,0.1270046850590084,-0.04700588996050937
1040,-0.47664232927937666,0.3166438745313086,10.043097097374671,-0.31154579873153465,0.11791542402609403,-0.06885600076273604
1060,-0.5619362803587362,0.3006763546333331,10.20849441390834,-0.2896513748579409,0.10192251404655726,-0.08366087999821425
1080,-0.6760936393621775,0.2794762369466636,10.36039310560098,-0.2562942088533594,0.08044639545244336,-0.0980604282954098
1100,-0.7605084186893711,0.2640113489977228,10.450768393566955,-0.22494151025891534,0.06824561646403048,-0.10504451755225035
1120,-0.8333009477065739,0.2496937564412914,10.51477900057128,-0.19231120802893492,0.060056301371549214,-0.10781620272024015
1140,-0.8956558147157998,0.23573108081844577,10.547065155049587,-0.1576355949945827,0.050663467430747414,-0.10786436920727979
1160,-0.9451709532609529,0.2234182536824135,10.533777345174526,-0.12305875059712101,0.038989849058837164,-0.10622611184892826
1180,-0.9802628138204155,0.20838641980279682,10.48170978395046,-0.09332674502111481,0.02702653740480956,-0.10366310456426577
1200,-1.0064027681786507,0.1913009807863367,10.41715242939922,-0.06930612509802496,0.017782854298525583,-0.09999385193793428
1220,-1.0255741280646424,0.17392040956283056,10.336246335173984,-0.04780390828502813,0.008930343449527613,-0.09402772631084332
1240,-1.0327606461348706,0.16118951703732212,10.225465873175976,-0.028826906921926375,9.226549613088661E-4,-0.085842528892681
1260,-1.0205465355469094,0.14853745279833674,10.08194147976669,-0.015096077985853015,-0.0067040294747706146,-0.07664441764372686
1280,-0.9923470756507335,0.1328031566131867,9.912300014221577,-0.009573239694390114,-0.009326328960401085,-0.06769991012650632
1300,-0.9587151706697437,0.11126321092700568,9.792201160535077,-0.010892935508914361,-0.008951228298682059,-0.06258273538045377
1320,-0.9306614078353219,0.08551499149616307,9.688035247336325,-0.013994307650860337,-0.00835372456332281,-0.060621840578313525
1340,-0.9082036190294406,0.05535929124910526,9.576948916455038,-0.018611251774620936,-0.006570073695238105,-0.05988271736173118
1360,-0.8826611389552638,0.025132709366064484,9.45905077056243,-0.0265996048371899,-0.003465399634649507,-0.05888842889449304
1380,-0.8542574648219744,0.002813196642491868,9.362558364066603,-0.03877013906708391,0.0015168612772792683,-0.05826883161903689
1400,-0.8274855348265365,-0.010179875562696353,9.290968416501647,-0.05317069297980355,0.005412863225311689,-0.058887361041877584
1420,-0.7996900754287443,-0.01964491313582168,9.235294293005206,-0.06893381221526611,0.00613588109447926,-0.06042536135961016
1440,-0.7633993411759724,-0.03366806033317964,9.189629537842903,-0.08660438899565394,0.0026413536179092176,-0.06150805515232425
1460,-0.7141236876734596,-0.053330171030817025,9.175436160836574,-0.10637453676765794,-0.0013253635758742417,-0.06240799688486902
1480,-0.6582161076113742,-0.07389444509702174,9.196275642752353,-0.1259052322930434,-0.001520519569547635,-0.06481015992763604
1500,-0.6067850426861607,-0.0935965890246557,9.233692483240512,-0.14420724356759007,0.001960666611226563,-0.06905344638640318
1520,-0.5528458837071437,-0.11074755389099854,9.289346977410595,-0.1609260775275935,0.006871689739132548,-0.07449753547795894
1540,-0.49704818263953987,-0.1302192299397996,9.371685248015893,-0.17339463690856674,0.010846998229923197,-0.08167750107363551
1560,-0.46049593740502875,-0.14512544725066945,9.462703820533688,-0.1800487944936447,0.01344828561838521,-0.09121665028572455
1580,-0.4595624409447578,-0.15228919354821605,9.553566727090564,-0.18247491614806713,0.01425069093823338,-0.10193668608733639
1600,-0.49224225433313334,-0.17195948971316172,9.645328205567218,-0.1819092593412767,0.011774562651603114,-0.11505901133187296
1620,-0.5485316387662406,-0.19463862958280034,9.72214214130114,-0.1792052840072022,0.00986529922374757,-0.12634676812687912
1640,-0.6067859009178924,-0.21400981825455778,9.788320303351886,-0.17426783154231404,0.012471764338991831,-0.13366088765255563
1660,-0.6644750956565263,-0.23605934416790203,9.848363048406606,-0.16478469639958948,0.0211604679902962,-0.13829169749379686
1680,-0.7129151923521043,-0.26139133002711895,9.8883050174539,-0.15008407962429987,0.030667796463223016,-0.14065402013054767
1700,-0.7457182703843479,-0.2793639005448177,9.886200573969761,-0.1351199656338217,0.036711233649546704,-0.14115782083151326
1720,-0.7721352805958965,-0.2910697312366789,9.859125527500344,-0.12289657267220636,0.040041921843112505,-0.14100632204843516
1740,-0.7925833113893103,-0.29709680490797447,9.83296837769658,-0.1144526125464243,0.04030245506048354,-0.1401497969257363
1760,-0.8033361574162781,-0.29911799512984644,9.824423749610368,-0.10693014464017728,0.039461603731130404,-0.13904007141633581
1780,-0.8071018798157809,-0.3000946455049216,9.815764248401827,-0.09785512050007378,0.03944257081049408,-0.13771475834137464
1800,-0.8071833630736912,-0.3039042702136786,9.788221005375625,-0.08917991096391424,0.0415504651728277,-0.13592112205355217
1820,-0.805980367962921,-0.30718618414721033,9.766870768788277,-0.08494022315768088,0.04318526126397461,-0.13387739589819123
1840,-0.8045484835392045,-0.31073551023797014,9.758111500358122,-0.08268206732985804,0.04469053616643986,-0.1315057384289905
1860,-0.8026683300130226,-0.31384513662631147,9.756076277663219,-0.08051478360692693,0.045645528708697196,-0.1287702976058405
1880,-0.8022163445354041,-0.3156006769816087,9.755653086221342,-0.07803796649509641,0.04622463980021733,-0.12575584565233608
1900,-0.8021312241066137,-0.31578503538910757,9.755861252920278,-0.07541130102650674,0.04601858364807099,-0.12239422481788736
1920,-0.8039150383958154,-0.3138421537615596,9.756083483633342,-0.07261629914390338,0.04490277119244858,-0.11870351282339899
1940,-0.8044064577996571,-0.31197471520540504,9.756107937671423,-0.06963656218088271,0.04333258812326919,-0.11454523091197417
1960,-0.802908656613485,-0.31140039435537825,9.752914623998004,-0.066719005367464,0.04154108505950108,-0.11038556103838768
1980,-0.7925886750095772,-0.31678797524164537,9.744147732789422,-0.0651087623995548,0.04253903144008707,-0.10683223233519097
