0,-0.7041357755661011,2.8202686574723987,8.635908550686306,-0.27471108072333866,0.10796854727798039,-0.19402875171767342
20,-0.8554446627111996,2.9627801530501423,9.065008443944594,-0.3225400649449405,0.0470395983361146,-0.2268674356095931
40,-1.0200867605209352,3.0684991455078126,9.254355850219726,-0.33010720312595365,0.009807979092001914,-0.22824977457523346
60,-1.1769408233025496,3.1812904792673447,9.441590056699866,-0.3136106418336139,-0.005659661365344244,-0.20637676404679522
80,-1.2650265608515059,3.2459358885174705,9.603572550274077,-0.27729392645969275,-0.01385205261231888,-0.17592347952138102
100,-1.2820061111450196,3.2797398805618285,9.733455619812013,-0.2341588318767026,-0.01593946386128664,-0.14188878735527397
120,-1.2369037640505824,3.3081828068042625,9.822636226127887,-0.1960172212305318,-0.016652089158265757,-0.11825314040520582
140,-1.1440210475614576,3.3218196522105825,9.852094708066998,-0.1785978654039685,-0.02258284037198984,-0.11016069267255564
160,-0.9958103279507643,3.3228631825060457,9.88547590616587,-0.18808556806510063,-0.03753842068584384,-0.11815584747347276
180,-0.8105681106539034,3.2869015728555073,9.945406657893484,-0.21122680563854462,-0.05542829812209054,-0.14118051596508338
200,-0.590665066614747,3.2151807970470854,10.009266058603922,-0.22891654633244293,-0.07315600197762251,-0.1784877240192145
220,-0.34923296957751926,3.1412882002032534,10.055514394020548,-0.2293099210982458,-0.07643452862619746,-0.22998202937579124
240,-0.1688714817798925,3.1057078208563462,10.102328399442277,-0.21192133483995315,-0.03793918508333417,-0.28982327115405704
260,-0.16210501526662133,3.0741127457535056,10.293542293080112,-0.19808991084471672,-0.013228645695275381,-0.36042648759311097
280,-0.32179641311408064,3.2133703661746664,10.456066796037017,-0.20164538798739248,-0.02469471480208831,-0.44795219328055985
300,-0.46638894015709864,3.264320357155254,10.594981826898707,-0.20263586666271488,-0.053324146736555424,-0.46907208549598134
320,-0.4749720257660039,3.221697712973725,10.593774905307688,-0.1912709006373,-0.05957813677545503,-0.4584387164234633
340,-0.5206805295532658,3.157971881684803,10.557996010293765,-0.18900198063838491,-0.07725702721600225,-0.44621622346683726
360,-0.5893293486727822,3.0742781131498274,10.523190910585464,-0.19692577638122583,-0.09149248550736135,-0.4433376707106588
380,-0.651974304162103,2.993186815384707,10.518985005244156,-0.20887200136817535,-0.08734518521539639,-0.450587203780452
400,-0.7742496239380878,2.9319802432032356,10.52083104674579,-0.21791566581715835,-0.10235888623136874,-0.45465722703783396
420,-0.9158876200503144,2.873006688149948,10.484834005046823,-0.21594762885500807,-0.12784370783112903,-0.4482761673686516
440,-1.037466152964588,2.772382520418116,10.399226489551564,-0.20805261664735003,-0.14585017013478088,-0.4361434884663213
460,-1.1515254416717933,2.6796953592544948,10.297454474522517,-0.20352592195193164,-0.15450988093820903,-0.421480012873713
480,-1.2854530545768186,2.6009441364574903,10.210782776912446,-0.20350686906781873,-0.16754049902295537,-0.40370072604253376
500,-1.439032227383547,2.5095265505226303,10.140649354853336,-0.20602620596185292,-0.17651848476468388,-0.3808729961090743
520,-1.6133505456996236,2.4075390608134595,10.08340281789953,-0.20345887729834597,-0.16933027909782886,-0.3487403901124542
540,-1.7494778072526842,2.3133788828068136,10.05139320147665,-0.19245316383699654,-0.16194146283284766,-0.31964496621607685
560,-1.8580075203267448,2.2076195019092095,9.997481756291148,-0.16383079250078744,-0.15397516515755127,-0.2787777121352442
580,-1.922552931885861,2.107303182640281,9.89735975226418,-0.13056517868840944,-0.14626583540249144,-0.24172529007201313
600,-1.9498691203013536,2.014116477191685,9.734747392790657,-0.09959132496419082,-0.13344912146013008,-0.20700003931091893
620,-1.9565652323600191,1.9297225943265053,9.529727863348448,-0.08141178683682274,-0.11510943642217451,-0.17305966056883335
640,-1.9549794591991092,1.869491562608685,9.345598972555416,-0.08046946814023097,-0.09831580489833923,-0.13580335112316394
660,-1.9291188938381232,1.7998399049097644,9.216781834761301,-0.08371353603349459,-0.09202713275917104,-0.09811700073381265
680,-1.8924871689023477,1.7421069273489043,9.093265502385691,-0.0855707906647323,-0.08941982798056979,-0.06003694920997384
700,-1.8245128336911127,1.6941811195000598,8.948908847488768,-0.09102551823191676,-0.08133721365697032,-0.02459617339278737
720,-1.7398061296219627,1.6526593529308835,8.797082756360371,-0.10741011182855194,-0.06666202817151012,0.0044146252423524854
740,-1.6656739478447027,1.6100286253873113,8.679380087109354,-0.13264680238117088,-0.052247685695130545,0.02857558378441767
760,-1.5680805530152298,1.5595279943127456,8.599268892209988,-0.164336722923666,-0.04180808119771103,0.053097849083059596
780,-1.4558171216789404,1.5194625533300878,8.558573097358515,-0.18995515156298715,-0.037854318530370634,0.06824494206151109
800,-1.2878588805752653,1.4485193862224575,8.524615681565201,-0.22490916256065685,-0.03204015017082976,0.08165080784945875
820,-1.1589226134427306,1.3714964088118058,8.523362166720752,-0.2575208862889777,-0.023714486575450562,0.09008584752722569
840,-1.0514891098832504,1.3002143021310042,8.54650061178344,-0.2905620133329482,-0.014847184352931649,0.09579761909123478
860,-0.9352652324410546,1.2301142895933377,8.595799271132098,-0.3237992763885816,-0.010772631042219531,0.09767267982415459
880,-0.8110127056196128,1.1502262277809316,8.688146987026684,-0.3538342807422813,-0.005704897366885147,0.09487031626272692
900,-0.7011307620870364,1.0733283741234854,8.811437769166266,-0.37715178408819794,0.0041804704662217656,0.08716599644728544
920,-0.6161298025057228,1.011678928059582,8.93934479285413,-0.39483338719896305,0.01714706525488896,0.07316715719564537
940,-0.5657418107369718,0.9621329567129401,9.07078285634058,-0.4109798784763971,0.03032930110070069,0.05309099485202283
960,-0.5536657988893745,0.9127980923181592,9.23690903637211,-0.4239479740289854,0.042811215927610904,0.02986073424049679
980,-0.5744262400692628,0.8727215047833728,9.429765937946462,-0.4288074937896274,0.05167787232304015,0.007706029230245838
1000,-0.6380355438478471,0.8542236740237489,9.650251472629787,-0.4244630677104761,0.05402860147760425,-0.013772629979763917
1020,-0.7218203239266483,0.8486996160784815,9.83334904824388,-0.4145214227607509,0.048742034086037285,-0.030128367655685447
1040,-0.8129921990511723,0.8410640623463794,10.004977320515833,-0.3996023195887764,0.04005628929684632,-0.04493164567839961
1060,-0.9101621407641259,0.8276706709203281,10.163511908761986,-0.3784462654198728,0.03188726504744758,-0.05719983409749999
1080,-1.0044046463737173,0.8083996808285837,10.294965082219898,-0.3502244951789196,0.024840104353724825,-0.0653126189869415
1100,-1.0834351373417919,0.7871596070872169,10.388687842742987,-0.3166092573588156,0.017352634078529685,-0.06923156552065968
1120,-1.1442491429982893,0.7667069604874335,10.440771902794445,-0.2811549220549636,0.008893190409123366,-0.06971062664587648
1140,-1.1918127267680905,0.7472257467125483,10.460355292989853,-0.24644970587365567,-8.637023596786596E-4,-0.06741955735661248
1160,-1.2277030969529596,0.7279957836614649,10.454671593390747,-0.21328948704169276,-0.011721414488800664,-0.0628696177115812
1180,-1.244710428701568,0.7082950284670072,10.426377970495341,-0.1821426582228538,-0.02324857717833133,-0.057288034788405696
1200,-1.2466901376436235,0.6865076558524931,10.379792101470082,-0.15352382059425854,-0.03387514925830496,-0.05185488586197136
1220,-1.2434008675840338,0.6612063583012515,10.302793590970353,-0.12478998094050965,-0.042405986867958004,-0.04552931353731255
1240,-1.2368143843359327,0.6397092788627848,10.213254261390103,-0.10308582393530895,-0.04645866107714131,-0.04005657946016574
1260,-1.2287050616319124,0.6163368479569438,10.107038256749941,-0.08555342085697187,-0.04554652527664646,-0.03468688060969172
1280,-1.2179970043221846,0.5937376412062904,9.996539299583073,-0.07202097924339604,-0.03789249840311784,-0.029449888001385177
1300,-1.2035533229811726,0.5694416623893325,9.888574996395645,-0.0607888195929161,-0.027624016751483012,-0.023947392296150467
1320,-1.1777409793634113,0.5386191890360599,9.776496634298926,-0.051473751782935326,-0.020237889821970455,-0.020019538210049738
1340,-1.1470883495078004,0.5026498596571021,9.655467344715028,-0.04583666927498949,-0.016025202678636514,-0.019667367790631288
1360,-1.1288297355028405,0.4798008423775088,9.53614558708689,-0.0452594357848414,-0.012118895361758102,-0.022620165107475197
1380,-1.108906761114034,0.4671935692012336,9.431975951270452,-0.04909200244501062,-0.008440242296970093,-0.02706968656542335
1400,-1.0879886916538943,0.4566948433107008,9.335020149479742,-0.05631940127269405,-0.0041395718136640345,-0.03219758565983047
1420,-1.072442958387027,0.45124963778158966,9.258710467794952,-0.06685212802335198,-9.671173287686567E-5,-0.03694264775726746
1440,-1.0564589638250381,0.452589822083699,9.20957590964845,-0.07938434550020207,0.0026056044882749618,-0.040580502555228125
1460,-1.027747305253138,0.4576366767520474,9.188366898710223,-0.09251280759153374,0.0028002133827348657,-0.044792533701344804
1480,-1.0030910387125842,0.4587705520624556,9.194050318326745,-0.10487315732152608,5.101490611612453E-5,-0.050710766117473605
1500,-0.9958834882388771,0.45613812409941995,9.212735596231218,-0.11398445648188227,-0.0023658037936870094,-0.055453851949484226
1520,-0.9960211120748844,0.4519908723693031,9.249389294630442,-0.1243529173695536,-0.004329717388407936,-0.05805851911636404
1540,-0.9799008363010672,0.4481533446146999,9.288599734449916,-0.1311042477969352,-0.004106410344577027,-0.05933489432933308
1560,-0.9567335064410697,0.44332226062359664,9.345291672737945,-0.13805140492707457,-8.116750542514598E-4,-0.06290168401162856
1580,-0.9487683324940744,0.4419644149351387,9.408814293892343,-0.14456332753228177,0.002660078428926053,-0.06786785212272009
1600,-0.9557880778859438,0.44621114610274115,9.48843254621436,-0.15083487968637732,0.005041052881740431,-0.07272703519443095
1620,-0.9614488891443709,0.4507758825237537,9.556027365736215,-0.1539345509839014,0.005142371876954931,-0.07615861346866622
1640,-0.9680512527619223,0.45470446015852284,9.612689316982316,-0.15483306204918162,0.003721849948349353,-0.07943953060090453
1660,-0.9802110924084178,0.4593577249550863,9.656895291805267,-0.15445717939839917,0.001441809775903547,-0.08247562722193406
1680,-0.9976509961619063,0.4654623220246935,9.691634952328926,-0.15344205390571258,-6.652090830124676E-4,-0.08513067286667349
1700,-1.0195419620160526,0.4715711104057344,9.715624281044665,-0.15269515302798967,-0.002723025479360655,-0.08741091971885113
1720,-1.0413300394667948,0.4742002826295158,9.73473422838883,-0.15186611519741497,-0.004986014407801453,-0.08924970418923873
1740,-1.0614337338968003,0.47094215277378637,9.747441050381012,-0.1500857689543294,-0.00711456286054115,-0.0899275359247
1760,-1.0722103701361145,0.4661173937117888,9.752865916490554,-0.14810836746215095,-0.0077484343461239604,-0.08926194368072579
1780,-1.0834371345706162,0.46042936825792175,9.753342433945162,-0.1454131034884735,-0.007818376691660148,-0.08746035079725066
1800,-1.0936758018084871,0.45427380851248794,9.749335274120522,-0.14268692599589275,-0.0081902000665465,-0.08500287398693418
1820,-1.1005887781415054,0.4500319181023897,9.747041037646673,-0.14055369940138251,-0.008180690394315158,-0.08308639233088201
1840,-1.1074278145350744,0.4453655132216217,9.742857191508826,-0.1373217712455784,-0.007598096597104879,-0.08067965284818573
1860,-1.1116227113302801,0.4403311291155154,9.736274115829367,-0.13436194156380996,-0.006851190160966078,-0.07865795486211366
1880,-1.1136560976112888,0.4347785996625585,9.72764166061838,-0.13181416543626914,-0.005974371815360695,-0.07674135009955581
1900,-1.114636587175604,0.42892120250271804,9.720956256797722,-0.13002148896343096,-0.0050312926283494555,-0.07489574502043647
1920,-1.115590990394069,0.4241228937479863,9.716884512810191,-0.12865210318089623,-0.004601392430656702,-0.0728590986904967
1940,-1.1136388246223687,0.42002543855944713,9.713245266172354,-0.12761662718851688,-0.004723545041875996,-0.07082660311086086
1960,-1.1094532252990463,0.415501523867003,9.711885361189253,-0.12701743430709153,-0.004931032246172884,-0.06908606125748765
1980,-1.1067415274656665,0.4116536119918304,9.713608286704547,-0.12633527239481832,-0.005019871529491908,-0.06726345344307304
