0,-0.47314942876497906,1.1565283801820543,9.257016923692492,0.027241345391505294,0.09624000760312709,0.08693158792124854
20,-0.4846392624518451,1.214415851761313,9.475542909958783,-0.03293565293664441,0.0128151793991599,0.05201110446496921
40,-0.5587101769447327,1.2247172498703003,9.696572189331055,-0.05866868246346712,-0.04661905691958964,0.036329158321022986
60,-0.5618434276650933,1.1791949675363653,9.88100565181059,-0.0502148688880398,-0.07218665750834215,0.028073985369273406
80,-0.5314606973310796,1.133603687693433,9.951248075903916,-0.023848045322044594,-0.0693003561904245,0.02285694053805456
100,-0.5534411364793778,1.1538246619701384,9.912986183166504,0.009082136619836092,-0.04905851271469146,0.017995956894010304
120,-0.572822626808594,1.1776063801913426,9.84064008449686,0.01945083307359239,-0.02825206104296677,0.012769181682760346
140,-0.5983194487564492,1.214855567072377,9.814935554157604,0.020623792908295538,-0.009318015203021016,0.005968798304710424
160,-0.6278187934611295,1.2514301256553546,9.82683023246559,0.02264439283140205,0.005126307866334714,6.387680391403468E-4
180,-0.6619016437268839,1.2892215462719523,9.862048242150284,0.02848631851147951,0.013738307304021606,-0.002007890958338976
200,-0.7061050093836254,1.3313648058308496,9.907983303070068,0.03498818442846338,0.018996498834652206,-0.0019292230640227596
220,-0.751400752639284,1.3949767430217899,9.995541086002271,0.04112963940073945,0.02655939341342191,-0.0012275012499861875
240,-0.8141259188359639,1.5001860705186736,10.141597648836532,0.050564941361476226,0.03365907137818142,1.772982815175124E-4
260,-0.8964936636519014,1.631638640374468,10.310013269123278,0.06227826626906008,0.03590772792558072,0.004244326969216529
280,-0.9820365756750107,1.7816590310120193,10.515667415056072,0.07607906372057366,0.03357859172850664,0.01136669377246719
300,-1.0510451562129535,1.9476299675611348,10.783778535402739,0.09773601705494982,0.028790881285945383,0.02189359683185243
320,-1.1143905762717021,2.098243965948228,11.09652224204523,0.13562141218818993,0.022850130425042494,0.03472586121852342
340,-1.1700404101894015,2.189145704921411,11.334405957436076,0.1781505711161259,0.0173737561333367,0.046923602883685
360,-1.2182460536879878,2.2482899177458977,11.517108584988502,0.22628592752040394,0.01618080140512076,0.06177964706514632
380,-1.2418916017552952,2.2780776307170774,11.618003674495368,0.2727590762481185,0.019264114665637874,0.07754597579198028
400,-1.2451002666178872,2.3030790598953472,11.64314842785106,0.32402886502335176,0.02374589678913574,0.09620778241523487
420,-1.23133445235604,2.3184860475236477,11.563770251567137,0.3727101400525793,0.025477397623706047,0.11446935617671915
440,-1.2166955893371194,2.323604503736139,11.4216052682642,0.40587437789847347,0.01853929751771776,0.1271149593873577
460,-1.1998434260869637,2.3114518724955047,11.236449532631116,0.42997502668832355,8.049247822222802E-4,0.13628925509894124
480,-1.1989019960899072,2.2866892388888767,11.037288691609952,0.44485307972547894,-0.021574285699128004,0.14427866442404283
500,-1.188996714297064,2.248707771583756,10.841652273566803,0.4545236325897806,-0.035738691362062404,0.15362868953046005
520,-1.1634764791079308,2.206414572452301,10.627916011636115,0.4613449717723003,-0.035160878903900177,0.1632149454661258
540,-1.1198563173839962,2.1497147599243385,10.392697073814627,0.464172954859811,-0.023175720093640526,0.1729772605293221
560,-1.0625768467878638,2.0778825006495087,10.115933717307398,0.4655205939493884,-0.005962797031161707,0.18025563073825976
580,-1.0207887784593175,2.014682663971039,9.85911793738115,0.46210547829367465,-3.693942410001134E-4,0.18236347493051444
600,-0.9819010259760987,1.9414105188574582,9.598706449781146,0.45150952583311926,-0.005919044213702104,0.18086269675820535
620,-0.9518176493342393,1.8562139096454933,9.345642943565663,0.4334839622382648,-0.015716008839304917,0.17662108046754907
640,-0.9335572056701658,1.7740124909123822,9.105471420199123,0.40914726033181287,-0.020108553369828402,0.17156743050254047
660,-0.9209371152894058,1.7039176277762307,8.885661667671757,0.3801771637585446,-0.018333467888558094,0.1677504311285346
680,-0.898554021466366,1.6458338795780716,8.688675825024994,0.34890258289598136,-0.011885327409172404,0.165251247753704
700,-0.8725745508316521,1.5971007982192382,8.515328252152221,0.31567709493348756,-0.005516897329633214,0.16320639635493647
720,-0.8476613159772629,1.5521962580333153,8.372733157475789,0.28019870875713726,-0.004343947138792525,0.16033672189805656
740,-0.8082299917065282,1.509513442787345,8.25689605678941,0.2366534683545961,-0.010917318548591248,0.15290660268105688
760,-0.7645174663334685,1.4766013794563921,8.194291452504107,0.19495030343003736,-0.014676381728820478,0.14137080259333226
780,-0.7229422037231807,1.439900542577872,8.14563125536992,0.1478597549148477,-0.013078114597413402,0.12658107743097038
800,-0.6823144825189389,1.3911971408571746,8.133342818096951,0.09331167673597017,-0.005492951128738107,0.11080970298974319
820,-0.6381568447058567,1.3526733766181553,8.200364602975482,0.03735563166363061,0.009368102068267216,0.0943709979328133
840,-0.5912610363991755,1.3344170999710574,8.319529596918976,-0.014969828148988906,0.031500702109428014,0.0761936993877214
860,-0.5464401662347093,1.3134234005308785,8.4834278818606,-0.06109045067389889,0.056862140089372584,0.057507694804524424
880,-0.5009593672782489,1.2949379037810516,8.687136460003787,-0.09862556752736029,0.08021001703463086,0.03752048900861242
900,-0.46081975668084485,1.2843340951999296,8.921403174745492,-0.13036950728818575,0.09836386070192239,0.015106315620932679
920,-0.4449330441045069,1.287502209687718,9.177061462026881,-0.15569449848986752,0.11283494749111356,-0.009351277881573269
940,-0.4575411037872318,1.3011175051120836,9.435675457388086,-0.17167480716333366,0.1226003807616255,-0.03372302885672465
960,-0.4738036582764867,1.3195291301446688,9.68357716099141,-0.17608070866408893,0.12489373691002334,-0.056781157406670994
980,-0.49659105960946576,1.3392121889249042,9.896646905239717,-0.16937714986457134,0.12328915740133344,-0.0780156394271295
1000,-0.5330017853544008,1.3628240222210326,10.085913626468123,-0.1545775054216133,0.11985907822809123,-0.09892338655263654
1020,-0.568720681640271,1.3780670556111783,10.22769866113979,-0.13811608635427616,0.11359817284364607,-0.11573941218755009
1040,-0.6214686063345695,1.3851456808749327,10.345905557344127,-0.118442142514382,0.10428896914073807,-0.13127694099296838
1060,-0.6926965465350289,1.3870881975768772,10.435625479645925,-0.0957949373331006,0.09191730482765308,-0.14453833122082804
1080,-0.74414287270709,1.3869272163957693,10.475080613358026,-0.07999711349379465,0.08235623780375191,-0.1510326193349171
1100,-0.8737390358606149,1.384047028801449,10.507689686598757,-0.04411355247064637,0.05908115228201111,-0.1600059468169914
1120,-0.9851410422036706,1.3756225540250282,10.497982770849616,-0.02119526094696545,0.0450717795240084,-0.16165082337782272
1140,-1.111757921874325,1.3687384332985955,10.470455111341273,-0.0019095821127771064,0.03704583220372095,-0.15912483678338057
1160,-1.2468732752122187,1.3572646412125566,10.429057880924336,0.014426192648662059,0.0339340248713114,-0.15184959751908436
1180,-1.3818277667148169,1.3371897274896565,10.378792944759008,0.02925972675582693,0.031571275109536334,-0.1398086638741747
1200,-1.5006010042086833,1.3068953088978645,10.312595776218151,0.044045181935539975,0.029837091500976458,-0.12311388680198596
1220,-1.599292214022057,1.2644179995517963,10.203316926482184,0.05806633224062784,0.03036546236724328,-0.10021172485927168
1240,-1.6508635522861619,1.2293213129116625,10.101967403467963,0.06496401193789116,0.03023425773580504,-0.08039022241262536
1260,-1.6848940042687333,1.1859085072973214,9.973996968627665,0.06816866583153175,0.026947398281966645,-0.05347728868318374
1280,-1.6805039274000848,1.1503274752997017,9.878388003561032,0.06718895860649009,0.020295102175314553,-0.030410152697402
1300,-1.638309822129695,1.1256771341732172,9.805837117400126,0.06519616402111182,0.01086600583490576,-0.010686005399536307
1320,-1.5643668378939986,1.1118007528888916,9.750720379321834,0.06374173999453585,0.0018609156176056815,0.005285724958072161
1340,-1.477670605734714,1.0961018163742948,9.701915925730377,0.06268914894178888,-0.0016336941473801263,0.018437904572814107
1360,-1.3873633206022273,1.0817091176361313,9.662563186212175,0.05979913804756747,0.0028973644235286335,0.029256521470924716
1380,-1.2900327587068225,1.0719043423579364,9.645221383483321,0.05356379708511725,0.014162781503383313,0.036275332975915814
1400,-1.2036743862756893,1.0671291128764657,9.65884344474129,0.04831063592968428,0.02707573903117167,0.03826346402097008
1420,-1.1402183149551484,1.066519085713223,9.673061170872447,0.04713654428429735,0.03803915421296339,0.036432976030950685
1440,-1.0996017353207364,1.0670764800562964,9.670132898033774,0.04734339325274333,0.04552348492101352,0.03290454207174165
1460,-1.0771670743274209,1.0681547662157733,9.657590809966965,0.04603307299268897,0.04930177544405333,0.029657089311586
1480,-1.063593551586229,1.0718894611950658,9.647241507313753,0.0419012104392957,0.05022435100545408,0.0275394945975246
1500,-1.0592139810770447,1.0760375363366088,9.648946062336123,0.037679996934995755,0.050505315301546116,0.027114622572028055
1520,-1.0578144313924518,1.0807343489194459,9.656442375473953,0.03331767170296468,0.0515152240604802,0.027245315528784193
1540,-1.0594944354765141,1.0841885708123387,9.66527443680257,0.029938767804257225,0.05255101562223785,0.027260428169083955
1560,-1.0645787400855624,1.0898985910513148,9.674726724252105,0.027116170985300413,0.0527426112570538,0.026931911674910224
1580,-1.066234648385068,1.0941543710916763,9.680750678718827,0.02540337789311853,0.052485048090737244,0.026614314045061437
1600,-1.061964846212593,1.0965685018774112,9.683078987932786,0.023848467568846322,0.052010483622037036,0.02602353166908071
1620,-1.0553235582388791,1.0970272015470237,9.68349000308887,0.022063104587194023,0.05166928229940472,0.02478921629561403
1640,-1.050365795533123,1.0983802398848292,9.683570474031425,0.020177580920582323,0.05190926006304965,0.02316817044352536
1660,-1.048250781894689,1.101004614488578,9.68456479346051,0.018384986080362816,0.052698155448032434,0.02132600033792722
1680,-1.049805333033112,1.1039787310244635,9.68794493307901,0.016843880748638185,0.053190001524134736,0.019297515676995784
1700,-1.052550993247126,1.1070076264220543,9.693355751516487,0.016349986508148596,0.052589678605487286,0.017138568800707032
1720,-1.0549161203542448,1.1088091612965238,9.693911614316574,0.01651916144315008,0.05215371031667509,0.01542032327872853
1740,-1.0614068612820753,1.113365018292922,9.691122802410687,0.01654858060687621,0.052215335771623024,0.014205288352264513
1760,-1.0683514879423552,1.1188229588054162,9.687326257668653,0.015914696282219535,0.05218472852950965,0.01358752476953063
1780,-1.0735667271224019,1.1254489660021607,9.686031056039127,0.014800815708185987,0.05179093728421335,0.013268267079824978
1800,-1.0778498241350591,1.132555065137616,9.687227234588065,0.01357598231435315,0.05155672759731936,0.012945784072630521
1820,-1.0838540775832664,1.137489660898686,9.693078461909455,0.012586942849440138,0.0514776735221217,0.01288971300393143
1840,-1.0894381320184396,1.1416133032143265,9.696566188794526,0.012505224542825261,0.05174336247848023,0.013218215371112266
1860,-1.0944264072321512,1.1457194847522276,9.697966377305923,0.012337735492375688,0.0529308474061854,0.013490817231785765
1880,-1.0995164496699403,1.150194943129837,9.699761002209469,0.012161956559815196,0.05476201286764091,0.01352779421427315
1900,-1.1041132962850175,1.1530986940925714,9.700082277852749,0.012454565163708365,0.05775509309488081,0.013370013732865855
1920,-1.1092815629396422,1.15461913455859,9.696217160012312,0.012496266791012707,0.06137042980341561,0.013184916102890945
1940,-1.1154698350575871,1.154127988039448,9.694044070820365,0.012151590876222028,0.06426110339010256,0.013201672244835786
1960,-1.1202958154270282,1.1528585285100472,9.690763086749431,0.011722570214872864,0.06572525066534345,0.013377486873288033
1980,-1.1259549074122153,1.1515254402826367,9.689486582190902,0.010944963144756462,0.06626091981982168,0.013756963365745766
