0,-0.7232959270477295,0.9047851959864298,9.10533258650038,-0.05980363878835407,0.048763533122837543,-0.0370360484553708
20,-0.6570806888973012,0.8971461758894079,9.538940541884479,-0.1089311280315194,-0.020381182158256277,-0.048134294722010106
40,-0.6400229449455554,0.9189506081434397,9.871165532332201,-0.09434278931719466,-0.08168811791648085,-0.06182848647809946
60,-0.5981743019638639,0.9314449086333766,9.995941017613266,-0.0719573367686914,-0.11526567587685405,-0.07211983531261935
80,-0.5426430233887264,0.9395319876216707,9.98449470883324,-0.0488339501358236,-0.1173627710723806,-0.0846136353377785
100,-0.5288203382492065,0.9622230887413025,9.967880115509033,-0.046722190075088293,-0.10425697399303317,-0.0963594438880682
120,-0.521040653360301,0.9808018351423329,10.004988029085357,-0.04944485907065522,-0.09558388428634097,-0.10749145719254839
140,-0.5069458249843481,0.99618301969586,10.050155538501162,-0.047399762758604164,-0.09057090751770319,-0.11975813877176154
160,-0.5112395983290028,1.0215729732771177,10.124071598052979,-0.04003146550511136,-0.08885871924812326,-0.13118639361818094
180,-0.5086788055373401,1.0675946096094644,10.21411614301728,-0.022402462417475608,-0.08081621820924849,-0.13844258624424294
200,-0.4864018776350551,1.113258351220025,10.254675706227621,-0.002368129110739877,-0.06124277784385615,-0.1450597838809093
220,-0.4527075900791251,1.15811419000431,10.263929931484924,0.008471117959576373,-0.0386962508117514,-0.15367284504582687
240,-0.4313294804865881,1.2028873169197227,10.305588704235149,0.009242583563735814,-0.02426124096162758,-0.16627194489932284
260,-0.4433077222870096,1.258572406354158,10.424541606073793,0.009568236457467403,-0.013025409946946995,-0.18003828029917635
280,-0.4896354783341531,1.304020042341899,10.55354689001068,0.017179182819357965,-6.689120801623727E-4,-0.18803679817890534
300,-0.5486971714555193,1.3401871728533097,10.649427355700777,0.037289932154239876,0.016478065948734303,-0.19336925228019708
320,-0.6034071069384972,1.3600265490922996,10.692366977389767,0.056877307443906344,0.0213101920051996,-0.1952588992099539
340,-0.6639580971111549,1.3887529535358454,10.69625541790813,0.0738218312261018,0.010028726796676614,-0.19967849752834055
360,-0.7660972473301715,1.4294095285477177,10.695261469194966,0.09089691937946144,-0.007077709127277616,-0.20487896038159248
380,-0.9003510607886442,1.4563776488684437,10.664243663015542,0.10468495816372313,-0.021952747931543944,-0.20522946683815652
400,-1.0503911819712024,1.4835956166362205,10.617864335489552,0.10781042940971818,-0.03574122113654967,-0.19798442283481882
420,-1.1975098203336976,1.4870529767521268,10.585719167187227,0.10555635224936749,-0.04874652057922544,-0.18091584735825741
440,-1.3261236546182618,1.466085017046189,10.565571463681797,0.10753402770135831,-0.060114979663027084,-0.1558199949004752
460,-1.4304776767268776,1.4276773484853598,10.53228919200408,0.11875106985382258,-0.06574602035256341,-0.12432397636465538
480,-1.518277275238388,1.385855108499527,10.452361182039008,0.13534700183090043,-0.06815458555118607,-0.08914693883560561
500,-1.5945836402502318,1.3488160373192828,10.331660645832947,0.15119943646680986,-0.07032245122033097,-0.052116290953063284
520,-1.667935220842165,1.3046542897820472,10.156015417792581,0.16311253596107814,-0.07233134331922471,-0.009595567004924472
540,-1.7144138803337945,1.2602635364848793,9.981223296700863,0.16411669600373052,-0.0749105377145226,0.02862708661051696
560,-1.7353946931020878,1.2025231240727638,9.796969872410015,0.15566400582438444,-0.07645950027469198,0.06423354753435163
580,-1.7549997148691814,1.133256547672094,9.626624353596421,0.1409417858493293,-0.0769398584036294,0.09681753983690602
600,-1.7722194890883411,1.0689961079153276,9.474963770972359,0.12291016120931118,-0.07956674615094911,0.12879321829134982
620,-1.7535781070124359,1.0150645936051241,9.328951500012325,0.10070897030079952,-0.07939749830671085,0.16346169479477865
640,-1.6838417896799354,0.9543974534399918,9.18091454078902,0.07390669598669829,-0.07528137432327911,0.19960003022326908
660,-1.572816337644379,0.890426649266611,9.039047056350155,0.04200413271293813,-0.07099474294354087,0.23254917798212904
680,-1.4454786822193262,0.8328090477210115,8.928447651191496,0.007185850858534227,-0.06530857954541562,0.25780183621223124
700,-1.306647253627825,0.789142567332681,8.85294399849356,-0.027486643471279857,-0.058122672319208105,0.27558747034724035
720,-1.154191896378373,0.7439090672383706,8.795677660306294,-0.0579628053412307,-0.04919126006464163,0.2863986913238962
740,-0.9832756992483747,0.6716596180615302,8.736907599427553,-0.09104654116783605,-0.040427506910365764,0.2917748747399517
760,-0.8355067553386468,0.5883588636006091,8.705465709373401,-0.1210079493117886,-0.03656843424501479,0.29295974705450545
780,-0.6860810120833608,0.5216279091514074,8.713685700343206,-0.14818651667975175,-0.029603582322597504,0.2886993269894559
800,-0.5478625428742608,0.4692080829281349,8.749359132291318,-0.17278920736984704,-0.023074146214727167,0.2776042290924078
820,-0.4384220431796398,0.4096537125119366,8.786420991343837,-0.1997129056378079,-0.022694411442432106,0.2611863872628998
840,-0.35761966768460063,0.3388987126570718,8.841108596768967,-0.23211894020869164,-0.019035565327949033,0.24264287580749325
860,-0.29737154430649776,0.28159259140741927,8.956783050248603,-0.2646063458606867,-0.006238286339101337,0.22368912978348235
880,-0.25187732802627427,0.23691665728206504,9.119289867192098,-0.28892199757209125,0.009724982531919871,0.20513720846518058
900,-0.21603976294707916,0.19908841743306244,9.284804059097658,-0.3015405455084228,0.023232818988149353,0.1865357225223996
920,-0.19910722537567532,0.17826238245241285,9.437961436944997,-0.3052384753322248,0.02922121810866153,0.16577963338763968
940,-0.21001059319440918,0.16378486702328782,9.581568459312223,-0.3050832644300679,0.025667574625356952,0.14408493707923742
960,-0.23267284205291297,0.14905830236240958,9.734433593317604,-0.3033994693078584,0.02106577211929959,0.1239541906345007
980,-0.26996898147748943,0.1332104029662815,9.90018321731944,-0.29737510631798,0.020412263628325343,0.10724087253925793
1000,-0.30673606755607874,0.11316757244260414,10.076171523706925,-0.2824558412534149,0.022659890988058803,0.09284305003255713
1020,-0.3377885764522116,0.10238425378903958,10.213759823433032,-0.26228497758528696,0.0247110872798692,0.08205775118000382
1040,-0.3702811764834752,0.09751628989050555,10.32779248148896,-0.23671832817882776,0.026056710773602474,0.07266966408919977
1060,-0.40205708755707564,0.0868112617533773,10.412714175437683,-0.20833652216774204,0.02778731082825492,0.06408175757499285
1080,-0.4416394735928708,0.07364417096357709,10.47984333316307,-0.17941560511317547,0.03114329151926153,0.05711321585661327
1100,-0.48743397598708715,0.06362100816967729,10.534594047437155,-0.14919920599099357,0.034101778423897756,0.05274604457340281
1120,-0.5150805428392844,0.0592545618775883,10.559260612479482,-0.12933956341760147,0.034143619681657786,0.05134566992923033
1140,-0.5638181990507911,0.04990813451561522,10.58522237108109,-0.08620077002511181,0.025474930067170172,0.0508492978428431
1160,-0.5942554802820866,0.047329197474073416,10.59141812164913,-0.05695335048218706,0.013200837701839633,0.05173141090978701
1180,-0.6226558263160656,0.048846575166117935,10.596414433585274,-0.03020423612679037,-1.8158198981986615E-4,0.053194927958074054
1200,-0.6431232536437385,0.04566504288784633,10.60403405295478,-0.0011247953858621643,-0.014744504409456493,0.0551653488811971
1220,-0.6522945718695057,0.04220387371038031,10.6020171433331,0.02166470126606027,-0.0253803516252048,0.05683932858018346
1240,-0.6542668717944313,0.03859215772413665,10.58083111246038,0.04880334639310319,-0.03667008584828176,0.05943121912172921
1260,-0.644514090351057,0.03450858910516019,10.543051738040756,0.07004785688207278,-0.04264473461102773,0.06117970625078575
1280,-0.6281768397995372,0.031785138950734426,10.487095601192236,0.08815501753061451,-0.04388686502175635,0.06156020420135142
1300,-0.6107434379720242,0.03365562338399414,10.420994505481184,0.10321977329070497,-0.04173078893588107,0.06059027539270225
1320,-0.5956497645729374,0.03476527745665684,10.346290702538814,0.11756303528873473,-0.038095277729812964,0.058885781195625306
1340,-0.5818637185975125,0.03300867513406974,10.25636074980028,0.13101903000063078,-0.034093602546093525,0.057383515287238
1360,-0.5692091934476214,0.031670815800358285,10.153118001327105,0.14042434081446034,-0.02975005956453293,0.05568699326286216
1380,-0.5578579430121804,0.03233065463789793,10.046106227491268,0.14524588552348783,-0.0241087330825548,0.053438076774082174
1400,-0.5504713138314369,0.03356359844379451,9.937182167716648,0.1476035784745751,-0.017210822935499574,0.05070706451230723
1420,-0.5447827519147656,0.03428616597976913,9.825364654509935,0.1482557303810933,-0.010326808354438732,0.04744162770406715
1440,-0.5411771787338387,0.025781921874542677,9.706070304522054,0.14577464356032782,-0.008943769451255978,0.04321555309974653
1460,-0.5443931619328864,0.01197110138482139,9.573369240220357,0.13713452356882264,-0.01510876548462524,0.03801308906417906
1480,-0.5494679267308369,0.005467579304087466,9.431902411243707,0.1209315892171473,-0.022657428250041495,0.03500970837960363
1500,-0.5425963648980447,0.0038880204272383895,9.335848700590795,0.10593872423100062,-0.02461003260641637,0.03555396626032163
1520,-0.5323545256090793,0.008229043336961275,9.256827608034468,0.09152320039384694,-0.02359589664056563,0.03743036015956209
1540,-0.5201026165906617,0.017566009106560244,9.197778705841081,0.07748674508128847,-0.022249430035744245,0.03896216468268595
1560,-0.5020934138992743,0.03073858134666807,9.148615709968727,0.0572793646957507,-0.021098569138848687,0.040836855756060685
1580,-0.48712777521929784,0.03725586220101787,9.132387233642218,0.03947521757746236,-0.020922373361378206,0.042275228306225696
1600,-0.48047160745311596,0.03375663465419898,9.131216769081131,0.022625770988602974,-0.019282488642713317,0.04294452541252235
1620,-0.4800715870806016,0.025493975169816423,9.142965775204777,0.005888746019925484,-0.014896228002539993,0.04432685551912445
1640,-0.4721538864354703,0.020414692373985115,9.164956020720725,-0.009206970066207716,-0.007730896087672417,0.04639675326151995
1660,-0.4520458686802372,0.012904930533156457,9.195663762352813,-0.022989538026227177,-0.0025035959303803634,0.0476573800216155
1680,-0.42994779928081106,0.003334926724904975,9.234840599860627,-0.035505539693478444,2.834858072631949E-4,0.04671171044952474
1700,-0.41533145500170643,-0.008597328914850523,9.293542064499201,-0.04732318979255732,0.0026525205231393277,0.044198056755098414
1720,-0.4055702482482273,-0.014546770552926242,9.345699501288593,-0.05516716966732465,0.0052587349028888,0.042367039890365395
1740,-0.3850103247143997,-0.01806509780905211,9.391278398234977,-0.06255872643681382,0.008373460428871549,0.04080794396879462
1760,-0.3571867856762828,-0.016735240029773047,9.443353108242775,-0.07051317542503961,0.012863304397064143,0.03714183657514074
1780,-0.34006650685888445,-0.01169584237552658,9.50492942112208,-0.07782981905428915,0.017766780331916084,0.0310106630934037
1800,-0.3407752239322252,-0.002586750132303427,9.569237543654147,-0.08214378399313825,0.021156700515804948,0.024859382089839052
1820,-0.34566080830303714,0.003111919282541779,9.626692975685,-0.08405726531929893,0.021975807588853744,0.019649524401698336
1840,-0.35256088654737017,0.006870177025927768,9.679320735837102,-0.08495394962640036,0.02255681772876511,0.014373530771034173
1860,-0.36679363912632307,0.010568300682473707,9.728701901261092,-0.08522775803424011,0.02326909389359688,0.009190966971169633
1880,-0.3862677709107446,0.011430068851675069,9.773692014698613,-0.08444861342669652,0.02373798248543972,0.004902367575774732
1900,-0.4070423726799108,0.009364312149684978,9.81251561986654,-0.08235358967678921,0.02408822149141995,0.0016919387363022052
1920,-0.4279406463908643,0.006411096907597576,9.845663630247174,-0.07816024181659928,0.02430633900870164,-4.966285117634076E-4
1940,-0.44040007228723793,0.003698104450019353,9.865097904908623,-0.07308429971461064,0.02404430913765298,-0.001563408076575481
1960,-0.45035925399839527,0.0029325562957767163,9.873901423296783,-0.06718913943404006,0.023658001451971396,-0.0023957195452546836
1980,-0.4595717437847023,0.003051433492635871,9.871094085770533,-0.061739217721494946,0.023621269478893803,-0.003158297642697523
