0,-0.8180322647094727,0.5955615441004435,9.487471050686306,-0.10933910972542232,0.07717183356483777,-0.05691541110475858
20,-0.7731686970766853,0.5872024595737457,9.824088769800523,-0.09511817684944938,0.05058896034846411,-0.06683351209058482
40,-0.781542809009552,0.6062273705005645,9.95465965270996,-0.07297571480274201,0.023335736091248692,-0.07668908879160881
60,-0.7925337715582415,0.6425910239869898,10.028455300764604,-0.06337671382634928,-0.013542428390461613,-0.09107919816266406
80,-0.8140730160038646,0.6780826311285902,10.112357116327054,-0.05017074120866998,-0.05515190904744242,-0.10421864079629503
100,-0.8170438421015837,0.7013008515445553,10.16289927034962,-0.03500490693128383,-0.08765308118225741,-0.11410030760631269
120,-0.8143907137084425,0.7304389712057615,10.214800767731248,-0.024946491613886075,-0.10595709281736626,-0.1212735843370881
140,-0.7904301739656008,0.7721543307487782,10.294162867619441,-0.018478424334898592,-0.11457667752133252,-0.12695973933889315
160,-0.7488209339853835,0.811353911683984,10.406327521964295,-0.01272027148890679,-0.1173305373705847,-0.13483618572354317
180,-0.7067377690547778,0.8723785093537083,10.56765455081139,-0.00236551532878276,-0.10985440952433158,-0.14512194182585786
200,-0.6503808874222967,0.9621059970723258,10.757470205095078,0.022321658868653078,-0.0867368556623761,-0.15897958398693138
220,-0.6323340606628632,1.0425178308267982,10.877641551348628,0.047721573168278804,-0.057265868226341825,-0.17313008728836263
240,-0.6311102671162138,1.1227671298778281,10.997659053442613,0.07123214839122978,-0.02785665324542074,-0.1871244498651545
260,-0.6185873510283336,1.1952828720473407,11.12864783772251,0.09843729609386637,-0.007677103283512814,-0.2030886941377008
280,-0.6194193746186485,1.2452122768587317,11.212294334222463,0.1285865832993776,8.151643237961102E-4,-0.21999233336118626
300,-0.6585935522730534,1.2851675379734773,11.247564924680269,0.17107309690282607,-0.0020970437720489615,-0.24399952031672
320,-0.730376854646897,1.3101798725732858,11.21806372075841,0.20685660226128832,-0.01879331267496193,-0.2650794051317633
340,-0.8229681166679892,1.3340259371963266,11.134872808848343,0.2382516623394921,-0.0504377675473958,-0.28465540944407247
360,-0.9249752476424365,1.3431394539483181,10.988412302809877,0.2618021852043518,-0.10177722140653785,-0.30308987580046254
380,-1.0371913463797098,1.3377219554450777,10.79917311374052,0.2722458588519927,-0.17487828298198796,-0.31868441947908316
400,-1.2582587854827152,1.2957056228181019,10.632393822950476,0.2732408787603216,-0.2580808127004489,-0.32292934754753816
420,-1.5052230100891444,1.2370878517856645,10.493477483035466,0.27307265183066315,-0.31605787377859146,-0.29502151906490326
440,-1.6779481939931604,1.1895178806554665,10.358190962337556,0.26578146336664926,-0.3229514293324073,-0.25002196423191436
460,-1.803830530322515,1.1483566455829601,10.214574510623248,0.261527708496373,-0.2948849755440815,-0.19652149929450108
480,-1.8832877042698744,1.0925300901026231,10.031993966971712,0.26041669521384453,-0.25663055731224477,-0.1371676599597696
500,-1.9204425198065727,1.0272023550861502,9.846050578836016,0.25434380715770283,-0.22773921625938054,-0.07673583105559598
520,-1.9266019130814565,0.9541583246440886,9.695345693527292,0.24289455982541758,-0.21693519303483727,-0.019342538496675013
540,-1.90945314330414,0.8836039837905193,9.578453723554569,0.2296736169153094,-0.21470619043558917,0.03341881235002946
560,-1.8659547018878004,0.8144085917205728,9.466157136064895,0.2167884596791911,-0.2075972752234443,0.08176968750801493
580,-1.7933867602865883,0.7509914246740379,9.34233094831553,0.20175099375834038,-0.192828863600955,0.125854165894995
600,-1.6961509974532394,0.69717017802933,9.213115724434415,0.1837208514719593,-0.174583775932396,0.1648515281805479
620,-1.5850591343974976,0.6462669200084126,9.08759221883354,0.16175995902230236,-0.1546216652999204,0.1993730104452855
640,-1.4631506867344013,0.5848332967326632,8.986508355158545,0.1360640459116688,-0.13449926902008094,0.2308522890904423
660,-1.31583249934695,0.5251102324084125,8.907835721102629,0.10784808898429302,-0.11087402407630262,0.25942897097630935
680,-1.1101422013688675,0.4723585913413611,8.84598815609032,0.07311848312219553,-0.0830093855058781,0.28747780049141025
700,-0.9382880387181269,0.42481557959434657,8.818643363480716,0.04404677396809804,-0.06233692741624793,0.3029969428310689
720,-0.7368517452230056,0.375299577525196,8.820665715535482,0.004437055611827721,-0.04141813495700868,0.3125407973428567
740,-0.56410488735449,0.34552046289975913,8.860826148615255,-0.030543740283147516,-0.027324570840687262,0.31095034827466134
760,-0.39120675545610206,0.3089423751255167,8.929876185670684,-0.06117784333359332,-0.018190493302116216,0.3005525491589421
780,-0.23276042991122345,0.2654480104561734,8.981929779052734,-0.08806998639174933,-0.010732206563755616,0.281986645353889
800,-0.11133955955415605,0.231970637867014,9.0496105458363,-0.119056618335539,-0.00710027755963257,0.25711853157010783
820,-0.017075083339039017,0.20419655741219792,9.173826857174143,-0.1507531821515466,-0.0024236080089501816,0.22770741758320262
840,0.05920102971809349,0.17577241910166566,9.349743722499102,-0.17417075988186267,0.004560392251942071,0.19474464930037313
860,0.10883884000058254,0.14859885982828988,9.522369331188417,-0.1865744416430603,0.009960266927275493,0.15909056986022865
880,0.10698191637862219,0.1315620386526499,9.694055222811764,-0.19525260825335264,0.012583572870082133,0.11884123234920306
900,0.07083334725710654,0.12969160202004376,9.84468957429291,-0.19988610449319666,0.01091686557159729,0.08988726780980184
920,-0.004966052420183117,0.13596922599067643,10.065205161027082,-0.1971222647322767,0.005500366496352425,0.05692607493890239
940,-0.1038785923875696,0.15219764968686783,10.258269287933114,-0.18398529261525404,0.0012763010147614237,0.03325953276152782
960,-0.21395911129956283,0.17491486062288697,10.431064600908487,-0.1630958089099432,9.361424928566826E-4,0.016833745421705678
980,-0.31387175917625426,0.19943121599815325,10.581137607715748,-0.13788675482867768,0.005942320504209981,0.006733027808828118
1000,-0.4074316959259874,0.22151322112493127,10.711838396640436,-0.11019930641333738,0.01312883047869155,0.001951436523447314
1020,-0.488481607615523,0.23790907734040517,10.8326908754906,-0.0801481817038221,0.017163980551095262,0.0013886930148898139
1040,-0.5518482564351498,0.24214820999604386,10.944536298027128,-0.04531667741951218,0.013040528556514892,0.002782540516341691
1060,-0.6028872795863337,0.23847161279351917,11.021551520655303,-0.005523675239114283,0.0036612843082460106,0.0056586530543352295
1080,-0.6458802870820077,0.2282426812162811,11.053236275576474,0.03407738542738842,-0.005079103332585812,0.010302150520506535
1100,-0.6836115671177837,0.22149437762052643,11.050335092523504,0.06918976150779979,-0.012008121944581021,0.016465368323957355
1120,-0.7047384262990021,0.2127463222105549,11.022431052946475,0.1001349474154938,-0.015968791393190924,0.022970418353845848
1140,-0.7101997608200032,0.20076379591222615,10.966122261006781,0.12875134056992035,-0.01695060852719203,0.028540342922078202
1160,-0.7057090723364922,0.18792386370843517,10.899553977295943,0.1589007326416383,-0.0166381853819551,0.03314342876900159
1180,-0.689706520896037,0.1706377579265278,10.807048081370539,0.18305222621837194,-0.015643574474865682,0.03533391050760607
1200,-0.6679389802493939,0.15148741705814445,10.68693637606586,0.2028364605427746,-0.010906389240646332,0.03551268023212519
1220,-0.6462640854886239,0.1320314218477528,10.5496416448122,0.21901289838880109,-8.495688019018895E-4,0.03483905784407282
1240,-0.6256730531890164,0.1114576401581586,10.39508023805478,0.23347036265083315,0.0091309058377816,0.03381581491261136
1260,-0.6038686012845615,0.08601726976252057,10.228694240587789,0.24392044278802028,0.012695312675128648,0.03189258567960106
1280,-0.5857052408502271,0.054029094054409706,10.053928163256709,0.24890454645319965,0.008378511364494287,0.028050232692816413
1300,-0.5910675253122626,0.024443553062155843,9.869158304055755,0.2465268353062197,-0.002611478847485953,0.022939558890874914
1320,-0.6128068709096482,0.005444030472458894,9.69062062440873,0.2348471495277348,-0.011593648546271807,0.019484292454605173
1340,-0.6247082142752003,-0.017261558887125415,9.537325259718028,0.21526886877138168,-0.013131730930022472,0.021881970887665043
1360,-0.6075466463229018,-0.03514980438893431,9.412144388357087,0.19878590652887412,-0.0039008527884092383,0.028501716746460508
1380,-0.5752617141096968,-0.03523133044927496,9.31076154212859,0.18875372454041925,2.2993437426910133E-4,0.03436842899318692
1400,-0.5393717751403433,-0.019418851710135566,9.195381638532316,0.17217961807276094,0.0014317637037762477,0.0382437333099557
1420,-0.5155988423869423,0.0016350227034304093,9.105215570990053,0.14482003452430445,0.0020993479144041415,0.03948881490136885
1440,-0.5016168039591508,0.0040281724819815805,9.067017512726904,0.1185791515859471,0.00354137693195172,0.041003123028976005
1460,-0.4693598756535548,-0.0032146833564943083,9.064465594659863,0.0935122492316588,0.0028116911268681877,0.04326926149623795
1480,-0.4193059920212116,-7.812412351345309E-4,9.089537479388458,0.07028103888125345,5.112398905151016E-4,0.042053482499084076
1500,-0.3746355922559534,-0.0011059920856259702,9.126870721578598,0.04754509278421661,-0.002371119118600372,0.03589030481738652
1520,-0.3519948445706005,-0.01079488703667113,9.17593915298892,0.02379857835563178,-0.0046784536445227095,0.027654852920673774
1540,-0.3432734962242837,-0.022545825886332006,9.248837072242836,6.364681451727538E-4,-0.003901998553635027,0.01966198836563955
1560,-0.3310524329079639,-0.028575319535913694,9.346955795103396,-0.017210340910374024,9.13522483302566E-4,0.012143492762069327
1580,-0.3170013938407188,-0.02856995522115132,9.436118233747424,-0.028975831835935183,0.008390018487717291,0.004046141795405234
1600,-0.30284585227491334,-0.02995234845410578,9.51310560348012,-0.04209015044140936,0.01904196361314595,-0.007600588435108387
1620,-0.31621473108233145,-0.027773570291787744,9.595624516033624,-0.05324246708990593,0.024837456822111224,-0.01817805198165918
1640,-0.3516402043737582,-0.018204999666306235,9.686770953104965,-0.06174223580005457,0.02838058888210071,-0.030178769653069877
1660,-0.39666456103133146,-0.004522359743714332,9.756471728095237,-0.06356567166752511,0.031125457682227374,-0.03783642275546513
1680,-0.43890823506842214,0.008702833616976128,9.805119868151325,-0.06461975192224748,0.03510400926744867,-0.043757576956332464
1700,-0.4824243994261106,0.0181002926680891,9.849972470267408,-0.06626641306519006,0.03825490421697667,-0.04829903874591785
1720,-0.5189912283266577,0.02268464679152451,9.897003591272302,-0.06595393724703834,0.03790158487270839,-0.050839783185272776
1740,-0.545041883056931,0.02216065976915232,9.930572168420206,-0.06290827004475717,0.0344621507187941,-0.0514315406097298
1760,-0.5616254508146085,0.017896119468948906,9.949270814201897,-0.05839674737103956,0.030157425160278865,-0.05064305844264001
1780,-0.5704160353621713,0.011323706016640414,9.957425724223746,-0.05350076664491188,0.027041107220541632,-0.04929098526366403
1800,-0.5745443830977741,0.004262875082254734,9.955946932870733,-0.049138918067594364,0.026895236139273988,-0.04813113411364611
1820,-0.5786032639506463,-0.001834893534060127,9.950817276273042,-0.04555098106990749,0.029152926694849313,-0.047417893168649146
1840,-0.5847287553404656,-0.006490757485772384,9.94479671457505,-0.0423715699682671,0.03180455277373419,-0.04715188296835007
1860,-0.5926665155180288,-0.010891036096176034,9.937238993338848,-0.03928993049623004,0.03426299208517058,-0.04699169193596677
1880,-0.5982503651160509,-0.01732262518978708,9.929682888080922,-0.03619426707264826,0.03678898307565516,-0.046554599316083425
1900,-0.6010358786627535,-0.023635791645815626,9.92514014662156,-0.033409547002295675,0.038504805417179745,-0.046057871832336124
1920,-0.6056989390818271,-0.030576925174256038,9.918603123411252,-0.030197155318122094,0.040284071906705556,-0.04532147749463559
1940,-0.6121223186768714,-0.037384051124918806,9.9081086440841,-0.027435787270212026,0.04164123019945049,-0.04428291404948653
1960,-0.619691146787642,-0.0432478945827886,9.897638408023022,-0.025533513122118462,0.04263946463884559,-0.04259282226421953
1980,-0.6268438400369142,-0.0472135632926292,9.886457501184218,-0.02420215181026686,0.04348430461727275,-0.04034558631657025
