0,-1.284928023815155,1.2017010897397995,10.178234815597534,0.04411420528776944,-0.04475935990922153,0.02036001719534397
20,-1.2214600071310997,1.1388318315148354,10.368638813495636,0.04647776088677347,-0.06117109244223684,0.01220408602966927
40,-1.214274952809016,1.126856729388237,10.41813588142395,0.07367529332016905,-0.050906825044269986,0.015810450053929042
60,-1.2130774445831776,1.1244617141783237,10.34423953294754,0.10245407687034458,-0.024386178418353666,0.022440611661295407
80,-1.207790871945823,1.1428332677701625,10.25337116892745,0.1231906016970553,2.8541106617123614E-4,0.03274696369132981
100,-1.188223003124704,1.161242380434153,10.173065886205556,0.13562911528409743,0.009127530549671881,0.03918149971346162
120,-1.1679292216635586,1.1921315297745823,10.077822501199288,0.14172606581920072,0.011833981198275037,0.04028700248812113
140,-1.1741491602017329,1.2153435028516328,10.013319206237792,0.14075827065568705,0.011678144951852468,0.042070925199928194
160,-1.165619965285471,1.2278248594231802,9.956195060520956,0.13607716922686525,0.014861702970037721,0.04310633085846697
180,-1.17787656887078,1.2452328013785092,9.922950744628906,0.1325903337586809,0.022742732301538372,0.043023188742176616
200,-1.2012234423937422,1.2796939731983656,9.909084287922035,0.13282439953992875,0.03298324978585993,0.04363125698180514
220,-1.2182995763021647,1.302001806878552,9.893801433523906,0.13287708896797956,0.04212764339502325,0.044748532225752306
240,-1.2324542959531148,1.3203172990253993,9.900874319530669,0.1328101503352324,0.04589654579758644,0.04536583126921739
260,-1.2434178954732102,1.334386248504166,9.909616293105405,0.13540171024150552,0.048519035587004856,0.04870500654163482
280,-1.2570884075046571,1.3556998731676213,9.909720342021343,0.13730283269335417,0.04983072946510039,0.053037663579202636
300,-1.2732964102611986,1.3809794594151106,9.907583554585775,0.13735787353889886,0.05141327059430669,0.057633949815505
320,-1.3060493326705436,1.4093822767769082,9.905072302058123,0.1357771212478047,0.05282330097279687,0.0637463850704818
340,-1.3306729098846173,1.4288191598037194,9.911912648431185,0.13405558274223886,0.0522876077299488,0.06967257765796164
360,-1.3366697891192003,1.443543650113143,9.908600584253088,0.13142092596110586,0.049712821114211124,0.0781990346867688
380,-1.3266339004039764,1.4467692662168432,9.891253689189016,0.12727058776596814,0.045862915786450305,0.08508798425706725
400,-1.308469667855431,1.4538332707741681,9.874665961546057,0.12224195165669217,0.04191791744892458,0.09066747147316004
420,-1.288089997982711,1.4656981959771573,9.869095523705644,0.11968216946704334,0.036472265628392786,0.09610144259000009
440,-1.2515136472960955,1.4763364580369764,9.861248703413112,0.11880019633600147,0.03245432920123686,0.10024027198663242
460,-1.1995838551023572,1.4878997747431095,9.84977751171466,0.11701081011482735,0.031216778873151513,0.10055368075617734
480,-1.1205134931029659,1.5096923260405513,9.859703016753244,0.11420824207217976,0.030971125246885483,0.09600111270683015
500,-1.0543788823343458,1.5361884020623706,9.896631713140579,0.11426460975337596,0.034751611663350127,0.08613936014340393
520,-1.0407129356620508,1.5740991869104017,9.941396927614825,0.11818697534228137,0.04162633972623762,0.07494173178645791
540,-1.0760420513364066,1.6285497641141435,9.988694338671928,0.12125424043464977,0.04671577565228789,0.06544892958249995
560,-1.1506285804383298,1.68935512228215,10.045425772159657,0.12254291409824757,0.040441313313885015,0.05748788714607028
580,-1.2352584786866427,1.7258728291272136,10.093184400487829,0.12427898681887384,0.021517057224021603,0.05244932290158951
600,-1.3422415185259633,1.7416849924748636,10.12631477872689,0.1303394587480452,-0.0011218836189217983,0.05076433837124373
620,-1.4523435996766256,1.7349374243651579,10.12736365049502,0.14025780534134408,-0.013778470148032164,0.055241880041248664
640,-1.5530311905042955,1.7146367124850384,10.071532987030258,0.1492626138924436,-0.010411808846914297,0.06699772508577741
660,-1.6306164529106835,1.6805896285447208,9.963908748626709,0.15366838545961814,0.00636918017746542,0.08500349706038833
680,-1.6818792605147346,1.6359253513886736,9.827112551712737,0.15294291912298322,0.026293090646041642,0.10648947606824154
700,-1.7024556705632161,1.5763508919946516,9.672257997735668,0.14815369338642076,0.03972565230318982,0.12841761696129986
720,-1.6881924646355237,1.5087181848775981,9.511688322526556,0.1377136955305585,0.04337397836912642,0.14784343715252535
740,-1.6418756711439317,1.4263551103903727,9.348159514343312,0.12069406259064759,0.03748247284591592,0.16326576850076693
760,-1.5639250076834172,1.3328626394981429,9.176103365610516,0.09478583125959313,0.025650812093619375,0.1762070836543682
780,-1.4535173929581886,1.2253899216974853,9.030469740876473,0.05987771614901606,0.01654731189264792,0.18905316759333385
800,-1.2715101488809808,1.1133667177419706,8.949943114476032,0.018797112320246827,0.023016609949465135,0.20201278513953852
820,-1.1195730562486192,1.0332396462340565,8.927548409910763,-0.013971870277515229,0.043770469179520766,0.2081843557616915
840,-0.9709189337967284,0.9659912518343363,8.916066239620077,-0.044588339584611954,0.07137288296834068,0.207376009711043
860,-0.8214379109421306,0.9213828902189316,8.931324242206102,-0.07429409313298176,0.1005071192959211,0.19373553918198463
880,-0.7020039397015513,0.9057516833705889,8.984745097684335,-0.10061478534467765,0.1315916418681589,0.1655629201303492
900,-0.6600570807439298,0.9159949485945573,9.067118280981429,-0.1196731340361011,0.1565319697149512,0.13276820260443978
920,-0.6871747353499986,0.9374448090673752,9.193677835539967,-0.1381240402321309,0.1739410757055533,0.09410329129777868
940,-0.7894429121473708,0.9578350169257712,9.409933388847666,-0.1530907745665112,0.18370264421229746,0.05659975766410725
960,-0.9252880130791001,0.9738294983263871,9.646715736148334,-0.15412239594540247,0.18763216169309366,0.03219084917788742
980,-1.060400870121499,0.9886925605374692,9.871263139318712,-0.14288239575355396,0.1824145899726237,0.013998484498323265
1000,-1.1863718119097277,1.003885268134255,10.05139748448307,-0.12307844979765382,0.16652851514430667,-0.001933438883126867
1020,-1.3002105388790368,1.0162980691130672,10.174146065257844,-0.09781109317804554,0.1431148365734511,-0.015586981087523911
1040,-1.4016796433514802,1.0204798138970248,10.23688470648828,-0.06982086330465102,0.11842848387262327,-0.025591562823044294
1060,-1.4921904007991609,1.0076620360619006,10.247921829092693,-0.03787117497143026,0.09420273218315107,-0.030969351750651474
1080,-1.5496691976537864,0.983400443489297,10.210458483320943,-0.010578328535337462,0.07551963743452883,-0.030280168179757476
1100,-1.583715984050933,0.9545818649429754,10.127856021948471,0.013664682479020184,0.05819484939098165,-0.02565174335284903
1120,-1.597780075231972,0.931048262823859,10.025635508869005,0.03089789984970475,0.043521441703120695,-0.01986219372053671
1140,-1.5981674923349036,0.9049293158579864,9.868675864073259,0.046672863654418986,0.02418952315079191,-0.011678550997053954
1160,-1.594972612426091,0.8743980690540133,9.711608811869311,0.05391600762691107,0.005012923431464625,-0.004835788567650056
1180,-1.5832709366052422,0.8332890574388283,9.563565260847819,0.05508431051905776,-0.013524456746929047,9.334144432136079E-4
1200,-1.5671687080368066,0.7885784316906218,9.42910001050628,0.05192554890297157,-0.028758162185223868,0.005920086916475642
1220,-1.5454043442283028,0.746299590647756,9.310717718805858,0.04689554455309006,-0.04015647664054124,0.010687968501274635
1240,-1.516494434586706,0.7151274532299262,9.200329129494477,0.04165635782079899,-0.04707879730679135,0.015123896951254727
1260,-1.4824013389697446,0.6937496325422647,9.099323524036075,0.03501644371819594,-0.04887987142444518,0.017236381962830543
1280,-1.4517742240322489,0.6727587336514678,9.017764433906192,0.0265132903352025,-0.047042708963133575,0.016239859177509235
1300,-1.4343566265452499,0.6526652750269639,8.955256496922354,0.018176156135401533,-0.04191198540284222,0.014163131821701784
1320,-1.4207062028877684,0.6302259961878571,8.914899404638367,0.012284405819033839,-0.03663265526265067,0.013428960261416253
1340,-1.409839192998003,0.6032052899964832,8.880410574999722,0.004459670335901054,-0.02805738543784669,0.01272679906973446
1360,-1.4055503208797733,0.5803072479717086,8.859023119813653,-0.009328015508317125,-0.01522830927001369,0.010319921341190603
1380,-1.4112758974942903,0.5575656480626483,8.86499169521534,-0.028232946951607038,-0.001897071016267067,0.00692334645732171
1400,-1.4266973394764269,0.5342813134647724,8.908229643459519,-0.04642903691771009,0.009689227241121447,0.003100880304471515
1420,-1.4555546632548635,0.513357232263971,8.97938128435325,-0.06189552196493545,0.02042253845568532,-4.8105783890164695E-4
1440,-1.4839866389062697,0.4978555725224442,9.062137282096733,-0.074312812606883,0.03189031252039644,-0.0038259507902755827
1460,-1.5118501355223681,0.49113922659619197,9.133795872181155,-0.08615738204462348,0.04321959677176086,-0.008170661336219057
1480,-1.5489453531143935,0.4917299384159027,9.206423863325968,-0.09933018774061583,0.055343148069284864,-0.013390336410455997
1500,-1.5881866664574134,0.49065916862714953,9.296093187425345,-0.11347829626876169,0.06579056889524437,-0.017484200132801424
1520,-1.615375282814864,0.4978021352261401,9.396878795991757,-0.12687540908308154,0.06932161900058008,-0.020111203616278373
1540,-1.6360982606798504,0.5086854694030364,9.519880429311714,-0.13931814871548354,0.06512611168785398,-0.020420871946957735
1560,-1.6462517886660142,0.5199853737426102,9.641854310073017,-0.14515029755530293,0.061238886646839685,-0.01754488104608942
1580,-1.6399702589981937,0.5334933997697587,9.75411910804383,-0.1444351080167388,0.058188701058299624,-0.01219704295825242
1600,-1.613226719840451,0.5436146091527612,9.842046159642344,-0.14101859593168697,0.054605731536689094,-0.00708718515899807
1620,-1.5726645350551758,0.5454575936921042,9.9206698419102,-0.13481074974831436,0.04805051034843538,-0.0015029244207064895
1640,-1.5266590411462522,0.5371839864076783,9.996754853807156,-0.12676057409170333,0.04255190357989555,0.0017501723167698848
1660,-1.4829157339724464,0.5185376234374535,10.057078982312479,-0.11619457280790002,0.038758798749018074,0.0036699459150801132
1680,-1.44638268568511,0.49366688561860306,10.100177806537745,-0.1045426819914087,0.035668072802895134,0.005008499890096822
1700,-1.4153084214562348,0.4654815430960638,10.127045897614185,-0.09145614559286468,0.031893618775803004,0.006053370815909488
1720,-1.3891863373491071,0.434483135476772,10.127369494051546,-0.07829999049150439,0.027499692004248844,0.0068926234351362435
1740,-1.3649660902165839,0.4027400436036791,10.105469162544507,-0.0661994265582088,0.023164821658927682,0.006965824443417905
1760,-1.3496733964938257,0.381666337683176,10.078102922439575,-0.05742657862202678,0.018785205706970173,0.006222352104830659
1780,-1.342349286242337,0.36319420010281295,10.046482302330352,-0.049262842294570716,0.012931018756657128,0.0052501211994440185
1800,-1.337774661551837,0.34569635313591396,10.008207831045855,-0.04293092258044255,0.007432057781403748,0.0039270516148383686
1820,-1.3366849221970125,0.33214158050575726,9.972874643982097,-0.03802523107871273,0.002593293041006477,0.001751157884506048
1840,-1.3375038096998284,0.3245697487393355,9.93732502676071,-0.033064551322666454,-0.0018471633817132393,-0.0012900062670752881
1860,-1.3399441549456432,0.316703530699995,9.897456464641973,-0.029256050649564713,-0.0056474876089946755,-0.0050240443933657125
1880,-1.3455519674462266,0.3059200992429396,9.861568198228875,-0.027430637912402744,-0.00807797635593488,-0.009033991122123552
1900,-1.3517293280048162,0.29564295212267755,9.837333285931459,-0.02669920401525271,-0.008342923429604384,-0.012570707320677327
1920,-1.3579700222543003,0.28744512445255355,9.821034630950617,-0.025039041536617835,-0.008034503548236788,-0.01564800026660253
1940,-1.3655059284746949,0.28035035396860253,9.805186201827695,-0.02221669261214427,-0.007779381749372473,-0.018519180536392437
1960,-1.3714720673672856,0.2731160640949383,9.787547124028206,-0.01905397970986087,-0.006960777490094188,-0.021416161042870953
1980,-1.377784631437218,0.2637659696855194,9.7632487011781,-0.016397789386026238,-0.004986528485563868,-0.024485389202400322
