0,-1.905836895108223,1.2591815739870071,8.348439693450928,0.1278725992597174,0.3070419132709503,0.25211452320218086
20,-1.906136266887188,1.2064911350607872,8.912766218185425,0.014555093002854846,0.3022149335592985,0.21063578967005014
40,-1.9519410133361816,1.3907080590724945,9.429990688959757,-0.036555407190462574,0.25027220013240975,0.16953433925906816
60,-2.023192837834358,1.6369959115982056,9.89681988954544,-0.05330558116111206,0.18728289336286252,0.1466200582217425
80,-2.124142920970917,1.8915865004062653,10.451985454559326,-0.059241101570660246,0.1540299991320353,0.15078124683350325
100,-2.219784031311671,2.203817223509153,11.060699661572775,-0.04198150608863216,0.15328864568436984,0.18067489890381694
120,-2.15182009705326,2.539225013632523,11.645257799248947,-0.0077263776319134135,0.14357836594756104,0.22670942296584448
140,-1.9878662971349863,2.7668740529280442,12.124915900597205,0.03520119344600691,0.10665593162680474,0.25214874526629083
160,-1.8602412775771258,2.9329475997245473,12.527199470833557,0.10280844175945712,0.06788118564753398,0.26464302990942784
180,-1.798038813802931,3.0650337566564114,12.745880597903405,0.17913581830748346,0.05667031204822347,0.2683566301877116
200,-1.7835092303458224,3.16476278894403,12.843171741185563,0.24982665742621915,0.06273568729514235,0.27030742913484573
220,-1.7660430350254492,3.223696416186303,12.830441189795426,0.31144892965616255,0.06944241334645788,0.2717717152434526
240,-1.7852248271306357,3.237610340118408,12.736851292564756,0.3595012452963385,0.06906022762746683,0.27704565929515024
260,-1.8221224609729463,3.1932605895320925,12.661727010676291,0.402493710372086,0.056901122086920435,0.29434188152045276
280,-1.804934301652199,3.094721639451902,12.518470748396945,0.44682668491020366,0.03811384133863732,0.31766622402697553
300,-1.769863812498344,2.9772136211395264,12.243377522904744,0.48325382816865176,0.014129723456522176,0.34048827702915946
320,-1.710738227851149,2.834766054930894,11.859026514965555,0.5100082637104408,-0.01610971577094355,0.36611257585278456
340,-1.6464521183022138,2.7014499986801166,11.511851840183652,0.524837982113441,-0.04202484344774536,0.3849690826288585
360,-1.5402153538080392,2.5236663939128934,11.011553796854885,0.5375248889193882,-0.07213550806196721,0.40595760539948167
380,-1.442895841014422,2.370714611552058,10.521587383875877,0.5463072354718468,-0.09492650554647646,0.4212403237175794
400,-1.3255729253896895,2.2042070038890578,9.970635814088233,0.5458912830786122,-0.11880585866952863,0.43449877312078194
420,-1.192800508393498,2.0036626559305475,9.41864346545399,0.5282111499089684,-0.142744090451252,0.44223557081952525
440,-1.0734838528698811,1.788616107421256,8.934092826981058,0.4938965751126068,-0.16797354785470112,0.44215066654868024
460,-0.9891677986753663,1.5792561880716114,8.534121626968851,0.4491209713922161,-0.19208041386626007,0.4336330152126317
480,-0.9266828926519888,1.4049279973657782,8.193077626628893,0.3973236828016597,-0.20065087736653403,0.4176291543437113
500,-0.8685481669824748,1.2823619366268673,7.8801848535292915,0.3393579154219922,-0.1908798903770124,0.391801393812611
520,-0.807978549356991,1.189138229889368,7.594980808906257,0.2687610962391839,-0.16477447931137826,0.3558312707127781
540,-0.7892967351522725,1.0993987865688328,7.40226388220733,0.18320035727476222,-0.12874512432196664,0.31638377568626824
560,-0.7987492822954415,1.027197305005617,7.3911943622172265,0.09335853201516259,-0.08632714745616461,0.28254936527237934
580,-0.7885429657796406,1.0091016017736048,7.540251165068873,0.0033677223171088306,-0.03638753299639702,0.2436694505896588
600,-0.815935288645327,1.0515285768397153,7.704931455902755,-0.06046392246428877,-0.009396788046695291,0.21009571820497513
620,-0.8832721436130149,1.153548718408527,8.054016421020433,-0.14649931064619895,0.012722581811069463,0.16891961398041846
640,-0.9596942330358292,1.2504872873823127,8.590011516585946,-0.21683677302042112,0.0247988641281239,0.13793060490477843
660,-1.0382192362235352,1.347969302253967,9.286248833313584,-0.2569054217441854,0.02971314995041625,0.11864961499517614
680,-1.0933814699376536,1.4616220856625126,9.966531475782132,-0.2594081748074559,0.03153398563154042,0.11304050559332667
700,-1.118762227044124,1.5806800335856903,10.531255248735604,-0.23493487822592796,0.0337489014963501,0.11620700591455031
720,-1.1225993670959238,1.6801022645927044,10.948411748803728,-0.1907331071565096,0.031965450585405515,0.12240876149414201
740,-1.1194649392902754,1.7414367152256618,11.206523123552191,-0.13600499361999188,0.025954901770891846,0.12826127431913603
760,-1.1165505467721868,1.7552832747173925,11.337156188529399,-0.07921230425865995,0.0147170394060335,0.13261936218625614
780,-1.1025543295296814,1.7275135700645692,11.356589921343575,-0.025394478559799653,-0.0024480805061930567,0.13584471668474285
800,-1.0755591767240777,1.6649221348353969,11.286012680008106,0.02397295488733967,-0.02355784629162097,0.13846681603888933
820,-1.0378135785757177,1.5810944626910013,11.123347241832576,0.06743905526739724,-0.041444909971091994,0.14163605505422
840,-0.9890329899619622,1.4763644276770238,10.856885533046578,0.10552817401569872,-0.053558647044500786,0.14499303134728286
860,-0.9456425530344164,1.3831776568817833,10.568387431369864,0.13059116638817542,-0.06763424072480038,0.14611526525623866
880,-0.8933160020253406,1.2851517423910632,10.246670408558183,0.14311991851446781,-0.08663108790418707,0.14285687523047122
900,-0.8408450356243999,1.1707267979865954,9.955388420366592,0.14175819873907453,-0.10771457235121058,0.13310650065203286
920,-0.8128570556787676,1.0555481748287812,9.70952305103113,0.13370480353049444,-0.12391558768975205,0.11931218099106397
940,-0.8067882865350502,0.9532795358646047,9.484919721313474,0.12307462130718835,-0.12984741224784924,0.10600158819969571
960,-0.8162662344138053,0.8697429071251077,9.252626135489066,0.10573451766553758,-0.11971662408787513,0.09412458714043646
980,-0.830561979512435,0.810322874615264,9.043783848418274,0.07337509187821317,-0.09098236894264983,0.08320181398239854
1000,-0.8379545853545581,0.7877056750681396,8.943607887194393,0.03001145877393903,-0.055587835653427335,0.07192237705989171
1020,-0.8459551471462917,0.8155383946041443,8.971059260087177,-0.011809288427078476,-0.02869161903869272,0.0572592404809603
1040,-0.8888146744732743,0.8983054245932849,9.11130229259965,-0.05055245913463126,-0.01182010593402931,0.03757921689719674
1060,-0.9273230368655961,0.9723889528444771,9.293192543187649,-0.07669892671374912,-0.0058478597928599005,0.022282202600463027
1080,-0.9747030232185393,1.0570594022887643,9.641746254344836,-0.10083088335748552,-0.0030423946328084457,0.005117151459804579
1100,-1.007699211692619,1.1171812775227514,9.957876985212705,-0.10382293527935574,-0.0017940307976636804,-0.0031505937691143327
1120,-1.0364356538212156,1.1823292333337756,10.31270516529243,-0.08753583217171018,-7.502395693018806E-4,-0.007177260427063012
1140,-1.0451477568533056,1.2260662092428123,10.53832129288568,-0.06197365934698423,-2.641423207237077E-4,-0.007262781478349429
1160,-1.044991752335829,1.2533735205639989,10.68449890403862,-0.03072211940370625,-0.0011711542917302257,-0.005925081312496301
1180,-1.0406434372029048,1.2641654318236966,10.745717301469334,0.0037243546846025075,-0.008280590080089637,-0.003867156712875999
1200,-1.026214902588633,1.2578273867833112,10.716590645494465,0.03723439567677042,-0.022227204168162498,-0.0017182837891190276
1220,-1.006520146454783,1.2328662307999894,10.6136466240001,0.06580230896547065,-0.0371147497048687,-3.033559797275923E-5
1240,-0.979614788120199,1.1958723535087903,10.454764168537524,0.08595257622284964,-0.04904800260756055,7.726424972916457E-4
1260,-0.9428316738224107,1.1490164560173968,10.268222798400593,0.09624522762522605,-0.05746457579805078,-3.6134857979803066E-4
1280,-0.9015017805236814,1.0903258546531738,10.05306303608426,0.09959099030506376,-0.06549953331793712,-0.005916785579812164
1300,-0.8807021903798445,1.0421885214728526,9.885185160452245,0.09781610184894284,-0.07139223970177515,-0.01262923261923034
1320,-0.8750924492964515,0.9686396162307432,9.680642843627924,0.09016423913559145,-0.07292288873384181,-0.02063440900240987
1340,-0.873258994022723,0.9000135379132223,9.520629790421914,0.08005905738481404,-0.06547277853189205,-0.025388569103723224
1360,-0.8744654470301938,0.845605028217398,9.374999611124423,0.06652665877168978,-0.054090732437772106,-0.029771592805168747
1380,-0.875730374313259,0.8344932654789383,9.341466147808491,0.06247564460292259,-0.051420155928852705,-0.030975470721854696
1400,-0.8910724780974968,0.7867263932582576,9.156635723394773,0.02654926028980416,-0.03765024017917401,-0.04081571811180601
1420,-0.9011117331211573,0.7827763617457982,9.100728933276974,0.0024570739940864986,-0.03236669958993165,-0.04694745280296635
1440,-0.9134117749448613,0.7831308230110523,9.085941329582642,-0.02271146499749147,-0.024985774811278335,-0.050835637145249524
1460,-0.9188384677518633,0.7905567280035528,9.128717459498416,-0.047924494147721215,-0.014851478943492234,-0.05361152948954931
1480,-0.9210391829179126,0.8089317102646055,9.216905030809196,-0.06911343698299155,-0.007742841217417897,-0.057546392307546074
1500,-0.924266940575087,0.8305569187835077,9.321697263389899,-0.08642604479419086,-0.0055454717004817305,-0.06154006921325231
1520,-0.9354130368585432,0.8557150976843174,9.447127992637647,-0.10206020825394277,-0.006724586227640713,-0.06631987695537292
1540,-0.956350347131402,0.8795348409252862,9.594767988612135,-0.11304640200632136,-0.009323698237338768,-0.07075763082516098
1560,-0.9831574334098385,0.8955874166586939,9.75799213434644,-0.11818138766029619,-0.014249383472817102,-0.07406992056291894
1580,-1.0066485918714294,0.89957973601547,9.888484507047757,-0.11764825129963549,-0.018977397516797334,-0.07502700660487138
1600,-1.0283080779563436,0.8987941893556987,9.995334715819881,-0.11366074044534666,-0.02477228291393151,-0.07510444485788582
1620,-1.050600829137402,0.8949642868341701,10.076458094107776,-0.1057092262004245,-0.033499416859566235,-0.07466592023859916
1640,-1.0701918578595644,0.8866426901414368,10.125714693210142,-0.09475628536676185,-0.041709668459141716,-0.07345279520960461
1660,-1.081963346147051,0.8767747103342229,10.143080986945701,-0.08227292563737437,-0.04862667354861403,-0.07164619836081176
1680,-1.0893399919887525,0.8629810016539918,10.133045689624447,-0.07076411515581414,-0.05239844769242815,-0.06968164873909981
1700,-1.0955129943875155,0.8457210596825043,10.111290446232013,-0.06201711297269723,-0.05172040357519102,-0.06825050850928151
1720,-1.100857316995249,0.8282407129946486,10.087829514158887,-0.0544791447596855,-0.049126526074064036,-0.06731032239071824
1740,-1.1032787624847422,0.8140304538653181,10.059284576664139,-0.046677809520054785,-0.047229279666574496,-0.06670143405033169
1760,-1.1025018190196942,0.803247611300038,10.0213883864319,-0.03939899321618297,-0.047030672504986284,-0.06677503403087091
1780,-1.099053754657635,0.7945601147608485,9.981275623679633,-0.03406728958061536,-0.04703351760112093,-0.06746316788349162
1800,-1.0960078429482605,0.7886448184435721,9.941557290384283,-0.030225623872599937,-0.04561812214990508,-0.0681232779312144
1820,-1.0954510763979777,0.7886632235623116,9.908067464455462,-0.02782009217746666,-0.04145307558800234,-0.06772764921951939
1840,-1.0926073185346783,0.7914981772359237,9.883337136697813,-0.027439675891905844,-0.03798835993727071,-0.06670410293383838
1860,-1.0853346598120162,0.7946359986696686,9.862022770968217,-0.027596620849247924,-0.03494817487386938,-0.0643866983701867
1880,-1.0803347280143498,0.7972858173464678,9.851925741519759,-0.027158255909246993,-0.033637649440606765,-0.06182348862239451
1900,-1.079048935106125,0.802368611189748,9.84358008216212,-0.026364460724019493,-0.031299176436582504,-0.058939050500804425
1920,-1.0772700548220702,0.8106347168284963,9.833700122527912,-0.02639736320285307,-0.02768296135704708,-0.05624935401743753
1940,-1.07246680863759,0.8193688736722871,9.825090257457994,-0.02771477800684586,-0.025207082997605375,-0.054014814040985785
1960,-1.0632090900401818,0.8238927395048086,9.82089177454589,-0.029892677111492957,-0.025091014466888738,-0.05210992308508139
1980,-1.0531395719368217,0.8238689891489773,9.826046166471833,-0.032760477897718014,-0.02652174593981051,-0.05049127046339269
