0,-0.980893592039744,0.9766357805993822,10.030342102050781,-0.08264294101132287,-0.04901071773686757,0.03141295930577649
20,-0.9512454376501196,0.9261681788107928,10.093457895166734,-0.053532675675609535,-0.06437698275754776,0.04094812043887727
40,-0.9468949556350708,0.8984197640419006,10.135723037719726,-0.03142029251903296,-0.04836919068591669,0.04785354100167751
60,-0.9658882348768173,0.9179878465590938,10.13016039325345,-0.011690220014462549,-0.03932406442547818,0.05542722819072585
80,-0.9753717377781868,0.9519005477428436,10.122789907455445,0.005741458316333592,-0.03844092574581737,0.06931862044148147
100,-0.9766690420607725,0.9715796237190565,10.174242933591207,0.016067865789712716,-0.0424045971800903,0.08242359194749345
120,-0.9763841802423651,0.9829160516912286,10.250509799610485,0.02529632450843399,-0.04269229934063994,0.09195548861541532
140,-0.958228927392226,0.9995706521547758,10.321355496920072,0.04011467410108218,-0.0398257695720531,0.10269007588235232
160,-0.9714593299447674,1.0432443014562947,10.364070147684176,0.04995248631306299,-0.036494264389509465,0.11026198404190475
180,-1.0160205481964866,1.1067947487772247,10.416620442896713,0.05609131384824897,-0.030980129103193543,0.1209740798552463
200,-1.0420757304416615,1.1627416637506378,10.489055751414782,0.0583137550150578,-0.027624302253969474,0.13457803426080206
220,-1.0316361858672702,1.1995838499560798,10.582925088626823,0.06213540523360992,-0.031109270489097757,0.14804111111947557
240,-1.0204152198064895,1.243494187082563,10.672982996986025,0.06696753240234796,-0.040510582048556815,0.1598026867246344
260,-1.0293073743845509,1.3045438760149795,10.775850355097678,0.0707336664282247,-0.052426998835753455,0.17118099475262966
280,-1.0137860777456897,1.3812335493150822,10.876674857021364,0.07539280535545477,-0.06082204283909749,0.18489320673171647
300,-0.9767563650384545,1.4380970196798444,10.959684677422047,0.07695022517145844,-0.05695488805440618,0.19581044801452663
320,-0.9590218014960742,1.4901917024250448,11.074745602851367,0.07659379056362557,-0.042230777723296635,0.20894407234868428
340,-0.9561248705304902,1.5120997724861933,11.190456692925816,0.08197306760040851,-0.03125222583084592,0.21991211328783938
360,-0.9457631154565622,1.5107974161375437,11.255228213127086,0.09289367068312224,-0.02477732005518312,0.22726523569038767
380,-0.9086586206599518,1.462617791729209,11.239945394021493,0.12078654595436703,-0.020481624055193933,0.23754603881967365
400,-0.8757268820597223,1.4187019252212796,11.142481623316657,0.1442055100486917,-0.02412162668150216,0.24283538246251776
420,-0.8429386605440223,1.360722962019723,10.958960331092447,0.1657482427360732,-0.025861775890942452,0.24632855432139614
440,-0.8007606494500833,1.2830867004951323,10.651553647492522,0.18218791192918216,-0.013225083669049224,0.24869826779530574
460,-0.7570731126626512,1.2035590926684516,10.340386143664723,0.1852063639233484,0.0047665785661461695,0.2484863815905968
480,-0.7188651421526447,1.138257030872628,10.114048146009445,0.18440755334217102,0.014545414634922054,0.2465549563523382
500,-0.6411809694066289,1.0037185135607918,9.745654207751864,0.18279972342951667,0.022342701257106714,0.23940888904922064
520,-0.576079124691597,0.8843555056977026,9.444155661337966,0.17698771929915208,0.02370571457100562,0.2293996982000888
540,-0.5210333405746626,0.7695643174157074,9.132909278162813,0.16370611297856785,0.023685429604524185,0.2182726183755785
560,-0.46332371080867374,0.6815775526114382,8.837561022394743,0.14028622219179812,0.027752321656011283,0.20556414823354277
580,-0.4271052351552408,0.618548459281052,8.589213372385206,0.10800641525367444,0.030044871838214953,0.1884840350195935
600,-0.42297962597385047,0.5685393405184149,8.402303666234017,0.06969011517986655,0.024580449463566766,0.16903493966441602
620,-0.4391054975756899,0.5314901318877588,8.268053348789843,0.025409576241215762,0.0166823282391609,0.15084360125781462
640,-0.4731554130357359,0.4890504504173771,8.212549222207695,-0.03131436434145389,0.008555183670010891,0.1360895569682163
660,-0.49077871238982135,0.4518661763654514,8.256494877663526,-0.08246612660248172,0.007890749277166006,0.1259176136307757
680,-0.49142756050143244,0.4239100114287736,8.380114449313167,-0.12829801706472155,0.006627732742036439,0.11423728587648868
700,-0.5142131832130638,0.4292599442526954,8.550466991474538,-0.16939338563246928,0.002445196783085293,0.1019618579969002
720,-0.5455678499344251,0.45729655769332794,8.78542863894067,-0.20764659263230986,-5.070456441096263E-4,0.09256290693231625
740,-0.550495652333266,0.4826237604398195,9.117083007524379,-0.2400510705528168,-0.0016242506034469008,0.08664660688705063
760,-0.534066567977979,0.49775350892709364,9.548585917552312,-0.25854722888519366,-0.003049942171977212,0.08168857593370217
780,-0.5073734153431174,0.5182140313100427,10.022764160260328,-0.2556909108476788,-0.007097854686435312,0.07749888214611393
800,-0.4630853662216681,0.5304642878303986,10.455903190230314,-0.23259585940777086,-0.013093499872823643,0.07393974809924259
820,-0.40788809183138836,0.5223544882363187,10.811810964767911,-0.19460715980139892,-0.015784773124817342,0.07035219846471902
840,-0.34301926566540164,0.49428511788311713,11.061953768692375,-0.14648334478277725,-0.015843823182588493,0.06465985824794157
860,-0.27023356221093053,0.44435687234960075,11.190083360487826,-0.08745585773611085,-0.017837313072673527,0.05490984427781901
880,-0.20402408830801044,0.39252003001376656,11.167976517025586,-0.03664890658570924,-0.021408643487330455,0.044748108580089326
900,-0.15230264528203877,0.3260574564087375,11.032310244296827,0.00869252790837118,-0.029474014111685626,0.034213034007372835
920,-0.1325076114729439,0.24759460740085495,10.800353609731323,0.04604583219625056,-0.04276439519675669,0.024561663944347712
940,-0.13720746370891743,0.16142926070858368,10.520173089559545,0.07357553901275639,-0.05371938134647412,0.016326878980142977
960,-0.1554222573335706,0.06060125300133921,10.218351234841828,0.09456840317197746,-0.06103322583070199,0.007717442361877836
980,-0.1866336821723674,-0.04715343227720644,9.876977941334838,0.10730728560293296,-0.06691698947218869,-8.09394310131706E-4
1000,-0.21801654341544738,-0.13586504781365538,9.507274555494485,0.1007839248814333,-0.06717612428516624,-0.008672842889847867
1020,-0.240083610141162,-0.1828426444326483,9.226402531493278,0.07601532254193444,-0.06158418712674618,-0.0185714357382884
1040,-0.2708610516100269,-0.17933549149240427,9.061064318570995,0.04289016377566508,-0.0538753839695193,-0.03150360708214151
1060,-0.30654053976054413,-0.12418946113283617,9.013205921482466,0.007783592013891043,-0.05356548820398513,-0.044091918094002494
1080,-0.3308786890302063,-0.026404420533374454,9.096004667760951,-0.031685050156652884,-0.05971646735698424,-0.052986241297880085
1100,-0.3355888783492857,0.038797195947242784,9.284749264787651,-0.061148934930009745,-0.06211230564160392,-0.054757330144767906
1120,-0.3093160052254489,0.09143675580507633,9.6935743732689,-0.08729092780651662,-0.05712400437062485,-0.0550817087390652
1140,-0.2746970053823756,0.1192913809493343,10.098822377685671,-0.08792022199294011,-0.04639928197443013,-0.05841304921656291
1160,-0.2529783410242753,0.1356675672760737,10.41324406104705,-0.07024918379302603,-0.035350921507793,-0.06388488803029575
1180,-0.24242536758850378,0.14314809943520532,10.608287576839482,-0.04209992828594098,-0.026777804132728577,-0.06920147148613846
1200,-0.23261324449160853,0.1443132907341085,10.669885294477911,-0.009175986276715654,-0.017482480692226653,-0.07305336225840205
1220,-0.22470160135664716,0.13727621331498652,10.609420640784466,0.021069891514380216,-0.010146762131589711,-0.07586793970928235
1240,-0.21762211682926313,0.12045678126393343,10.470103546889217,0.04541226766405678,-0.012259626695781047,-0.07741890379871756
1260,-0.20931637633638728,0.09669949513872657,10.293470064433908,0.06313204403745544,-0.02062142180331588,-0.07981405371747824
1280,-0.20774172100903732,0.06289093243579069,10.09763082975433,0.07463443627104252,-0.02714367352481488,-0.08463501465329457
1300,-0.206852407653346,0.02102943879200974,9.887764373091775,0.07824974846914777,-0.027749085674472117,-0.09067931145606091
1320,-0.20522794758129775,-0.033397465679181705,9.689178056670645,0.07276541604877788,-0.02141335839803749,-0.09764063386410103
1340,-0.2151337264605205,-0.09301385490393096,9.50071189799092,0.05780134692925706,-0.007441214395538819,-0.10547143671195953
1360,-0.23605107393125774,-0.13103933702807166,9.374261323736453,0.039978821579668186,0.003463661193319406,-0.11318554764481656
1380,-0.2644084741224867,-0.15312046129519757,9.288360026655159,0.021353000190537652,0.006684350516534388,-0.12083310031541047
1400,-0.28703517435550147,-0.16814373138617036,9.239651907235384,0.0023045155009009813,0.004268094587674403,-0.1278731102884004
1420,-0.3155253180054647,-0.16858963048424816,9.23255374058569,-0.018402078165252665,0.0025195353571445555,-0.13382819935533816
1440,-0.34606004011249014,-0.16176531011459686,9.27328054423807,-0.039875106752151626,0.004672304871866984,-0.13800223182326468
1460,-0.367070801355985,-0.14606415826428595,9.354818493663567,-0.058873771685452034,0.008457120859440273,-0.1406278741350522
1480,-0.39109168752410106,-0.12756838971324783,9.462548645846423,-0.07280477828439555,0.010087950409773472,-0.14080315131714058
1500,-0.4097980009171966,-0.10555249471702774,9.579204757785856,-0.08298265318648286,0.008939385921591953,-0.1385249672601673
1520,-0.4128829021586279,-0.08049884390301547,9.71016426910302,-0.08986134406572606,0.005016768714386844,-0.13656570786577304
1540,-0.4169615131278064,-0.0550702458306674,9.838223608370338,-0.09033185025882198,-0.002275944940860398,-0.13570287204791037
1560,-0.42752226605517996,-0.03335008594765091,9.93798003267485,-0.08551182100273082,-0.01204809551351692,-0.13497437908880552
1580,-0.44126939097629864,-0.017743907750644737,10.015668072971305,-0.0791489649379313,-0.02122614650557109,-0.13473802141415606
1600,-0.45778880599274774,-0.014231170631433261,10.084114965443847,-0.06999426975389517,-0.027337517767686056,-0.13452110232159722
1620,-0.467473153322008,-0.024455932512609666,10.120941135891872,-0.06033210836090695,-0.02834405964034993,-0.1343974987091286
1640,-0.4815095953314375,-0.038384562497056365,10.131418456652392,-0.0505566306945024,-0.02602840841138158,-0.13433796414639107
1660,-0.496751092769244,-0.049235669338311944,10.126821223646402,-0.04217081993794588,-0.02279401953999368,-0.13400941492322074
1680,-0.517198737596163,-0.061378043679062286,10.10501661435789,-0.03174217424775356,-0.01912445078217228,-0.13286007442911532
1700,-0.532397357057512,-0.06925914385925523,10.074072849868442,-0.02354304957624002,-0.01635802991666476,-0.131272210576404
1720,-0.5452945266935079,-0.07297485195375862,10.038068952836404,-0.017051149736198954,-0.012141532347366018,-0.129212098642932
1740,-0.5525859361913962,-0.07637114701045968,10.004310260876574,-0.012327958719916878,-0.007234831430255691,-0.12699757934398634
1760,-0.5580295814047095,-0.07998499557925116,9.976232749229927,-0.008778841836006874,-0.0033944282201973665,-0.12476640920444898
1780,-0.5629778611563413,-0.0820763680284543,9.95335896080552,-0.005518103768056876,-8.569327284751058E-4,-0.12212497538482153
1800,-0.565804651622236,-0.08094840565328898,9.929849137122535,-0.0026457529682127542,1.2235975559788192E-4,-0.11906348480462876
1820,-0.5681902026377799,-0.07390070058440497,9.906987412650926,-0.0011621771387669382,5.816243881764565E-4,-0.11591666238351123
1840,-0.5726899603534084,-0.06370370114405462,9.891940646061792,-0.001024663306762182,8.09056833686748E-4,-0.11244341439197207
1860,-0.5759644054066341,-0.05615060581016893,9.886785990656598,-0.0013777572878385209,0.001156908575840613,-0.10940232558672218
1880,-0.5776550345077945,-0.049646761817712104,9.887314627907472,-0.0016603837693007033,0.0010994263030473423,-0.10655012200398535
1900,-0.5781132954253201,-0.042153580830739716,9.891455760043229,-0.0013132619010086516,-1.539205231424181E-4,-0.1038541929720128
1920,-0.5791670686692446,-0.03338364177806379,9.89469367420605,-2.918081682226478E-4,-0.0020739748581444454,-0.10126219812824572
1940,-0.5805442913269596,-0.023224433645314416,9.896481175944585,5.61729250278799E-4,-0.0038099768864798753,-0.0988832979943401
1960,-0.5817562559799989,-0.013214521711925045,9.898544280854985,0.001102588808062137,-0.004632421029891702,-0.09693748763209442
1980,-0.5831991367515794,-0.004043078738135645,9.899529085623673,0.0015747325733623302,-0.00530476717958123,-0.09526490170588155
