0,-2.022461043463813,1.1022412644492254,9.391670438978407,0.09035163414147165,0.08082614104366964,0.12744766970475516
20,-1.951518367318546,1.1290404445984785,9.437504543977624,0.057415466611821425,0.01864742153488538,0.12402211348800098
40,-1.9920815420150757,1.1337065029144286,9.478338203430177,0.031049544527195393,-0.01291949648410082,0.11969964653253555
60,-2.092085950302355,1.1388681332270305,9.486164786598899,0.014690955772741952,-0.016091402257602153,0.12460696471459938
80,-2.1733926999859694,1.1289304785612153,9.4291339036895,-0.002000155373158433,-0.003098797420090882,0.13565367096807898
100,-2.2394899957034053,1.1069878534394868,9.360812050955635,-0.020774049069067196,0.011521148815518245,0.14911529421806335
120,-2.309555252393087,1.0847338072040624,9.260154339305142,-0.03913717909119697,0.023980891166087405,0.16405912710909257
140,-2.3951647913817204,1.0481476865031503,9.08307568954699,-0.06501826301929682,0.03299146579978917,0.18565791619546484
160,-2.4342461743870296,0.994968835566495,8.895297127801019,-0.10070178614507706,0.034847826443257034,0.20818223985465797
180,-2.3741070235647808,0.9092896523169901,8.721668464381521,-0.14948082167411042,0.03065839473111271,0.23376842497325526
200,-2.2528619137075214,0.8247915421043419,8.585719622506035,-0.20530659669829118,0.025811152674658742,0.25684771107302773
220,-2.085964346304536,0.7517429000213363,8.492299731896848,-0.2571323159476267,0.021195489682473374,0.27842535291399273
240,-1.868883530099718,0.6995264918033807,8.393865990188887,-0.3058787262174828,0.018869402391983214,0.291545292678869
260,-1.6302100337976426,0.6638826376905567,8.322483142217001,-0.3597911202661252,0.021798967771597712,0.2973853822862893
280,-1.3816514935222317,0.6477153943088211,8.318413605455492,-0.4185823361956148,0.026955099115825686,0.2945355621517682
300,-1.107604470763069,0.6602884917878188,8.418973016738892,-0.47977015821424385,0.02979269227921927,0.27818395433804166
320,-0.8499542908014163,0.7048299841150858,8.664764497591102,-0.5405448021719813,0.02513005232849273,0.24692711197649655
340,-0.6700477576878381,0.7330400524788523,9.069644062486413,-0.5958229755346459,0.019639509761736295,0.20368947095097337
360,-0.6109617872824592,0.7177642089224631,9.730084016246181,-0.6264357946430062,0.02991375678590679,0.15008510760962962
380,-0.602545802692877,0.6870033029421159,10.426886935906907,-0.5994096370163928,0.04229871545289072,0.10938827269510623
400,-0.6358987264858004,0.651865521489441,11.032300778996875,-0.5256577783477988,0.0321074253523774,0.07770417331124259
420,-0.7349632929531889,0.6171925477163253,11.446909363709349,-0.42690335415295905,-0.0021292600657481326,0.05203606451564994
440,-0.8559057378872512,0.5757524759712863,11.682111701863334,-0.32276715419222823,-0.05113024859241568,0.030780125957201507
460,-0.9727464404816811,0.5245707129534238,11.766399835928892,-0.22033590270648112,-0.09798170512509294,0.01174620348864641
480,-1.0826196692003112,0.44854116701323704,11.683188915252686,-0.11792034682705356,-0.12430611150949997,-0.005706170316914032
500,-1.212243165820837,0.34352073197857746,11.384652037191165,-0.024868796586712285,-0.12326490426211512,-0.01829856431985636
520,-1.3465915943695803,0.2239726136553369,10.939596654957832,0.04000864527241399,-0.11254700320067425,-0.018111994073271208
540,-1.4362521337812955,0.09611730872435979,10.454123530422013,0.07461078962801426,-0.10142073569430084,-0.005704458261376435
560,-1.467810721425934,-0.03956368403073321,10.002213472825416,0.08400598823617986,-0.09762944270611464,0.01058627005587233
580,-1.4632880116962357,-0.17299334970858607,9.624923541528698,0.07871275311364666,-0.09956972947003562,0.02371547515254943
600,-1.4329440563118883,-0.29133702911406995,9.263555770532953,0.06523139342168598,-0.09955033123881708,0.030820947288284228
620,-1.3918564561038063,-0.36441144555663835,8.95378089037079,0.04779810417362919,-0.09800847489935292,0.026498326865168145
640,-1.362551699614903,-0.42699267683939923,8.66076632472339,0.02020045708119522,-0.09598430136139174,0.014404540831125828
660,-1.3514679340051785,-0.4927839652122255,8.425557575687982,-0.018607516714415608,-0.09237729369308817,-9.269322609474909E-4
680,-1.3663924405823502,-0.5581576377350155,8.280223785886463,-0.0664462867528233,-0.08759878133761805,-0.012652730354448964
700,-1.38389484463132,-0.5876820420348787,8.244461379537027,-0.11838367587307863,-0.0822101936179049,-0.017158375333752227
720,-1.3776312667255601,-0.576273655736198,8.307317193249862,-0.16777832672814838,-0.07906908390587584,-0.01850667010527104
740,-1.3493602889069876,-0.5419431747203427,8.441215583159552,-0.2111276195209939,-0.07934228046776427,-0.02211951288582104
760,-1.3173214381360272,-0.5071984597811876,8.625405507657346,-0.25265620145069945,-0.08167655022287686,-0.02830866430267173
780,-1.3081538165160627,-0.4603464265330982,8.90214012572427,-0.29634244211864613,-0.08684803960698637,-0.034241496443024114
800,-1.2815663553606045,-0.39181655362046447,9.303727876619401,-0.32932099022976885,-0.09345483009190458,-0.03570917096965195
820,-1.2068503989290227,-0.31200061409241137,9.761959129133645,-0.33779429075314993,-0.09663324786824352,-0.033427916376796714
840,-1.107308853604433,-0.21806344812079453,10.230000391986787,-0.32277912748103593,-0.09560681008648748,-0.031364051940020996
860,-1.0174204467819268,-0.14221183729751938,10.59450687271874,-0.29430657234049407,-0.09588369867102117,-0.03161925062698936
880,-0.9364329964585908,-0.08326794222915826,10.887378669030046,-0.2514314977391559,-0.09919247931540842,-0.035063433625467426
900,-0.8689747690285579,-0.051868547737878065,11.078436202002594,-0.19836493528756405,-0.10440989108464366,-0.04039330426828271
920,-0.8193104476215723,-0.04844100010554426,11.174457557479853,-0.14351187659252748,-0.1101659067242322,-0.04713918469978247
940,-0.7738191498668534,-0.06698666677563654,11.201697685341601,-0.09098618495928071,-0.11626572652361092,-0.0551028035779826
960,-0.7221738333750507,-0.10445181330928686,11.173170783883078,-0.04271600522266311,-0.1236008516236728,-0.06519655415891512
980,-0.6761761394041924,-0.15582411693823006,11.093104093972547,-4.0737663849866316E-4,-0.12901278853906537,-0.07709177093994286
1000,-0.6329578801529532,-0.21362647269773533,10.965374122736817,0.03361781809978485,-0.1270703101269512,-0.09017048052627115
1020,-0.5924516301336665,-0.2700512632185642,10.803165563141082,0.05817569695681891,-0.11775998581435052,-0.10437280642125323
1040,-0.5556892208920006,-0.323634703605629,10.6218953219466,0.07379341617716142,-0.10559365693049663,-0.11988420275502376
1060,-0.531069574374663,-0.37240637105610436,10.444017465722915,0.08219177675570917,-0.09681748983750463,-0.13653161073129122
1080,-0.5115461252533702,-0.429406613711844,10.25316496687887,0.08650999618856019,-0.09023876616467916,-0.15593140590580956
1100,-0.519508249001241,-0.4889743823695534,10.078601339052428,0.08268356774415665,-0.07805766560395488,-0.17362911501870643
1120,-0.5457223339905374,-0.5366191814333056,9.921861310283859,0.07160082470612536,-0.058599464382078734,-0.18988153423803547
1140,-0.5774952909671405,-0.5723383494504193,9.791808458084756,0.057444589425304386,-0.03654554734802854,-0.20485086030366415
1160,-0.6097679937114183,-0.5961494457637151,9.688485737625026,0.043532658928262934,-0.017372623098092094,-0.21845777184608933
1180,-0.6465666005522044,-0.610670868199081,9.605447999243873,0.030936864038705134,-0.006216520585784202,-0.23143260010686767
1200,-0.7079949572867137,-0.6141334535009209,9.527669298021417,0.01892046429672154,-0.0023696887375092178,-0.24266315841206504
1220,-0.7531016881937882,-0.6122226922321161,9.483183430287546,0.010927406588302392,-0.0032419942879656476,-0.24803212155048587
1240,-0.8528054462581435,-0.5971112655603564,9.408998994733773,-0.011617862960259778,-0.013196661289012078,-0.2571033762503123
1260,-0.9204920480498849,-0.5808708603263736,9.394506126297026,-0.03142158084564292,-0.024068674046047747,-0.2623252580544649
1280,-0.9887151048100862,-0.561327033051194,9.4081926196247,-0.05003761634794542,-0.03216047866393665,-0.2657995159541232
1300,-1.0834889787049076,-0.5420802362559137,9.450335618045843,-0.06844262521230902,-0.03562589742664343,-0.2664139509053083
1320,-1.181172522030167,-0.5247518872416838,9.505607976878325,-0.08155164217364565,-0.03625314840724268,-0.2615472675870562
1340,-1.267578270463797,-0.5104825675112284,9.562222378223648,-0.09161200390696803,-0.038359548702543204,-0.25128968185686024
1360,-1.332710605689486,-0.4949592970834782,9.617884708858346,-0.09878985529239848,-0.046390386703513704,-0.23754009901594259
1380,-1.3763970879548784,-0.46991383256242863,9.665598053150076,-0.10333872089886009,-0.061253155956512505,-0.22175113637266414
1400,-1.3969920457656617,-0.4466232592596308,9.702870149612426,-0.10698012420765894,-0.0763915326044915,-0.2049796220911262
1420,-1.4090356524877161,-0.4308816949001435,9.742487978976136,-0.11158685635485388,-0.0837325120226845,-0.18699557666377664
1440,-1.4058805795594445,-0.42339570240342955,9.794519919429334,-0.1154884735979975,-0.08174790401525232,-0.1676878197309317
1460,-1.3918142831699303,-0.4168693586765712,9.850943657313046,-0.11571037687477073,-0.07708647269913997,-0.148046659345339
1480,-1.3653426938252968,-0.4152024956611852,9.889300426109227,-0.1119479206116422,-0.07642375789171343,-0.12878107812172768
1500,-1.3341388738267426,-0.4180886448633562,9.906813732783,-0.10845396494723826,-0.07876968550627363,-0.11029905365416554
1520,-1.2926878222125324,-0.42163109489870565,9.925284285797927,-0.10574652385179635,-0.08026026368374192,-0.09328428186987486
1540,-1.2418499451068639,-0.42474211705110604,9.94181379954524,-0.10188715378573038,-0.08009235818552853,-0.07936073137039877
1560,-1.1778482050649473,-0.4323459487168293,9.94029697291553,-0.09710333226062795,-0.07951272033253891,-0.06874404914009623
1580,-1.132337152406608,-0.4402023857622083,9.928751933335153,-0.09374675390989284,-0.07893012873384882,-0.06063569415363568
1600,-1.0889550974365068,-0.4478430738651286,9.92186063191363,-0.09192287960242594,-0.07796249751082465,-0.05433468694606696
1620,-1.0465586568770302,-0.4547218883919238,9.921671815306308,-0.08950121793001806,-0.07657069248298613,-0.04960790270846898
1640,-1.0192305448345862,-0.4607775402691914,9.920720179520902,-0.08720539336147595,-0.07682197745267445,-0.04807173965315594
1660,-1.0006673816386062,-0.4687405615819015,9.916614016013988,-0.08384728408915072,-0.07845605678598719,-0.04740299930135199
1680,-0.9878481291261566,-0.47459681043983437,9.905390432754228,-0.08105699836258197,-0.07994029236659456,-0.04694092608727704
1700,-0.9781039971885025,-0.47529439750092706,9.892250074394818,-0.07947800616314234,-0.08059298977132548,-0.04619407864276122
1720,-0.9671796919633793,-0.47270339045776794,9.883735728196122,-0.07883296043705328,-0.07986371327665025,-0.045533053770420585
1740,-0.9566556111643918,-0.4694305741211159,9.879805827073836,-0.07871708847151342,-0.07818056657687818,-0.045619252718935376
1760,-0.9499246641120408,-0.46543880001473653,9.88390673895677,-0.07828199278980416,-0.07586755335566218,-0.04657276231931367
1780,-0.9480335348546352,-0.4604745551270518,9.885326913681867,-0.07645069911200246,-0.07315129018193066,-0.04810165950679699
1800,-0.9515994718428473,-0.45645759379354733,9.879881703222784,-0.07494089145575406,-0.07168048829514896,-0.049251947956655065
1820,-0.9571462915203965,-0.45268764235141795,9.876424443481753,-0.07389962416370369,-0.0704779200933658,-0.04933943563740976
1840,-0.9564429822311072,-0.4494049176307838,9.872595357388297,-0.07321647186142084,-0.06904696693218308,-0.04881108721955042
1860,-0.9528716242145233,-0.44561842159623877,9.86996088736004,-0.07290673712234817,-0.06761740317714887,-0.048308545437949844
1880,-0.9491627895278113,-0.44191070830192714,9.867368773459148,-0.07261245098084294,-0.0657098857017633,-0.048263898434968824
1900,-0.9490257612791541,-0.43794028105770394,9.864028612465779,-0.07236261269394692,-0.06375458962436102,-0.0486266713721577
1920,-0.9502400593351644,-0.435570167987993,9.861122649794172,-0.07235127495331868,-0.06244166566286633,-0.04880631546902168
1940,-0.9518768467898111,-0.43435930967633934,9.862280106935344,-0.07221322081596115,-0.060862385016309056,-0.04845977774606888
1960,-0.952733430146971,-0.43270021244085927,9.862499491552288,-0.07178534601147074,-0.058689584732589055,-0.04770454943901539
1980,-0.9530579508121075,-0.43010881503155207,9.862086918209627,-0.07146600901931455,-0.05695083532714785,-0.04691092422009274
