0,-1.4964082717895508,0.6404282569885253,8.721224498748779,-0.013404187047854066,-0.03167482763528824,-0.005109369894489646
20,-1.4045459628105164,0.6868384116225772,9.004741615719265,-0.059684008075338274,-0.035184282499055065,-0.02684668273044129
40,-1.4329586762648363,0.6860810128542093,9.300413938669058,-0.0804543871468363,-0.03714864837149015,-0.04600323240559261
60,-1.497635718435049,0.7062314171344042,9.45194497704506,-0.07522281260753516,-0.03412826497515198,-0.05232055734086316
80,-1.5598003515383092,0.73240869074333,9.53229494792659,-0.06166584094384367,-0.023285249327650158,-0.05288658330853029
100,-1.5690252661705018,0.7525151717662811,9.597897472381591,-0.06038218024885282,-0.02100111489649862,-0.053707584170624614
120,-1.5714632313826988,0.7690490669217603,9.698838464145002,-0.05780524997931809,-0.01865876589275511,-0.05356736541404549
140,-1.5664879968672087,0.7890501085555914,9.796791524598092,-0.05180986711550786,-0.011735480853751527,-0.05353377072959009
160,-1.566213383867934,0.805891743382892,9.90560701731089,-0.04407334001577535,-0.004603259576912466,-0.053658592206350456
180,-1.5442971192210553,0.8089972368205887,10.021223838070789,-0.031834109819561515,0.009237130085589835,-0.05548125520595405
200,-1.520179495706663,0.811148410315042,10.117931502205986,-0.01812716860933086,0.02152217506267294,-0.058373219829953304
220,-1.5113062676118345,0.8149909699449733,10.192128230114372,-0.002995620737070864,0.02975870554135846,-0.061818739565621526
240,-1.498745090493532,0.8209321532294015,10.271634841633734,0.01822573335723795,0.03242746427237431,-0.06718558983041722
260,-1.5034058902574623,0.8328420473181684,10.327324643342392,0.04086000478077356,0.024718572085966235,-0.07254106821492315
280,-1.513379804487151,0.8574559746718988,10.347107895021516,0.06481103925507636,0.008641599473066447,-0.07809194926611655
300,-1.5263770937009622,0.9072553783882665,10.34052468074187,0.08168763380157402,-0.009452594630420207,-0.08232759940437973
320,-1.5507665984064556,0.9777538459078013,10.343245492564689,0.09664435780577013,-0.037886395661843764,-0.08349095653112737
340,-1.5646484052242875,1.0398621307749327,10.364048283116347,0.10725030261899668,-0.0634140501394361,-0.08196332562575434
360,-1.5770663476759388,1.0970735096162365,10.396393923605642,0.11781295902741652,-0.0850626391148375,-0.08046280480620842
380,-1.6087185261439692,1.1542231414947042,10.433557726854195,0.12853964224506606,-0.0998999917373797,-0.08039915252097503
400,-1.681611915080868,1.209106751352723,10.47343485536631,0.14526790414857868,-0.11457698451278851,-0.0775590217236582
420,-1.765981032450994,1.2430684089660644,10.507084178924561,0.16468500560731628,-0.1205839065524439,-0.06892793752097835
440,-1.8328524720161519,1.255346990012108,10.508174115038933,0.18227081697872602,-0.11955044754443968,-0.05669758352203334
460,-1.8890441020329793,1.2614506966028458,10.48736109122252,0.1979230917375296,-0.11743775469561418,-0.042521288401136795
480,-1.932968690699222,1.249566269271514,10.411079902274937,0.21871708508400595,-0.1126379697074584,-0.020362781783036302
500,-1.9604591395495072,1.236733908079705,10.291331579100412,0.23327053267616374,-0.11252886082050127,7.325672821299928E-4
520,-1.980986059253866,1.2205673204226928,10.153576870398087,0.2432647011459763,-0.11853601076238027,0.021782658094624905
540,-1.9933948879199932,1.199915383880884,10.009156321639006,0.24919357199666997,-0.12519241650055454,0.039698862604025574
560,-1.9886172762361622,1.163817164377641,9.77760675903094,0.24984321149383767,-0.1316802236853341,0.06451928620108292
580,-1.9433621192259378,1.1272493605521035,9.550592303276062,0.24084545502135699,-0.13108770949785126,0.08762223485544263
600,-1.8566724422964311,1.0871488295794864,9.334874137053413,0.22377645119050857,-0.12254130063922189,0.10556553923414044
620,-1.7603671722488055,1.0461519705689004,9.17153811454773,0.20556401781797135,-0.11191592976526432,0.11353524741051453
640,-1.6050921132815863,0.9970252226096398,8.983218188606092,0.17720154451541673,-0.09192039738079089,0.11415072606091123
660,-1.3983110285461595,0.9841714949441219,8.858511853304151,0.14308643979197572,-0.05673152725026687,0.1077126695022014
680,-1.2066360997787693,1.0033367485804647,8.868799719057584,0.09807582770498764,0.011876207919333848,0.09304579137089221
700,-1.0927687153883585,0.9974108451087512,8.983784261631639,0.067759454566491,0.07821844417636908,0.07646655869408676
720,-1.0478728058874804,1.0065766218941399,9.179799939310827,0.04122093895123807,0.1516867250450067,0.0502101655854562
740,-1.1113666160737428,1.0373302823954342,9.41106300678068,0.02547051847730025,0.18345210623089525,0.024330601495506792
760,-1.2450475572176536,1.074358964046575,9.700282834681802,0.022464853006691234,0.1762560029985671,5.469686639633277E-4
780,-1.359676297777045,1.100053215326086,9.939656735202412,0.03389447920899666,0.13754787703582236,-0.015529701588272956
800,-1.4918742709465929,1.1043989331204187,10.156738860471112,0.05720367099475899,0.07005511526809866,-0.02764984726900229
820,-1.5890288031127446,1.1138597173121951,10.27817408779849,0.08378769167053003,0.014166810235030447,-0.029946369038419553
840,-1.6581359121169266,1.118782982653151,10.328491296330974,0.11029300727997574,-0.025999142711629883,-0.028288613448458535
860,-1.6875335232386093,1.1217572302675252,10.327391941225931,0.13203723320843433,-0.04550761559499386,-0.026468488909670393
880,-1.7040991185258512,1.1126933140667437,10.25294126027251,0.15772979923185879,-0.051142039345832516,-0.02489341810881479
900,-1.707520920942652,1.09399886201086,10.112554160668887,0.17866105233962812,-0.04182657009964301,-0.024506414255605423
920,-1.6953227962927981,1.0666991116964204,9.959231463402354,0.19044487508219857,-0.02854309281936471,-0.02375833784883442
940,-1.6727185567793175,1.0372768627993094,9.799167565199046,0.19653522702332604,-0.0187703357275652,-0.022790296971654293
960,-1.6419965744383596,1.0051620595576007,9.628713082428554,0.20089218389487418,-0.011685417040166955,-0.021407585339527108
980,-1.6163904903401516,0.9741358923361054,9.442677559376937,0.20044793109919903,-0.008986701034445297,-0.020867119222682133
1000,-1.5907789811195023,0.949596359649817,9.244544386287819,0.193369377433977,-0.01159766967833528,-0.02106286319150423
1020,-1.5678297942062902,0.9357148747156282,9.051482948646726,0.1779626213233163,-0.019382955514719948,-0.02306112535993052
1040,-1.5474834517467506,0.9199103320537265,8.885857032880534,0.1554418943067038,-0.028113519971605477,-0.027364537208124474
1060,-1.5377885179900348,0.8940094294128557,8.748919235227723,0.1274325147584255,-0.03419033349459761,-0.033702078561902424
1080,-1.5389451032187038,0.8573955489706766,8.642261880646238,0.09445913137075587,-0.03679363944018552,-0.03930232264759278
1100,-1.5399923361878982,0.8243837337940931,8.581624988672091,0.06274862789161396,-0.04004603308506277,-0.04237532364173687
1120,-1.5307285863527165,0.780133581244552,8.555321175024494,0.022999782528722198,-0.04398700894810082,-0.04545082463288188
1140,-1.5222968520307933,0.7333641644298334,8.567986967947705,-0.013457951325509943,-0.04206203818054288,-0.05064561967975252
1160,-1.538202608968588,0.6948056950006393,8.604900541021207,-0.04254832725932079,-0.0379250750945986,-0.0554990244417846
1180,-1.5357989474264866,0.6585219821129991,8.64970704237068,-0.06633372395371237,-0.03419584782512421,-0.058735044022979896
1200,-1.5283418617277134,0.6204891062557998,8.738134786561885,-0.09614351354704022,-0.027582832313415528,-0.06404439299837733
1220,-1.5230515509599423,0.5896890679889064,8.850440326537456,-0.11857047379845438,-0.017888579421785934,-0.06770976647784634
1240,-1.512021357922609,0.562824926362783,8.959379436670567,-0.13417047033803592,-0.007212667797515333,-0.07107587994273147
1260,-1.509471507125708,0.5485656331894427,9.058481102260206,-0.14471088003697105,-6.276670718407366E-4,-0.07417295026120058
1280,-1.507935264909488,0.5343211537343671,9.166726323851938,-0.15754183187203366,0.006239524192001805,-0.07788254508785762
1300,-1.5050303378220753,0.5192313025313838,9.282075418253369,-0.16730152662891337,0.01347329074769307,-0.08170516216718357
1320,-1.5168986965217808,0.508564555105062,9.401215112217553,-0.17527187500868513,0.02133062129203937,-0.0863725070890492
1340,-1.5381512814590876,0.5017000030048869,9.513557950569824,-0.17985995188842274,0.02660946833774109,-0.08970093216535381
1360,-1.5678824951972015,0.4903203938189628,9.6873240877342,-0.18014323151583084,0.030848379392825465,-0.09157073410086533
1380,-1.5875981105639347,0.48539064509541163,9.803774206082762,-0.17576819004854796,0.030718642416306667,-0.09118806553644833
1400,-1.612330542602447,0.4840517626693731,9.942616313476012,-0.16574387680136876,0.02555591047106039,-0.08880403724025301
1420,-1.6282600533843399,0.48491136742816476,10.043052673122588,-0.15492669349487578,0.01746816621928781,-0.08597185963159347
1440,-1.6387517270348915,0.48138276320989115,10.157804198953247,-0.1373306253413289,0.0036987294124382723,-0.08164422242466449
1460,-1.6409809433241502,0.4743500585219259,10.217698443082961,-0.12424371477172097,-0.005541001543493001,-0.0789971677130898
1480,-1.6462293503848884,0.45890624493538207,10.300270389361112,-0.10244873071401105,-0.01954420888222031,-0.07534656605773642
1500,-1.646241628247398,0.43892622744670595,10.361539224319934,-0.0850595833171477,-0.026499463066958436,-0.07273438384612584
1520,-1.6374948817896298,0.4088958677170106,10.385472969928136,-0.058640695949949216,-0.028493644386449326,-0.06964330396201546
1540,-1.628340500380396,0.37341842428586575,10.34476433957255,-0.03460781694418615,-0.019247075616856565,-0.06826399003495934
1560,-1.6307089927926426,0.3341052379066241,10.25338590889005,-0.01470195132696972,-0.0021115265819389604,-0.06726370541910001
1580,-1.639533455565664,0.29999564268656503,10.167483932440856,-0.0018792112184820879,0.011228201743517607,-0.06437916822992035
1600,-1.6266564443656357,0.2555588170866164,10.066026552591655,0.012318591942347688,0.019160218283792434,-0.06112648573563514
1620,-1.6294645929501492,0.22042837268420418,9.980169445085508,0.024074745434792207,0.01589530564147519,-0.06030858355484544
1640,-1.637652503464919,0.1845695362737704,9.871189073669166,0.0347944561526647,0.003368045046668151,-0.05954464656345126
1660,-1.639954473020728,0.16561560697223554,9.789973823627566,0.038998791238683383,-0.010005704957567266,-0.05819474811672562
1680,-1.6282935511775,0.15660438903557414,9.712044458246975,0.038509887074260916,-0.02807344873408761,-0.05587981255415486
1700,-1.6125182688444681,0.157762038609657,9.67273177083587,0.034713671413260955,-0.04103370486301673,-0.05459994783890908
1720,-1.6028014934945403,0.16403676241451332,9.654905057281045,0.030329699011301583,-0.04756737929266871,-0.05384549759130212
1740,-1.5961579791914153,0.17373801535452607,9.65100201365615,0.02717748888146284,-0.04829792961709756,-0.053320730474235994
1760,-1.5884195396989254,0.18534329384384515,9.657835284968769,0.024372720406468228,-0.0454448809961552,-0.052823419915189275
1780,-1.5770333665506135,0.19608935688856086,9.66798790638298,0.022877570614889417,-0.04175723571776169,-0.052638628933992654
1800,-1.5673255790708303,0.20623852397219036,9.67574264351076,0.0220505420535198,-0.039030337501532376,-0.0527271897311869
1820,-1.5597951654019335,0.21733515432870557,9.678866653502869,0.020805231841457557,-0.03735595333461289,-0.05277410053562934
1840,-1.5578187330345195,0.22844606839432066,9.680745691407328,0.01806213054203046,-0.03793869888541229,-0.05229313990842071
1860,-1.5575180899488903,0.23678278112013026,9.691772679451965,0.015336964524329031,-0.04003952055562651,-0.05082685871107281
1880,-1.5536834507672623,0.24406183094584516,9.709272733127529,0.014020867965202294,-0.04293683393493252,-0.048492928561996426
1900,-1.5489419114838363,0.248057367526158,9.715946513804194,0.014090248710174622,-0.04410393251567154,-0.046629122925559825
1920,-1.5403937470551778,0.2562975708653548,9.719952550998702,0.014202625865298003,-0.044403246254697215,-0.04341343896132929
1940,-1.5315879080280361,0.2633194373486568,9.72037721024615,0.014307528382468668,-0.04294451805080436,-0.041292581244217
1960,-1.522856212007416,0.2702549700764591,9.716355742798408,0.01433861203883029,-0.041158917988570666,-0.039866874627641255
1980,-1.5164589332151877,0.2750098307033349,9.712387820984363,0.014005087898256734,-0.03971823681942682,-0.03884521143007862
