0,-0.8387891054153442,1.0128271910879347,10.35393598344591,-0.1906440489821964,-0.17459758039977816,-0.03197761873404185
20,-0.8016271696371191,0.9782950772958643,10.44735745822682,-0.15197425335645676,-0.18183859262396307,-0.04409239134367775
40,-0.7665978908538819,0.97141996383667,10.378482284545898,-0.12644174367189406,-0.17200306922197342,-0.06108774602413178
60,-0.727360208829244,0.9761519414005857,10.277682419979211,-0.12101987026857608,-0.16743663562969727,-0.07675100569472168
80,-0.6574036849708091,0.9670037787135054,10.259563120400033,-0.12861332460874464,-0.15842952324849804,-0.0947199607404267
100,-0.6011988076628471,0.9602562371565371,10.280695078324298,-0.1357599814631501,-0.14888509393346552,-0.11635453193163385
120,-0.5669589592465039,0.9473541420081566,10.322452019000876,-0.14012561648570257,-0.1411570545671315,-0.14245594639716477
140,-0.5480966157082355,0.9363075214805026,10.373338049108332,-0.13898410286867258,-0.1425078363355362,-0.16616865461974434
160,-0.5462586678363182,0.9254485304291183,10.420924611993739,-0.1317266070762196,-0.14789239508477417,-0.19275817003201795
180,-0.6391197515697014,0.9296181071095351,10.435976784403731,-0.12370271499200565,-0.1537722402774706,-0.21846601339738544
200,-0.8404922180705601,0.9620527744293212,10.456921842363146,-0.11920031276014116,-0.15426286798384453,-0.23333034987250964
220,-1.1247305395651837,1.0089875581313152,10.51804643747758,-0.11504167493204681,-0.15264069479034872,-0.2319302878209523
240,-1.4362887447735049,1.0571074407055694,10.609756235806447,-0.10522469083058103,-0.15228844356705556,-0.2132099163938173
260,-1.7376917757486041,1.09128859586883,10.692796272143983,-0.08717478784781538,-0.15314433978576408,-0.17702177937730754
280,-1.9886907954685022,1.106813171847922,10.7470027970486,-0.06121053716900651,-0.15770372998763305,-0.12651838056483597
300,-2.1767043673075164,1.103514507642159,10.747779589432936,-0.028719299909873652,-0.16865076726445785,-0.0677267992689919
320,-2.305431999158168,1.078418333893237,10.678802490234375,0.0023129093325764375,-0.18226157026230425,-0.00641898929303431
340,-2.389737451729709,1.0379949479478678,10.56833583361482,0.027656929650382227,-0.19475289143315733,0.053554852432507564
360,-2.4517535907881602,0.993466586068079,10.413296547803013,0.04774268891347887,-0.20252234870930771,0.11166592068401734
380,-2.4735997739745064,0.9342927514329735,10.180949298882046,0.06407433209449419,-0.20271236230076456,0.17906129863284573
400,-2.4293062178015012,0.8486492966971638,9.933617059250324,0.06861702231309044,-0.19496220316872687,0.2414246936143534
420,-2.339706709764523,0.7456405261302543,9.701060492233191,0.0599883419901195,-0.1845870027094221,0.30237061809488264
440,-2.236820250084713,0.6384072117557261,9.51808980696979,0.04505694515500118,-0.174484287038443,0.3603691665112056
460,-2.110049132632617,0.5282553573688253,9.359908693264693,0.031435363542718385,-0.1586987417510663,0.4157830910064662
480,-1.9218911629633546,0.43027766689823327,9.209994924479517,0.01824457214324015,-0.13822233280840243,0.46365723638047507
500,-1.689975784687652,0.34013819174126003,9.05290181037939,-9.812591431918444E-4,-0.11969748054938921,0.49720303304890673
520,-1.4485822277564606,0.2596245039484068,8.911332202284303,-0.031466464768270176,-0.10588478681723881,0.5176015710607001
540,-1.201751203635207,0.1784764416885074,8.818588918526267,-0.06954752166944224,-0.09059838255090918,0.5283288167325969
560,-0.9436173427394254,0.09989779847178687,8.793757937816864,-0.11034854956942194,-0.07246113971465247,0.5298239801178112
580,-0.6745873330095821,0.025093498440467037,8.840736977848007,-0.14906147847990717,-0.05608143746625793,0.5191345486211218
600,-0.4160845601259623,-0.040247780018564,8.934949954667415,-0.18143392679749049,-0.0455480377063196,0.4970924220552512
620,-0.13701353884982662,-0.11844293393123036,9.072573889218845,-0.20888215763798842,-0.038438580703447,0.4600339011808571
640,0.0663098783159295,-0.19403233866679914,9.209762046586222,-0.22833882830081395,-0.032126857943219525,0.41602505635254694
660,0.21353856994318304,-0.2669579141429099,9.381378699040066,-0.24383073053542065,-0.022325238458216663,0.36424866451146215
680,0.31374757906625333,-0.3365171246171575,9.57694141629716,-0.2477990799873713,-0.01000193475223389,0.3066814663823248
700,0.37313094175554656,-0.4034787870477885,9.739757462723615,-0.23701386809849806,0.0027569858973274927,0.24469321928057208
720,0.3882167220286404,-0.46084967740811406,9.831172409057617,-0.2156949354498647,0.011577497122537654,0.1803775386279449
740,0.36432292785755566,-0.5137628151267138,9.842613136613524,-0.19191933987290272,0.015301749446805773,0.11504676166540859
760,0.28071753057515647,-0.5573271321386241,9.794357016116757,-0.17212535028678919,0.017650808217453393,0.051083808860600086
780,0.13993124681507685,-0.5910967596559383,9.721695172933885,-0.15817321986779226,0.025104974957943296,-0.006383309737250301
800,-0.037945185088081264,-0.6114369703383824,9.637804292770753,-0.14734647739804854,0.037489328284625874,-0.05462677217879703
820,-0.2337961764965097,-0.6186476599507253,9.527345852290884,-0.13979578303406015,0.049095067533369945,-0.09285015531623846
840,-0.4450207173378663,-0.625120712286742,9.392896441129013,-0.14082776781046139,0.05648204699017903,-0.12420589976242202
860,-0.6255361820200682,-0.6266900957835948,9.312158367547001,-0.14813839803131543,0.061448982427143216,-0.143015816409913
880,-0.7989260510286342,-0.6195554902777076,9.267886098443645,-0.15606978876860686,0.06552984516330905,-0.15458187597535858
900,-0.9622071607565212,-0.6044567250009956,9.244441911298532,-0.1612476925259511,0.06537451546956927,-0.16041687168755217
920,-1.1133761099378365,-0.588319915121915,9.217707679653419,-0.1661298642469096,0.06120230841069675,-0.1596543853185836
940,-1.2487226041299615,-0.5752233791220119,9.204793133895011,-0.1742124052456123,0.054252377635371996,-0.15158553296403246
960,-1.3692393645289958,-0.5642231899332396,9.233108374574023,-0.18474908565612091,0.04580620941673746,-0.1357396920000482
980,-1.4537946624577873,-0.5547102020605019,9.298637131702753,-0.19297306852495688,0.03718607246165773,-0.11341152140916681
1000,-1.4943994702263927,-0.5470503202828941,9.37633371064507,-0.19743761678505914,0.02918103478748022,-0.08790655092609094
1020,-1.5142440569427775,-0.5434134574264129,9.459110149578358,-0.2017185742377288,0.021048807092879252,-0.06181474374562962
1040,-1.5135965848912536,-0.5436973712137859,9.564636537800858,-0.2042841855941301,0.012782847798198226,-0.03465119727924119
1060,-1.4820184235171217,-0.550142038744625,9.669390310139077,-0.20106632555771015,0.004873161089741913,-0.007014715505947169
1080,-1.4199398691200893,-0.564546493067291,9.747579223654244,-0.19441048944986353,-0.002413402273178394,0.019130173347513664
1100,-1.3321690083602402,-0.5864105341486255,9.814579453762407,-0.18576559273470686,-0.007724997913028987,0.04424410551839758
1120,-1.2491530796152124,-0.6135190122859608,9.860368417455005,-0.17634427366885094,-0.009318868320579418,0.062192730497754305
1140,-1.1700231493282272,-0.6460234232435121,9.88329822104028,-0.16520721195909652,-0.008836743399374524,0.07587330879227437
1160,-1.097700634960545,-0.6780711443633013,9.879726568026523,-0.15425016621963578,-0.007675437472293555,0.08566170761451343
1180,-1.0329828136744277,-0.7076051010790476,9.858945566440315,-0.1455312105736009,-0.00686142205505262,0.09184986505170693
1200,-0.974724512061798,-0.7316057750840222,9.832893715696295,-0.1386990160780284,-0.0062937249181728985,0.09472051156243604
1220,-0.9305366954007427,-0.7519121199755362,9.804313451170446,-0.13356258215584915,-0.005485232724018295,0.0951187335950994
1240,-0.8960566820585918,-0.7680968846787936,9.77829224876329,-0.1300943272813753,-0.004062946320924561,0.09373215477566654
1260,-0.8743393714422842,-0.7797222219175627,9.758669334488946,-0.12729770788773678,-0.0021930892197671438,0.09104756986934505
1280,-0.8648752868786355,-0.7872147232660591,9.74074520584295,-0.12502967939289825,-9.431203895539733E-4,0.08777936133414421
1300,-0.8649070745705512,-0.7926707681894567,9.726264445076275,-0.12356372163801067,-0.0014691393361239405,0.08493623658334522
1320,-0.8614131418643365,-0.7988868070376992,9.716263861067826,-0.12255678000164426,-0.0031704262062897787,0.08250499789519013
1340,-0.8565563894918158,-0.8033791266664011,9.714529989851798,-0.12218623025321655,-0.00446344095732043,0.08016826244663786
1360,-0.8551043003139037,-0.8044580776289874,9.715031186236612,-0.1220102042149648,-0.004811085038365809,0.07900025432585835
1380,-0.8539955750069986,-0.808536663575088,9.71835607742296,-0.12062280120002024,-0.004376392846492183,0.07186952700864728
1400,-0.8613073765235426,-0.8102080682073922,9.723854695610378,-0.11945791423786431,-0.0031090246485647463,0.06792108512200092
1420,-0.8659783024668348,-0.8115296031581637,9.727468791997657,-0.11793854142983298,-0.0018179676616600336,0.06461911915368553
1440,-0.867159484356042,-0.8122607604955655,9.73201209771431,-0.11684623797684592,-0.0019696018839614085,0.06192443724169191
1460,-0.8681246486588853,-0.8122355234467165,9.741068647779487,-0.11499931850666507,-0.0022443349401560612,0.05846562881865391
1480,-0.8689068128229035,-0.8109844243529835,9.745330957054502,-0.11287573609797244,-0.0014298929584222575,0.05541971468027601
1500,-0.8705253827415891,-0.8066659788797965,9.747013362248738,-0.1106515089810894,-4.842116264153151E-4,0.05240974043215799
1520,-0.8747011537478271,-0.8035348538529086,9.745123464070009,-0.10859469308990262,9.621202684195195E-4,0.04963694404987065
1540,-0.8800691348757365,-0.8016521661976285,9.746697521436422,-0.10665418324134536,0.002309314158153624,0.04763084542369337
1560,-0.8823942003432073,-0.8027476137161477,9.748869336640144,-0.10447469063530238,0.0025341718498903803,0.04585002117654737
1580,-0.8877687313986287,-0.8069368158891096,9.751839892731773,-0.10232442869398065,0.002647547762512939,0.0439486762280231
1600,-0.8923857789522139,-0.8106557312102068,9.75630233818438,-0.1001129412825543,0.0032521844427608857,0.04279965755498468
1620,-0.896098585828133,-0.8129050656612317,9.758935577729169,-0.09766373096341562,0.0036630266488527634,0.04211425836595565
1640,-0.9001495993863846,-0.8146488216415968,9.759305849316574,-0.09385848503976983,0.0041147007901340005,0.041967585638520266
1660,-0.9015769673216923,-0.8143559852525976,9.75535172048737,-0.09081213889109994,0.004532856363122487,0.04221607691475323
1680,-0.9001374983284244,-0.8133389210392082,9.749101489435795,-0.08749778204506838,0.0050005824472210345,0.042318444996855636
1700,-0.898717356014103,-0.8117671294222136,9.743607461109928,-0.08533815916088389,0.004794218134656535,0.04178912822898456
1720,-0.8981595816208441,-0.81159867105188,9.73936096409505,-0.08375041533045904,0.00437162258669394,0.041032762156233235
1740,-0.8992289615764931,-0.8117300119228776,9.73757127329205,-0.08247065189028985,0.0041425510067567934,0.04034426243612124
1760,-0.9019710497342102,-0.8111399280961551,9.736287051108148,-0.08109800586017728,0.004266260388208644,0.04007275618431676
1780,-0.904567335786651,-0.8099903771775304,9.735050792549993,-0.0796209065423342,0.004592109427863801,0.04026668553194543
1800,-0.903400108605507,-0.8086457209253438,9.735816567691405,-0.07743614051886549,0.004485264741697948,0.04055516543738756
1820,-0.9036200142978071,-0.8067454868933849,9.732478948567538,-0.07515983887723078,0.0042744138911514915,0.04065941577314731
1840,-0.9028937787758767,-0.8059097947608457,9.729918351053083,-0.07340865668464715,0.0038494730622692843,0.040735279130755586
1860,-0.9005588569198631,-0.8052742106469198,9.731433713326473,-0.0716649221073415,0.0033005129844193505,0.040452683616782024
1880,-0.8990822755731642,-0.8043777781068765,9.732450376406447,-0.06972406021869161,0.00316401699294717,0.039930114251293815
1900,-0.8981354477122532,-0.8031669066160524,9.734900996491715,-0.06766481452233168,0.0037329675716597003,0.039351126803576636
1920,-0.8977998084732729,-0.800400307453623,9.735251408777419,-0.06528385813217491,0.004679787834082244,0.03875815690417958
1940,-0.8985944561323228,-0.7979673871795164,9.734114851656958,-0.06334923991486008,0.004876058740175945,0.038064310959015336
1960,-0.9027998130820859,-0.7963604741048453,9.736200336511066,-0.061862880521315555,0.004527132431525224,0.037481408635998484
1980,-0.9055364988450703,-0.7940985129424342,9.741145834492517,-0.05990357107738417,0.0038657910300426506,0.03725700276674719
