0,-0.44068360659811234,1.061792016029358,10.173511293199327,0.014347507618367672,-0.021832715823418565,-0.11121717674864663
20,-0.4739321207298952,1.043383258230546,10.210391437306123,0.03449701950611437,-0.007211438928018598,-0.12232586960582172
40,-0.48324126922167265,1.0169621843558092,10.198177924522987,0.04178034324342242,0.005304213649091812,-0.13638519295133078
60,-0.5185921945992638,1.0335214138031006,10.203629044925465,0.0523715296157581,0.00803124240380438,-0.1465763035504257
80,-0.5392883260075639,1.0505373943142775,10.17626325095572,0.0633294632113198,0.012784049085273249,-0.15240163465098636
100,-0.5726970982551575,1.062047505378723,10.10248025894165,0.07252633249387146,0.019677089815959333,-0.15601392075419426
120,-0.5937996989694135,1.0735469008314198,10.04975018008002,0.07610121284258263,0.02594194669629736,-0.15661744811925396
140,-0.581554317113125,1.084653585246115,10.004650231563684,0.07833331455053254,0.02777471366535985,-0.16052870508847814
160,-0.5745457954503395,1.1003496904630918,9.970337326462204,0.08109768010625565,0.021264909628174594,-0.16869747749454267
180,-0.5845016244708038,1.1201682047146122,9.932847453326714,0.08420604716123241,0.013842818293175319,-0.17803293711891988
200,-0.5808720982737011,1.1372617642084757,9.88712010913425,0.08466087731843193,0.01195984065739645,-0.18686871387892298
220,-0.5597503059068505,1.1519555631948977,9.842504306715362,0.08027493498497168,0.013210499763716849,-0.19703377654053728
240,-0.5309713366880732,1.167594664501694,9.835170754846537,0.07303363902336162,0.013388009628232674,-0.2104782795990413
260,-0.5226184970846302,1.1841901446643628,9.863741322567588,0.07022872481805582,0.01212025320273824,-0.22568950468772336
280,-0.5267096049780768,1.2031176662057397,9.878696619979735,0.0708599292854892,0.012788379565354557,-0.24413129705481412
300,-0.5547970890425719,1.225070964373075,9.888925552368164,0.07055887043691025,0.012130100735857224,-0.2585628320964483
320,-0.6330777826390678,1.2554727363929474,9.917173262122724,0.07096192594148594,0.012214873827786165,-0.2723394961987468
340,-0.7344075189459891,1.2774415591947075,9.952756654648553,0.07447206512486347,0.016542278341853952,-0.27661298524563005
360,-0.8275951723417928,1.2931251810443016,9.969647819765152,0.07811126348171984,0.024618750099363106,-0.2746963479345845
380,-0.933176058155993,1.3113246753903254,9.99334434790114,0.08136383078112466,0.02721985071744667,-0.27035370107991563
400,-1.0603354185906768,1.3309866413038376,10.021070307458354,0.08726801731683619,0.021270379597356556,-0.26342405300391347
420,-1.2125221736854015,1.3500953126886037,10.037995615484995,0.09500112975349223,0.00970214155701629,-0.2508114961030576
440,-1.3764574871582782,1.3688753919805434,10.05877510621586,0.10324608542294027,-0.0034995851997799057,-0.23070470312296507
460,-1.547673968741527,1.3823807667463253,10.077530278915013,0.11291228360615861,-0.015997764392672347,-0.20202935415272338
480,-1.693573834236913,1.3867517598156858,10.084306881345551,0.12389466691110741,-0.024866071461729724,-0.16602675257860844
500,-1.8135406507346867,1.3829365477177769,10.061579663606617,0.1350615649899,-0.030989431022165424,-0.126168245678079
520,-1.915600134323449,1.3739101195444254,10.004926616198397,0.1435909658717204,-0.037302634760378074,-0.08340173361708142
540,-2.0036650226500474,1.3614846240533025,9.915150217842637,0.14991041779183178,-0.04259991338716518,-0.03240659180109536
560,-2.0633906014579333,1.3337214824001669,9.80585990719876,0.1516346326867371,-0.042833244716363836,0.01624538710881498
580,-2.0957599663038233,1.2837108905182877,9.681906162715348,0.14703756280922803,-0.03838201208048706,0.06997160417443814
600,-2.086708374883211,1.2262310426135266,9.564415897641863,0.13846919895704127,-0.03177850733770775,0.12780266455540965
620,-2.0344586382834957,1.16208194771495,9.43930667913877,0.1283672420755745,-0.030461102557120076,0.18588935480041144
640,-1.9451312805428655,1.0942737447000594,9.310227769524303,0.11559110888412027,-0.04129998325227991,0.2401186470159524
660,-1.8079968500963373,1.0279320120150088,9.192606037941532,0.0996708794095405,-0.06487650397716409,0.2884561395672474
680,-1.6272640455068208,0.9840832064649694,9.079300193719462,0.07973384434967236,-0.0911007572378341,0.33101713467917315
700,-1.38806151610174,0.9576469585363281,8.997662278070841,0.052518532880939134,-0.10548167201585323,0.36479606346166626
720,-1.1168295916045705,0.9208690808278819,8.970003193219503,0.022415527678094804,-0.10223601912269563,0.3882566593036366
740,-0.810247584608952,0.8917249059727923,8.996020361974642,-0.006720302383076738,-0.08754309242431191,0.39862843302408135
760,-0.46653773357110445,0.8722857928097436,9.095241966307727,-0.03234047884391827,-0.07229274553464386,0.38843474703494235
780,-0.19499144261846177,0.8404823962770975,9.200265290186955,-0.04596384903416038,-0.06788485543914319,0.36032964293271874
800,0.008443702795394548,0.7887310297326283,9.29668948170659,-0.05608553949368743,-0.06902147617786962,0.31850448232381845
820,0.13141002052646578,0.7275802745890757,9.408620444211094,-0.06435152925305133,-0.06261979888198942,0.2712536685754575
840,0.20072872179925955,0.6690957419211339,9.524711749615165,-0.06670468137949774,-0.0415505946325395,0.22536479119801184
860,0.2520338867788388,0.6106830447369597,9.599533905168208,-0.06179242042308746,-0.0135048153815176,0.18123565626288934
880,0.2758012747009323,0.5621800049731176,9.6192912676563,-0.05402519500460348,0.013206492698941162,0.13722124417720694
900,0.2576476080148373,0.5433548286946706,9.596580441451904,-0.04634125376555285,0.03167928813986484,0.09302286767330889
920,0.18852136113003795,0.5312291833711421,9.556404957308231,-0.04141808320414348,0.04054385477219729,0.04887998533884939
940,0.08501396175943181,0.5117091810603681,9.514409463632383,-0.03623323764662189,0.04242903973626968,0.007490674675990538
960,-0.02717170934720664,0.48391462076145697,9.450144222461306,-0.03237091666993612,0.045476583926080755,-0.029359436534715802
980,-0.1574089700517095,0.4574664897204917,9.364195631757195,-0.034434651515739795,0.05330263290487454,-0.06053739779191897
1000,-0.3272499326652519,0.44424721546435125,9.28080523762726,-0.04270684380426774,0.06389925620601718,-0.08696216294836649
1020,-0.4808200594673366,0.4415462724687929,9.226035633358345,-0.050389582085035856,0.07091564415664808,-0.10348859380310516
1040,-0.635604796549955,0.438878991888013,9.17136567359747,-0.05830050325359564,0.07380627673359583,-0.11450111013891305
1060,-0.7780861116724608,0.4488201160749344,9.122192363216453,-0.06789609877997052,0.07007569108276226,-0.11996986074362495
1080,-0.9162400038537022,0.46294762765479197,9.084717614768332,-0.07880387224391157,0.05958457531314421,-0.11988146748600502
1100,-1.0386999727099608,0.47231475139110624,9.065149334558832,-0.09248196218475097,0.04936933464578754,-0.11416366222234534
1120,-1.1384845091941165,0.48152336120218425,9.085118196743391,-0.10727848434829339,0.04471083204369681,-0.10415454762151215
1140,-1.211074801938648,0.4919777970681799,9.130803443015889,-0.11902372640213295,0.041826945650756626,-0.09009705279567377
1160,-1.262085158681832,0.48962618766750005,9.184289032445292,-0.1287288966884098,0.03672297515223367,-0.0731672217390426
1180,-1.2820944209418301,0.4883376022210582,9.259550021999658,-0.13791509242184602,0.028846599970753315,-0.05391568673818675
1200,-1.2617196157076942,0.49520666910870836,9.355373351680122,-0.14353033531985532,0.020483526605272594,-0.03368547394530478
1220,-1.203540306278612,0.49175191792358913,9.453237930617009,-0.14550767993042896,0.01394670523108383,-0.013790230991678736
1240,-1.1292400421855384,0.4693301078624688,9.567714441079216,-0.14596622001022963,0.013792921026680872,0.007415910127960918
1260,-1.0593185706103583,0.4500883314650872,9.664804105813793,-0.1422480971872966,0.0189823486311673,0.024606604867045963
1280,-0.9888749770622213,0.4277677744118041,9.72184372310168,-0.13541270173704817,0.02350483604428377,0.038393910810354905
1300,-0.9215677436197472,0.4011098286815893,9.744354517214767,-0.12887830010530427,0.022589642955311226,0.048101190274372416
1320,-0.8991562576694448,0.3901567100149105,9.749466094828893,-0.12669790943759515,0.02086681202717786,0.0507904503439972
1340,-0.8292157832742711,0.34090126858865283,9.760987293914962,-0.1161438284076103,0.012850453739472625,0.05940364213185402
1360,-0.8004764029439638,0.31094981050235426,9.753522531717536,-0.10936820448831487,0.01145241021222709,0.0631280734536133
1380,-0.7759272268984789,0.2845807088115228,9.730588852413117,-0.10308062615428643,0.0115526850898436,0.06560605142727113
1400,-0.7594836365075215,0.26500163181968356,9.700221067511517,-0.09874653490108397,0.011351895661918325,0.06682846499404506
1420,-0.7486921770715412,0.24984614609854094,9.6746469083822,-0.09578028875037686,0.010411114343233354,0.06722249320586808
1440,-0.7408431985268965,0.23621944747802168,9.656176146718654,-0.09358830102406168,0.009112776056153253,0.06685512196256853
1460,-0.7371542583637947,0.2241562432757204,9.647778841410336,-0.09142374182409546,0.00790069165103855,0.06568394347641288
1480,-0.7381789855662076,0.21361838887511603,9.641646733197584,-0.08875113941471689,0.007014513548893764,0.06408295763888176
1500,-0.7401777090302173,0.20220808467114126,9.635039585751372,-0.08638968515028805,0.0062523792828680785,0.06215646027250203
1520,-0.7408440554863773,0.19368953506151834,9.634058609222754,-0.08503362698262605,0.0057943345101116326,0.06054095482643556
1540,-0.7418260192262414,0.1890205654497192,9.633695107443398,-0.08362499493214474,0.005764561049578743,0.05863894779632154
1560,-0.7454320591115079,0.1856721152510663,9.63578992867507,-0.08245835177236381,0.006348185175249144,0.056838745476112514
1580,-0.7475718794609355,0.18322085134880806,9.638617713816199,-0.08098221008589929,0.00752821601917834,0.05520407665539619
1600,-0.7478083726941471,0.18052460341827897,9.639756888151169,-0.07955173807931715,0.008166316037381986,0.053212385272916704
1620,-0.7496483607388786,0.17834960819286552,9.644751292395304,-0.07850055551973062,0.007709970011519435,0.05137528465669434
1640,-0.7534332608463176,0.1763190630216351,9.649170589588937,-0.07692670934132669,0.0071860212216441665,0.049840314563577216
1660,-0.7585027192897328,0.1741461026516524,9.652915324183072,-0.07554498481956269,0.006720614313770271,0.04870960431974655
1680,-0.7626466603400077,0.17042931725696098,9.659476233776225,-0.07400262389925301,0.0069101442194403,0.048082855477628604
1700,-0.7656561200060057,0.16652956779246036,9.664888396345336,-0.07187125419178542,0.007188680812571968,0.04775213629800837
1720,-0.7678555434328949,0.16397039110134673,9.664285262199966,-0.06989651560177829,0.007470722559611948,0.04738353866460701
1740,-0.771780802651477,0.16229029118473973,9.66444504979951,-0.06858213222626437,0.007628993976333533,0.04684129984739797
1760,-0.7745160869025212,0.16107172186344137,9.665154970354504,-0.06749386194221896,0.007685327469112558,0.04648523506281587
1780,-0.7777078858549886,0.1592211667588811,9.664623728177839,-0.06617296245646956,0.008074201136285795,0.0462297463019229
1800,-0.7789955733197373,0.15740835828658603,9.663439532633229,-0.06509866481060869,0.008696799007278527,0.046276488276312235
1820,-0.7787510833896747,0.15477934807989022,9.662300056739141,-0.06428837497865518,0.009044356622901938,0.04630864249767373
1840,-0.7785054271531157,0.15123928636361958,9.663939224612982,-0.0636389072573834,0.009762271406354103,0.04640101312608971
1860,-0.776194077872386,0.14693020450859362,9.66719306251536,-0.06242357624227208,0.010655479061413611,0.046415191622874385
1880,-0.7739931083404216,0.14293501957504973,9.666903462924635,-0.06129240522449364,0.011468458362408127,0.04612362541540518
1900,-0.7729717819475626,0.14027355529099433,9.666989713715465,-0.06046078314805737,0.012383288003868655,0.04564269611275152
1920,-0.7716539704507798,0.13750158447985816,9.665634144947028,-0.05977027909874703,0.013299148296047548,0.04517089067691356
1940,-0.7718237340086672,0.13476057443298606,9.665406404274236,-0.05927565558526139,0.01410174025316495,0.044735326573911875
1960,-0.7718712290263551,0.13238903907757077,9.665421283155903,-0.058548517529550766,0.014699454276481099,0.04453892723344815
1980,-0.7711431006234093,0.12976866742297088,9.666151417037588,-0.05787485446268635,0.014697654118239926,0.04424862779402928
