0,-2.3045411242379084,-0.07131836164949669,8.00894562403361,-0.23923922412925297,0.009050644597866468,0.2772119144598643
20,-2.5914112329483032,-0.2640156939570956,7.99034906836117,-0.27323369155911836,0.011515373939319569,0.2981029328177957
40,-2.7619366216659547,-0.3793711102567613,7.96104528427124,-0.28476862370967865,-0.017850833665579557,0.33082785725593566
60,-2.8824423985047773,-0.4553440385215888,7.904726028442383,-0.2881445428638747,-0.07171576818677061,0.3641977508862813
80,-2.9088389553674836,-0.46767139801664687,7.854729757076356,-0.28670844253970357,-0.11269262477346673,0.3960682967814004
100,-2.803052763549649,-0.45456495397363084,7.718610627310617,-0.29451340041598495,-0.11781003116154853,0.4165429606729624
120,-2.6304878665689837,-0.43538936138512535,7.712383404112699,-0.32177852721590744,-0.09187848889268935,0.4243461259624414
140,-2.462301250604483,-0.40000512769015933,7.89641657609206,-0.3382268724533228,-0.06784779037205646,0.42725396568958574
160,-2.284719257741361,-0.35329776320833006,8.141642686483022,-0.32603668220139836,-0.05113919494937904,0.42472545601226186
180,-2.071925632366002,-0.2978586632951458,8.27420868524691,-0.31053399530852716,-0.03116741779021828,0.40650658890968416
200,-1.8344785844958904,-0.25695899694433644,8.313272825876872,-0.3132040849990315,0.015418560614085032,0.37347039934247733
220,-1.5986511569555697,-0.21672483908525686,8.38921614082492,-0.33915124848789097,0.07197009359381865,0.3394145466463298
240,-1.3565300733140968,-0.1490334865136318,8.522428854456487,-0.3729952392431925,0.12156836883349449,0.30861488764859596
260,-1.1115832252207358,-0.0634890294985094,8.685979918429727,-0.4008604041055629,0.15960335311390003,0.27662010477823123
280,-0.907555381465917,0.01998467210176416,8.835070414621322,-0.42367841901837805,0.1955359617045882,0.2418927738412482
300,-0.7557944945883579,0.10088559645228087,9.028745049696703,-0.4522101781689204,0.23641222851315083,0.2036631453495759
320,-0.6528337495705194,0.18032068082644348,9.29812575077665,-0.4802900512797245,0.2766404505937185,0.16285294834254443
340,-0.5942929468136791,0.2602697364214093,9.618267647207599,-0.49141140659786253,0.2977506953007733,0.12258602719600886
360,-0.5842229578348279,0.27804883331299535,9.694165648640814,-0.4909043605061802,0.29815238793349097,0.11270373757626559
380,-0.6143592622251095,0.3642780779278123,10.176306215531987,-0.47004870796130477,0.25616368441735365,0.03848557585587531
400,-0.7032113720673785,0.3912985870663665,10.454890998483402,-0.44894681772903394,0.22507195419268355,0.0014236759372621948
420,-0.8154038267974955,0.41665313516446917,10.743977834392526,-0.4160076666769036,0.19944931467371999,-0.029099879151616017
440,-0.9347748734619727,0.4463957973935188,11.003975378638282,-0.3729669474623101,0.17478567242832796,-0.04872039024205131
460,-1.0559211600022629,0.4832044208923785,11.234926610115247,-0.32357813003353586,0.1461747699109718,-0.05665197341870039
480,-1.1680380913906092,0.5190703621010292,11.441563333783831,-0.2686232141049331,0.10962805908495615,-0.05651992233240692
500,-1.2789404813610723,0.5526025390133297,11.594006307882156,-0.20858132562013035,0.06558623988103007,-0.051606718931894446
520,-1.3790501136115867,0.5695772256987109,11.685880438922203,-0.14778214562088932,0.017154444915138303,-0.0429422040618786
540,-1.4490396275825077,0.5559610767568982,11.719474683249048,-0.08799514533861619,-0.03235465937600746,-0.03366358444045425
560,-1.498895006272149,0.5197702179999745,11.692934300037141,-0.03206342945390559,-0.07751832813237536,-0.026465007000939643
580,-1.5383682214735137,0.4501459029785617,11.596724344081567,0.02672324654814161,-0.1170995073566179,-0.020598863056845596
600,-1.5592148008715687,0.36812972340599764,11.428292391792176,0.07554429812386396,-0.14348295916011372,-0.016344527555038294
620,-1.5683325440067655,0.27588783850391896,11.172158638330606,0.1175342192586798,-0.1641661288035371,-0.013370144256175711
640,-1.5617851484097791,0.16911698347861087,10.84847379642636,0.1468515566953305,-0.17183893774058356,-0.008641550598888477
660,-1.556780110918107,0.050434254902833396,10.509294099565865,0.16107248035731955,-0.16124885416892526,-0.0016377768310569766
680,-1.547267008869594,-0.06593050352874881,10.183100638675018,0.1644659862578125,-0.14355285765753212,0.007900895337692239
700,-1.5185572712519526,-0.15913757004724075,9.877438279659781,0.16115792198999696,-0.12626468743279748,0.015461282240073771
720,-1.4746774494849766,-0.22639322138391435,9.579455841581026,0.15002792742103338,-0.11133310900050371,0.017123459493741392
740,-1.4315685478126776,-0.2751162146647497,9.30606652738212,0.12682962278508908,-0.09368403639032825,0.010782202261246064
760,-1.3888688480460876,-0.3102308324673744,9.091934132825914,0.0915643404579804,-0.07134782264426887,-0.0024708822410836628
780,-1.3536443935569238,-0.3393831504767554,8.963656671644177,0.049478983219115084,-0.0503908115765008,-0.01840995213902199
800,-1.3180831792169665,-0.3603638860885144,8.916802383712437,0.004520656619535153,-0.03081758226901265,-0.034320462705477714
820,-1.2819324975950737,-0.365489827193145,8.963778884901155,-0.045268392840351175,-0.007230936571282452,-0.05180404191874951
840,-1.2517786231825934,-0.3530354997367307,9.094033667919117,-0.08349019667950264,0.015129122352207555,-0.06658460023442021
860,-1.2189241047525983,-0.31983239599438357,9.266632863140407,-0.11241232634049837,0.034857821431831415,-0.08229763766995915
880,-1.193034733905878,-0.2569167073994671,9.452965329138383,-0.13598944605009197,0.050842568515768044,-0.09967859933178311
900,-1.1828828553217225,-0.17444475363920026,9.678691703276883,-0.15509810431513327,0.06457801721756029,-0.11771197819547982
920,-1.2014952248910789,-0.09187823288836895,9.954996542374449,-0.16453688182034518,0.07518113296240045,-0.13419399438597007
940,-1.2452747538460749,-0.013311136861099528,10.24009422932998,-0.16059613476476242,0.07949739169095377,-0.1476786038443293
960,-1.3083443213887607,0.05562237087843625,10.492080302041034,-0.1461052153252478,0.07624858471647641,-0.1562298973083909
980,-1.3847116404224509,0.11620280458189455,10.698759689172844,-0.12375540515913823,0.06755587190266031,-0.15935113473025
1000,-1.4653344759176379,0.16619000635076017,10.847815209111204,-0.0950506046993915,0.05456615140400579,-0.15701223352188853
1020,-1.5361121107277742,0.19965702800341215,10.933167926790171,-0.06248615264136017,0.03688421254579947,-0.15126911584164002
1040,-1.6002527387934304,0.2132739852180396,10.957376736044745,-0.027839865332517106,0.013847589877185505,-0.14384680413065742
1060,-1.648277715779841,0.2023764178220788,10.927822407940296,0.006033974977794105,-0.010983151379302442,-0.1347314805725858
1080,-1.681540056605794,0.16888647314971272,10.834274072033006,0.04004798004625056,-0.03575124671552727,-0.12400910615578561
1100,-1.6964546498588167,0.12231481212113332,10.7008105729284,0.06384309519406424,-0.04949586667591759,-0.11446660983331075
1120,-1.6971150534852404,0.06927931133568996,10.544431644100776,0.08068656054067373,-0.05216832944175361,-0.10515890018691942
1140,-1.6905882994010253,0.013259235141362916,10.389197708967519,0.0935817819673251,-0.04716263868179707,-0.09668141549373878
1160,-1.676914577214554,-0.04809079329565043,10.223146326146303,0.10429480930918898,-0.040482575469236295,-0.08914847207298526
1180,-1.650927436922259,-0.11254621209162805,10.039725192251458,0.11039408652299686,-0.03397640216232799,-0.08294194258956446
1200,-1.6201580526195993,-0.1622989425748617,9.855961533655462,0.10921310175206467,-0.027431890230719187,-0.07902706972312046
1220,-1.5875735859176983,-0.19475994375812639,9.686070089106007,0.10011104384782275,-0.02226945690880715,-0.07841685172253886
1240,-1.558535447312101,-0.2113086226392596,9.574373870068706,0.08873319561596901,-0.01978689096086589,-0.08042445196449302
1260,-1.5106748102428786,-0.2315031528907997,9.4306071241059,0.06332771687473542,-0.018059723825229,-0.0866817089079063
1280,-1.4783827785248496,-0.24345420131870604,9.363379351461852,0.03915425699059019,-0.013937561767341343,-0.09174648044717644
1300,-1.4543745429779265,-0.24883040781071722,9.33824896223242,0.016214390915222674,-0.006299406036583437,-0.09618996739200548
1320,-1.4298752330965663,-0.24354218090429874,9.368372925003206,-0.016398821030374666,0.010649182604009226,-0.10339214380969453
1340,-1.4159043053420304,-0.23063474015827998,9.436855505611037,-0.03931552566293823,0.02283943583945847,-0.11061285778131343
1360,-1.4145954188054397,-0.21446351159017446,9.527867976509448,-0.058794983755130724,0.030766545581753818,-0.1181490475529295
1380,-1.4242298882364295,-0.1962902340791607,9.64175769842412,-0.07439838867302741,0.03520277623636188,-0.1252518200436262
1400,-1.4441593458025677,-0.17727310583481323,9.765273964022812,-0.08423387988510987,0.037817624964569085,-0.1311908016892393
1420,-1.4644538519614876,-0.15852318669463258,9.874045641028912,-0.08857544504927142,0.037682018648632555,-0.1354675650661316
1440,-1.4837612607248456,-0.14112379656420695,9.965372772115186,-0.09008313778255217,0.03371260805434095,-0.13873000943350924
1460,-1.5027128804003966,-0.12566056274008225,10.043144998975558,-0.08892029756369171,0.027338117707885322,-0.14119572659996407
1480,-1.5222381730149677,-0.11170182195284958,10.100693477173467,-0.0840535408501165,0.021623044026286006,-0.14204154966231836
1500,-1.5359669756787881,-0.09918107335735869,10.12948436963001,-0.07716728086560601,0.017068223350935018,-0.14156020202416533
1520,-1.546928951454709,-0.09297135619246319,10.139290645007002,-0.06999620351488933,0.01438131251413133,-0.14005331031381665
1540,-1.5532859926268447,-0.09013016846786635,10.140088036709514,-0.06272080744854315,0.01264462559662904,-0.13851203492004277
1560,-1.5580800173520402,-0.09027727147040424,10.128283574368107,-0.05433654898006353,0.010754817373617697,-0.13704272421928182
1580,-1.5619519656174816,-0.09140252414803354,10.106384111712055,-0.04775194116554764,0.009192303511587886,-0.13588153376038486
1600,-1.5646049852501431,-0.09319401110760958,10.082317084011553,-0.04250605755255603,0.0080243411188038,-0.13475028888880355
1620,-1.5662346266564935,-0.09697665364750807,10.060611823175371,-0.03809488538851827,0.007189342021435101,-0.13371288195758754
1640,-1.566742005243127,-0.10113968346212503,10.040884600447802,-0.03408438367478084,0.006270392308752413,-0.13308221199916997
1660,-1.5669908996623503,-0.10479619749273886,10.020635362873401,-0.03050584154244622,0.00656835430803339,-0.13289953666937757
1680,-1.5683410061735843,-0.10586822268737177,10.001908341752971,-0.027715794557331908,0.008081034686890847,-0.13320342058804546
1700,-1.5710984636051313,-0.10505739874045911,9.98686712426294,-0.02603678437332548,0.01046885418895988,-0.13337251751171159
1720,-1.5725004855624072,-0.10410170581929958,9.976794496797744,-0.024755308922480748,0.01287201035839561,-0.13318293528473904
1740,-1.5721823780469104,-0.10309348573445165,9.96865029878433,-0.02396868076371657,0.014524697917438337,-0.13240963443518575
1760,-1.5701549086053597,-0.1006640059039152,9.964099986628733,-0.02344512661931933,0.01513678454025972,-0.1311690038830016
1780,-1.569382668499052,-0.09612977166933898,9.95972205578237,-0.02273334209502746,0.014548702400953606,-0.12950787768452326
1800,-1.5693130504240105,-0.08955488621801887,9.956437843893447,-0.0223194530881844,0.013443002409129207,-0.12733739686736856
1820,-1.5686060495580854,-0.08408608538529917,9.957983707526585,-0.022062819106613705,0.012847206041595005,-0.12548507204460568
1840,-1.5686519788473023,-0.07827547570482728,9.959522169370299,-0.021385107986467606,0.011865125659925573,-0.12351366035005754
1860,-1.567198874892082,-0.07324794614222513,9.960241487501838,-0.020771339404076685,0.010611830624423153,-0.12144301541402945
1880,-1.5649351003805057,-0.06885447875282913,9.964234707361118,-0.01972220960200034,0.008856135562273597,-0.11945216219614276
1900,-1.5622679123773624,-0.0649213688861593,9.965698277115093,-0.018082533468521695,0.0063537546893326444,-0.11774839857321094
1920,-1.56093649907441,-0.060732816415394,9.965301429186088,-0.01639010638619957,0.004046222387299915,-0.11636637207328276
1940,-1.5610756053070187,-0.05612742113452146,9.96527501097487,-0.014648539910764136,0.0024125854218875445,-0.11485102993593531
1960,-1.5600458183907178,-0.05199674342918244,9.964136827848712,-0.0127502530632272,7.218109367772258E-4,-0.11316713404355712
1980,-1.558406746659405,-0.04746278419481292,9.960419481132686,-0.010755177560179022,-0.0010156974471662837,-0.11120943561926439
