0,-1.186732217669487,0.7484436333179474,9.960886597633362,-0.040905363857746124,0.010232761967927217,-0.03417484648525715
20,-1.245973734294667,0.7565444357254926,9.994839612175436,-0.029637842219980323,0.028534161913044313,-0.032142228282549805
40,-1.3055730962753296,0.7830756163597107,10.005242462158202,-0.021930340398102998,0.017159643972991034,-0.02682718550786376
60,-1.3084064794309211,0.776276662494197,10.027439204129307,-0.028144383083351633,-0.016267708376593266,-0.02521895919220917
80,-1.3335001992016304,0.7814773757283281,10.106866045695979,-0.03273887742628775,-0.05342165913458391,-0.028577336882490936
100,-1.413550362295034,0.8155774985040937,10.228102431005361,-0.02603921769139338,-0.07967202278977849,-0.026295422756930396
120,-1.479533879380477,0.8566606996352213,10.350518544514975,-0.00756795851211472,-0.1008712806613307,-0.014365834110465488
140,-1.5063568041874813,0.8897682107411898,10.422388546283429,0.012149929171069884,-0.12118706867286864,0.0013056288473308087
160,-1.5515790132627094,0.9388476928619489,10.518598177661634,0.026356786159377494,-0.13889605279617995,0.01632944942924054
180,-1.6403223246703913,1.0097521006325145,10.66345536267316,0.040558601305590095,-0.15237048694347952,0.032705840959363144
200,-1.731034065900224,1.0878771175159496,10.828341291191872,0.06130392119168105,-0.15722845581110326,0.0529307193080947
220,-1.8084126465099375,1.1657572867944068,10.97412815290628,0.08606221955197565,-0.1547123188607169,0.07689750370732748
240,-1.8853594450723556,1.243996006534213,11.111705035255069,0.11110597499535374,-0.14758806874825886,0.10497341914812014
260,-1.9389909273755235,1.322178004589756,11.243154770505113,0.13868891657227073,-0.13421368036461392,0.138703785305101
280,-1.937649395622191,1.3999478714387925,11.370610948468817,0.17721299160000883,-0.11396550330296197,0.1787590728271142
300,-1.8856542147122897,1.4566877892384162,11.431207664196307,0.21689785299195835,-0.09750132369831241,0.21140445854443196
320,-1.7948762962621623,1.4852245696212933,11.424486650936846,0.25695280486505234,-0.08217796319914286,0.2389255716175219
340,-1.684322152618472,1.4921628518463814,11.361809136116342,0.29186665066533835,-0.06280260699923144,0.2600780086024116
360,-1.567835829450519,1.48820921546453,11.264710488257471,0.32189066527946547,-0.041587324241703895,0.27460575853353486
380,-1.451352319576674,1.4766626633979656,11.123742633395725,0.3488638429898182,-0.024828033990486824,0.2819877362056969
400,-1.3440286548479514,1.453664213769576,10.921965795404772,0.37184146146413266,-0.016454381569843357,0.28291311224319915
420,-1.240377967256341,1.4180130876517028,10.661873940671429,0.3868917296594794,-0.016014975351915862,0.27906635005728164
440,-1.1374797981072178,1.3734536273505098,10.37002298908849,0.392374369997396,-0.019399065196530403,0.27190511108636456
460,-1.044524841682659,1.329285281067042,10.064563866743107,0.38897881168240833,-0.02661959968339868,0.26263289132213086
480,-0.9575123228866772,1.2838249111850861,9.714388423952563,0.3749014999301131,-0.037183456996993706,0.2502870769606986
500,-0.8974399541050054,1.2428449304041704,9.4047313346682,0.35248974398257416,-0.04527090895290363,0.23524334126094718
520,-0.8744118163472714,1.2080304077635073,9.111835811780468,0.3219091065709594,-0.05066372075909643,0.21738056072829182
540,-0.8773368307048791,1.1662163026794987,8.846295180824885,0.2861561332280555,-0.057377560640760134,0.2006290079389867
560,-0.8800366496842387,1.1130700240023115,8.64898908087331,0.2524433225939552,-0.06679322866090617,0.18969023733750048
580,-0.857298747732193,1.0198644116336917,8.447717210883466,0.2061587651360803,-0.08189836827620822,0.1779026619672254
600,-0.8263294748754141,0.9367293932760854,8.313428048118652,0.16272940063724792,-0.09571116197442885,0.16625410828746826
620,-0.7982720571775062,0.8693089039859624,8.20370977495628,0.12017938490412251,-0.10545429837106526,0.1533344687164031
640,-0.7686667428264736,0.8038475277941771,8.121287338296126,0.07910793379327624,-0.11255685775290061,0.14241788449630924
660,-0.7090825684944337,0.7250900182940743,8.06095678286119,0.038735229386948046,-0.1178419651447753,0.1346465972861783
680,-0.6258194688148139,0.6412220785769472,8.019033524257134,-0.009326246872712125,-0.11998066145035294,0.12345450395033711
700,-0.5714302783371094,0.5686649052343008,8.030081099660945,-0.06782302735301368,-0.11553696534507171,0.1051848167697563
720,-0.5430307777629544,0.501309545536836,8.134748064279556,-0.13607727441897927,-0.10060498514998471,0.07959560627583415
740,-0.5169665360998652,0.4429697701102727,8.293750824479314,-0.1895835546095547,-0.07990536499360663,0.056761990844078555
760,-0.4874471219851859,0.38735653148799004,8.492678994996638,-0.2364381664322801,-0.0557551072672624,0.033899569953202355
780,-0.49491158152217574,0.34869711974888673,8.726874972199216,-0.27787852502265586,-0.03120942173942846,0.010500860019632971
800,-0.5387639886873539,0.3267614757081112,8.996645987392908,-0.31222806057397623,-0.010310887026755526,-0.010550922883887696
820,-0.5832436276408022,0.3102818396161584,9.301086933121962,-0.3346750795289956,0.0030011138562900564,-0.026449669329175616
840,-0.6260085745323878,0.30105672272901723,9.614806331094654,-0.34294719971554494,0.007110078022838704,-0.03749872251793785
860,-0.6672861967839195,0.3031352755613625,9.874213949055738,-0.3385722803709451,0.005554069112904344,-0.04294084260292666
880,-0.7034251567636423,0.31318171786343946,10.15352784375568,-0.31946132277812717,9.449646861137628E-4,-0.045301275861265325
900,-0.7129947641408771,0.31894965971925204,10.349935728696085,-0.29355726001492544,-0.0041745072569459,-0.045335615796077075
920,-0.7051568016532417,0.3135837042740987,10.491837318006315,-0.26337972788207575,-0.008812106345660715,-0.045529701169825305
940,-0.6885557939735308,0.303093440287036,10.601418627598852,-0.23256319794850663,-0.011542510033717748,-0.047183267120511956
960,-0.679423519073882,0.29118842439081594,10.693157879692135,-0.20118674939713496,-0.011955398633547545,-0.05069207144322607
980,-0.6822908227021496,0.27643849036000945,10.78067528495082,-0.16891976633071115,-0.011836442142672546,-0.05460509267004004
1000,-0.6866573433687158,0.2648091460848746,10.845994311729875,-0.13067762069285738,-0.012908159257445515,-0.05812978044661894
1020,-0.7004152386960288,0.25495297073623313,10.895553044921712,-0.09562462103700226,-0.015816080205393025,-0.06033407155349143
1040,-0.7230726130988389,0.23844123389767288,10.934889244032906,-0.061191131210764374,-0.020446858584345154,-0.061960766053951774
1060,-0.7524636471644044,0.21156189619143678,10.965726206177159,-0.02598046686141208,-0.025411469129340943,-0.06329754160427291
1080,-0.7960184095218108,0.18418508462838076,10.97156881455625,0.012347340826834604,-0.030566230077843256,-0.06355569984742931
1100,-0.837040853086308,0.15046856421915605,10.923880189459846,0.05019854496836572,-0.036040986179403454,-0.06168126572996674
1120,-0.8692414598264722,0.11638444858762777,10.828398116757192,0.0833114824965374,-0.03991038305034665,-0.05770207582639607
1140,-0.8903651413446201,0.08686414687757267,10.69861911126037,0.10958685775993388,-0.040622333041404675,-0.05188142411263862
1160,-0.8991516226808887,0.06696013162357721,10.546330900062305,0.12840951436401327,-0.04122107174981872,-0.045215315881538626
1180,-0.8930805956522367,0.05519903181888854,10.383442213056014,0.14024928203740725,-0.04598204487815893,-0.03936544893232664
1200,-0.8746766806919475,0.05184684396695029,10.196451886990655,0.14441184350407232,-0.058690863948559054,-0.035576137633964056
1220,-0.8533426291620975,0.05181257805018964,10.041420404046061,0.13891640597925636,-0.07409880800499438,-0.035131626026853324
1240,-0.8370546621233955,0.046688796388094915,9.926060273469078,0.1268111902273114,-0.0880708941099275,-0.03548016507525508
1260,-0.8283346439495999,0.04538516151362807,9.855052700244666,0.1134902100911648,-0.09781820468410614,-0.03360720617790135
1280,-0.8226179875622928,0.043000028000325825,9.83677317300765,0.10876528888734348,-0.10003670535660117,-0.03235752374691721
1300,-0.8019548290311481,0.053470833204365735,9.786256552509936,0.09612788685553006,-0.09155555609104613,-0.026468788224799134
1320,-0.7821992684853335,0.07119659981707531,9.760686009448722,0.09173791972440032,-0.07830775277290666,-0.02314803529723214
1340,-0.7642812436463481,0.09465117732062936,9.72831720339981,0.0873226499966007,-0.06669654150964396,-0.02112957183948972
1360,-0.7487226217955111,0.11937327385048872,9.701288865765683,0.0804614984836366,-0.05937386844621172,-0.01996887249264559
1380,-0.7355333760877669,0.14473366164585885,9.695724994352238,0.071620454097063,-0.055735327261090754,-0.019227644978189847
1400,-0.7229370903337329,0.16989618535753898,9.709468027323693,0.06320401277244643,-0.054249863629929077,-0.01886154839425033
1420,-0.712217931477257,0.19349454334197738,9.734627276236557,0.056941735311979394,-0.053865010892187044,-0.018759019980111074
1440,-0.7010315642495168,0.2174159126646199,9.765479818705073,0.0534613949143093,-0.05248953021442094,-0.018256644247960165
1460,-0.6931962470581541,0.2368630453033096,9.785658401606577,0.05192896674013229,-0.049565758376985944,-0.018037948563837995
1480,-0.6898366732989274,0.2570680727095909,9.800783359913595,0.05118981256326921,-0.04604778010548703,-0.017821507579056296
1500,-0.6822028413975263,0.2757349120513574,9.804182291309523,0.05056428989581006,-0.04134214324313519,-0.017705965132974996
1520,-0.6761194302137474,0.29202297374073094,9.805618552808497,0.049486392471299975,-0.03732625390385192,-0.01784065131014183
1540,-0.6732438176766866,0.31059222993485275,9.806989556160712,0.04839012515527891,-0.03365334466451757,-0.017740298498658432
1560,-0.6683941305934193,0.3294482579635506,9.807016969554954,0.04737134700213269,-0.030750382255519782,-0.017405036658322635
1580,-0.6656821930372203,0.3450160914272001,9.8068169499913,0.04642223843738258,-0.028859770649202365,-0.017297888694293623
1600,-0.662773231935922,0.3591505645440166,9.806768076554054,0.04587932149861861,-0.027450392697804485,-0.017284434123803642
1620,-0.6605196804339193,0.37002511689829926,9.803006835191947,0.04529969787964707,-0.02556488891192754,-0.017310669221444728
1640,-0.6617892525448906,0.3828533493112856,9.801348381965864,0.04415204828336485,-0.023086138836869097,-0.016961610469350873
1660,-0.661984834925646,0.394913696014598,9.803199849430257,0.04329109036782688,-0.02128785613905234,-0.016239540928505658
1680,-0.6595891015793928,0.40591922472739456,9.803383627215068,0.042919241363864546,-0.019936162323341534,-0.015772305754334647
1700,-0.6586372788216726,0.4202089496050565,9.800158830798477,0.04274109456619253,-0.018980402859095444,-0.015199909206137232
1720,-0.6563580238497465,0.4307492231754096,9.795371396008715,0.042352463978019464,-0.018155457847759956,-0.014621984134103632
1740,-0.655898524708941,0.442974210088043,9.789883617516058,0.04140142661256718,-0.016464373252412526,-0.013793928881402425
1760,-0.6536474253270879,0.4578479220146417,9.78684857941957,0.04028649361910842,-0.013758124867429918,-0.012533712418129046
1780,-0.649339826072689,0.46903564654940555,9.782622201010012,0.039212090830135694,-0.01136029368509688,-0.011800619568880443
1800,-0.6492195314963085,0.4813598991743714,9.779574571653148,0.0376218992316116,-0.009490774054582922,-0.011435174471799932
1820,-0.648805665564523,0.49284611206616885,9.77916777509475,0.036077359768403046,-0.008121785167981782,-0.011048236362365705
1840,-0.6456488806945073,0.5016738087263335,9.777648559186925,0.034419775610582834,-0.0068251292250739,-0.010964886884160458
1860,-0.646396888489835,0.5113366937644682,9.777465983352771,0.03295617678744939,-0.005862735653959374,-0.01085105386844493
1880,-0.6496054138321293,0.5200373511458262,9.775403627417594,0.031580657181166316,-0.004804600690818006,-0.010442154951912622
1900,-0.6526243295052483,0.5296203232617549,9.773673912827118,0.03027948637966417,-0.0038211343233661424,-0.009809689912536978
1920,-0.6525695306945078,0.5388977489308264,9.772315534924594,0.02926371302838765,-0.0037742193841523307,-0.009273695796894441
1940,-0.6510043884316298,0.5478101552065936,9.766358524589114,0.028060751641374716,-0.00394632073544573,-0.009064128701099456
1960,-0.6535443437858932,0.5550884104853545,9.763541238203404,0.026461639791086417,-0.004460376663258201,-0.00884485821624504
1980,-0.6554715761325434,0.5612576070917386,9.764669727105808,0.024816465131939608,-0.0048740673007639825,-0.008543676121692243
