0,-1.5238312482833862,1.8501526862382889,9.836944222450256,-0.09722258429974318,0.15589762665331364,0.2632026709616184
20,-1.591789923608303,1.7543518915772438,10.354867219924927,-0.10943983681499958,0.07893226808846521,0.2596406936645508
40,-1.6494979238510132,1.7355270338058473,10.673165321350098,-0.05876209813868627,0.01883359843850485,0.27045978729923564
60,-1.669328685849905,1.7467177584767342,10.683284372091293,0.003112011283519678,-0.025630096201894048,0.28855264000594616
80,-1.683874051745345,1.748247504234314,10.64393452900212,0.048476687780149824,-0.04375339480806937,0.3119385242462158
100,-1.6845297351175426,1.7543274480469373,10.58334732055664,0.07432167911521938,-0.04081079417694721,0.33103719414496907
120,-1.7114726305007935,1.765171492308901,10.529262559455738,0.09092157277719755,-0.03326507588070327,0.3508767438562293
140,-1.794127631187439,1.7600078160946186,10.492617797851562,0.10305020519030782,-0.03252614758541593,0.3754528692135444
160,-1.9168031134017527,1.7333380473803168,10.476078281663868,0.11149902077238649,-0.030336686902382882,0.4080020307678066
180,-1.9991021965756828,1.7070280681421728,10.476407180597752,0.1180816630051,-0.03434003102643427,0.44566866829071516
200,-2.049813888046179,1.6615516000919128,10.429422410686364,0.130399144155214,-0.050454723403796954,0.48765329932898616
220,-2.047667720883163,1.6106877419137464,10.301152229309082,0.14411129446738621,-0.08157604229582484,0.5290218502590337
240,-1.9987237249101912,1.5633319599287852,10.075094836098808,0.15104173667994994,-0.12933137221345012,0.5657453925836654
260,-1.9042086862681205,1.5162995363536633,9.761763844573707,0.14290461154948725,-0.19170447585674355,0.6073064566181418
280,-1.7997591038707828,1.4472593242516283,9.48309983190943,0.1187805232485054,-0.23399244153897897,0.6484878739861192
300,-1.6738608040846885,1.3767309794059166,9.228452766858615,0.08569891064954821,-0.25323153815350435,0.6871593509071557
320,-1.4676958064791625,1.3215648927118466,9.040539582570394,0.03571836732705866,-0.27026894669435697,0.7347095679977665
340,-1.2111909619455978,1.2937043049972352,8.93877098005112,-0.007128391197997413,-0.28223159993190977,0.7632604308732568
360,-0.9342753934891677,1.3080228661948985,8.896284834131018,-0.046564592012240516,-0.2820808405830304,0.7707389339611128
380,-0.6632726031792476,1.3609329456532444,8.932890962671351,-0.08491368595234773,-0.2633718881146324,0.7560551674277695
400,-0.41659253777059563,1.4096522031461491,9.064811151167925,-0.1193996697992963,-0.22399056183828234,0.726620913044933
420,-0.20642917220784204,1.4449503282817562,9.275857180691837,-0.1450465279997567,-0.17226591721236617,0.6910978644141885
440,-0.056244340099354265,1.4833927508643878,9.544410731202813,-0.15810660315897837,-0.11932361236399776,0.6536020554579615
460,0.07451720203071371,1.5182202300152827,9.824296425298318,-0.15778959784224705,-0.07707612276285498,0.6130816499959466
480,0.18178435471738771,1.5391676687073,10.05317786660525,-0.1452366135401264,-0.05457582315796004,0.5669928967415604
500,0.26222042914568666,1.5558959951003393,10.207733299618676,-0.12607413256940034,-0.04702193803816391,0.5180291534656482
520,0.3215669229345983,1.5638493975820063,10.322906402692404,-0.1036333252216549,-0.046135676984720944,0.46134308250472117
540,0.32407674877309456,1.5654143763271198,10.382104096433665,-0.08415285786531768,-0.04127748776265699,0.4120405356836657
560,0.28167468767137605,1.5615528026793866,10.420455214317808,-0.06111213561504128,-0.029569695030334107,0.36669323835422857
580,0.21819318347675687,1.5485231070606797,10.43199584709764,-0.0304767652223109,-0.016434302603717657,0.32838680700460304
600,0.1401134152447738,1.5123928774044333,10.374996004826519,6.630761767793224E-4,-0.01286417922314416,0.2961678855015388
620,0.05698111965087275,1.4647718158597307,10.284306737907144,0.02275963470116833,-0.01481624845535365,0.26789093602531405
640,-0.035593404518335724,1.4094197198483494,10.193077937494056,0.03936675126918972,-0.0210879466321785,0.2443267347924202
660,-0.13098580467768692,1.3407407012649557,10.09581766648726,0.057335722366855905,-0.02736080972001549,0.22621253607879308
680,-0.21548406668204828,1.2687849250585894,9.962181450200164,0.07411374570472765,-0.029512955814039718,0.21204346937930388
700,-0.2820526588727365,1.2008348623309861,9.810247290175395,0.0833690184155716,-0.029864678041240572,0.19988711468500958
720,-0.3347901055950634,1.1330926009456948,9.672434937595124,0.08620772309084251,-0.03260956567906413,0.18868053894736073
740,-0.3863704998549741,1.0636851703899788,9.545518443328161,0.08534528743566684,-0.0345902821804277,0.17898275204084765
760,-0.43433226719557577,0.994660750013788,9.400558136686493,0.08242671251760449,-0.032883901302566416,0.17053926616680185
780,-0.4512837959574191,0.9495513652405345,9.262575775752833,0.07726757232919709,-0.03003913616029658,0.16439071873326522
800,-0.451273642920788,0.9209571891711149,9.12026358871575,0.06720882169400898,-0.028133625019021214,0.1572245537234661
820,-0.45108081899199853,0.901865776436513,8.991255882207085,0.050876227371319305,-0.02456009864613674,0.14902174219365835
840,-0.45505373393206844,0.8856066860226465,8.8903128497902,0.029799874143537144,-0.020006019054980943,0.14032977884407852
860,-0.46057035203949875,0.867992790483901,8.818502625722564,0.005623665752884765,-0.015631182464817407,0.13147488705947305
880,-0.46730518037361185,0.848771271921418,8.779602411029103,-0.020512979109688394,-0.011968109173592114,0.12241366817449618
900,-0.4755144119988726,0.8276338015485214,8.782536969389966,-0.044557565963865876,-0.009623783120058692,0.11329259171328378
920,-0.47791986817641086,0.807272881682423,8.795684368986832,-0.06576758591798257,-0.005795687094168419,0.10388556539117799
940,-0.4808434035134569,0.7811097288228207,8.812314226455296,-0.08829664200896603,0.004794650115615798,0.09344839297664669
960,-0.48835418327485747,0.7592212245670251,8.855790705391854,-0.11315157708539651,0.02114961750670442,0.08141537816581232
980,-0.5131388876776183,0.7460723296280416,8.939541182895699,-0.13755479100950427,0.041413241489989205,0.06869741087251499
1000,-0.5446379055487799,0.7334211220024447,9.07007271325617,-0.15792525464093277,0.06285925158086689,0.0535646770166382
1020,-0.5738603599356253,0.728575213249295,9.176179221010548,-0.1682758775860184,0.07531403060849023,0.040219480598194975
1040,-0.6091724092939691,0.7309666925092556,9.260965879702624,-0.17759733141759748,0.08155708166908761,0.02887554484688718
1060,-0.6440136575116616,0.7410749778315613,9.36007651257024,-0.18795727578711588,0.08389316409704002,0.02098692412002255
1080,-0.6708530750774433,0.7597648138672197,9.481791227319267,-0.1947190291430079,0.0831302157140813,0.01592307751004197
1100,-0.6905269878659455,0.7850060168474863,9.608237196014944,-0.19585919626934503,0.0794288759327583,0.012003408993181112
1120,-0.7076373871460299,0.8122181778868616,9.729910131648927,-0.19232901064272456,0.07498021765114334,0.00837344717216191
1140,-0.7226218542377991,0.8419438755836711,9.84661510910815,-0.18483877251645042,0.07109671226149844,0.004980889629068246
1160,-0.7303454239229892,0.8662640418890528,9.956051427613264,-0.17379877289629736,0.06739148627499272,0.001778059415968303
1180,-0.735266091953003,0.8831350970754074,10.054796115639283,-0.1587960293587326,0.06284536367801939,-9.896471890016008E-4
1200,-0.740979240880429,0.8929002425486021,10.135130407360457,-0.14110168312668223,0.05792711510703876,-0.0033585381383382344
1220,-0.7448845716832789,0.8995330443395722,10.195785017070657,-0.12170262488770296,0.051151289690870086,-0.005222268219007376
1240,-0.745668232493906,0.8971180029003425,10.23505535032235,-0.09968827214655832,0.0399092465810884,-0.0071319739265805655
1260,-0.745211748249872,0.8926395390939658,10.247567726378275,-0.08083642426368953,0.02648465682260924,-0.010145119454758421
1280,-0.7625451128126012,0.8849005635638328,10.243699312210083,-0.06253573944127742,0.011525223310339661,-0.013939479339828878
1300,-0.7872438528400598,0.8691678756668341,10.231963403216016,-0.04509359285397166,4.59165569433632E-4,-0.017227159480368962
1320,-0.7968324007105699,0.8612793895599798,10.223772389040757,-0.03887410958380364,-0.002483304691606321,-0.01839250672540976
1340,-0.8354612332531675,0.8194189549178224,10.153899104378441,-0.013256788251561706,-0.01406284005566373,-0.022188856569965453
1360,-0.8543095152281011,0.7919960815240846,10.080371519143435,-9.920432521898205E-6,-0.020926110350639945,-0.02384328027214107
1380,-0.8744952994030193,0.7660085244685109,9.995398629259306,0.008243822432291784,-0.025583408889103626,-0.025645732401225176
1400,-0.8948527748423923,0.7401695529377017,9.921314582592103,0.012400808807917569,-0.029279461394310344,-0.027327419244457127
1420,-0.9132679024362406,0.710407267898302,9.866781307659608,0.01625407244132022,-0.032040179349612875,-0.027414397017700643
1440,-0.9223180046983821,0.6805265628314435,9.812979980242455,0.019314029865397014,-0.031927454322172026,-0.025802717848396783
1460,-0.9258633289302397,0.6592311576689378,9.762836949083717,0.020076080424462704,-0.030332966208258212,-0.023432540029433735
1480,-0.9221180729902483,0.6470104120433932,9.716906355868847,0.018807476024044437,-0.027466665667010306,-0.020771885770595522
1500,-0.9175187623513565,0.6440964536354589,9.688891994836665,0.017389719580479895,-0.02517975060054418,-0.019830834913425487
1520,-0.9158524305925037,0.6453307252863896,9.661385980832998,0.015258742427214578,-0.021330733932290822,-0.019778287749051736
1540,-0.9175696010685123,0.6493881294797521,9.641035764606555,0.011967285200912895,-0.014891547904150242,-0.01976275921979308
1560,-0.9162393138118683,0.6545112663843554,9.633840911638382,0.008492189332429635,-0.00853222059587881,-0.01950157661878552
1580,-0.9167705787622141,0.662017483529786,9.633390852620098,0.005287435230812694,-0.0036185171123262255,-0.019736677006972375
1600,-0.9200970724751135,0.6723240618551335,9.634531404043882,0.002170723320948287,-9.789542747814322E-4,-0.020258778932625215
1620,-0.9248749453245717,0.6828587507473679,9.639437448205271,-0.0010491212576924124,5.453014404349293E-4,-0.020957875717642013
1640,-0.9294678017677767,0.6917603132502634,9.647896909002048,-0.0036505762907266337,0.0017648984895716768,-0.0213543646054954
1660,-0.934248132843782,0.7013421714455383,9.65822177993707,-0.006635212332859981,0.0032938729640489394,-0.021167647062330364
1680,-0.937048819947722,0.7072384911914678,9.670280480141896,-0.00922911976702346,0.0043383266059075125,-0.020374170499426764
1700,-0.93914406131953,0.7131231271166006,9.684032722857358,-0.010971643569587776,0.004696585275040162,-0.01953075344995897
1720,-0.9427383283847363,0.718206087612861,9.691911980912492,-0.012402509656025342,0.004889097654137821,-0.018945193902826517
1740,-0.9467233049260183,0.7222988473941767,9.699324234963806,-0.014111316523402693,0.005532749543307381,-0.018541366015475784
1760,-0.9504264029784333,0.7266269724185271,9.705618864969352,-0.014964258469500669,0.006215415476481022,-0.018205047436434158
1780,-0.9526124819665431,0.7309284098094565,9.705626250623347,-0.015189344516509483,0.006865794960913762,-0.01774864234983317
1800,-0.9534130626441607,0.7350953061838442,9.700617006291514,-0.015704254915250376,0.007499931586572115,-0.017514517100933356
1820,-0.9545698436239974,0.7389923215609655,9.697305730594103,-0.01662858871776568,0.008462271889584372,-0.017398436956535725
1840,-0.9575428653154225,0.7403986627648416,9.696479033916555,-0.017380490569887618,0.010079667533067008,-0.017594044856873263
1860,-0.9614869371411929,0.7414476571953855,9.697384071350097,-0.017847443492332547,0.012051974419438538,-0.01797896430208838
1880,-0.9648685892619445,0.744408277179294,9.695862762629986,-0.017971773100953214,0.013430446993766054,-0.018419669501781755
1900,-0.967569416135636,0.7454436884613314,9.690261781830149,-0.018757270320457257,0.014651457650580062,-0.019210265668231474
1920,-0.9719203263675427,0.746483380784678,9.690999976237109,-0.020235328077637397,0.01500308307765167,-0.020255119603647547
1940,-0.9749995083295626,0.7463642270891477,9.692659558444126,-0.021282847381380716,0.013978420578133876,-0.02124082274273423
1960,-0.9778206558118109,0.7452522719703848,9.691530772447585,-0.02208143781659601,0.01321249128657655,-0.021826069892558735
1980,-0.9831007935247201,0.744605387249623,9.692973069708486,-0.023141031182495986,0.012772497230496347,-0.021898493275209818
