0,-1.106978064775467,1.4485078692436217,8.829000473022461,-0.03253441152628511,-0.1713227853178978,0.0698517333716154
20,-1.1671728988488514,1.466816458437178,8.710420343610975,-0.04184955791828947,-0.18082139475478065,0.053955619844297566
40,-1.1991679049455202,1.4445653007580683,8.529954525140615,-0.05071765613348152,-0.157474349754361,0.04939865514349479
60,-1.2714736514231737,1.4268681652405684,8.349883724661435,-0.0659555166014744,-0.11560005806934308,0.04830205917139264
80,-1.3653892832142966,1.4208168813160487,8.2614491440001,-0.08492513106847625,-0.07070602407856356,0.05203645255061842
100,-1.4031941020488738,1.390069396495819,8.216162757873535,-0.10122266232501716,-0.04487589733675122,0.05508716698735952
120,-1.4058765244895015,1.3696208842869462,8.146370230049923,-0.11431917008253392,-0.04035036051485302,0.05461477716292801
140,-1.396659328178926,1.33090515479897,8.049298105817853,-0.1277593676755769,-0.04480649415883377,0.04987479555843906
160,-1.3148657796350685,1.2928574906813133,7.888612096374099,-0.14774420132193514,-0.04108701139134732,0.039861658638393554
180,-1.2102443123826894,1.2479804739719484,7.7038435238163645,-0.18135445292119118,-0.022036368129547776,0.025046968968903145
200,-1.0668481908324692,1.1890474137332705,7.55272102355957,-0.22228168050189398,0.005570291013767322,0.00734438118007448
220,-0.9073214174001193,1.1214557236858778,7.430475093880478,-0.26098363070834274,0.027751221673144977,-0.013663914890921846
240,-0.6833192485027781,1.042527424676396,7.357813683625694,-0.29836119502286695,0.02173399140135707,-0.04468809291024074
260,-0.4558867834508419,0.9553837446738844,7.349086504397185,-0.33325624517570046,-0.011699860818360162,-0.086552251033161
280,-0.24799162842999628,0.8326879649809221,7.369884316514178,-0.3777376839766143,-0.05127701507048393,-0.14028337731109403
300,-0.08234480014852895,0.7000770366089489,7.454983096086342,-0.4361359153977304,-0.06715044534217765,-0.1973318799988914
320,0.05641218684881711,0.5767000508126167,7.7095509638889235,-0.4970277616429216,-0.035183393979351295,-0.2552742358806322
340,0.12206453558843151,0.4749307630165499,8.124362780123342,-0.5293380549149017,0.05050605306161099,-0.3059859876932741
360,0.2035303118488481,0.37362306250199195,8.552197908586072,-0.5299323856815575,0.13858008667105629,-0.35645941159417555
380,0.17282343936935524,0.32877889122425413,8.879909974665729,-0.5345105007733647,0.20040581026828727,-0.4204996123087187
400,0.06692048752604172,0.31488205470711167,9.257185074321011,-0.5413670220905207,0.2444640040201576,-0.48035122297312083
420,-0.0784870705582909,0.30859627239614223,9.691025496861123,-0.5273527919858507,0.2655372262812693,-0.5327164874563004
440,-0.24529099908662352,0.3267728925587978,10.087848339488799,-0.48573847176671464,0.2685151127550532,-0.573927733429613
460,-0.45783977664779035,0.3956914568624022,10.40677578838504,-0.4287876826414021,0.25839778991910267,-0.6054874075462624
480,-0.641560017459971,0.4637885070497207,10.62487064857109,-0.3878616730616355,0.25146241745381964,-0.623311560600996
500,-0.8202942255357245,0.5210523374976134,10.858657524270832,-0.3459794289895931,0.24088237101633875,-0.6352957794267051
520,-1.0136158558286048,0.5650504507971081,11.068300206010992,-0.29547609922116286,0.22462209033864466,-0.6406971487809311
540,-1.216501901530775,0.5897000541975885,11.232495029767355,-0.23822397900349052,0.20616925890933266,-0.6371226038195585
560,-1.4078047179411781,0.5855214108507765,11.335282889463134,-0.17852496461433723,0.18443557914441167,-0.6249703729556779
580,-1.5849140574544913,0.5713103399382996,11.367764385020147,-0.11952301729985772,0.15695180308043225,-0.6058329035314258
600,-1.7471478122419544,0.5559676932910133,11.334829593461658,-0.0640389551916751,0.12396753937863404,-0.5812293589041229
620,-1.9066014349317322,0.535710623066944,11.259097849405729,-0.014259615009471488,0.08732005762509429,-0.5525677260226355
640,-2.048849926496953,0.5080658820224926,11.142310530392091,0.02997409748417367,0.045630200953681525,-0.5189175953768861
660,-2.1649762568995357,0.4757064362883271,11.00299789076266,0.06624002200028306,6.988954838311327E-4,-0.4823916998178955
680,-2.2561084925997217,0.43865965265603607,10.846200613908366,0.0969631762816046,-0.044924994241970946,-0.44397574631025044
700,-2.324084547586714,0.3946469212634292,10.635260435501463,0.12811021986194973,-0.08984742602873784,-0.39844073196904856
720,-2.360582275235673,0.35438333714900666,10.410410366185083,0.15030973007441484,-0.1159016676804057,-0.35662733428675275
740,-2.374247295173144,0.3103139354262658,10.156262909806662,0.16320134189453062,-0.1230247871329387,-0.31514325988114267
760,-2.365478540432848,0.26021850561100274,9.89815528221775,0.16480811095461603,-0.11530985632376622,-0.2751682995750983
780,-2.3268094752270443,0.20822669139991587,9.655304266396337,0.15730889044773694,-0.10692094524032794,-0.23915747889532493
800,-2.2733411294066936,0.1621564938211338,9.434579301075926,0.14436219994596824,-0.10822815190463721,-0.20878759616644713
820,-2.218083169270318,0.12482196040850274,9.233088658962814,0.1283163991094433,-0.11663563671601046,-0.18262917178620167
840,-2.155943147082917,0.08930883913789275,9.048068506583133,0.10953877135686961,-0.12328107552309348,-0.15952885893298938
860,-2.0984263064402366,0.05176462413200519,8.874158244088282,0.08637934104612499,-0.12365633556332324,-0.1403612538660858
880,-2.0563572963138355,0.016338625025922714,8.737189109601744,0.056838096653379196,-0.11363538428375573,-0.12411332709638223
900,-2.024555685725213,-0.015179161085989375,8.657963876349067,0.023407643022335285,-0.09317744695319327,-0.10983753835048336
920,-1.9886583502177062,-0.03974098357643316,8.628922580967455,-0.009591904529333702,-0.06903378628536551,-0.09912079165437872
940,-1.970008047662962,-0.06751499144861904,8.645443628612572,-0.04471642940890235,-0.0418795655003916,-0.09026441283237475
960,-1.9661426259012864,-0.09814766602913601,8.710361467158403,-0.07453965392354502,-0.01571119810927229,-0.08289606172366808
980,-1.9655796353420785,-0.115786813157083,8.805095025103109,-0.10203179321079767,0.007783402305720328,-0.07634809744897587
1000,-1.9528434725167851,-0.11556259175348613,8.908478014349964,-0.12603242558951305,0.01994764734428502,-0.0719650097794219
1020,-1.9433938464816325,-0.11326967448468421,9.02938293697317,-0.1470329416910257,0.022833227650019654,-0.06762062717158507
1040,-1.9394534811832358,-0.1115299393628659,9.179363907976509,-0.16433495228059677,0.02592234613027337,-0.060467542305068914
1060,-1.9185310248987213,-0.09518836221028307,9.34252320978361,-0.17498545151695047,0.03041625711599101,-0.05175289046869839
1080,-1.8744948737828622,-0.06280751219081938,9.482645270735183,-0.17863776571912934,0.028148372388223496,-0.04385484225062378
1100,-1.8227471015005812,-0.03473306207769932,9.602319508067861,-0.1787848980058321,0.02241266017681242,-0.036420504669228054
1120,-1.7736416399999002,-0.015500237093835231,9.721830521503593,-0.1769428222013831,0.022000154933904285,-0.027343681086161177
1140,-1.7273391183644058,-0.0011618410663164042,9.831637131596143,-0.16996065829632842,0.02766916679931765,-0.017006290700048842
1160,-1.6717938524164322,0.012305789598883383,9.907444649347724,-0.1584474885311157,0.032322729491554666,-0.007373724253575423
1180,-1.60916795674329,0.022120734320062327,9.957321171580912,-0.14350028811510293,0.03310912108006724,3.7785968695455506E-4
1200,-1.5601690133657269,0.023669566378712353,9.977293745374702,-0.1297725447016119,0.0335551751250721,0.005251655633551905
1220,-1.5208707988858372,0.02080762448441052,9.97833744023147,-0.1168033779968154,0.03451226044549916,0.008330167128628576
1240,-1.4910707960976926,0.013010907632985869,9.968952851460193,-0.10436328628497771,0.03516524470431289,0.010206371374472013
1260,-1.467404073059401,0.0022796511583690585,9.948034763048172,-0.09258482240271433,0.03529317535079571,0.011156513658935394
1280,-1.4483915332588146,-0.007116890638762735,9.918689768216211,-0.0823474736319611,0.035910437426103926,0.010939775182347766
1300,-1.435364366122565,-0.01274061033188879,9.886614182451305,-0.07407093310998492,0.03717030064141917,0.009978855584930873
1320,-1.4229768782349828,-0.017219442497719332,9.852802019037176,-0.06717317737681829,0.03755828936654615,0.009095295724282334
1340,-1.4094712291125837,-0.020577175269738353,9.819102360580468,-0.06140661754513568,0.03753867908507694,0.008080793084059512
1360,-1.397166195505487,-0.019537191668088833,9.78906648929859,-0.05694755502353374,0.03727189417468627,0.006192044852291482
1380,-1.3915951127823725,-0.01503751409524227,9.762691389052344,-0.053953886817651266,0.036977880285326815,0.00343975334344481
1400,-1.3896445408997977,-0.009521765964834587,9.742623311487716,-0.05300268099076398,0.036994953282663355,4.78741697481145E-4
1420,-1.3894729010942894,-0.0022758856818309984,9.732562819792127,-0.05258189072620002,0.03716138909821675,-0.0023827350212781854
1440,-1.38890910650937,0.00350352462595077,9.7254950635228,-0.05169045658289719,0.036908801892521395,-0.004232419035680643
1460,-1.3885525506626193,0.00847836877219379,9.722526317188361,-0.0506608140852768,0.03575074279574134,-0.005414248988187561
1480,-1.3914591379748584,0.016079719965713786,9.721416204137649,-0.04989742632537136,0.03396087284952381,-0.006442332576721367
1500,-1.3946401511588098,0.025287674089845318,9.72404409746576,-0.0494841679756064,0.03181196623922147,-0.007159238654739139
1520,-1.394837941677393,0.034082970895374626,9.729153153748484,-0.048630817180263616,0.028884214759996096,-0.007914952215147562
1540,-1.3947048200356267,0.044057749639135564,9.731025403576956,-0.04750494257719374,0.026167955490207163,-0.008511633545166188
1560,-1.394275649068004,0.053843034387682565,9.730845021222922,-0.046606951939247666,0.024044744745060596,-0.008678943361883285
1580,-1.3927926218703413,0.06277316831983626,9.733308046457594,-0.045971969160252035,0.02241370937814663,-0.008687592971707798
1600,-1.391389577298868,0.07177756958720614,9.736718658039136,-0.045365464796060864,0.020753440519999968,-0.008490610954340366
1620,-1.3883178571522439,0.07901400565842998,9.739138134047586,-0.0449893552287838,0.018689585360575675,-0.008044091733565262
1640,-1.3841716595606635,0.08436028934582802,9.74232685472747,-0.04441850052491992,0.01684924319756863,-0.007261834469058418
1660,-1.3782089487300768,0.09027219330960345,9.743094610003139,-0.043264185710862775,0.01455718660072414,-0.006300131158517583
1680,-1.3751236386232197,0.09592592383428046,9.74432334476806,-0.04236179375228592,0.013441816203891609,-0.005521090645802644
1700,-1.3720266850547627,0.1031267274000082,9.746630324309336,-0.04111866038511447,0.012423118305578962,-0.004837115418160578
1720,-1.3679129159104422,0.10998745442546429,9.744869468017013,-0.03980703512594725,0.011360299676171247,-0.004283500054573759
1740,-1.3630987198365039,0.11710403105413847,9.742698010479767,-0.038972314072855806,0.010744896976405894,-0.003995551111184447
1760,-1.3591354414833587,0.12365077740038731,9.743218894597742,-0.038046044238662834,0.010126159885906628,-0.003923055853426002
1780,-1.3553642796464929,0.1288842523319772,9.742696748143867,-0.03692822020802077,0.009762842631410163,-0.004009238028431257
1800,-1.3522144365092812,0.13586293151058773,9.739982648126484,-0.03579780318307674,0.009489797907827733,-0.0040458604267557
1820,-1.3500581009988517,0.14306464887555415,9.736998930992872,-0.03477029927354618,0.009118941301658074,-0.003958754697439555
1840,-1.3468025547488138,0.14888561583540907,9.735897935995558,-0.03378797056773989,0.009474629258373963,-0.0037249569625904164
1860,-1.341827846144457,0.15431983222874093,9.734152883290633,-0.03277450187966098,0.00972975071976402,-0.0035128726813031677
1880,-1.3357304433638884,0.1589981990612366,9.730796808197296,-0.03244653779902955,0.009551116915090106,-0.0033481133001094514
1900,-1.3318156221448167,0.16236262881750083,9.733236654060066,-0.032850565588335774,0.00968075383256745,-0.003097299663565459
1920,-1.3272918476320272,0.16640206348890338,9.738375317162548,-0.03270696019408715,0.00970407151378651,-0.002639487461582698
1940,-1.3223886742767987,0.17218803582708317,9.740363868529926,-0.03210271098227264,0.00936266327705246,-0.0022908530951071746
1960,-1.3175355389893073,0.1785514008769408,9.74007898832885,-0.03155766984648443,0.008569816499963016,-0.002135794545045387
1980,-1.3130266404365776,0.18455252467344205,9.740592162218519,-0.03096815901600043,0.0076624319012662005,-0.0018555726008029816
