0,-2.6458979547023773,2.3303541243076324,10.724898099899292,0.07780776126310229,0.06622256652917713,0.18339568562805653
20,-2.758763238787651,2.3486161530017853,11.24970668554306,0.07131630601361394,-0.002353833813685924,0.17683765292167664
40,-2.9285102585951486,2.2978217601776123,11.647778908411661,0.11515859762827556,-0.015159200690201638,0.1925835907459259
60,-3.0469140335917473,2.2715264409780502,11.809392809867859,0.18055584747344255,0.024410936073763878,0.22715474665164948
80,-3.1291807744561173,2.2638192932780195,11.772514599125559,0.25166346895985486,0.08086345510176815,0.27739065304035093
100,-3.0739343798890406,2.2738023144858226,11.63236598579251,0.30181494111917456,0.12381206454390813,0.32029711470312
120,-2.9480590715742947,2.2930001961557487,11.46012692702444,0.34050524809904265,0.1497897560791962,0.3569251643983941
140,-2.7643685029103207,2.29302864074707,11.231978856600248,0.37148273587226865,0.160252637828951,0.3844551370694087
160,-2.578878396177945,2.265557341379662,10.93887491095556,0.3935619972340048,0.16516082540986907,0.40562280726759403
180,-2.4158947379500777,2.226008125293402,10.602958920561237,0.4045200969701932,0.16866549758461913,0.4215176421918987
200,-2.26326663976305,2.1873256838723516,10.25434386328365,0.4079724171858155,0.17665697568098837,0.43351365274257875
220,-2.0925558102653197,2.1428759159501065,9.861406960438208,0.4060945384895679,0.1904137308220859,0.4394785405434284
240,-1.9136891131599745,2.0963036605290006,9.40220844405038,0.39215081745669955,0.20487434254526826,0.4383356676215217
260,-1.7122482809740884,2.0382252921045354,8.9118468930236,0.359564319405441,0.21864022526208032,0.4298977661976772
280,-1.4920774352821438,1.964668253729166,8.442384856791536,0.3087709627560655,0.23096879319843935,0.4119802016980392
300,-1.2824040476519327,1.8556243646030242,7.9880168942304755,0.23724712295672643,0.23594787167250894,0.3792640199311651
320,-1.163424171777307,1.722366219629412,7.640286208926767,0.1658869914987219,0.2262090746067849,0.34582825430223474
340,-1.0919320989042929,1.5514149782184052,7.358090892229995,0.0855290998085976,0.2050863528621785,0.3209342799366337
360,-0.9903484428532763,1.4088663854240593,7.21126325613533,0.012669096795196821,0.18664618593441273,0.3091608611562478
380,-0.7622667412607023,1.2766341690296008,7.119417642369682,-0.07495741691888759,0.16434196978096022,0.2905131240984724
400,-0.5060535593506168,1.2254611046875223,7.089821671037113,-0.14911086750764618,0.13891753201297594,0.25296628029250046
420,-0.2858953791973966,1.1558257108868173,7.086432552069761,-0.2280564152326937,0.10769918525174228,0.18889820350731693
440,-0.16131616419842165,1.034931764347098,7.170920578382349,-0.3156687346392221,0.08473601614617021,0.11041346778191867
460,-0.11241777990128576,0.8906263231501444,7.381672752272222,-0.40151889344494907,0.0820617473461622,0.030535765923559666
480,-0.12451731041073799,0.7543363342670226,7.704351346091468,-0.46914381363041846,0.09916167083630882,-0.04423846133827868
500,-0.13884271188151268,0.6235946844198874,8.048452083269755,-0.5125734935093317,0.11732007950527727,-0.11510372749928917
520,-0.18391114258027952,0.483354514498913,8.38234898475332,-0.5379923717311045,0.12314861483787562,-0.18435703196622635
540,-0.2997467313372091,0.34357453825255846,8.772039006985231,-0.5493183512679641,0.1181417140221974,-0.2533823106569209
560,-0.43715733216798053,0.25485047648878806,9.10743416015138,-0.5442135694714144,0.10739661627771095,-0.30268964075503196
580,-0.5670775754277598,0.18127243719044536,9.408662165143362,-0.5281851030752032,0.08842043751690713,-0.3431347448440123
600,-0.697742697281904,0.122231882540472,9.693570031587821,-0.5045671302739873,0.06312913968403122,-0.3753591687362864
620,-0.825236850292296,0.08448224076030338,9.958380670621128,-0.4744433775619679,0.03799770911818399,-0.3991005394722849
640,-0.9493068555153711,0.06273695973030637,10.201689278141837,-0.43961750423145035,0.016411046255318872,-0.4153807109033459
660,-1.0582503228025002,0.04901516883210703,10.41392856684598,-0.39770888339558785,-0.001395956536712633,-0.4252362760020928
680,-1.147927824936226,0.03680856759719392,10.55407016243495,-0.3549876150737867,-0.013903973836919081,-0.430006369994623
700,-1.2667431794747044,0.025151824533836947,10.661837293520007,-0.29698055276096735,-0.027139355369109046,-0.43091928574202193
720,-1.369951241416078,0.01733385745348739,10.705753770560325,-0.2461307308960544,-0.03728200264884794,-0.42746711569062645
740,-1.4745207636917452,0.008612712026127775,10.707922131696819,-0.19671832709588377,-0.047138937073797654,-0.420050047683842
760,-1.5925364837852083,-0.0023798583594115473,10.660065630568734,-0.14416226678781352,-0.05835031023778794,-0.4053032132531693
780,-1.674037171245175,-0.010277078282261043,10.590435718235216,-0.10727142448170866,-0.0673981489216831,-0.38906778014861854
800,-1.760209590219051,-0.014485537680426994,10.473262136959168,-0.06567629498670842,-0.07791307661805094,-0.36307230055702466
820,-1.8165096938829213,-0.011355208079604542,10.347766843262841,-0.03413025009418454,-0.08432048273337868,-0.33728996167123754
840,-1.8588793569126691,-0.0064968322243156105,10.202012814324478,-0.008750230674738943,-0.08834103018633524,-0.31049514452969634
860,-1.8866296327055505,-0.008113462841556816,10.048789245359014,0.009296516269141955,-0.0910048985739665,-0.2833411035813349
880,-1.9073041608905072,-0.018936444020185333,9.903195620893122,0.020974920754279983,-0.0922127768797429,-0.2560329704397041
900,-1.91816608209203,-0.034998188003076504,9.765924319144219,0.029023980580380446,-0.09173360136597322,-0.22742957984577986
920,-1.9089567096805886,-0.04810207649624269,9.630928569718412,0.03511521369096284,-0.08943702353235015,-0.19839340874091968
940,-1.89434885332081,-0.054316064919504324,9.524037543973774,0.03720080387935817,-0.08691742095246596,-0.1809827431673547
960,-1.86696619655222,-0.059488414878477204,9.338943590720495,0.03331617419396273,-0.07971521666566865,-0.1456483230959022
980,-1.8468921280622776,-0.06433354508786435,9.199483818346911,0.021816128580185522,-0.07136323668294942,-0.12191827833366645
1000,-1.8291788130311422,-0.0665373637869918,9.091692165263648,0.004933466493983943,-0.05830791972515974,-0.09890423312068926
1020,-1.8075441343621128,-0.06954680619805696,9.016085614476886,-0.014235524734526517,-0.04246157851400009,-0.07736675897391425
1040,-1.7921461936643468,-0.07958403837901896,8.961973199220461,-0.03373949366260459,-0.028530492857898253,-0.05760262017225342
1060,-1.7822892169555482,-0.10013045294495893,8.915512640361655,-0.057083188642447207,-0.0196255799781188,-0.03606503262681124
1080,-1.7711412448729023,-0.11567137330728636,8.898924173933736,-0.08029635070477811,-0.014789492964843979,-0.01711498648137524
1100,-1.7507963678069725,-0.13033559183830654,8.917625608296847,-0.10368786647681467,-0.007506911527076592,1.4633385805828418E-4
1120,-1.7420261092564806,-0.14410640705586966,8.956916231912542,-0.12547840146396366,0.002897789639823842,0.01528461065563553
1140,-1.743329180344971,-0.15909262438977895,9.006928362571863,-0.14484474791197985,0.013187160686294892,0.031170451038602446
1160,-1.732628507449817,-0.18416043880748986,9.06096680159339,-0.16384399672032995,0.02614294501586253,0.04810569669457789
1180,-1.705807062018586,-0.21366537903656357,9.141617092643816,-0.18369685482790635,0.04076231539731884,0.0637464528058454
1200,-1.6710824474237074,-0.23254523179012127,9.260340967236377,-0.20075218368068518,0.054513961559045365,0.07765443569982451
1220,-1.6377345095016806,-0.24688302050948796,9.3889263099777,-0.21025462360019068,0.06590959524790183,0.09030388796631388
1240,-1.6047758672048575,-0.25998642429088553,9.509552230086982,-0.21495620220370007,0.0744184398171081,0.10342061681599886
1260,-1.5679148666760219,-0.26211131755873907,9.613331371292645,-0.21614461341013405,0.07655812463236336,0.11365190480429406
1280,-1.520655342256438,-0.26321538864057725,9.7115951382162,-0.21354617231734407,0.07446583878028051,0.1221907765307099
1300,-1.4714031910291814,-0.27291562562208443,9.798114996277883,-0.2085569265563641,0.07181483891425038,0.12914022656631993
1320,-1.4258585942735573,-0.2858380800735109,9.876124146239784,-0.2015696950823866,0.07083999398957021,0.13450872352195567
1340,-1.3818044054398144,-0.2990900505723601,9.946917135065252,-0.19136622958731922,0.07174125785568983,0.1377842013791881
1360,-1.3392022737997875,-0.3155245204175752,9.997361319894004,-0.17730595955398187,0.072248227317341,0.13818900759655675
1380,-1.3025098524011949,-0.3336863206097257,10.0194334360399,-0.1613451177040411,0.07001183109159266,0.1357620547051696
1400,-1.2744091459369864,-0.35279390102135544,10.017816330913051,-0.14517219098713183,0.06480806622906095,0.13178903895887817
1420,-1.2581260405853711,-0.3701498711280064,9.996951840587498,-0.13042860648585194,0.0569496638517822,0.1272214633009406
1440,-1.2464900031220167,-0.38457520170200427,9.966821407867691,-0.11799690752621676,0.0481713987339359,0.12259900631319921
1460,-1.2332508840627756,-0.3963076615858711,9.93535043403855,-0.10710471329188916,0.041110110704815885,0.11766913337134648
1480,-1.2201342741081176,-0.4055356126097591,9.897136494983755,-0.09603064043425895,0.03572702740061694,0.11156002416918315
1500,-1.2126198641448547,-0.41024544249190303,9.85893668042935,-0.08797704968904334,0.03298940174783224,0.1058386935769179
1520,-1.211864561731232,-0.4100288971944639,9.82137193113422,-0.08237452940330699,0.03139589823392649,0.10000952493016688
1540,-1.2120317626669235,-0.4068420972430078,9.79314036603586,-0.07806458926527937,0.030083371319408823,0.09443620983924475
1560,-1.2109729049527647,-0.4035926651200848,9.770300788312264,-0.07365001338287745,0.028694515166522175,0.08915415003528478
1580,-1.2117540801132538,-0.400393976061281,9.746730416782857,-0.06993239674820828,0.027314484507076506,0.0842546226738893
1600,-1.2153536317720726,-0.3943701472375115,9.726397753853835,-0.06781159963117528,0.026090141370597487,0.08005864084022873
1620,-1.2199789344805094,-0.38473479631097024,9.710890652727038,-0.06703861726154356,0.025210264777054597,0.07627080583897157
1640,-1.2233446230466483,-0.37528636833255896,9.702684951787912,-0.06670080573123154,0.02520231035756275,0.07283921102991803
1660,-1.2272870754624206,-0.3657572381733334,9.698108177999684,-0.06596383199567903,0.02660025317513004,0.06997169126977318
1680,-1.2296595606211371,-0.35587830135932264,9.694335235778942,-0.06526262937135671,0.02892933830727648,0.06766559750389367
1700,-1.2292894915530204,-0.34456578693989154,9.690221843445043,-0.0649569263146594,0.031177214595485853,0.06524322432392149
1720,-1.2257941864590975,-0.3320163991659435,9.688242222097786,-0.0655144576463003,0.03295453550336705,0.06191258562797553
1740,-1.222247144545486,-0.32284326302384686,9.690774161494181,-0.06619769602818114,0.03396119710309444,0.05863794364856577
1760,-1.220195979110819,-0.315909740963899,9.695298909478717,-0.06628577402516385,0.03515336295507344,0.05538724686355433
1780,-1.2207428271617422,-0.30895095148026575,9.699697893399458,-0.0655093154615555,0.036522722642585395,0.05251528178009072
1800,-1.223614232921492,-0.3015837343953773,9.70020696585593,-0.06433072276123984,0.037781984599148374,0.04990693518471823
1820,-1.2285549407355458,-0.29353154464049,9.698432396176042,-0.06333497491634203,0.03812787706172907,0.04768900904348821
1840,-1.2319828161525173,-0.28655518010194275,9.697912200334224,-0.06284700673263324,0.03715536989925858,0.04564363969752486
1860,-1.2342544642552782,-0.2806647861805303,9.698701310785193,-0.06245060806066153,0.03524319690132918,0.04373033643381572
1880,-1.2360546681090152,-0.27520896032001474,9.699318056926131,-0.061966066816012244,0.033024095035898426,0.04191168260513223
1900,-1.2395461193056652,-0.26898909793547404,9.700829475810847,-0.06144690686291067,0.03092145170728717,0.040162120346872845
1920,-1.2451474948492784,-0.26300614695326063,9.704118533402074,-0.061044328262550136,0.028999637050405074,0.038703041907865554
1940,-1.2506961914918837,-0.2576823382005754,9.708883393292476,-0.06028268913154295,0.028091121733737193,0.037859873292318574
1960,-1.25432052406844,-0.2532979925889778,9.713171037990652,-0.05865946167723314,0.029040892882352246,0.03768733267575856
1980,-1.2551323949619528,-0.24959124114401224,9.714927886118847,-0.05674639492756451,0.030381664008144474,0.037998420273256575
