0,-2.2644910514354706,0.6143225282430649,10.052496075630188,0.02728625145391561,0.04829887393862009,0.07323102839291096
20,-2.3812130479251636,0.7621797673842486,10.358319002039293,-0.0036808305337805956,0.04001565967850825,0.06706267770598917
40,-2.506723337173462,0.9097242498397827,10.697882041931152,-0.009281615111976862,0.04215496145188809,0.06890871807932854
60,-2.647295027068167,1.0469864534609246,10.997349507880934,0.008073157588527962,0.04487106299987345,0.08285270687757117
80,-2.8007710038161857,1.1883970586265005,11.279841446295016,0.02981463032661051,0.04834596635546626,0.10545040567110224
100,-2.9164496246649296,1.3225396117385553,11.55357465938646,0.05869660567378207,0.05359937984268276,0.1332893895403463
120,-2.960412343343099,1.4094480401591252,11.785261321486088,0.09621657139474624,0.05924703576193567,0.16608775139116405
140,-2.9074801445007323,1.4521188222444974,11.943262789799617,0.14563406106227866,0.0634225561355169,0.1989496515920529
160,-2.7923304283455628,1.475069622470908,12.007053584268649,0.2008413651715709,0.0669382656733059,0.22471838827206664
180,-2.674652782882132,1.5250433538018204,11.987073223765304,0.26023003637858827,0.06445484347471105,0.24892984298852885
200,-2.5455022186375738,1.556063089477882,11.926175149639,0.30337901226652975,0.053323720343766756,0.262717194813356
220,-2.3481945591617603,1.5782690571278941,11.777777837247264,0.356774996410181,0.033636542058511805,0.26453432459764337
240,-2.20373740196228,1.5702204863230387,11.597551799955822,0.39347661816559376,0.01779997311754241,0.2535758688336327
260,-2.0625741039974645,1.5255854835635738,11.303148060514216,0.42624765135788995,0.0028020379300997184,0.23041010419266267
280,-1.9706300098876484,1.4930787926814595,11.010533422720236,0.44157480678643235,-0.006277372982337704,0.20984792611638053
300,-1.8968187063932418,1.465641471514335,10.709790846017691,0.4463459292104324,-0.012018651413158155,0.1918943240092351
320,-1.8401387107113134,1.4462794596734254,10.403097501699476,0.44530317012855003,-0.01715602899692359,0.17720721270619094
340,-1.792852644438613,1.4163096191948408,10.0751914014555,0.43934751310615405,-0.020318565926871784,0.16418072216416876
360,-1.7463114608030814,1.3646946241716287,9.725054956101753,0.4268719695550813,-0.016563797771761365,0.15301951366875852
380,-1.699015102820632,1.293694983638915,9.374934727762952,0.40339774632378034,-0.011220288925723713,0.14095183390618107
400,-1.6633270493325065,1.1859855414970832,9.052638830858118,0.3660661495208521,-0.016333635039079714,0.12533596765030833
420,-1.6462665319107892,1.047996002783099,8.77780075019665,0.31520456254346235,-0.034255282908908266,0.10635402373802126
440,-1.64134409959941,0.8899995383213867,8.540435065560162,0.24853893503656282,-0.061067549598946134,0.08924850727864765
460,-1.607660002127672,0.7635568198294211,8.381291349117573,0.19010735210270072,-0.08060103499879821,0.07785690077222311
480,-1.5613168411947824,0.6526959366509186,8.260528875689202,0.13563575748620288,-0.09215087136896007,0.06857535230188534
500,-1.499690922197855,0.5565526136395773,8.183135072201914,0.08151327414985446,-0.1071869222275136,0.06044694747758138
520,-1.4211762190613573,0.46830835419634703,8.153806047352482,0.02418967505457671,-0.1286445357836783,0.051516367233098916
540,-1.3369062920695884,0.39265660578918354,8.184678885380077,-0.03542407406165802,-0.14485659970315215,0.04120439272948299
560,-1.242291590222653,0.3292285656516856,8.269340321358214,-0.09419747379588637,-0.1434283319563466,0.030350190733975553
580,-1.1379792898464105,0.28265173578397235,8.409219448458511,-0.14814973482478855,-0.12566360803091048,0.016747463341235135
600,-1.024724895943446,0.2510476704701722,8.606402842647052,-0.195965693449134,-0.10508642309490013,-0.003069407718471322
620,-0.9340206695051727,0.22437357176167164,8.85881696520625,-0.2359991199408863,-0.09263265693315725,-0.030622219530196722
640,-0.9004915028336119,0.2075683632900429,9.160205563355921,-0.26459874076880374,-0.0882802964345123,-0.06140339825204696
660,-0.9072438519367058,0.19814448184468716,9.529835176640663,-0.2796404779959551,-0.08718908181333024,-0.0934884773189391
680,-0.923292765124,0.19285408510454657,9.822407113368435,-0.2780781880912927,-0.08803412926386607,-0.11544123706621753
700,-0.9478700318029278,0.18397359258163568,10.157114206111594,-0.25850136292785764,-0.08880154413413512,-0.14099991304978524
720,-0.9794193305447698,0.1761936064933737,10.38555554787318,-0.23119429310628523,-0.08968886288503806,-0.1621494355176886
740,-1.0209315525512996,0.17360781487561278,10.571849916662488,-0.19909230552389975,-0.09350971478436675,-0.1814445663945048
760,-1.0690276266158194,0.1671814610945839,10.714635692819764,-0.16239101619347693,-0.09827316295402715,-0.1997694709232148
780,-1.151427867040498,0.16617296292320077,10.824808654225903,-0.12193415691518443,-0.10356416100245198,-0.2147646498877877
800,-1.2538216377844114,0.168300622614123,10.898147267749511,-0.07687019494345344,-0.10872209904692977,-0.22444722724023713
820,-1.3574407779009026,0.16538314592942377,10.915992288729724,-0.029305522060295675,-0.11463991261142141,-0.22819900805240168
840,-1.437232013909553,0.157672122017823,10.877683631990148,0.014812625169850373,-0.12327634224175722,-0.22615351355581106
860,-1.4881952363014053,0.14590782151437165,10.801874906159519,0.05186398896216048,-0.132699102309815,-0.22010197471094767
880,-1.5199426273293384,0.12896259192883927,10.706395714492588,0.08210967022255268,-0.14198864388515006,-0.21235424742245904
900,-1.5415943070985778,0.10520059012893027,10.593184697371656,0.10734754047351538,-0.150560807136278,-0.20401490959889626
920,-1.5589000520020175,0.0752953908728861,10.439419103732572,0.1311563890087577,-0.15482218264360129,-0.19320607329584324
940,-1.5635106865326207,0.04926721309610956,10.279978366621355,0.14746112090710234,-0.15023414792186535,-0.1814679761960681
960,-1.5588983737157485,0.02277983089214571,10.101203417898125,0.15763885743320175,-0.13833526262581836,-0.16762028814244181
980,-1.5389272601976072,-0.007711374774621225,9.915298474276508,0.1602351535215146,-0.12305046303059768,-0.152268048674788
1000,-1.490920021345266,-0.03979328312272923,9.73599255525171,0.15546230680577583,-0.10993378277141917,-0.1383307967605588
1020,-1.4307881450444249,-0.07012117151148847,9.581409716053983,0.1457102644288218,-0.10252426063526873,-0.12894137451013732
1040,-1.385772878169527,-0.09497453437006592,9.445801100322416,0.13463588674728583,-0.09997619120708053,-0.1234331568941856
1060,-1.3620811001540458,-0.11250563877692246,9.317174417817075,0.12254337588904822,-0.09586257630856856,-0.11871165543095608
1080,-1.3453121324352335,-0.12469172117436368,9.195971190058783,0.10879342449787126,-0.08821871195386133,-0.11303600194665153
1100,-1.3150614014442261,-0.13213318258741866,9.08756097111744,0.0912151547286569,-0.07747972296205478,-0.1077759823747489
1120,-1.2775689358227036,-0.13626155310255877,9.000442206019176,0.07019157627791392,-0.06459471585083583,-0.10721492083286645
1140,-1.263490062539882,-0.14623888180630798,8.922711875654281,0.04398909300823319,-0.048116905084672444,-0.11352935929168412
1160,-1.287578590962428,-0.16668936031652326,8.878838817507154,0.01870036924113695,-0.03545728857457544,-0.12197568003774063
1180,-1.327432241674068,-0.1938586078800736,8.866845616649208,-0.008541711555303309,-0.025621158121644286,-0.1274983069280722
1200,-1.3387816919809958,-0.20266078398534398,8.87529624075246,-0.018688213841033554,-0.022907659823764383,-0.1281421097502082
1220,-1.3319171747541523,-0.23762220887567448,8.976180524049527,-0.05042730122563462,-0.019273632809898234,-0.1280344826135918
1240,-1.3093431464451202,-0.2544825783665931,9.037827292669053,-0.058742360382651286,-0.022687807261907295,-0.13227268582684737
1260,-1.3181947649071806,-0.2660043834030815,9.079898555363927,-0.06457442815350836,-0.02895993401986838,-0.14024824625722576
1280,-1.3482776703348405,-0.27077381880582085,9.115581317602908,-0.07061489860477642,-0.03552833855941807,-0.14920241034062076
1300,-1.3850927790312955,-0.27165981335827055,9.148069014765797,-0.07889316925056948,-0.03896547254603984,-0.15726588311699335
1320,-1.414634697977797,-0.2728289729886348,9.203892532804796,-0.09021817988241813,-0.037593930273237756,-0.16327722537987677
1340,-1.4380220443416725,-0.2804089007704434,9.291326256719502,-0.1029520535392856,-0.03395260033367033,-0.1675496907904744
1360,-1.472215994698493,-0.29166875529690484,9.408409707488552,-0.11359690251846975,-0.028693694715625124,-0.16949371090592769
1380,-1.5264907300130006,-0.29948747527700037,9.538347646172813,-0.11979460741834248,-0.022059872878926013,-0.16728538702745582
1400,-1.5850198293639266,-0.29373354087462245,9.681394113509551,-0.12085819846990964,-0.016753393205125696,-0.1596641598722857
1420,-1.6167820366818337,-0.2730158082286206,9.790158316825307,-0.11637602503751732,-0.017091293896725767,-0.1490971514680399
1440,-1.6241475113631303,-0.2511326023645371,9.871144335937581,-0.11079221510118765,-0.01935861160657203,-0.13575651471592903
1460,-1.6186094465035827,-0.23076954006119468,9.950798780621591,-0.1069012108159396,-0.02019955178579698,-0.1210702889690639
1480,-1.605785573632902,-0.21765432769675483,10.028982670049462,-0.10305074968824021,-0.01959601775650857,-0.1081318555433586
1500,-1.5764837046767153,-0.2051149356633243,10.122497899018652,-0.09531321544094006,-0.019695047785889007,-0.09346428825535147
1520,-1.534265724155771,-0.19942094667636778,10.182523993054707,-0.08355415015769928,-0.02239358647506726,-0.07763828771460927
1540,-1.4801221344259858,-0.19708241008682598,10.22223984123032,-0.0738665511139422,-0.025771825253319957,-0.06614300529671782
1560,-1.422026978674489,-0.19585188930484004,10.255968806562663,-0.0649349819613746,-0.030762563684754107,-0.05849560532217528
1580,-1.3608893943544609,-0.20231438075642819,10.276085295715877,-0.055494077838352744,-0.037726659609157435,-0.05507857632467745
1600,-1.3040680802334812,-0.21863787034171,10.2806382223395,-0.047065256252344555,-0.046777211913824765,-0.055965415577453964
1620,-1.2579741291701794,-0.23949473984904734,10.275407272631227,-0.04036704546436218,-0.0560905663893582,-0.0603407628140321
1640,-1.2265209182930579,-0.25655222352499896,10.264170262829534,-0.0354808563196067,-0.06513770254969131,-0.06760866776069936
1660,-1.213156808649131,-0.2669441632045891,10.254930859330125,-0.032246453378250786,-0.07001512494303055,-0.07269256863885715
1680,-1.1995108963459393,-0.2750890978220227,10.243816205724706,-0.02773954787696922,-0.07145166300234468,-0.07714747172391268
1700,-1.1860027115440115,-0.2780769216525636,10.227566577280047,-0.02111123622215792,-0.06887867992901746,-0.08186281917900404
1720,-1.181030449312609,-0.2762233309741449,10.208220051813193,-0.014371735552479302,-0.06678518213381969,-0.08727863761305343
1740,-1.1891003381075034,-0.27490250762484003,10.183906030160992,-0.006879256850532308,-0.066418914593301,-0.09274331413423957
1760,-1.202047048946972,-0.27659815757199085,10.153013790357445,0.0018012357248355531,-0.06692779319580748,-0.09651306942234644
1780,-1.2107087446838505,-0.27876317923105637,10.111957115827353,0.010860162366892898,-0.06772545906062657,-0.09882156759792181
1800,-1.2155375470357956,-0.2806338234235148,10.061776848631384,0.018303732994473135,-0.06808677075605374,-0.10087073602556737
1820,-1.223829280728379,-0.2834557254425681,10.014130765431991,0.023186086566232507,-0.06712090211009146,-0.10290518831787131
1840,-1.2366327184699526,-0.2848289850740099,9.975473335488363,0.02650336318765767,-0.06453377329447169,-0.10422631430543682
1860,-1.2429742773391463,-0.2842488622576801,9.932653110107204,0.030401712334280375,-0.06141198170952665,-0.10421166606320854
1880,-1.241630570131747,-0.2836351909439448,9.894792836198272,0.03261642055137296,-0.05986451366334222,-0.10369632616857416
1900,-1.2373220104576739,-0.28229174906198545,9.846822679157883,0.03293554257407324,-0.058840162259798635,-0.10299314101714463
1920,-1.2344388850395134,-0.2809098708817059,9.811263514514183,0.030815954684950173,-0.05765668125407901,-0.10267361021559139
1940,-1.2353408594667432,-0.27946526818752554,9.785343485288932,0.027419306401839812,-0.055388827634385754,-0.10253314495034994
1960,-1.2376779748920987,-0.2762614793525532,9.766483410504575,0.02400007177802377,-0.051834361598630446,-0.10219200800629925
1980,-1.2383938984529832,-0.27209081014673536,9.751341670088479,0.020682697057176028,-0.048577336238740915,-0.10155607829370038
