0,-0.7552295260959201,1.4151904980341594,9.652461263868544,-0.10850841303666432,0.07634300159083472,-0.053838027434216604
20,-0.7478096660445718,1.4663155499626608,9.71927132326014,-0.12559796080869787,0.05895072703852373,-0.05699871940647855
40,-0.688232843875885,1.4785893297195434,9.824945259094239,-0.12755305528640748,0.04310212736018002,-0.05615517646074295
60,-0.6723473306858179,1.4969598524498218,9.910446022496078,-0.12002196795109546,0.02557628238432561,-0.05827080277782498
80,-0.7062387175676299,1.5165731703362815,9.968538982112234,-0.104764205653493,0.008264365884270973,-0.05819676062319337
100,-0.7381450533866882,1.5241905021667481,10.00370958328247,-0.08452704320894554,-0.004184931381605566,-0.05532415986061096
120,-0.7644241986603573,1.528435464563041,10.00267559906532,-0.07131813395294714,-0.007092364401363864,-0.05366710740430602
140,-0.7965980470180511,1.5473278399669763,10.003198667006059,-0.07009981614431705,-0.016913220296952535,-0.052540887485850944
160,-0.8128826102694949,1.573463172525973,10.086463361173063,-0.07059886041758079,-0.026971504303022614,-0.05612796675917264
180,-0.8491804992280355,1.627503464861614,10.252319661582389,-0.058230347910089554,-0.03732114004414165,-0.06022978946566582
200,-0.9043061931927999,1.7294702900780572,10.454739708370633,-0.03208763332545964,-0.04210833295300189,-0.057376520128713714
220,-0.952875671338062,1.8327765537767995,10.67445588598446,8.09109046323491E-4,-0.03705919536581377,-0.04522235478673663
240,-0.9811898391201811,1.9020070984678448,10.874699628578043,0.035689649171028986,-0.022667254152145447,-0.02831020009405208
260,-1.026581048965454,1.946310605919152,11.015661724826746,0.06948719946402043,-3.0137175947362395E-4,-0.011711235239840391
280,-1.0614648510198124,1.9674497354226035,11.128556900337093,0.10263746636289889,0.012534498964192071,0.0037280564181140213
300,-1.0904708642226,1.956952118873596,11.191152990781344,0.13879580636634134,0.01744814955880149,0.017271224695902605
320,-1.1123651352481565,1.9361824661061384,11.192412701205932,0.17789451498453895,0.012845423946535026,0.0298578553441642
340,-1.1193271920289078,1.8908187873559454,11.097700785284173,0.21609028358545077,0.0072550067569652245,0.04187867045402527
360,-1.0783150999296096,1.8298259027542607,10.873265540215277,0.2516879335639157,0.008998595418468598,0.05248549186414288
380,-1.0178098793547212,1.7775159818263142,10.607262801538948,0.269926492432618,7.326243890940778E-4,0.055943249833364427
400,-0.9726020685146557,1.7427339348179556,10.293290182860972,0.27375321596662094,-0.016160414123918578,0.05421214403682634
420,-0.9311408193329318,1.7147270171335955,9.950543929744699,0.26419285939181714,-0.03362340440547,0.0501868559162044
440,-0.9040622790543272,1.686375588019264,9.594807277388751,0.24243091883942147,-0.043758915129670485,0.046981643703591855
460,-0.8670462373954554,1.6407726801358737,9.238413643225645,0.20910325952483197,-0.04304930813706074,0.04809015965184722
480,-0.8085963837091302,1.5713452446673597,8.911573114653526,0.16486620536392893,-0.032553741547825005,0.05164589977644274
500,-0.7285173009414562,1.4868645101114755,8.635737059240657,0.11298012945710535,-0.015048891071989355,0.05547203171901158
520,-0.6283262943079244,1.3965698500508315,8.427888186010597,0.06060187552989669,0.0037040228245261053,0.055706069199793616
540,-0.5244143441963596,1.3104872181847496,8.249798123006778,0.009918696427049059,0.007425144597855171,0.04992387221719955
560,-0.42378598599238915,1.2282272169723156,8.100323306246008,-0.04815674449188357,-0.01075008706130246,0.03716236705931419
580,-0.3231009614860846,1.1407389815728115,8.026962520163735,-0.11497007978461116,-0.04094795684556289,0.01839362236157581
600,-0.2421060731534713,1.0437153415340517,8.044509808695505,-0.19042588805545135,-0.06413042040852208,-0.005624702663183035
620,-0.17947908750412842,0.9670352342753457,8.13468419634379,-0.2540509591850703,-0.07078680076206532,-0.025279067017030542
640,-0.12051953415824239,0.8990975185366932,8.309270403723218,-0.3132236529834075,-0.06076075344819075,-0.043758049514318414
660,-0.07754310076226197,0.8297354607721386,8.5707686746466,-0.36544025213958736,-0.032534850973878864,-0.06400070211637522
680,-0.06537391730866224,0.7666255444104613,8.900921808581957,-0.4049138876934975,0.005595587223479656,-0.08826608065610857
700,-0.08418658164119322,0.7076462803867786,9.26145890681711,-0.4270245007224132,0.035259692767022614,-0.11438487216667591
720,-0.1348875068888689,0.6441804471239447,9.631268094778061,-0.43145671049482187,0.05051060341609021,-0.13940716039777423
740,-0.21454088324711162,0.584415894691143,9.992986140700129,-0.4191367003489165,0.05703857209980972,-0.16067394799652643
760,-0.31124644483810976,0.5385459339529087,10.310953641616845,-0.3916401893705059,0.060407666445273574,-0.1759000068944525
780,-0.4066802483342335,0.5050830295263433,10.55999638158598,-0.3524306698394709,0.058662166474760725,-0.1862462618435664
800,-0.49018549481659274,0.4762337836717446,10.73783968191549,-0.3059982630909499,0.05173863721969369,-0.1937580204839504
820,-0.5741284713381901,0.44984104060293995,10.850072917166878,-0.25693528849001535,0.043925266143838494,-0.19916643089792854
840,-0.6737073573876269,0.4296075045571457,10.915470115434816,-0.20207261752716152,0.03432528918040623,-0.2014181954355211
860,-0.7544244750929835,0.4062677841080504,10.932600465141425,-0.15353612459449917,0.02195832066574455,-0.19955524536441877
880,-0.763716902085658,0.4023766782883992,10.93179282962277,-0.1474659261800994,0.02011525556093925,-0.19907251529346154
900,-0.8736235423690213,0.3379481858786086,10.841310000291779,-0.06000883381529124,-0.011749694957185646,-0.18620039153427145
920,-0.9037961759017854,0.30128215465528446,10.72869474712632,-0.020606464480252794,-0.027516170201353787,-0.17692883545716154
940,-0.9211036180825976,0.2703232183420413,10.579916111607785,0.011298486808492086,-0.038692127002862814,-0.1668501330287002
960,-0.9262874176929838,0.24523311828073086,10.405618271839709,0.0359285023070459,-0.044009505275529,-0.15583464070059058
980,-0.9163285987992069,0.22635005260875196,10.213794813627079,0.05360421763135143,-0.04394962397162561,-0.14398127148836207
1000,-0.8906109576591585,0.21460071754287793,10.023406524716293,0.06573309026293223,-0.0425559301921516,-0.13315056096908995
1020,-0.8663599530418543,0.211478526488327,9.823699246472602,0.07225306466942975,-0.03862667419547281,-0.12257580981465972
1040,-0.8247800017511667,0.1987810462554765,9.623177719777907,0.07137968589927315,-0.03328207266757955,-0.11263507745545662
1060,-0.7658704105247934,0.17323975296814387,9.424970936174738,0.06218676679750658,-0.026097156681528646,-0.10493917231071638
1080,-0.7339500077580406,0.15845793536905983,9.270616219207778,0.04989292745628799,-0.016742018168382847,-0.10081222314531643
1100,-0.7165645526707713,0.14734118531400642,9.130511190159664,0.03399889383543004,-0.005679903441162099,-0.09757804473716404
1120,-0.7011912459783756,0.1374388750414747,9.011515386975109,0.01454412068635451,0.004551789013757592,-0.09589121259927338
1140,-0.6865655005859964,0.1274558101354682,8.922426525860073,-0.007254900998297207,0.0071313079169138946,-0.09622914396211545
1160,-0.6801855759588011,0.10622262765622258,8.860430250380764,-0.02984748741077984,-1.3040437140973543E-5,-0.09733242617757352
1180,-0.68575424320877,0.0789370868966336,8.824750449700058,-0.05195383320623863,-0.00949986106160369,-0.09744262111822619
1200,-0.7076749707230928,0.04941303585655987,8.811548732816872,-0.07190370503228595,-0.014308381286498747,-0.09500253182078942
1220,-0.7229333362918703,0.015906364656057194,8.811095936624593,-0.08977261474411712,-0.014159341684108474,-0.09066459429343658
1240,-0.7320119219384722,-0.020409325193431156,8.821092115452185,-0.10589243025409387,-0.014240563281026542,-0.08637293246688832
1260,-0.740264504314598,-0.0572123040982727,8.833784867229092,-0.12141665267671771,-0.0187345711104428,-0.08304465567521413
1280,-0.758164864955045,-0.09116555814553377,8.859368860742835,-0.13758860084497346,-0.022851890781646445,-0.08067934943505602
1300,-0.7955852325561796,-0.12435300162619102,8.914612254716246,-0.15745890890552758,-0.023788588582842708,-0.07738736500619763
1320,-0.8119072455022669,-0.14723857454218067,8.995931920226711,-0.17442587696609274,-0.021790620898330518,-0.07375812574789703
1340,-0.8151166280570694,-0.1670678616831587,9.080268417508766,-0.18854314319874074,-0.0202251728200777,-0.07167110214539042
1360,-0.8163632222447937,-0.17830257186139659,9.218349164861632,-0.2071172866198919,-0.019718501472176964,-0.0700499522591373
1380,-0.8162159332898782,-0.17820297869257432,9.384869652680356,-0.22124883393975503,-0.017304534432783146,-0.06914468711107391
1400,-0.8103663480419504,-0.17732308953109643,9.574388800723398,-0.22897628590545577,-0.010814323226298692,-0.06660002041446127
1420,-0.780546347552345,-0.17171017371044586,9.761179815862794,-0.22871961837672783,-4.3942589705868256E-4,-0.06262413569842665
1440,-0.7394653513480779,-0.14901804125138168,9.921241183993729,-0.22013253788660753,0.010882982840562001,-0.059802227607863606
1460,-0.6804414712062078,-0.12897920477062538,10.045823889919783,-0.20806063035695824,0.02215015509288555,-0.05652573134109552
1480,-0.6242991543614307,-0.11700479809388126,10.13903744631068,-0.19506616665271329,0.03347746975532648,-0.053805054206849126
1500,-0.5719696325143966,-0.11137036050374552,10.220354900339512,-0.18092100502226532,0.0416607340583644,-0.05248107550953462
1520,-0.5181161742276224,-0.11421514212573919,10.281015816908539,-0.16331323572953216,0.04353635543921382,-0.05282830325572678
1540,-0.45705463323532897,-0.12909610611696057,10.301320501349725,-0.14325860348497693,0.03977032695269073,-0.05589676581771125
1560,-0.40869513127327084,-0.14224171335590655,10.291346970031736,-0.1296511241067492,0.034731324492690875,-0.06136276777251624
1580,-0.3758258897887347,-0.14841729742661694,10.280318700070321,-0.11890223767841235,0.029925241064434595,-0.0690585951504792
1600,-0.36257530504159013,-0.15011953905284428,10.272304924358274,-0.11000712744337116,0.026388599500144504,-0.07678512124956109
1620,-0.3648365153713679,-0.15473846783538922,10.256851928617177,-0.09965104428582813,0.02362687818276754,-0.08645441032474838
1640,-0.3767950387867001,-0.16039503571768624,10.240063261257351,-0.09220093469359979,0.02203984659317506,-0.09442397410471347
1660,-0.3939384651815464,-0.1625584362163756,10.222458023024613,-0.08476476571317214,0.018869545035255106,-0.10217155436711277
1680,-0.41866892665627325,-0.16945460204611706,10.192973806257468,-0.077768410381819,0.012743221304230792,-0.10899688409210292
1700,-0.4478273784223912,-0.18204213944116565,10.150106973191402,-0.07099988639699938,-0.002394937205145265,-0.11847086704132714
1720,-0.48556301525373285,-0.2061485943618622,10.114616980453404,-0.06873532080432844,-0.015929735997422704,-0.12713975120145318
1740,-0.5334838962220335,-0.2397979783355991,10.096158173495088,-0.06645207300198819,-0.022793481745313246,-0.13306063530296924
1760,-0.573214685777849,-0.2665191167739168,10.073878360306844,-0.06137368050468568,-0.02274766799675692,-0.13459480458146167
1780,-0.5900684456374184,-0.28891361781570996,10.028949238324158,-0.053600811587955766,-0.01984822199619947,-0.13452852773384302
1800,-0.5992163651284169,-0.30259139639523835,9.980609009853657,-0.04725993569786161,-0.01996552181957189,-0.13518604852026644
1820,-0.6117490965504224,-0.3078805790632813,9.93221393225077,-0.04271676636944781,-0.021519481935932915,-0.13605251013732597
1840,-0.624689823311505,-0.3083563938243426,9.895960314355166,-0.039702509390746814,-0.022040234389053972,-0.13582680825574464
1860,-0.6292386941872439,-0.30524698472379874,9.863037042814195,-0.03698119784077524,-0.02071697128594057,-0.13397435935103408
1880,-0.6266729276977305,-0.3009378000547666,9.834666940898323,-0.035375537256914905,-0.01896618265719247,-0.1315232336202331
1900,-0.6215399611517164,-0.2954104154243672,9.81262661700294,-0.03472493575739661,-0.017461894262400624,-0.12902386977587213
1920,-0.616420086144001,-0.2877196594461751,9.796142864697108,-0.035145395730806,-0.01611379128511903,-0.12681699879334019
1940,-0.61217064368932,-0.2783296728021645,9.787578444326623,-0.03627874314418582,-0.014766693366727437,-0.12471241823501514
1960,-0.6090645570657943,-0.2678235953495827,9.78283892128705,-0.0375450523256251,-0.012489627686477576,-0.1225853756954661
1980,-0.6071034328089924,-0.2580048978675217,9.781461493944466,-0.03922480044769047,-0.009208133278578797,-0.12029366834450061
